%!PS-Adobe-3.0 EPSF-3.0
%%Creator: (MATLAB, The Mathworks, Inc. Version 8.6.0.267246 \(R2015b\). Operating System: Mac OS X)
%%Title: /Users/gauthiermuguerza/Desktop/rsgd/report/images/ADNITest.eps
%%CreationDate: 2018-06-09T16:22:44
%%Pages: (atend)
%%BoundingBox:     6     0   538   410
%%LanguageLevel: 3
%%EndComments
%%BeginProlog
%%BeginResource: procset (Apache XML Graphics Std ProcSet) 1.2 0
%%Version: 1.2 0
%%Copyright: (Copyright 2001-2003,2010 The Apache Software Foundation. License terms: http://www.apache.org/licenses/LICENSE-2.0)
/bd{bind def}bind def
/ld{load def}bd
/GR/grestore ld
/M/moveto ld
/LJ/setlinejoin ld
/C/curveto ld
/f/fill ld
/LW/setlinewidth ld
/GC/setgray ld
/t/show ld
/N/newpath ld
/CT/concat ld
/cp/closepath ld
/S/stroke ld
/L/lineto ld
/CC/setcmykcolor ld
/A/ashow ld
/GS/gsave ld
/RC/setrgbcolor ld
/RM/rmoveto ld
/ML/setmiterlimit ld
/re {4 2 roll M
1 index 0 rlineto
0 exch rlineto
neg 0 rlineto
cp } bd
/_ctm matrix def
/_tm matrix def
/BT { _ctm currentmatrix pop matrix _tm copy pop 0 0 moveto } bd
/ET { _ctm setmatrix } bd
/iTm { _ctm setmatrix _tm concat } bd
/Tm { _tm astore pop iTm 0 0 moveto } bd
/ux 0.0 def
/uy 0.0 def
/F {
  /Tp exch def
  /Tf exch def
  Tf findfont Tp scalefont setfont
  /cf Tf def  /cs Tp def
} bd
/ULS {currentpoint /uy exch def /ux exch def} bd
/ULE {
  /Tcx currentpoint pop def
  gsave
  newpath
  cf findfont cs scalefont dup
  /FontMatrix get 0 get /Ts exch def /FontInfo get dup
  /UnderlinePosition get Ts mul /To exch def
  /UnderlineThickness get Ts mul /Tt exch def
  ux uy To add moveto  Tcx uy To add lineto
  Tt setlinewidth stroke
  grestore
} bd
/OLE {
  /Tcx currentpoint pop def
  gsave
  newpath
  cf findfont cs scalefont dup
  /FontMatrix get 0 get /Ts exch def /FontInfo get dup
  /UnderlinePosition get Ts mul /To exch def
  /UnderlineThickness get Ts mul /Tt exch def
  ux uy To add cs add moveto Tcx uy To add cs add lineto
  Tt setlinewidth stroke
  grestore
} bd
/SOE {
  /Tcx currentpoint pop def
  gsave
  newpath
  cf findfont cs scalefont dup
  /FontMatrix get 0 get /Ts exch def /FontInfo get dup
  /UnderlinePosition get Ts mul /To exch def
  /UnderlineThickness get Ts mul /Tt exch def
  ux uy To add cs 10 mul 26 idiv add moveto Tcx uy To add cs 10 mul 26 idiv add lineto
  Tt setlinewidth stroke
  grestore
} bd
/QT {
/Y22 exch store
/X22 exch store
/Y21 exch store
/X21 exch store
currentpoint
/Y21 load 2 mul add 3 div exch
/X21 load 2 mul add 3 div exch
/X21 load 2 mul /X22 load add 3 div
/Y21 load 2 mul /Y22 load add 3 div
/X22 load /Y22 load curveto
} bd
/SSPD {
dup length /d exch dict def
{
/v exch def
/k exch def
currentpagedevice k known {
/cpdv currentpagedevice k get def
v cpdv ne {
/upd false def
/nullv v type /nulltype eq def
/nullcpdv cpdv type /nulltype eq def
nullv nullcpdv or
{
/upd true def
} {
/sametype v type cpdv type eq def
sametype {
v type /arraytype eq {
/vlen v length def
/cpdvlen cpdv length def
vlen cpdvlen eq {
0 1 vlen 1 sub {
/i exch def
/obj v i get def
/cpdobj cpdv i get def
obj cpdobj ne {
/upd true def
exit
} if
} for
} {
/upd true def
} ifelse
} {
v type /dicttype eq {
v {
/dv exch def
/dk exch def
/cpddv cpdv dk get def
dv cpddv ne {
/upd true def
exit
} if
} forall
} {
/upd true def
} ifelse
} ifelse
} if
} ifelse
upd true eq {
d k v put
} if
} if
} if
} forall
d length 0 gt {
d setpagedevice
} if
} bd
%%EndResource
%%BeginResource: procset (Apache XML Graphics EPS ProcSet) 1.0 0
%%Version: 1.0 0
%%Copyright: (Copyright 2002-2003 The Apache Software Foundation. License terms: http://www.apache.org/licenses/LICENSE-2.0)
/BeginEPSF { %def
/b4_Inc_state save def         % Save state for cleanup
/dict_count countdictstack def % Count objects on dict stack
/op_count count 1 sub def      % Count objects on operand stack
userdict begin                 % Push userdict on dict stack
/showpage { } def              % Redefine showpage, { } = null proc
0 setgray 0 setlinecap         % Prepare graphics state
1 setlinewidth 0 setlinejoin
10 setmiterlimit [ ] 0 setdash newpath
/languagelevel where           % If level not equal to 1 then
{pop languagelevel             % set strokeadjust and
1 ne                           % overprint to their defaults.
{false setstrokeadjust false setoverprint
} if
} if
} bd
/EndEPSF { %def
count op_count sub {pop} repeat            % Clean up stacks
countdictstack dict_count sub {end} repeat
b4_Inc_state restore
} bd
%%EndResource
%FOPBeginFontDict
%%IncludeResource: font Courier-Bold
%%IncludeResource: font Helvetica
%%IncludeResource: font Courier-BoldOblique
%%IncludeResource: font Courier-Oblique
%%IncludeResource: font Times-Roman
%%IncludeResource: font Helvetica-BoldOblique
%%IncludeResource: font Helvetica-Bold
%%IncludeResource: font Helvetica-Oblique
%%IncludeResource: font Times-BoldItalic
%%IncludeResource: font Courier
%%IncludeResource: font Times-Italic
%%IncludeResource: font Times-Bold
%%IncludeResource: font Symbol
%%IncludeResource: font ZapfDingbats
%FOPEndFontDict
%%BeginResource: encoding WinAnsiEncoding
/WinAnsiEncoding [
/.notdef /.notdef /.notdef /.notdef /.notdef
/.notdef /.notdef /.notdef /.notdef /.notdef
/.notdef /.notdef /.notdef /.notdef /.notdef
/.notdef /.notdef /.notdef /.notdef /.notdef
/.notdef /.notdef /.notdef /.notdef /.notdef
/.notdef /.notdef /.notdef /.notdef /.notdef
/.notdef /.notdef /space /exclam /quotedbl
/numbersign /dollar /percent /ampersand /quotesingle
/parenleft /parenright /asterisk /plus /comma
/hyphen /period /slash /zero /one
/two /three /four /five /six
/seven /eight /nine /colon /semicolon
/less /equal /greater /question /at
/A /B /C /D /E
/F /G /H /I /J
/K /L /M /N /O
/P /Q /R /S /T
/U /V /W /X /Y
/Z /bracketleft /backslash /bracketright /asciicircum
/underscore /quoteleft /a /b /c
/d /e /f /g /h
/i /j /k /l /m
/n /o /p /q /r
/s /t /u /v /w
/x /y /z /braceleft /bar
/braceright /asciitilde /bullet /Euro /bullet
/quotesinglbase /florin /quotedblbase /ellipsis /dagger
/daggerdbl /circumflex /perthousand /Scaron /guilsinglleft
/OE /bullet /Zcaron /bullet /bullet
/quoteleft /quoteright /quotedblleft /quotedblright /bullet
/endash /emdash /asciitilde /trademark /scaron
/guilsinglright /oe /bullet /zcaron /Ydieresis
/space /exclamdown /cent /sterling /currency
/yen /brokenbar /section /dieresis /copyright
/ordfeminine /guillemotleft /logicalnot /sfthyphen /registered
/macron /degree /plusminus /twosuperior /threesuperior
/acute /mu /paragraph /middot /cedilla
/onesuperior /ordmasculine /guillemotright /onequarter /onehalf
/threequarters /questiondown /Agrave /Aacute /Acircumflex
/Atilde /Adieresis /Aring /AE /Ccedilla
/Egrave /Eacute /Ecircumflex /Edieresis /Igrave
/Iacute /Icircumflex /Idieresis /Eth /Ntilde
/Ograve /Oacute /Ocircumflex /Otilde /Odieresis
/multiply /Oslash /Ugrave /Uacute /Ucircumflex
/Udieresis /Yacute /Thorn /germandbls /agrave
/aacute /acircumflex /atilde /adieresis /aring
/ae /ccedilla /egrave /eacute /ecircumflex
/edieresis /igrave /iacute /icircumflex /idieresis
/eth /ntilde /ograve /oacute /ocircumflex
/otilde /odieresis /divide /oslash /ugrave
/uacute /ucircumflex /udieresis /yacute /thorn
/ydieresis
] def
%%EndResource
%FOPBeginFontReencode
/Courier-Bold findfont
dup length dict begin
  {1 index /FID ne {def} {pop pop} ifelse} forall
  /Encoding WinAnsiEncoding def
  currentdict
end
/Courier-Bold exch definefont pop
/Helvetica findfont
dup length dict begin
  {1 index /FID ne {def} {pop pop} ifelse} forall
  /Encoding WinAnsiEncoding def
  currentdict
end
/Helvetica exch definefont pop
/Courier-BoldOblique findfont
dup length dict begin
  {1 index /FID ne {def} {pop pop} ifelse} forall
  /Encoding WinAnsiEncoding def
  currentdict
end
/Courier-BoldOblique exch definefont pop
/Courier-Oblique findfont
dup length dict begin
  {1 index /FID ne {def} {pop pop} ifelse} forall
  /Encoding WinAnsiEncoding def
  currentdict
end
/Courier-Oblique exch definefont pop
/Times-Roman findfont
dup length dict begin
  {1 index /FID ne {def} {pop pop} ifelse} forall
  /Encoding WinAnsiEncoding def
  currentdict
end
/Times-Roman exch definefont pop
/Helvetica-BoldOblique findfont
dup length dict begin
  {1 index /FID ne {def} {pop pop} ifelse} forall
  /Encoding WinAnsiEncoding def
  currentdict
end
/Helvetica-BoldOblique exch definefont pop
/Helvetica-Bold findfont
dup length dict begin
  {1 index /FID ne {def} {pop pop} ifelse} forall
  /Encoding WinAnsiEncoding def
  currentdict
end
/Helvetica-Bold exch definefont pop
/Helvetica-Oblique findfont
dup length dict begin
  {1 index /FID ne {def} {pop pop} ifelse} forall
  /Encoding WinAnsiEncoding def
  currentdict
end
/Helvetica-Oblique exch definefont pop
/Times-BoldItalic findfont
dup length dict begin
  {1 index /FID ne {def} {pop pop} ifelse} forall
  /Encoding WinAnsiEncoding def
  currentdict
end
/Times-BoldItalic exch definefont pop
/Courier findfont
dup length dict begin
  {1 index /FID ne {def} {pop pop} ifelse} forall
  /Encoding WinAnsiEncoding def
  currentdict
end
/Courier exch definefont pop
/Times-Italic findfont
dup length dict begin
  {1 index /FID ne {def} {pop pop} ifelse} forall
  /Encoding WinAnsiEncoding def
  currentdict
end
/Times-Italic exch definefont pop
/Times-Bold findfont
dup length dict begin
  {1 index /FID ne {def} {pop pop} ifelse} forall
  /Encoding WinAnsiEncoding def
  currentdict
end
/Times-Bold exch definefont pop
%FOPEndFontReencode
%%EndProlog
%%Page: 1 1
%%PageBoundingBox: 0 0 576 432
%%BeginPageSetup
[1 0 0 -1 0 432] CT
%%EndPageSetup
GS
1 GC
N
0 0 576 432 re
f
GR
GS
1 GC
N
0 0 576 432 re
f
GR
GS
1 GC
N
75 384 M
521.5 384 L
521.5 32.5 L
75 32.5 L
cp
f
GR
GS
0.149 GC
2 setlinecap
1 LJ
0.5 LW
N
75 384 M
521.5 384 L
S
GR
GS
0.149 GC
2 setlinecap
1 LJ
0.5 LW
N
75 384 M
75 379.535 L
S
GR
GS
0.149 GC
2 setlinecap
1 LJ
0.5 LW
N
149.417 384 M
149.417 379.535 L
S
GR
GS
0.149 GC
2 setlinecap
1 LJ
0.5 LW
N
223.833 384 M
223.833 379.535 L
S
GR
GS
0.149 GC
2 setlinecap
1 LJ
0.5 LW
N
298.25 384 M
298.25 379.535 L
S
GR
GS
0.149 GC
2 setlinecap
1 LJ
0.5 LW
N
372.667 384 M
372.667 379.535 L
S
GR
GS
0.149 GC
2 setlinecap
1 LJ
0.5 LW
N
447.083 384 M
447.083 379.535 L
S
GR
GS
0.149 GC
2 setlinecap
1 LJ
0.5 LW
N
521.5 384 M
521.5 379.535 L
S
GR
GS
[1 0 0 1 75 390] CT
0.149 GC
/Helvetica 20 F
GS
[1 0 0 1 0 0] CT
-6 16 moveto 
1 -1 scale
(0) t 
GR
GR
GS
[1 0 0 1 149.41667 390] CT
0.149 GC
/Helvetica 20 F
GS
[1 0 0 1 0 0] CT
-11.5 16 moveto 
1 -1 scale
(20) t 
GR
GR
GS
[1 0 0 1 223.83334 390] CT
0.149 GC
/Helvetica 20 F
GS
[1 0 0 1 0 0] CT
-11.5 16 moveto 
1 -1 scale
(40) t 
GR
GR
GS
[1 0 0 1 298.25 390] CT
0.149 GC
/Helvetica 20 F
GS
[1 0 0 1 0 0] CT
-11.5 16 moveto 
1 -1 scale
(60) t 
GR
GR
GS
[1 0 0 1 372.66669 390] CT
0.149 GC
/Helvetica 20 F
GS
[1 0 0 1 0 0] CT
-11.5 16 moveto 
1 -1 scale
(80) t 
GR
GR
GS
[1 0 0 1 447.08331 390] CT
0.149 GC
/Helvetica 20 F
GS
[1 0 0 1 0 0] CT
-17 16 moveto 
1 -1 scale
(100) t 
GR
GR
GS
[1 0 0 1 521.5 390] CT
0.149 GC
/Helvetica 20 F
GS
[1 0 0 1 0 0] CT
-17 16 moveto 
1 -1 scale
(120) t 
GR
GR
GS
[1 0 0 1 298.25021 411.5] CT
0.149 GC
/Helvetica 20 F
GS
[1 0 0 1 0 0] CT
-41.5 16 moveto 
1 -1 scale
(Iterations) t 
GR
GR
GS
0.149 GC
2 setlinecap
1 LJ
0.5 LW
N
75 384 M
75 32.5 L
S
GR
GS
0.149 GC
2 setlinecap
1 LJ
0.5 LW
N
75 349.178 M
79.465 349.178 L
S
GR
GS
0.149 GC
2 setlinecap
1 LJ
0.5 LW
N
75 309.395 M
79.465 309.395 L
S
GR
GS
0.149 GC
2 setlinecap
1 LJ
0.5 LW
N
75 269.674 M
79.465 269.674 L
S
GR
GS
0.149 GC
2 setlinecap
1 LJ
0.5 LW
N
75 230.014 M
79.465 230.014 L
S
GR
GS
0.149 GC
2 setlinecap
1 LJ
0.5 LW
N
75 190.416 M
79.465 190.416 L
S
GR
GS
0.149 GC
2 setlinecap
1 LJ
0.5 LW
N
75 150.878 M
79.465 150.878 L
S
GR
GS
0.149 GC
2 setlinecap
1 LJ
0.5 LW
N
75 111.402 M
79.465 111.402 L
S
GR
GS
0.149 GC
2 setlinecap
1 LJ
0.5 LW
N
75 71.986 M
79.465 71.986 L
S
GR
GS
0.149 GC
2 setlinecap
1 LJ
0.5 LW
N
75 32.631 M
79.465 32.631 L
S
GR
GS
0.149 GC
2 setlinecap
1 LJ
0.5 LW
N
75 381.049 M
77.232 381.049 L
S
GR
GS
0.149 GC
2 setlinecap
1 LJ
0.5 LW
N
75 373.078 M
77.232 373.078 L
S
GR
GS
0.149 GC
2 setlinecap
1 LJ
0.5 LW
N
75 365.109 M
77.232 365.109 L
S
GR
GS
0.149 GC
2 setlinecap
1 LJ
0.5 LW
N
75 357.142 M
77.232 357.142 L
S
GR
GS
0.149 GC
2 setlinecap
1 LJ
0.5 LW
N
75 341.217 M
77.232 341.217 L
S
GR
GS
0.149 GC
2 setlinecap
1 LJ
0.5 LW
N
75 333.258 M
77.232 333.258 L
S
GR
GS
0.149 GC
2 setlinecap
1 LJ
0.5 LW
N
75 325.301 M
77.232 325.301 L
S
GR
GS
0.149 GC
2 setlinecap
1 LJ
0.5 LW
N
75 317.347 M
77.232 317.347 L
S
GR
GS
0.149 GC
2 setlinecap
1 LJ
0.5 LW
N
75 301.446 M
77.232 301.446 L
S
GR
GS
0.149 GC
2 setlinecap
1 LJ
0.5 LW
N
75 293.5 M
77.232 293.5 L
S
GR
GS
0.149 GC
2 setlinecap
1 LJ
0.5 LW
N
75 285.555 M
77.232 285.555 L
S
GR
GS
0.149 GC
2 setlinecap
1 LJ
0.5 LW
N
75 277.614 M
77.232 277.614 L
S
GR
GS
0.149 GC
2 setlinecap
1 LJ
0.5 LW
N
75 261.737 M
77.232 261.737 L
S
GR
GS
0.149 GC
2 setlinecap
1 LJ
0.5 LW
N
75 253.803 M
77.232 253.803 L
S
GR
GS
0.149 GC
2 setlinecap
1 LJ
0.5 LW
N
75 245.871 M
77.232 245.871 L
S
GR
GS
0.149 GC
2 setlinecap
1 LJ
0.5 LW
N
75 237.942 M
77.232 237.942 L
S
GR
GS
0.149 GC
2 setlinecap
1 LJ
0.5 LW
N
75 222.09 M
77.232 222.09 L
S
GR
GS
0.149 GC
2 setlinecap
1 LJ
0.5 LW
N
75 214.168 M
77.232 214.168 L
S
GR
GS
0.149 GC
2 setlinecap
1 LJ
0.5 LW
N
75 206.248 M
77.232 206.248 L
S
GR
GS
0.149 GC
2 setlinecap
1 LJ
0.5 LW
N
75 198.331 M
77.232 198.331 L
S
GR
GS
0.149 GC
2 setlinecap
1 LJ
0.5 LW
N
75 182.504 M
77.232 182.504 L
S
GR
GS
0.149 GC
2 setlinecap
1 LJ
0.5 LW
N
75 174.594 M
77.232 174.594 L
S
GR
GS
0.149 GC
2 setlinecap
1 LJ
0.5 LW
N
75 166.686 M
77.232 166.686 L
S
GR
GS
0.149 GC
2 setlinecap
1 LJ
0.5 LW
N
75 158.781 M
77.232 158.781 L
S
GR
GS
0.149 GC
2 setlinecap
1 LJ
0.5 LW
N
75 142.978 M
77.232 142.978 L
S
GR
GS
0.149 GC
2 setlinecap
1 LJ
0.5 LW
N
75 135.081 M
77.232 135.081 L
S
GR
GS
0.149 GC
2 setlinecap
1 LJ
0.5 LW
N
75 127.185 M
77.232 127.185 L
S
GR
GS
0.149 GC
2 setlinecap
1 LJ
0.5 LW
N
75 119.292 M
77.232 119.292 L
S
GR
GS
0.149 GC
2 setlinecap
1 LJ
0.5 LW
N
75 103.514 M
77.232 103.514 L
S
GR
GS
0.149 GC
2 setlinecap
1 LJ
0.5 LW
N
75 95.628 M
77.232 95.628 L
S
GR
GS
0.149 GC
2 setlinecap
1 LJ
0.5 LW
N
75 87.745 M
77.232 87.745 L
S
GR
GS
0.149 GC
2 setlinecap
1 LJ
0.5 LW
N
75 79.864 M
77.232 79.864 L
S
GR
GS
0.149 GC
2 setlinecap
1 LJ
0.5 LW
N
75 64.11 M
77.232 64.11 L
S
GR
GS
0.149 GC
2 setlinecap
1 LJ
0.5 LW
N
75 56.237 M
77.232 56.237 L
S
GR
GS
0.149 GC
2 setlinecap
1 LJ
0.5 LW
N
75 48.366 M
77.232 48.366 L
S
GR
GS
0.149 GC
2 setlinecap
1 LJ
0.5 LW
N
75 40.497 M
77.232 40.497 L
S
GR
GS
[1 0 0 1 69 349.17828] CT
0.149 GC
/Helvetica 20 F
GS
[1 0 0 1 0 0] CT
-39 5.5 moveto 
1 -1 scale
(6.44) t 
GR
GR
GS
[1 0 0 1 69 309.39545] CT
0.149 GC
/Helvetica 20 F
GS
[1 0 0 1 0 0] CT
-39 5.5 moveto 
1 -1 scale
(6.45) t 
GR
GR
GS
[1 0 0 1 69 269.67422] CT
0.149 GC
/Helvetica 20 F
GS
[1 0 0 1 0 0] CT
-39 5.5 moveto 
1 -1 scale
(6.46) t 
GR
GR
GS
[1 0 0 1 69 230.01447] CT
0.149 GC
/Helvetica 20 F
GS
[1 0 0 1 0 0] CT
-39 5.5 moveto 
1 -1 scale
(6.47) t 
GR
GR
GS
[1 0 0 1 69 190.41595] CT
0.149 GC
/Helvetica 20 F
GS
[1 0 0 1 0 0] CT
-39 5.5 moveto 
1 -1 scale
(6.48) t 
GR
GR
GS
[1 0 0 1 69 150.87849] CT
0.149 GC
/Helvetica 20 F
GS
[1 0 0 1 0 0] CT
-39 5.5 moveto 
1 -1 scale
(6.49) t 
GR
GR
GS
[1 0 0 1 69 111.4019] CT
0.149 GC
/Helvetica 20 F
GS
[1 0 0 1 0 0] CT
-28 5.5 moveto 
1 -1 scale
(6.5) t 
GR
GR
GS
[1 0 0 1 69 71.98602] CT
0.149 GC
/Helvetica 20 F
GS
[1 0 0 1 0 0] CT
-39 5.5 moveto 
1 -1 scale
(6.51) t 
GR
GR
GS
[1 0 0 1 69 32.63063] CT
0.149 GC
/Helvetica 20 F
GS
[1 0 0 1 0 0] CT
-39 5.5 moveto 
1 -1 scale
(6.52) t 
GR
GR
GS
[0 -1 1 0 27 208.24983] CT
0.149 GC
/Helvetica 20 F
GS
[1 0 0 1 0 0] CT
-51.5 -5 moveto 
1 -1 scale
(Test RMSE) t 
GR
GR
GS
0 0.447 0.741 RC
1 LJ
N
78.721 384 M
82.442 202.531 L
86.162 145.544 L
89.883 100.87 L
93.604 115.187 L
97.325 152.967 L
101.046 135.743 L
104.767 123.977 L
108.488 109.448 L
112.208 104.174 L
115.929 96.929 L
119.65 109.303 L
123.371 106.883 L
127.092 114.825 L
130.813 113.412 L
134.533 122.667 L
138.254 111.925 L
141.975 113.863 L
145.696 112.234 L
149.417 115.986 L
153.137 117.663 L
156.858 120.173 L
160.579 116.153 L
164.3 114.693 L
168.021 114.968 L
171.742 115.32 L
175.462 115.41 L
179.183 115.689 L
182.904 116.728 L
186.625 116.629 L
190.346 115.933 L
194.067 115.799 L
197.788 117.034 L
201.508 117.883 L
205.229 117.235 L
208.95 115.55 L
212.671 116.792 L
216.392 116.496 L
220.112 116.774 L
223.833 116.412 L
227.554 116.495 L
231.275 119.468 L
234.996 117.017 L
238.717 118.837 L
242.438 118.347 L
246.158 117.836 L
249.879 117.881 L
253.6 118.478 L
257.321 118.221 L
261.042 118.09 L
S
GR
GS
0 0.447 0.741 RC
1 LJ
N
257.321 118.221 M
261.042 118.09 L
264.763 118.102 L
268.483 118.36 L
272.204 118.162 L
275.925 117.763 L
279.646 117.916 L
283.367 118.08 L
287.087 117.801 L
290.808 118.335 L
294.529 118.844 L
298.25 118.797 L
301.971 118.472 L
305.692 118.78 L
309.412 118.508 L
313.133 118.48 L
316.854 118.585 L
320.575 118.982 L
324.296 118.581 L
328.017 118.566 L
331.737 118.775 L
335.458 118.538 L
339.179 118.723 L
342.9 118.7 L
346.621 118.819 L
350.342 118.642 L
354.063 118.519 L
357.783 118.466 L
361.504 118.52 L
365.225 118.812 L
368.946 118.712 L
372.667 118.726 L
376.388 118.698 L
380.108 118.856 L
383.829 118.806 L
387.55 118.781 L
391.271 118.997 L
394.992 118.884 L
398.713 118.874 L
402.433 118.873 L
406.154 118.863 L
409.875 118.787 L
413.596 119.073 L
417.317 118.97 L
421.037 118.928 L
424.758 118.962 L
428.479 118.832 L
432.2 118.875 L
435.921 118.827 L
439.642 118.856 L
443.362 119.119 L
447.083 119.104 L
S
GR
GS
0 0.447 0.741 RC
1 LJ
N
443.362 119.119 M
447.083 119.104 L
450.804 119.054 L
S
GR
GS
0 0.447 0.741 RC
1 LJ
N
81.5 383.5 M
80.621 381.379 L
78.5 380.5 L
76.379 381.379 L
75.5 383.5 L
76.379 385.621 L
78.5 386.5 L
80.621 385.621 L
cp
S
GR
GS
0 0.447 0.741 RC
1 LJ
N
85.5 202.5 M
84.621 200.379 L
82.5 199.5 L
80.379 200.379 L
79.5 202.5 L
80.379 204.621 L
82.5 205.5 L
84.621 204.621 L
cp
S
GR
GS
0 0.447 0.741 RC
1 LJ
N
89.5 145.5 M
88.621 143.379 L
86.5 142.5 L
84.379 143.379 L
83.5 145.5 L
84.379 147.621 L
86.5 148.5 L
88.621 147.621 L
cp
S
GR
GS
0 0.447 0.741 RC
1 LJ
N
92.5 100.5 M
91.621 98.379 L
89.5 97.5 L
87.379 98.379 L
86.5 100.5 L
87.379 102.621 L
89.5 103.5 L
91.621 102.621 L
cp
S
GR
GS
0 0.447 0.741 RC
1 LJ
N
96.5 115.5 M
95.621 113.379 L
93.5 112.5 L
91.379 113.379 L
90.5 115.5 L
91.379 117.621 L
93.5 118.5 L
95.621 117.621 L
cp
S
GR
GS
0 0.447 0.741 RC
1 LJ
N
100.5 152.5 M
99.621 150.379 L
97.5 149.5 L
95.379 150.379 L
94.5 152.5 L
95.379 154.621 L
97.5 155.5 L
99.621 154.621 L
cp
S
GR
GS
0 0.447 0.741 RC
1 LJ
N
104.5 135.5 M
103.621 133.379 L
101.5 132.5 L
99.379 133.379 L
98.5 135.5 L
99.379 137.621 L
101.5 138.5 L
103.621 137.621 L
cp
S
GR
GS
0 0.447 0.741 RC
1 LJ
N
107.5 123.5 M
106.621 121.379 L
104.5 120.5 L
102.379 121.379 L
101.5 123.5 L
102.379 125.621 L
104.5 126.5 L
106.621 125.621 L
cp
S
GR
GS
0 0.447 0.741 RC
1 LJ
N
111.5 109.5 M
110.621 107.379 L
108.5 106.5 L
106.379 107.379 L
105.5 109.5 L
106.379 111.621 L
108.5 112.5 L
110.621 111.621 L
cp
S
GR
GS
0 0.447 0.741 RC
1 LJ
N
115.5 104.5 M
114.621 102.379 L
112.5 101.5 L
110.379 102.379 L
109.5 104.5 L
110.379 106.621 L
112.5 107.5 L
114.621 106.621 L
cp
S
GR
GS
0 0.447 0.741 RC
1 LJ
N
118.5 96.5 M
117.621 94.379 L
115.5 93.5 L
113.379 94.379 L
112.5 96.5 L
113.379 98.621 L
115.5 99.5 L
117.621 98.621 L
cp
S
GR
GS
0 0.447 0.741 RC
1 LJ
N
122.5 109.5 M
121.621 107.379 L
119.5 106.5 L
117.379 107.379 L
116.5 109.5 L
117.379 111.621 L
119.5 112.5 L
121.621 111.621 L
cp
S
GR
GS
0 0.447 0.741 RC
1 LJ
N
126.5 106.5 M
125.621 104.379 L
123.5 103.5 L
121.379 104.379 L
120.5 106.5 L
121.379 108.621 L
123.5 109.5 L
125.621 108.621 L
cp
S
GR
GS
0 0.447 0.741 RC
1 LJ
N
130.5 114.5 M
129.621 112.379 L
127.5 111.5 L
125.379 112.379 L
124.5 114.5 L
125.379 116.621 L
127.5 117.5 L
129.621 116.621 L
cp
S
GR
GS
0 0.447 0.741 RC
1 LJ
N
133.5 113.5 M
132.621 111.379 L
130.5 110.5 L
128.379 111.379 L
127.5 113.5 L
128.379 115.621 L
130.5 116.5 L
132.621 115.621 L
cp
S
GR
GS
0 0.447 0.741 RC
1 LJ
N
137.5 122.5 M
136.621 120.379 L
134.5 119.5 L
132.379 120.379 L
131.5 122.5 L
132.379 124.621 L
134.5 125.5 L
136.621 124.621 L
cp
S
GR
GS
0 0.447 0.741 RC
1 LJ
N
141.5 111.5 M
140.621 109.379 L
138.5 108.5 L
136.379 109.379 L
135.5 111.5 L
136.379 113.621 L
138.5 114.5 L
140.621 113.621 L
cp
S
GR
GS
0 0.447 0.741 RC
1 LJ
N
144.5 113.5 M
143.621 111.379 L
141.5 110.5 L
139.379 111.379 L
138.5 113.5 L
139.379 115.621 L
141.5 116.5 L
143.621 115.621 L
cp
S
GR
GS
0 0.447 0.741 RC
1 LJ
N
148.5 112.5 M
147.621 110.379 L
145.5 109.5 L
143.379 110.379 L
142.5 112.5 L
143.379 114.621 L
145.5 115.5 L
147.621 114.621 L
cp
S
GR
GS
0 0.447 0.741 RC
1 LJ
N
152.5 115.5 M
151.621 113.379 L
149.5 112.5 L
147.379 113.379 L
146.5 115.5 L
147.379 117.621 L
149.5 118.5 L
151.621 117.621 L
cp
S
GR
GS
0 0.447 0.741 RC
1 LJ
N
156.5 117.5 M
155.621 115.379 L
153.5 114.5 L
151.379 115.379 L
150.5 117.5 L
151.379 119.621 L
153.5 120.5 L
155.621 119.621 L
cp
S
GR
GS
0 0.447 0.741 RC
1 LJ
N
159.5 120.5 M
158.621 118.379 L
156.5 117.5 L
154.379 118.379 L
153.5 120.5 L
154.379 122.621 L
156.5 123.5 L
158.621 122.621 L
cp
S
GR
GS
0 0.447 0.741 RC
1 LJ
N
163.5 116.5 M
162.621 114.379 L
160.5 113.5 L
158.379 114.379 L
157.5 116.5 L
158.379 118.621 L
160.5 119.5 L
162.621 118.621 L
cp
S
GR
GS
0 0.447 0.741 RC
1 LJ
N
167.5 114.5 M
166.621 112.379 L
164.5 111.5 L
162.379 112.379 L
161.5 114.5 L
162.379 116.621 L
164.5 117.5 L
166.621 116.621 L
cp
S
GR
GS
0 0.447 0.741 RC
1 LJ
N
171.5 114.5 M
170.621 112.379 L
168.5 111.5 L
166.379 112.379 L
165.5 114.5 L
166.379 116.621 L
168.5 117.5 L
170.621 116.621 L
cp
S
GR
GS
0 0.447 0.741 RC
1 LJ
N
174.5 115.5 M
173.621 113.379 L
171.5 112.5 L
169.379 113.379 L
168.5 115.5 L
169.379 117.621 L
171.5 118.5 L
173.621 117.621 L
cp
S
GR
GS
0 0.447 0.741 RC
1 LJ
N
178.5 115.5 M
177.621 113.379 L
175.5 112.5 L
173.379 113.379 L
172.5 115.5 L
173.379 117.621 L
175.5 118.5 L
177.621 117.621 L
cp
S
GR
GS
0 0.447 0.741 RC
1 LJ
N
182.5 115.5 M
181.621 113.379 L
179.5 112.5 L
177.379 113.379 L
176.5 115.5 L
177.379 117.621 L
179.5 118.5 L
181.621 117.621 L
cp
S
GR
GS
0 0.447 0.741 RC
1 LJ
N
185.5 116.5 M
184.621 114.379 L
182.5 113.5 L
180.379 114.379 L
179.5 116.5 L
180.379 118.621 L
182.5 119.5 L
184.621 118.621 L
cp
S
GR
GS
0 0.447 0.741 RC
1 LJ
N
189.5 116.5 M
188.621 114.379 L
186.5 113.5 L
184.379 114.379 L
183.5 116.5 L
184.379 118.621 L
186.5 119.5 L
188.621 118.621 L
cp
S
GR
GS
0 0.447 0.741 RC
1 LJ
N
193.5 115.5 M
192.621 113.379 L
190.5 112.5 L
188.379 113.379 L
187.5 115.5 L
188.379 117.621 L
190.5 118.5 L
192.621 117.621 L
cp
S
GR
GS
0 0.447 0.741 RC
1 LJ
N
197.5 115.5 M
196.621 113.379 L
194.5 112.5 L
192.379 113.379 L
191.5 115.5 L
192.379 117.621 L
194.5 118.5 L
196.621 117.621 L
cp
S
GR
GS
0 0.447 0.741 RC
1 LJ
N
200.5 117.5 M
199.621 115.379 L
197.5 114.5 L
195.379 115.379 L
194.5 117.5 L
195.379 119.621 L
197.5 120.5 L
199.621 119.621 L
cp
S
GR
GS
0 0.447 0.741 RC
1 LJ
N
204.5 117.5 M
203.621 115.379 L
201.5 114.5 L
199.379 115.379 L
198.5 117.5 L
199.379 119.621 L
201.5 120.5 L
203.621 119.621 L
cp
S
GR
GS
0 0.447 0.741 RC
1 LJ
N
208.5 117.5 M
207.621 115.379 L
205.5 114.5 L
203.379 115.379 L
202.5 117.5 L
203.379 119.621 L
205.5 120.5 L
207.621 119.621 L
cp
S
GR
GS
0 0.447 0.741 RC
1 LJ
N
211.5 115.5 M
210.621 113.379 L
208.5 112.5 L
206.379 113.379 L
205.5 115.5 L
206.379 117.621 L
208.5 118.5 L
210.621 117.621 L
cp
S
GR
GS
0 0.447 0.741 RC
1 LJ
N
215.5 116.5 M
214.621 114.379 L
212.5 113.5 L
210.379 114.379 L
209.5 116.5 L
210.379 118.621 L
212.5 119.5 L
214.621 118.621 L
cp
S
GR
GS
0 0.447 0.741 RC
1 LJ
N
219.5 116.5 M
218.621 114.379 L
216.5 113.5 L
214.379 114.379 L
213.5 116.5 L
214.379 118.621 L
216.5 119.5 L
218.621 118.621 L
cp
S
GR
GS
0 0.447 0.741 RC
1 LJ
N
223.5 116.5 M
222.621 114.379 L
220.5 113.5 L
218.379 114.379 L
217.5 116.5 L
218.379 118.621 L
220.5 119.5 L
222.621 118.621 L
cp
S
GR
GS
0 0.447 0.741 RC
1 LJ
N
226.5 116.5 M
225.621 114.379 L
223.5 113.5 L
221.379 114.379 L
220.5 116.5 L
221.379 118.621 L
223.5 119.5 L
225.621 118.621 L
cp
S
GR
GS
0 0.447 0.741 RC
1 LJ
N
230.5 116.5 M
229.621 114.379 L
227.5 113.5 L
225.379 114.379 L
224.5 116.5 L
225.379 118.621 L
227.5 119.5 L
229.621 118.621 L
cp
S
GR
GS
0 0.447 0.741 RC
1 LJ
N
234.5 119.5 M
233.621 117.379 L
231.5 116.5 L
229.379 117.379 L
228.5 119.5 L
229.379 121.621 L
231.5 122.5 L
233.621 121.621 L
cp
S
GR
GS
0 0.447 0.741 RC
1 LJ
N
237.5 117.5 M
236.621 115.379 L
234.5 114.5 L
232.379 115.379 L
231.5 117.5 L
232.379 119.621 L
234.5 120.5 L
236.621 119.621 L
cp
S
GR
GS
0 0.447 0.741 RC
1 LJ
N
241.5 118.5 M
240.621 116.379 L
238.5 115.5 L
236.379 116.379 L
235.5 118.5 L
236.379 120.621 L
238.5 121.5 L
240.621 120.621 L
cp
S
GR
GS
0 0.447 0.741 RC
1 LJ
N
245.5 118.5 M
244.621 116.379 L
242.5 115.5 L
240.379 116.379 L
239.5 118.5 L
240.379 120.621 L
242.5 121.5 L
244.621 120.621 L
cp
S
GR
GS
0 0.447 0.741 RC
1 LJ
N
249.5 117.5 M
248.621 115.379 L
246.5 114.5 L
244.379 115.379 L
243.5 117.5 L
244.379 119.621 L
246.5 120.5 L
248.621 119.621 L
cp
S
GR
GS
0 0.447 0.741 RC
1 LJ
N
252.5 117.5 M
251.621 115.379 L
249.5 114.5 L
247.379 115.379 L
246.5 117.5 L
247.379 119.621 L
249.5 120.5 L
251.621 119.621 L
cp
S
GR
GS
0 0.447 0.741 RC
1 LJ
N
256.5 118.5 M
255.621 116.379 L
253.5 115.5 L
251.379 116.379 L
250.5 118.5 L
251.379 120.621 L
253.5 121.5 L
255.621 120.621 L
cp
S
GR
GS
0 0.447 0.741 RC
1 LJ
N
260.5 118.5 M
259.621 116.379 L
257.5 115.5 L
255.379 116.379 L
254.5 118.5 L
255.379 120.621 L
257.5 121.5 L
259.621 120.621 L
cp
S
GR
GS
0 0.447 0.741 RC
1 LJ
N
264.5 118.5 M
263.621 116.379 L
261.5 115.5 L
259.379 116.379 L
258.5 118.5 L
259.379 120.621 L
261.5 121.5 L
263.621 120.621 L
cp
S
GR
GS
0 0.447 0.741 RC
1 LJ
N
267.5 118.5 M
266.621 116.379 L
264.5 115.5 L
262.379 116.379 L
261.5 118.5 L
262.379 120.621 L
264.5 121.5 L
266.621 120.621 L
cp
S
GR
GS
0 0.447 0.741 RC
1 LJ
N
271.5 118.5 M
270.621 116.379 L
268.5 115.5 L
266.379 116.379 L
265.5 118.5 L
266.379 120.621 L
268.5 121.5 L
270.621 120.621 L
cp
S
GR
GS
0 0.447 0.741 RC
1 LJ
N
275.5 118.5 M
274.621 116.379 L
272.5 115.5 L
270.379 116.379 L
269.5 118.5 L
270.379 120.621 L
272.5 121.5 L
274.621 120.621 L
cp
S
GR
GS
0 0.447 0.741 RC
1 LJ
N
278.5 117.5 M
277.621 115.379 L
275.5 114.5 L
273.379 115.379 L
272.5 117.5 L
273.379 119.621 L
275.5 120.5 L
277.621 119.621 L
cp
S
GR
GS
0 0.447 0.741 RC
1 LJ
N
282.5 117.5 M
281.621 115.379 L
279.5 114.5 L
277.379 115.379 L
276.5 117.5 L
277.379 119.621 L
279.5 120.5 L
281.621 119.621 L
cp
S
GR
GS
0 0.447 0.741 RC
1 LJ
N
286.5 118.5 M
285.621 116.379 L
283.5 115.5 L
281.379 116.379 L
280.5 118.5 L
281.379 120.621 L
283.5 121.5 L
285.621 120.621 L
cp
S
GR
GS
0 0.447 0.741 RC
1 LJ
N
290.5 117.5 M
289.621 115.379 L
287.5 114.5 L
285.379 115.379 L
284.5 117.5 L
285.379 119.621 L
287.5 120.5 L
289.621 119.621 L
cp
S
GR
GS
0 0.447 0.741 RC
1 LJ
N
293.5 118.5 M
292.621 116.379 L
290.5 115.5 L
288.379 116.379 L
287.5 118.5 L
288.379 120.621 L
290.5 121.5 L
292.621 120.621 L
cp
S
GR
GS
0 0.447 0.741 RC
1 LJ
N
297.5 118.5 M
296.621 116.379 L
294.5 115.5 L
292.379 116.379 L
291.5 118.5 L
292.379 120.621 L
294.5 121.5 L
296.621 120.621 L
cp
S
GR
GS
0 0.447 0.741 RC
1 LJ
N
301.5 118.5 M
300.621 116.379 L
298.5 115.5 L
296.379 116.379 L
295.5 118.5 L
296.379 120.621 L
298.5 121.5 L
300.621 120.621 L
cp
S
GR
GS
0 0.447 0.741 RC
1 LJ
N
304.5 118.5 M
303.621 116.379 L
301.5 115.5 L
299.379 116.379 L
298.5 118.5 L
299.379 120.621 L
301.5 121.5 L
303.621 120.621 L
cp
S
GR
GS
0 0.447 0.741 RC
1 LJ
N
308.5 118.5 M
307.621 116.379 L
305.5 115.5 L
303.379 116.379 L
302.5 118.5 L
303.379 120.621 L
305.5 121.5 L
307.621 120.621 L
cp
S
GR
GS
0 0.447 0.741 RC
1 LJ
N
312.5 118.5 M
311.621 116.379 L
309.5 115.5 L
307.379 116.379 L
306.5 118.5 L
307.379 120.621 L
309.5 121.5 L
311.621 120.621 L
cp
S
GR
GS
0 0.447 0.741 RC
1 LJ
N
316.5 118.5 M
315.621 116.379 L
313.5 115.5 L
311.379 116.379 L
310.5 118.5 L
311.379 120.621 L
313.5 121.5 L
315.621 120.621 L
cp
S
GR
GS
0 0.447 0.741 RC
1 LJ
N
319.5 118.5 M
318.621 116.379 L
316.5 115.5 L
314.379 116.379 L
313.5 118.5 L
314.379 120.621 L
316.5 121.5 L
318.621 120.621 L
cp
S
GR
GS
0 0.447 0.741 RC
1 LJ
N
323.5 118.5 M
322.621 116.379 L
320.5 115.5 L
318.379 116.379 L
317.5 118.5 L
318.379 120.621 L
320.5 121.5 L
322.621 120.621 L
cp
S
GR
GS
0 0.447 0.741 RC
1 LJ
N
327.5 118.5 M
326.621 116.379 L
324.5 115.5 L
322.379 116.379 L
321.5 118.5 L
322.379 120.621 L
324.5 121.5 L
326.621 120.621 L
cp
S
GR
GS
0 0.447 0.741 RC
1 LJ
N
331.5 118.5 M
330.621 116.379 L
328.5 115.5 L
326.379 116.379 L
325.5 118.5 L
326.379 120.621 L
328.5 121.5 L
330.621 120.621 L
cp
S
GR
GS
0 0.447 0.741 RC
1 LJ
N
334.5 118.5 M
333.621 116.379 L
331.5 115.5 L
329.379 116.379 L
328.5 118.5 L
329.379 120.621 L
331.5 121.5 L
333.621 120.621 L
cp
S
GR
GS
0 0.447 0.741 RC
1 LJ
N
338.5 118.5 M
337.621 116.379 L
335.5 115.5 L
333.379 116.379 L
332.5 118.5 L
333.379 120.621 L
335.5 121.5 L
337.621 120.621 L
cp
S
GR
GS
0 0.447 0.741 RC
1 LJ
N
342.5 118.5 M
341.621 116.379 L
339.5 115.5 L
337.379 116.379 L
336.5 118.5 L
337.379 120.621 L
339.5 121.5 L
341.621 120.621 L
cp
S
GR
GS
0 0.447 0.741 RC
1 LJ
N
345.5 118.5 M
344.621 116.379 L
342.5 115.5 L
340.379 116.379 L
339.5 118.5 L
340.379 120.621 L
342.5 121.5 L
344.621 120.621 L
cp
S
GR
GS
0 0.447 0.741 RC
1 LJ
N
349.5 118.5 M
348.621 116.379 L
346.5 115.5 L
344.379 116.379 L
343.5 118.5 L
344.379 120.621 L
346.5 121.5 L
348.621 120.621 L
cp
S
GR
GS
0 0.447 0.741 RC
1 LJ
N
353.5 118.5 M
352.621 116.379 L
350.5 115.5 L
348.379 116.379 L
347.5 118.5 L
348.379 120.621 L
350.5 121.5 L
352.621 120.621 L
cp
S
GR
GS
0 0.447 0.741 RC
1 LJ
N
357.5 118.5 M
356.621 116.379 L
354.5 115.5 L
352.379 116.379 L
351.5 118.5 L
352.379 120.621 L
354.5 121.5 L
356.621 120.621 L
cp
S
GR
GS
0 0.447 0.741 RC
1 LJ
N
360.5 118.5 M
359.621 116.379 L
357.5 115.5 L
355.379 116.379 L
354.5 118.5 L
355.379 120.621 L
357.5 121.5 L
359.621 120.621 L
cp
S
GR
GS
0 0.447 0.741 RC
1 LJ
N
364.5 118.5 M
363.621 116.379 L
361.5 115.5 L
359.379 116.379 L
358.5 118.5 L
359.379 120.621 L
361.5 121.5 L
363.621 120.621 L
cp
S
GR
GS
0 0.447 0.741 RC
1 LJ
N
368.5 118.5 M
367.621 116.379 L
365.5 115.5 L
363.379 116.379 L
362.5 118.5 L
363.379 120.621 L
365.5 121.5 L
367.621 120.621 L
cp
S
GR
GS
0 0.447 0.741 RC
1 LJ
N
371.5 118.5 M
370.621 116.379 L
368.5 115.5 L
366.379 116.379 L
365.5 118.5 L
366.379 120.621 L
368.5 121.5 L
370.621 120.621 L
cp
S
GR
GS
0 0.447 0.741 RC
1 LJ
N
375.5 118.5 M
374.621 116.379 L
372.5 115.5 L
370.379 116.379 L
369.5 118.5 L
370.379 120.621 L
372.5 121.5 L
374.621 120.621 L
cp
S
GR
GS
0 0.447 0.741 RC
1 LJ
N
379.5 118.5 M
378.621 116.379 L
376.5 115.5 L
374.379 116.379 L
373.5 118.5 L
374.379 120.621 L
376.5 121.5 L
378.621 120.621 L
cp
S
GR
GS
0 0.447 0.741 RC
1 LJ
N
383.5 118.5 M
382.621 116.379 L
380.5 115.5 L
378.379 116.379 L
377.5 118.5 L
378.379 120.621 L
380.5 121.5 L
382.621 120.621 L
cp
S
GR
GS
0 0.447 0.741 RC
1 LJ
N
386.5 118.5 M
385.621 116.379 L
383.5 115.5 L
381.379 116.379 L
380.5 118.5 L
381.379 120.621 L
383.5 121.5 L
385.621 120.621 L
cp
S
GR
GS
0 0.447 0.741 RC
1 LJ
N
390.5 118.5 M
389.621 116.379 L
387.5 115.5 L
385.379 116.379 L
384.5 118.5 L
385.379 120.621 L
387.5 121.5 L
389.621 120.621 L
cp
S
GR
GS
0 0.447 0.741 RC
1 LJ
N
394.5 118.5 M
393.621 116.379 L
391.5 115.5 L
389.379 116.379 L
388.5 118.5 L
389.379 120.621 L
391.5 121.5 L
393.621 120.621 L
cp
S
GR
GS
0 0.447 0.741 RC
1 LJ
N
397.5 118.5 M
396.621 116.379 L
394.5 115.5 L
392.379 116.379 L
391.5 118.5 L
392.379 120.621 L
394.5 121.5 L
396.621 120.621 L
cp
S
GR
GS
0 0.447 0.741 RC
1 LJ
N
401.5 118.5 M
400.621 116.379 L
398.5 115.5 L
396.379 116.379 L
395.5 118.5 L
396.379 120.621 L
398.5 121.5 L
400.621 120.621 L
cp
S
GR
GS
0 0.447 0.741 RC
1 LJ
N
405.5 118.5 M
404.621 116.379 L
402.5 115.5 L
400.379 116.379 L
399.5 118.5 L
400.379 120.621 L
402.5 121.5 L
404.621 120.621 L
cp
S
GR
GS
0 0.447 0.741 RC
1 LJ
N
409.5 118.5 M
408.621 116.379 L
406.5 115.5 L
404.379 116.379 L
403.5 118.5 L
404.379 120.621 L
406.5 121.5 L
408.621 120.621 L
cp
S
GR
GS
0 0.447 0.741 RC
1 LJ
N
412.5 118.5 M
411.621 116.379 L
409.5 115.5 L
407.379 116.379 L
406.5 118.5 L
407.379 120.621 L
409.5 121.5 L
411.621 120.621 L
cp
S
GR
GS
0 0.447 0.741 RC
1 LJ
N
416.5 119.5 M
415.621 117.379 L
413.5 116.5 L
411.379 117.379 L
410.5 119.5 L
411.379 121.621 L
413.5 122.5 L
415.621 121.621 L
cp
S
GR
GS
0 0.447 0.741 RC
1 LJ
N
420.5 118.5 M
419.621 116.379 L
417.5 115.5 L
415.379 116.379 L
414.5 118.5 L
415.379 120.621 L
417.5 121.5 L
419.621 120.621 L
cp
S
GR
GS
0 0.447 0.741 RC
1 LJ
N
424.5 118.5 M
423.621 116.379 L
421.5 115.5 L
419.379 116.379 L
418.5 118.5 L
419.379 120.621 L
421.5 121.5 L
423.621 120.621 L
cp
S
GR
GS
0 0.447 0.741 RC
1 LJ
N
427.5 118.5 M
426.621 116.379 L
424.5 115.5 L
422.379 116.379 L
421.5 118.5 L
422.379 120.621 L
424.5 121.5 L
426.621 120.621 L
cp
S
GR
GS
0 0.447 0.741 RC
1 LJ
N
431.5 118.5 M
430.621 116.379 L
428.5 115.5 L
426.379 116.379 L
425.5 118.5 L
426.379 120.621 L
428.5 121.5 L
430.621 120.621 L
cp
S
GR
GS
0 0.447 0.741 RC
1 LJ
N
435.5 118.5 M
434.621 116.379 L
432.5 115.5 L
430.379 116.379 L
429.5 118.5 L
430.379 120.621 L
432.5 121.5 L
434.621 120.621 L
cp
S
GR
GS
0 0.447 0.741 RC
1 LJ
N
438.5 118.5 M
437.621 116.379 L
435.5 115.5 L
433.379 116.379 L
432.5 118.5 L
433.379 120.621 L
435.5 121.5 L
437.621 120.621 L
cp
S
GR
GS
0 0.447 0.741 RC
1 LJ
N
442.5 118.5 M
441.621 116.379 L
439.5 115.5 L
437.379 116.379 L
436.5 118.5 L
437.379 120.621 L
439.5 121.5 L
441.621 120.621 L
cp
S
GR
GS
0 0.447 0.741 RC
1 LJ
N
446.5 119.5 M
445.621 117.379 L
443.5 116.5 L
441.379 117.379 L
440.5 119.5 L
441.379 121.621 L
443.5 122.5 L
445.621 121.621 L
cp
S
GR
GS
0 0.447 0.741 RC
1 LJ
N
450.5 119.5 M
449.621 117.379 L
447.5 116.5 L
445.379 117.379 L
444.5 119.5 L
445.379 121.621 L
447.5 122.5 L
449.621 121.621 L
cp
S
GR
GS
0 0.447 0.741 RC
1 LJ
N
453.5 119.5 M
452.621 117.379 L
450.5 116.5 L
448.379 117.379 L
447.5 119.5 L
448.379 121.621 L
450.5 122.5 L
452.621 121.621 L
cp
S
GR
GS
0.851 0.325 0.098 RC
1 LJ
N
78.721 384 M
82.442 162.37 L
86.162 262.402 L
89.883 60.141 L
93.604 226.722 L
97.325 76.782 L
101.046 183.663 L
104.767 86.398 L
108.488 148.812 L
112.208 108.497 L
115.929 122.896 L
119.65 121.096 L
123.371 119.73 L
127.092 122.079 L
130.813 119.935 L
134.533 123.004 L
138.254 121.74 L
141.975 121.676 L
145.696 119.336 L
149.417 124.747 L
153.137 120.356 L
156.858 121.17 L
160.579 123.592 L
164.3 115.008 L
168.021 122.346 L
171.742 114.828 L
175.462 122.398 L
179.183 114.918 L
182.904 132.349 L
186.625 109.816 L
190.346 139.348 L
194.067 113.658 L
197.788 137.611 L
201.508 119.765 L
205.229 118.188 L
208.95 119.532 L
212.671 119.792 L
216.392 122.32 L
220.112 119.571 L
223.833 123.129 L
227.554 120.037 L
231.275 119.468 L
234.996 118.83 L
238.717 119.385 L
242.438 118.408 L
246.158 118.956 L
249.879 118.691 L
253.6 120.092 L
257.321 118.028 L
261.042 119.787 L
S
GR
GS
0.851 0.325 0.098 RC
1 LJ
N
257.321 118.028 M
261.042 119.787 L
264.763 118.356 L
268.483 119.767 L
272.204 118.671 L
275.925 119.076 L
279.646 120.728 L
283.367 118.442 L
287.087 123.354 L
290.808 118.539 L
294.529 121.374 L
298.25 118.862 L
301.971 120.24 L
305.692 118.752 L
309.412 120.329 L
313.133 118.845 L
316.854 119.734 L
320.575 119.989 L
324.296 119.289 L
328.017 120.121 L
331.737 118.959 L
335.458 120.684 L
339.179 118.787 L
342.9 120.429 L
346.621 119.37 L
350.342 120.838 L
354.063 119.982 L
357.783 120.375 L
361.504 119.893 L
365.225 120.641 L
368.946 119.882 L
372.667 120.323 L
376.388 120.474 L
380.108 120.328 L
383.829 120.18 L
387.55 120.208 L
391.271 120.727 L
394.992 120.453 L
398.713 120.997 L
402.433 120.627 L
406.154 120.204 L
409.875 120.574 L
413.596 121.307 L
417.317 120.938 L
421.037 121.791 L
424.758 120.735 L
428.479 120.618 L
432.2 120.877 L
435.921 120.356 L
439.642 120.854 L
443.362 120.631 L
447.083 120.696 L
S
GR
GS
0.851 0.325 0.098 RC
1 LJ
N
443.362 120.631 M
447.083 120.696 L
450.804 120.908 L
S
GR
GS
0.851 0.325 0.098 RC
1 LJ
N
81.5 383.5 M
80.621 381.379 L
78.5 380.5 L
76.379 381.379 L
75.5 383.5 L
76.379 385.621 L
78.5 386.5 L
80.621 385.621 L
cp
S
GR
GS
0.851 0.325 0.098 RC
1 LJ
N
85.5 162.5 M
84.621 160.379 L
82.5 159.5 L
80.379 160.379 L
79.5 162.5 L
80.379 164.621 L
82.5 165.5 L
84.621 164.621 L
cp
S
GR
GS
0.851 0.325 0.098 RC
1 LJ
N
89.5 262.5 M
88.621 260.379 L
86.5 259.5 L
84.379 260.379 L
83.5 262.5 L
84.379 264.621 L
86.5 265.5 L
88.621 264.621 L
cp
S
GR
GS
0.851 0.325 0.098 RC
1 LJ
N
92.5 60.5 M
91.621 58.379 L
89.5 57.5 L
87.379 58.379 L
86.5 60.5 L
87.379 62.621 L
89.5 63.5 L
91.621 62.621 L
cp
S
GR
GS
0.851 0.325 0.098 RC
1 LJ
N
96.5 226.5 M
95.621 224.379 L
93.5 223.5 L
91.379 224.379 L
90.5 226.5 L
91.379 228.621 L
93.5 229.5 L
95.621 228.621 L
cp
S
GR
GS
0.851 0.325 0.098 RC
1 LJ
N
100.5 76.5 M
99.621 74.379 L
97.5 73.5 L
95.379 74.379 L
94.5 76.5 L
95.379 78.621 L
97.5 79.5 L
99.621 78.621 L
cp
S
GR
GS
0.851 0.325 0.098 RC
1 LJ
N
104.5 183.5 M
103.621 181.379 L
101.5 180.5 L
99.379 181.379 L
98.5 183.5 L
99.379 185.621 L
101.5 186.5 L
103.621 185.621 L
cp
S
GR
GS
0.851 0.325 0.098 RC
1 LJ
N
107.5 86.5 M
106.621 84.379 L
104.5 83.5 L
102.379 84.379 L
101.5 86.5 L
102.379 88.621 L
104.5 89.5 L
106.621 88.621 L
cp
S
GR
GS
0.851 0.325 0.098 RC
1 LJ
N
111.5 148.5 M
110.621 146.379 L
108.5 145.5 L
106.379 146.379 L
105.5 148.5 L
106.379 150.621 L
108.5 151.5 L
110.621 150.621 L
cp
S
GR
GS
0.851 0.325 0.098 RC
1 LJ
N
115.5 108.5 M
114.621 106.379 L
112.5 105.5 L
110.379 106.379 L
109.5 108.5 L
110.379 110.621 L
112.5 111.5 L
114.621 110.621 L
cp
S
GR
GS
0.851 0.325 0.098 RC
1 LJ
N
118.5 122.5 M
117.621 120.379 L
115.5 119.5 L
113.379 120.379 L
112.5 122.5 L
113.379 124.621 L
115.5 125.5 L
117.621 124.621 L
cp
S
GR
GS
0.851 0.325 0.098 RC
1 LJ
N
122.5 121.5 M
121.621 119.379 L
119.5 118.5 L
117.379 119.379 L
116.5 121.5 L
117.379 123.621 L
119.5 124.5 L
121.621 123.621 L
cp
S
GR
GS
0.851 0.325 0.098 RC
1 LJ
N
126.5 119.5 M
125.621 117.379 L
123.5 116.5 L
121.379 117.379 L
120.5 119.5 L
121.379 121.621 L
123.5 122.5 L
125.621 121.621 L
cp
S
GR
GS
0.851 0.325 0.098 RC
1 LJ
N
130.5 122.5 M
129.621 120.379 L
127.5 119.5 L
125.379 120.379 L
124.5 122.5 L
125.379 124.621 L
127.5 125.5 L
129.621 124.621 L
cp
S
GR
GS
0.851 0.325 0.098 RC
1 LJ
N
133.5 119.5 M
132.621 117.379 L
130.5 116.5 L
128.379 117.379 L
127.5 119.5 L
128.379 121.621 L
130.5 122.5 L
132.621 121.621 L
cp
S
GR
GS
0.851 0.325 0.098 RC
1 LJ
N
137.5 123.5 M
136.621 121.379 L
134.5 120.5 L
132.379 121.379 L
131.5 123.5 L
132.379 125.621 L
134.5 126.5 L
136.621 125.621 L
cp
S
GR
GS
0.851 0.325 0.098 RC
1 LJ
N
141.5 121.5 M
140.621 119.379 L
138.5 118.5 L
136.379 119.379 L
135.5 121.5 L
136.379 123.621 L
138.5 124.5 L
140.621 123.621 L
cp
S
GR
GS
0.851 0.325 0.098 RC
1 LJ
N
144.5 121.5 M
143.621 119.379 L
141.5 118.5 L
139.379 119.379 L
138.5 121.5 L
139.379 123.621 L
141.5 124.5 L
143.621 123.621 L
cp
S
GR
GS
0.851 0.325 0.098 RC
1 LJ
N
148.5 119.5 M
147.621 117.379 L
145.5 116.5 L
143.379 117.379 L
142.5 119.5 L
143.379 121.621 L
145.5 122.5 L
147.621 121.621 L
cp
S
GR
GS
0.851 0.325 0.098 RC
1 LJ
N
152.5 124.5 M
151.621 122.379 L
149.5 121.5 L
147.379 122.379 L
146.5 124.5 L
147.379 126.621 L
149.5 127.5 L
151.621 126.621 L
cp
S
GR
GS
0.851 0.325 0.098 RC
1 LJ
N
156.5 120.5 M
155.621 118.379 L
153.5 117.5 L
151.379 118.379 L
150.5 120.5 L
151.379 122.621 L
153.5 123.5 L
155.621 122.621 L
cp
S
GR
GS
0.851 0.325 0.098 RC
1 LJ
N
159.5 121.5 M
158.621 119.379 L
156.5 118.5 L
154.379 119.379 L
153.5 121.5 L
154.379 123.621 L
156.5 124.5 L
158.621 123.621 L
cp
S
GR
GS
0.851 0.325 0.098 RC
1 LJ
N
163.5 123.5 M
162.621 121.379 L
160.5 120.5 L
158.379 121.379 L
157.5 123.5 L
158.379 125.621 L
160.5 126.5 L
162.621 125.621 L
cp
S
GR
GS
0.851 0.325 0.098 RC
1 LJ
N
167.5 115.5 M
166.621 113.379 L
164.5 112.5 L
162.379 113.379 L
161.5 115.5 L
162.379 117.621 L
164.5 118.5 L
166.621 117.621 L
cp
S
GR
GS
0.851 0.325 0.098 RC
1 LJ
N
171.5 122.5 M
170.621 120.379 L
168.5 119.5 L
166.379 120.379 L
165.5 122.5 L
166.379 124.621 L
168.5 125.5 L
170.621 124.621 L
cp
S
GR
GS
0.851 0.325 0.098 RC
1 LJ
N
174.5 114.5 M
173.621 112.379 L
171.5 111.5 L
169.379 112.379 L
168.5 114.5 L
169.379 116.621 L
171.5 117.5 L
173.621 116.621 L
cp
S
GR
GS
0.851 0.325 0.098 RC
1 LJ
N
178.5 122.5 M
177.621 120.379 L
175.5 119.5 L
173.379 120.379 L
172.5 122.5 L
173.379 124.621 L
175.5 125.5 L
177.621 124.621 L
cp
S
GR
GS
0.851 0.325 0.098 RC
1 LJ
N
182.5 114.5 M
181.621 112.379 L
179.5 111.5 L
177.379 112.379 L
176.5 114.5 L
177.379 116.621 L
179.5 117.5 L
181.621 116.621 L
cp
S
GR
GS
0.851 0.325 0.098 RC
1 LJ
N
185.5 132.5 M
184.621 130.379 L
182.5 129.5 L
180.379 130.379 L
179.5 132.5 L
180.379 134.621 L
182.5 135.5 L
184.621 134.621 L
cp
S
GR
GS
0.851 0.325 0.098 RC
1 LJ
N
189.5 109.5 M
188.621 107.379 L
186.5 106.5 L
184.379 107.379 L
183.5 109.5 L
184.379 111.621 L
186.5 112.5 L
188.621 111.621 L
cp
S
GR
GS
0.851 0.325 0.098 RC
1 LJ
N
193.5 139.5 M
192.621 137.379 L
190.5 136.5 L
188.379 137.379 L
187.5 139.5 L
188.379 141.621 L
190.5 142.5 L
192.621 141.621 L
cp
S
GR
GS
0.851 0.325 0.098 RC
1 LJ
N
197.5 113.5 M
196.621 111.379 L
194.5 110.5 L
192.379 111.379 L
191.5 113.5 L
192.379 115.621 L
194.5 116.5 L
196.621 115.621 L
cp
S
GR
GS
0.851 0.325 0.098 RC
1 LJ
N
200.5 137.5 M
199.621 135.379 L
197.5 134.5 L
195.379 135.379 L
194.5 137.5 L
195.379 139.621 L
197.5 140.5 L
199.621 139.621 L
cp
S
GR
GS
0.851 0.325 0.098 RC
1 LJ
N
204.5 119.5 M
203.621 117.379 L
201.5 116.5 L
199.379 117.379 L
198.5 119.5 L
199.379 121.621 L
201.5 122.5 L
203.621 121.621 L
cp
S
GR
GS
0.851 0.325 0.098 RC
1 LJ
N
208.5 118.5 M
207.621 116.379 L
205.5 115.5 L
203.379 116.379 L
202.5 118.5 L
203.379 120.621 L
205.5 121.5 L
207.621 120.621 L
cp
S
GR
GS
0.851 0.325 0.098 RC
1 LJ
N
211.5 119.5 M
210.621 117.379 L
208.5 116.5 L
206.379 117.379 L
205.5 119.5 L
206.379 121.621 L
208.5 122.5 L
210.621 121.621 L
cp
S
GR
GS
0.851 0.325 0.098 RC
1 LJ
N
215.5 119.5 M
214.621 117.379 L
212.5 116.5 L
210.379 117.379 L
209.5 119.5 L
210.379 121.621 L
212.5 122.5 L
214.621 121.621 L
cp
S
GR
GS
0.851 0.325 0.098 RC
1 LJ
N
219.5 122.5 M
218.621 120.379 L
216.5 119.5 L
214.379 120.379 L
213.5 122.5 L
214.379 124.621 L
216.5 125.5 L
218.621 124.621 L
cp
S
GR
GS
0.851 0.325 0.098 RC
1 LJ
N
223.5 119.5 M
222.621 117.379 L
220.5 116.5 L
218.379 117.379 L
217.5 119.5 L
218.379 121.621 L
220.5 122.5 L
222.621 121.621 L
cp
S
GR
GS
0.851 0.325 0.098 RC
1 LJ
N
226.5 123.5 M
225.621 121.379 L
223.5 120.5 L
221.379 121.379 L
220.5 123.5 L
221.379 125.621 L
223.5 126.5 L
225.621 125.621 L
cp
S
GR
GS
0.851 0.325 0.098 RC
1 LJ
N
230.5 120.5 M
229.621 118.379 L
227.5 117.5 L
225.379 118.379 L
224.5 120.5 L
225.379 122.621 L
227.5 123.5 L
229.621 122.621 L
cp
S
GR
GS
0.851 0.325 0.098 RC
1 LJ
N
234.5 119.5 M
233.621 117.379 L
231.5 116.5 L
229.379 117.379 L
228.5 119.5 L
229.379 121.621 L
231.5 122.5 L
233.621 121.621 L
cp
S
GR
GS
0.851 0.325 0.098 RC
1 LJ
N
237.5 118.5 M
236.621 116.379 L
234.5 115.5 L
232.379 116.379 L
231.5 118.5 L
232.379 120.621 L
234.5 121.5 L
236.621 120.621 L
cp
S
GR
GS
0.851 0.325 0.098 RC
1 LJ
N
241.5 119.5 M
240.621 117.379 L
238.5 116.5 L
236.379 117.379 L
235.5 119.5 L
236.379 121.621 L
238.5 122.5 L
240.621 121.621 L
cp
S
GR
GS
0.851 0.325 0.098 RC
1 LJ
N
245.5 118.5 M
244.621 116.379 L
242.5 115.5 L
240.379 116.379 L
239.5 118.5 L
240.379 120.621 L
242.5 121.5 L
244.621 120.621 L
cp
S
GR
GS
0.851 0.325 0.098 RC
1 LJ
N
249.5 118.5 M
248.621 116.379 L
246.5 115.5 L
244.379 116.379 L
243.5 118.5 L
244.379 120.621 L
246.5 121.5 L
248.621 120.621 L
cp
S
GR
GS
0.851 0.325 0.098 RC
1 LJ
N
252.5 118.5 M
251.621 116.379 L
249.5 115.5 L
247.379 116.379 L
246.5 118.5 L
247.379 120.621 L
249.5 121.5 L
251.621 120.621 L
cp
S
GR
GS
0.851 0.325 0.098 RC
1 LJ
N
256.5 120.5 M
255.621 118.379 L
253.5 117.5 L
251.379 118.379 L
250.5 120.5 L
251.379 122.621 L
253.5 123.5 L
255.621 122.621 L
cp
S
GR
GS
0.851 0.325 0.098 RC
1 LJ
N
260.5 118.5 M
259.621 116.379 L
257.5 115.5 L
255.379 116.379 L
254.5 118.5 L
255.379 120.621 L
257.5 121.5 L
259.621 120.621 L
cp
S
GR
GS
0.851 0.325 0.098 RC
1 LJ
N
264.5 119.5 M
263.621 117.379 L
261.5 116.5 L
259.379 117.379 L
258.5 119.5 L
259.379 121.621 L
261.5 122.5 L
263.621 121.621 L
cp
S
GR
GS
0.851 0.325 0.098 RC
1 LJ
N
267.5 118.5 M
266.621 116.379 L
264.5 115.5 L
262.379 116.379 L
261.5 118.5 L
262.379 120.621 L
264.5 121.5 L
266.621 120.621 L
cp
S
GR
GS
0.851 0.325 0.098 RC
1 LJ
N
271.5 119.5 M
270.621 117.379 L
268.5 116.5 L
266.379 117.379 L
265.5 119.5 L
266.379 121.621 L
268.5 122.5 L
270.621 121.621 L
cp
S
GR
GS
0.851 0.325 0.098 RC
1 LJ
N
275.5 118.5 M
274.621 116.379 L
272.5 115.5 L
270.379 116.379 L
269.5 118.5 L
270.379 120.621 L
272.5 121.5 L
274.621 120.621 L
cp
S
GR
GS
0.851 0.325 0.098 RC
1 LJ
N
278.5 119.5 M
277.621 117.379 L
275.5 116.5 L
273.379 117.379 L
272.5 119.5 L
273.379 121.621 L
275.5 122.5 L
277.621 121.621 L
cp
S
GR
GS
0.851 0.325 0.098 RC
1 LJ
N
282.5 120.5 M
281.621 118.379 L
279.5 117.5 L
277.379 118.379 L
276.5 120.5 L
277.379 122.621 L
279.5 123.5 L
281.621 122.621 L
cp
S
GR
GS
0.851 0.325 0.098 RC
1 LJ
N
286.5 118.5 M
285.621 116.379 L
283.5 115.5 L
281.379 116.379 L
280.5 118.5 L
281.379 120.621 L
283.5 121.5 L
285.621 120.621 L
cp
S
GR
GS
0.851 0.325 0.098 RC
1 LJ
N
290.5 123.5 M
289.621 121.379 L
287.5 120.5 L
285.379 121.379 L
284.5 123.5 L
285.379 125.621 L
287.5 126.5 L
289.621 125.621 L
cp
S
GR
GS
0.851 0.325 0.098 RC
1 LJ
N
293.5 118.5 M
292.621 116.379 L
290.5 115.5 L
288.379 116.379 L
287.5 118.5 L
288.379 120.621 L
290.5 121.5 L
292.621 120.621 L
cp
S
GR
GS
0.851 0.325 0.098 RC
1 LJ
N
297.5 121.5 M
296.621 119.379 L
294.5 118.5 L
292.379 119.379 L
291.5 121.5 L
292.379 123.621 L
294.5 124.5 L
296.621 123.621 L
cp
S
GR
GS
0.851 0.325 0.098 RC
1 LJ
N
301.5 118.5 M
300.621 116.379 L
298.5 115.5 L
296.379 116.379 L
295.5 118.5 L
296.379 120.621 L
298.5 121.5 L
300.621 120.621 L
cp
S
GR
GS
0.851 0.325 0.098 RC
1 LJ
N
304.5 120.5 M
303.621 118.379 L
301.5 117.5 L
299.379 118.379 L
298.5 120.5 L
299.379 122.621 L
301.5 123.5 L
303.621 122.621 L
cp
S
GR
GS
0.851 0.325 0.098 RC
1 LJ
N
308.5 118.5 M
307.621 116.379 L
305.5 115.5 L
303.379 116.379 L
302.5 118.5 L
303.379 120.621 L
305.5 121.5 L
307.621 120.621 L
cp
S
GR
GS
0.851 0.325 0.098 RC
1 LJ
N
312.5 120.5 M
311.621 118.379 L
309.5 117.5 L
307.379 118.379 L
306.5 120.5 L
307.379 122.621 L
309.5 123.5 L
311.621 122.621 L
cp
S
GR
GS
0.851 0.325 0.098 RC
1 LJ
N
316.5 118.5 M
315.621 116.379 L
313.5 115.5 L
311.379 116.379 L
310.5 118.5 L
311.379 120.621 L
313.5 121.5 L
315.621 120.621 L
cp
S
GR
GS
0.851 0.325 0.098 RC
1 LJ
N
319.5 119.5 M
318.621 117.379 L
316.5 116.5 L
314.379 117.379 L
313.5 119.5 L
314.379 121.621 L
316.5 122.5 L
318.621 121.621 L
cp
S
GR
GS
0.851 0.325 0.098 RC
1 LJ
N
323.5 119.5 M
322.621 117.379 L
320.5 116.5 L
318.379 117.379 L
317.5 119.5 L
318.379 121.621 L
320.5 122.5 L
322.621 121.621 L
cp
S
GR
GS
0.851 0.325 0.098 RC
1 LJ
N
327.5 119.5 M
326.621 117.379 L
324.5 116.5 L
322.379 117.379 L
321.5 119.5 L
322.379 121.621 L
324.5 122.5 L
326.621 121.621 L
cp
S
GR
GS
0.851 0.325 0.098 RC
1 LJ
N
331.5 120.5 M
330.621 118.379 L
328.5 117.5 L
326.379 118.379 L
325.5 120.5 L
326.379 122.621 L
328.5 123.5 L
330.621 122.621 L
cp
S
GR
GS
0.851 0.325 0.098 RC
1 LJ
N
334.5 118.5 M
333.621 116.379 L
331.5 115.5 L
329.379 116.379 L
328.5 118.5 L
329.379 120.621 L
331.5 121.5 L
333.621 120.621 L
cp
S
GR
GS
0.851 0.325 0.098 RC
1 LJ
N
338.5 120.5 M
337.621 118.379 L
335.5 117.5 L
333.379 118.379 L
332.5 120.5 L
333.379 122.621 L
335.5 123.5 L
337.621 122.621 L
cp
S
GR
GS
0.851 0.325 0.098 RC
1 LJ
N
342.5 118.5 M
341.621 116.379 L
339.5 115.5 L
337.379 116.379 L
336.5 118.5 L
337.379 120.621 L
339.5 121.5 L
341.621 120.621 L
cp
S
GR
GS
0.851 0.325 0.098 RC
1 LJ
N
345.5 120.5 M
344.621 118.379 L
342.5 117.5 L
340.379 118.379 L
339.5 120.5 L
340.379 122.621 L
342.5 123.5 L
344.621 122.621 L
cp
S
GR
GS
0.851 0.325 0.098 RC
1 LJ
N
349.5 119.5 M
348.621 117.379 L
346.5 116.5 L
344.379 117.379 L
343.5 119.5 L
344.379 121.621 L
346.5 122.5 L
348.621 121.621 L
cp
S
GR
GS
0.851 0.325 0.098 RC
1 LJ
N
353.5 120.5 M
352.621 118.379 L
350.5 117.5 L
348.379 118.379 L
347.5 120.5 L
348.379 122.621 L
350.5 123.5 L
352.621 122.621 L
cp
S
GR
GS
0.851 0.325 0.098 RC
1 LJ
N
357.5 119.5 M
356.621 117.379 L
354.5 116.5 L
352.379 117.379 L
351.5 119.5 L
352.379 121.621 L
354.5 122.5 L
356.621 121.621 L
cp
S
GR
GS
0.851 0.325 0.098 RC
1 LJ
N
360.5 120.5 M
359.621 118.379 L
357.5 117.5 L
355.379 118.379 L
354.5 120.5 L
355.379 122.621 L
357.5 123.5 L
359.621 122.621 L
cp
S
GR
GS
0.851 0.325 0.098 RC
1 LJ
N
364.5 119.5 M
363.621 117.379 L
361.5 116.5 L
359.379 117.379 L
358.5 119.5 L
359.379 121.621 L
361.5 122.5 L
363.621 121.621 L
cp
S
GR
GS
0.851 0.325 0.098 RC
1 LJ
N
368.5 120.5 M
367.621 118.379 L
365.5 117.5 L
363.379 118.379 L
362.5 120.5 L
363.379 122.621 L
365.5 123.5 L
367.621 122.621 L
cp
S
GR
GS
0.851 0.325 0.098 RC
1 LJ
N
371.5 119.5 M
370.621 117.379 L
368.5 116.5 L
366.379 117.379 L
365.5 119.5 L
366.379 121.621 L
368.5 122.5 L
370.621 121.621 L
cp
S
GR
GS
0.851 0.325 0.098 RC
1 LJ
N
375.5 120.5 M
374.621 118.379 L
372.5 117.5 L
370.379 118.379 L
369.5 120.5 L
370.379 122.621 L
372.5 123.5 L
374.621 122.621 L
cp
S
GR
GS
0.851 0.325 0.098 RC
1 LJ
N
379.5 120.5 M
378.621 118.379 L
376.5 117.5 L
374.379 118.379 L
373.5 120.5 L
374.379 122.621 L
376.5 123.5 L
378.621 122.621 L
cp
S
GR
GS
0.851 0.325 0.098 RC
1 LJ
N
383.5 120.5 M
382.621 118.379 L
380.5 117.5 L
378.379 118.379 L
377.5 120.5 L
378.379 122.621 L
380.5 123.5 L
382.621 122.621 L
cp
S
GR
GS
0.851 0.325 0.098 RC
1 LJ
N
386.5 120.5 M
385.621 118.379 L
383.5 117.5 L
381.379 118.379 L
380.5 120.5 L
381.379 122.621 L
383.5 123.5 L
385.621 122.621 L
cp
S
GR
GS
0.851 0.325 0.098 RC
1 LJ
N
390.5 120.5 M
389.621 118.379 L
387.5 117.5 L
385.379 118.379 L
384.5 120.5 L
385.379 122.621 L
387.5 123.5 L
389.621 122.621 L
cp
S
GR
GS
0.851 0.325 0.098 RC
1 LJ
N
394.5 120.5 M
393.621 118.379 L
391.5 117.5 L
389.379 118.379 L
388.5 120.5 L
389.379 122.621 L
391.5 123.5 L
393.621 122.621 L
cp
S
GR
GS
0.851 0.325 0.098 RC
1 LJ
N
397.5 120.5 M
396.621 118.379 L
394.5 117.5 L
392.379 118.379 L
391.5 120.5 L
392.379 122.621 L
394.5 123.5 L
396.621 122.621 L
cp
S
GR
GS
0.851 0.325 0.098 RC
1 LJ
N
401.5 120.5 M
400.621 118.379 L
398.5 117.5 L
396.379 118.379 L
395.5 120.5 L
396.379 122.621 L
398.5 123.5 L
400.621 122.621 L
cp
S
GR
GS
0.851 0.325 0.098 RC
1 LJ
N
405.5 120.5 M
404.621 118.379 L
402.5 117.5 L
400.379 118.379 L
399.5 120.5 L
400.379 122.621 L
402.5 123.5 L
404.621 122.621 L
cp
S
GR
GS
0.851 0.325 0.098 RC
1 LJ
N
409.5 120.5 M
408.621 118.379 L
406.5 117.5 L
404.379 118.379 L
403.5 120.5 L
404.379 122.621 L
406.5 123.5 L
408.621 122.621 L
cp
S
GR
GS
0.851 0.325 0.098 RC
1 LJ
N
412.5 120.5 M
411.621 118.379 L
409.5 117.5 L
407.379 118.379 L
406.5 120.5 L
407.379 122.621 L
409.5 123.5 L
411.621 122.621 L
cp
S
GR
GS
0.851 0.325 0.098 RC
1 LJ
N
416.5 121.5 M
415.621 119.379 L
413.5 118.5 L
411.379 119.379 L
410.5 121.5 L
411.379 123.621 L
413.5 124.5 L
415.621 123.621 L
cp
S
GR
GS
0.851 0.325 0.098 RC
1 LJ
N
420.5 120.5 M
419.621 118.379 L
417.5 117.5 L
415.379 118.379 L
414.5 120.5 L
415.379 122.621 L
417.5 123.5 L
419.621 122.621 L
cp
S
GR
GS
0.851 0.325 0.098 RC
1 LJ
N
424.5 121.5 M
423.621 119.379 L
421.5 118.5 L
419.379 119.379 L
418.5 121.5 L
419.379 123.621 L
421.5 124.5 L
423.621 123.621 L
cp
S
GR
GS
0.851 0.325 0.098 RC
1 LJ
N
427.5 120.5 M
426.621 118.379 L
424.5 117.5 L
422.379 118.379 L
421.5 120.5 L
422.379 122.621 L
424.5 123.5 L
426.621 122.621 L
cp
S
GR
GS
0.851 0.325 0.098 RC
1 LJ
N
431.5 120.5 M
430.621 118.379 L
428.5 117.5 L
426.379 118.379 L
425.5 120.5 L
426.379 122.621 L
428.5 123.5 L
430.621 122.621 L
cp
S
GR
GS
0.851 0.325 0.098 RC
1 LJ
N
435.5 120.5 M
434.621 118.379 L
432.5 117.5 L
430.379 118.379 L
429.5 120.5 L
430.379 122.621 L
432.5 123.5 L
434.621 122.621 L
cp
S
GR
GS
0.851 0.325 0.098 RC
1 LJ
N
438.5 120.5 M
437.621 118.379 L
435.5 117.5 L
433.379 118.379 L
432.5 120.5 L
433.379 122.621 L
435.5 123.5 L
437.621 122.621 L
cp
S
GR
GS
0.851 0.325 0.098 RC
1 LJ
N
442.5 120.5 M
441.621 118.379 L
439.5 117.5 L
437.379 118.379 L
436.5 120.5 L
437.379 122.621 L
439.5 123.5 L
441.621 122.621 L
cp
S
GR
GS
0.851 0.325 0.098 RC
1 LJ
N
446.5 120.5 M
445.621 118.379 L
443.5 117.5 L
441.379 118.379 L
440.5 120.5 L
441.379 122.621 L
443.5 123.5 L
445.621 122.621 L
cp
S
GR
GS
0.851 0.325 0.098 RC
1 LJ
N
450.5 120.5 M
449.621 118.379 L
447.5 117.5 L
445.379 118.379 L
444.5 120.5 L
445.379 122.621 L
447.5 123.5 L
449.621 122.621 L
cp
S
GR
GS
0.851 0.325 0.098 RC
1 LJ
N
453.5 120.5 M
452.621 118.379 L
450.5 117.5 L
448.379 118.379 L
447.5 120.5 L
448.379 122.621 L
450.5 123.5 L
452.621 122.621 L
cp
S
GR
GS
0.929 0.694 0.125 RC
1 LJ
N
78.721 384 M
82.442 147.447 L
86.162 157.983 L
89.883 91.065 L
93.604 92.906 L
97.325 83.826 L
101.046 59.741 L
104.767 56.165 L
108.488 65.58 L
112.208 32.5 L
115.929 79.589 L
119.65 83.982 L
123.371 87.869 L
127.092 75.296 L
130.813 80.94 L
134.533 79.892 L
138.254 75.352 L
141.975 82.103 L
145.696 82.925 L
149.417 87.649 L
153.137 82.355 L
156.858 89.799 L
160.579 85.096 L
164.3 87.61 L
168.021 87.284 L
171.742 88.75 L
175.462 88.358 L
179.183 87.711 L
182.904 87.329 L
186.625 87.698 L
190.346 89.583 L
194.067 89.08 L
197.788 90.536 L
201.508 88.457 L
205.229 87.693 L
208.95 88.04 L
212.671 89.877 L
216.392 89.154 L
220.112 89.624 L
223.833 90.84 L
227.554 90.099 L
231.275 92.422 L
234.996 91.223 L
238.717 92.309 L
242.438 91.306 L
246.158 89.942 L
249.879 91.381 L
253.6 93.08 L
257.321 91.098 L
261.042 91.2 L
S
GR
GS
0.929 0.694 0.125 RC
1 LJ
N
257.321 91.098 M
261.042 91.2 L
264.763 92.357 L
268.483 92.483 L
272.204 91.962 L
275.925 92.068 L
279.646 91.62 L
283.367 91.3 L
287.087 91.48 L
290.808 91.198 L
294.529 91.801 L
298.25 91.958 L
301.971 91.939 L
305.692 91.327 L
309.412 92.009 L
313.133 92.123 L
316.854 92.075 L
320.575 91.938 L
324.296 91.868 L
328.017 92.254 L
331.737 92.235 L
335.458 92.097 L
339.179 92.014 L
342.9 92.007 L
346.621 91.951 L
350.342 91.841 L
354.063 91.772 L
357.783 91.888 L
361.504 91.863 L
365.225 91.649 L
368.946 91.617 L
372.667 91.7 L
376.388 91.718 L
380.108 91.878 L
383.829 91.794 L
387.55 91.646 L
391.271 91.579 L
394.992 91.746 L
398.713 91.809 L
402.433 91.717 L
406.154 91.759 L
409.875 91.658 L
413.596 91.674 L
417.317 91.667 L
421.037 91.605 L
424.758 91.574 L
428.479 91.606 L
432.2 91.59 L
435.921 91.596 L
439.642 91.569 L
443.362 91.497 L
447.083 91.501 L
S
GR
GS
0.929 0.694 0.125 RC
1 LJ
N
443.362 91.497 M
447.083 91.501 L
450.804 91.527 L
S
GR
GS
0.929 0.694 0.125 RC
1 LJ
N
81.5 383.5 M
80.621 381.379 L
78.5 380.5 L
76.379 381.379 L
75.5 383.5 L
76.379 385.621 L
78.5 386.5 L
80.621 385.621 L
cp
S
GR
GS
0.929 0.694 0.125 RC
1 LJ
N
85.5 147.5 M
84.621 145.379 L
82.5 144.5 L
80.379 145.379 L
79.5 147.5 L
80.379 149.621 L
82.5 150.5 L
84.621 149.621 L
cp
S
GR
GS
0.929 0.694 0.125 RC
1 LJ
N
89.5 157.5 M
88.621 155.379 L
86.5 154.5 L
84.379 155.379 L
83.5 157.5 L
84.379 159.621 L
86.5 160.5 L
88.621 159.621 L
cp
S
GR
GS
0.929 0.694 0.125 RC
1 LJ
N
92.5 91.5 M
91.621 89.379 L
89.5 88.5 L
87.379 89.379 L
86.5 91.5 L
87.379 93.621 L
89.5 94.5 L
91.621 93.621 L
cp
S
GR
GS
0.929 0.694 0.125 RC
1 LJ
N
96.5 92.5 M
95.621 90.379 L
93.5 89.5 L
91.379 90.379 L
90.5 92.5 L
91.379 94.621 L
93.5 95.5 L
95.621 94.621 L
cp
S
GR
GS
0.929 0.694 0.125 RC
1 LJ
N
100.5 83.5 M
99.621 81.379 L
97.5 80.5 L
95.379 81.379 L
94.5 83.5 L
95.379 85.621 L
97.5 86.5 L
99.621 85.621 L
cp
S
GR
GS
0.929 0.694 0.125 RC
1 LJ
N
104.5 59.5 M
103.621 57.379 L
101.5 56.5 L
99.379 57.379 L
98.5 59.5 L
99.379 61.621 L
101.5 62.5 L
103.621 61.621 L
cp
S
GR
GS
0.929 0.694 0.125 RC
1 LJ
N
107.5 56.5 M
106.621 54.379 L
104.5 53.5 L
102.379 54.379 L
101.5 56.5 L
102.379 58.621 L
104.5 59.5 L
106.621 58.621 L
cp
S
GR
GS
0.929 0.694 0.125 RC
1 LJ
N
111.5 65.5 M
110.621 63.379 L
108.5 62.5 L
106.379 63.379 L
105.5 65.5 L
106.379 67.621 L
108.5 68.5 L
110.621 67.621 L
cp
S
GR
GS
0.929 0.694 0.125 RC
1 LJ
N
115.5 32.5 M
114.621 30.379 L
112.5 29.5 L
110.379 30.379 L
109.5 32.5 L
110.379 34.621 L
112.5 35.5 L
114.621 34.621 L
cp
S
GR
GS
0.929 0.694 0.125 RC
1 LJ
N
118.5 79.5 M
117.621 77.379 L
115.5 76.5 L
113.379 77.379 L
112.5 79.5 L
113.379 81.621 L
115.5 82.5 L
117.621 81.621 L
cp
S
GR
GS
0.929 0.694 0.125 RC
1 LJ
N
122.5 83.5 M
121.621 81.379 L
119.5 80.5 L
117.379 81.379 L
116.5 83.5 L
117.379 85.621 L
119.5 86.5 L
121.621 85.621 L
cp
S
GR
GS
0.929 0.694 0.125 RC
1 LJ
N
126.5 87.5 M
125.621 85.379 L
123.5 84.5 L
121.379 85.379 L
120.5 87.5 L
121.379 89.621 L
123.5 90.5 L
125.621 89.621 L
cp
S
GR
GS
0.929 0.694 0.125 RC
1 LJ
N
130.5 75.5 M
129.621 73.379 L
127.5 72.5 L
125.379 73.379 L
124.5 75.5 L
125.379 77.621 L
127.5 78.5 L
129.621 77.621 L
cp
S
GR
GS
0.929 0.694 0.125 RC
1 LJ
N
133.5 80.5 M
132.621 78.379 L
130.5 77.5 L
128.379 78.379 L
127.5 80.5 L
128.379 82.621 L
130.5 83.5 L
132.621 82.621 L
cp
S
GR
GS
0.929 0.694 0.125 RC
1 LJ
N
137.5 79.5 M
136.621 77.379 L
134.5 76.5 L
132.379 77.379 L
131.5 79.5 L
132.379 81.621 L
134.5 82.5 L
136.621 81.621 L
cp
S
GR
GS
0.929 0.694 0.125 RC
1 LJ
N
141.5 75.5 M
140.621 73.379 L
138.5 72.5 L
136.379 73.379 L
135.5 75.5 L
136.379 77.621 L
138.5 78.5 L
140.621 77.621 L
cp
S
GR
GS
0.929 0.694 0.125 RC
1 LJ
N
144.5 82.5 M
143.621 80.379 L
141.5 79.5 L
139.379 80.379 L
138.5 82.5 L
139.379 84.621 L
141.5 85.5 L
143.621 84.621 L
cp
S
GR
GS
0.929 0.694 0.125 RC
1 LJ
N
148.5 82.5 M
147.621 80.379 L
145.5 79.5 L
143.379 80.379 L
142.5 82.5 L
143.379 84.621 L
145.5 85.5 L
147.621 84.621 L
cp
S
GR
GS
0.929 0.694 0.125 RC
1 LJ
N
152.5 87.5 M
151.621 85.379 L
149.5 84.5 L
147.379 85.379 L
146.5 87.5 L
147.379 89.621 L
149.5 90.5 L
151.621 89.621 L
cp
S
GR
GS
0.929 0.694 0.125 RC
1 LJ
N
156.5 82.5 M
155.621 80.379 L
153.5 79.5 L
151.379 80.379 L
150.5 82.5 L
151.379 84.621 L
153.5 85.5 L
155.621 84.621 L
cp
S
GR
GS
0.929 0.694 0.125 RC
1 LJ
N
159.5 89.5 M
158.621 87.379 L
156.5 86.5 L
154.379 87.379 L
153.5 89.5 L
154.379 91.621 L
156.5 92.5 L
158.621 91.621 L
cp
S
GR
GS
0.929 0.694 0.125 RC
1 LJ
N
163.5 85.5 M
162.621 83.379 L
160.5 82.5 L
158.379 83.379 L
157.5 85.5 L
158.379 87.621 L
160.5 88.5 L
162.621 87.621 L
cp
S
GR
GS
0.929 0.694 0.125 RC
1 LJ
N
167.5 87.5 M
166.621 85.379 L
164.5 84.5 L
162.379 85.379 L
161.5 87.5 L
162.379 89.621 L
164.5 90.5 L
166.621 89.621 L
cp
S
GR
GS
0.929 0.694 0.125 RC
1 LJ
N
171.5 87.5 M
170.621 85.379 L
168.5 84.5 L
166.379 85.379 L
165.5 87.5 L
166.379 89.621 L
168.5 90.5 L
170.621 89.621 L
cp
S
GR
GS
0.929 0.694 0.125 RC
1 LJ
N
174.5 88.5 M
173.621 86.379 L
171.5 85.5 L
169.379 86.379 L
168.5 88.5 L
169.379 90.621 L
171.5 91.5 L
173.621 90.621 L
cp
S
GR
GS
0.929 0.694 0.125 RC
1 LJ
N
178.5 88.5 M
177.621 86.379 L
175.5 85.5 L
173.379 86.379 L
172.5 88.5 L
173.379 90.621 L
175.5 91.5 L
177.621 90.621 L
cp
S
GR
GS
0.929 0.694 0.125 RC
1 LJ
N
182.5 87.5 M
181.621 85.379 L
179.5 84.5 L
177.379 85.379 L
176.5 87.5 L
177.379 89.621 L
179.5 90.5 L
181.621 89.621 L
cp
S
GR
GS
0.929 0.694 0.125 RC
1 LJ
N
185.5 87.5 M
184.621 85.379 L
182.5 84.5 L
180.379 85.379 L
179.5 87.5 L
180.379 89.621 L
182.5 90.5 L
184.621 89.621 L
cp
S
GR
GS
0.929 0.694 0.125 RC
1 LJ
N
189.5 87.5 M
188.621 85.379 L
186.5 84.5 L
184.379 85.379 L
183.5 87.5 L
184.379 89.621 L
186.5 90.5 L
188.621 89.621 L
cp
S
GR
GS
0.929 0.694 0.125 RC
1 LJ
N
193.5 89.5 M
192.621 87.379 L
190.5 86.5 L
188.379 87.379 L
187.5 89.5 L
188.379 91.621 L
190.5 92.5 L
192.621 91.621 L
cp
S
GR
GS
0.929 0.694 0.125 RC
1 LJ
N
197.5 89.5 M
196.621 87.379 L
194.5 86.5 L
192.379 87.379 L
191.5 89.5 L
192.379 91.621 L
194.5 92.5 L
196.621 91.621 L
cp
S
GR
GS
0.929 0.694 0.125 RC
1 LJ
N
200.5 90.5 M
199.621 88.379 L
197.5 87.5 L
195.379 88.379 L
194.5 90.5 L
195.379 92.621 L
197.5 93.5 L
199.621 92.621 L
cp
S
GR
GS
0.929 0.694 0.125 RC
1 LJ
N
204.5 88.5 M
203.621 86.379 L
201.5 85.5 L
199.379 86.379 L
198.5 88.5 L
199.379 90.621 L
201.5 91.5 L
203.621 90.621 L
cp
S
GR
GS
0.929 0.694 0.125 RC
1 LJ
N
208.5 87.5 M
207.621 85.379 L
205.5 84.5 L
203.379 85.379 L
202.5 87.5 L
203.379 89.621 L
205.5 90.5 L
207.621 89.621 L
cp
S
GR
GS
0.929 0.694 0.125 RC
1 LJ
N
211.5 88.5 M
210.621 86.379 L
208.5 85.5 L
206.379 86.379 L
205.5 88.5 L
206.379 90.621 L
208.5 91.5 L
210.621 90.621 L
cp
S
GR
GS
0.929 0.694 0.125 RC
1 LJ
N
215.5 89.5 M
214.621 87.379 L
212.5 86.5 L
210.379 87.379 L
209.5 89.5 L
210.379 91.621 L
212.5 92.5 L
214.621 91.621 L
cp
S
GR
GS
0.929 0.694 0.125 RC
1 LJ
N
219.5 89.5 M
218.621 87.379 L
216.5 86.5 L
214.379 87.379 L
213.5 89.5 L
214.379 91.621 L
216.5 92.5 L
218.621 91.621 L
cp
S
GR
GS
0.929 0.694 0.125 RC
1 LJ
N
223.5 89.5 M
222.621 87.379 L
220.5 86.5 L
218.379 87.379 L
217.5 89.5 L
218.379 91.621 L
220.5 92.5 L
222.621 91.621 L
cp
S
GR
GS
0.929 0.694 0.125 RC
1 LJ
N
226.5 90.5 M
225.621 88.379 L
223.5 87.5 L
221.379 88.379 L
220.5 90.5 L
221.379 92.621 L
223.5 93.5 L
225.621 92.621 L
cp
S
GR
GS
0.929 0.694 0.125 RC
1 LJ
N
230.5 90.5 M
229.621 88.379 L
227.5 87.5 L
225.379 88.379 L
224.5 90.5 L
225.379 92.621 L
227.5 93.5 L
229.621 92.621 L
cp
S
GR
GS
0.929 0.694 0.125 RC
1 LJ
N
234.5 92.5 M
233.621 90.379 L
231.5 89.5 L
229.379 90.379 L
228.5 92.5 L
229.379 94.621 L
231.5 95.5 L
233.621 94.621 L
cp
S
GR
GS
0.929 0.694 0.125 RC
1 LJ
N
237.5 91.5 M
236.621 89.379 L
234.5 88.5 L
232.379 89.379 L
231.5 91.5 L
232.379 93.621 L
234.5 94.5 L
236.621 93.621 L
cp
S
GR
GS
0.929 0.694 0.125 RC
1 LJ
N
241.5 92.5 M
240.621 90.379 L
238.5 89.5 L
236.379 90.379 L
235.5 92.5 L
236.379 94.621 L
238.5 95.5 L
240.621 94.621 L
cp
S
GR
GS
0.929 0.694 0.125 RC
1 LJ
N
245.5 91.5 M
244.621 89.379 L
242.5 88.5 L
240.379 89.379 L
239.5 91.5 L
240.379 93.621 L
242.5 94.5 L
244.621 93.621 L
cp
S
GR
GS
0.929 0.694 0.125 RC
1 LJ
N
249.5 89.5 M
248.621 87.379 L
246.5 86.5 L
244.379 87.379 L
243.5 89.5 L
244.379 91.621 L
246.5 92.5 L
248.621 91.621 L
cp
S
GR
GS
0.929 0.694 0.125 RC
1 LJ
N
252.5 91.5 M
251.621 89.379 L
249.5 88.5 L
247.379 89.379 L
246.5 91.5 L
247.379 93.621 L
249.5 94.5 L
251.621 93.621 L
cp
S
GR
GS
0.929 0.694 0.125 RC
1 LJ
N
256.5 93.5 M
255.621 91.379 L
253.5 90.5 L
251.379 91.379 L
250.5 93.5 L
251.379 95.621 L
253.5 96.5 L
255.621 95.621 L
cp
S
GR
GS
0.929 0.694 0.125 RC
1 LJ
N
260.5 91.5 M
259.621 89.379 L
257.5 88.5 L
255.379 89.379 L
254.5 91.5 L
255.379 93.621 L
257.5 94.5 L
259.621 93.621 L
cp
S
GR
GS
0.929 0.694 0.125 RC
1 LJ
N
264.5 91.5 M
263.621 89.379 L
261.5 88.5 L
259.379 89.379 L
258.5 91.5 L
259.379 93.621 L
261.5 94.5 L
263.621 93.621 L
cp
S
GR
GS
0.929 0.694 0.125 RC
1 LJ
N
267.5 92.5 M
266.621 90.379 L
264.5 89.5 L
262.379 90.379 L
261.5 92.5 L
262.379 94.621 L
264.5 95.5 L
266.621 94.621 L
cp
S
GR
GS
0.929 0.694 0.125 RC
1 LJ
N
271.5 92.5 M
270.621 90.379 L
268.5 89.5 L
266.379 90.379 L
265.5 92.5 L
266.379 94.621 L
268.5 95.5 L
270.621 94.621 L
cp
S
GR
GS
0.929 0.694 0.125 RC
1 LJ
N
275.5 91.5 M
274.621 89.379 L
272.5 88.5 L
270.379 89.379 L
269.5 91.5 L
270.379 93.621 L
272.5 94.5 L
274.621 93.621 L
cp
S
GR
GS
0.929 0.694 0.125 RC
1 LJ
N
278.5 92.5 M
277.621 90.379 L
275.5 89.5 L
273.379 90.379 L
272.5 92.5 L
273.379 94.621 L
275.5 95.5 L
277.621 94.621 L
cp
S
GR
GS
0.929 0.694 0.125 RC
1 LJ
N
282.5 91.5 M
281.621 89.379 L
279.5 88.5 L
277.379 89.379 L
276.5 91.5 L
277.379 93.621 L
279.5 94.5 L
281.621 93.621 L
cp
S
GR
GS
0.929 0.694 0.125 RC
1 LJ
N
286.5 91.5 M
285.621 89.379 L
283.5 88.5 L
281.379 89.379 L
280.5 91.5 L
281.379 93.621 L
283.5 94.5 L
285.621 93.621 L
cp
S
GR
GS
0.929 0.694 0.125 RC
1 LJ
N
290.5 91.5 M
289.621 89.379 L
287.5 88.5 L
285.379 89.379 L
284.5 91.5 L
285.379 93.621 L
287.5 94.5 L
289.621 93.621 L
cp
S
GR
GS
0.929 0.694 0.125 RC
1 LJ
N
293.5 91.5 M
292.621 89.379 L
290.5 88.5 L
288.379 89.379 L
287.5 91.5 L
288.379 93.621 L
290.5 94.5 L
292.621 93.621 L
cp
S
GR
GS
0.929 0.694 0.125 RC
1 LJ
N
297.5 91.5 M
296.621 89.379 L
294.5 88.5 L
292.379 89.379 L
291.5 91.5 L
292.379 93.621 L
294.5 94.5 L
296.621 93.621 L
cp
S
GR
GS
0.929 0.694 0.125 RC
1 LJ
N
301.5 91.5 M
300.621 89.379 L
298.5 88.5 L
296.379 89.379 L
295.5 91.5 L
296.379 93.621 L
298.5 94.5 L
300.621 93.621 L
cp
S
GR
GS
0.929 0.694 0.125 RC
1 LJ
N
304.5 91.5 M
303.621 89.379 L
301.5 88.5 L
299.379 89.379 L
298.5 91.5 L
299.379 93.621 L
301.5 94.5 L
303.621 93.621 L
cp
S
GR
GS
0.929 0.694 0.125 RC
1 LJ
N
308.5 91.5 M
307.621 89.379 L
305.5 88.5 L
303.379 89.379 L
302.5 91.5 L
303.379 93.621 L
305.5 94.5 L
307.621 93.621 L
cp
S
GR
GS
0.929 0.694 0.125 RC
1 LJ
N
312.5 92.5 M
311.621 90.379 L
309.5 89.5 L
307.379 90.379 L
306.5 92.5 L
307.379 94.621 L
309.5 95.5 L
311.621 94.621 L
cp
S
GR
GS
0.929 0.694 0.125 RC
1 LJ
N
316.5 92.5 M
315.621 90.379 L
313.5 89.5 L
311.379 90.379 L
310.5 92.5 L
311.379 94.621 L
313.5 95.5 L
315.621 94.621 L
cp
S
GR
GS
0.929 0.694 0.125 RC
1 LJ
N
319.5 92.5 M
318.621 90.379 L
316.5 89.5 L
314.379 90.379 L
313.5 92.5 L
314.379 94.621 L
316.5 95.5 L
318.621 94.621 L
cp
S
GR
GS
0.929 0.694 0.125 RC
1 LJ
N
323.5 91.5 M
322.621 89.379 L
320.5 88.5 L
318.379 89.379 L
317.5 91.5 L
318.379 93.621 L
320.5 94.5 L
322.621 93.621 L
cp
S
GR
GS
0.929 0.694 0.125 RC
1 LJ
N
327.5 91.5 M
326.621 89.379 L
324.5 88.5 L
322.379 89.379 L
321.5 91.5 L
322.379 93.621 L
324.5 94.5 L
326.621 93.621 L
cp
S
GR
GS
0.929 0.694 0.125 RC
1 LJ
N
331.5 92.5 M
330.621 90.379 L
328.5 89.5 L
326.379 90.379 L
325.5 92.5 L
326.379 94.621 L
328.5 95.5 L
330.621 94.621 L
cp
S
GR
GS
0.929 0.694 0.125 RC
1 LJ
N
334.5 92.5 M
333.621 90.379 L
331.5 89.5 L
329.379 90.379 L
328.5 92.5 L
329.379 94.621 L
331.5 95.5 L
333.621 94.621 L
cp
S
GR
GS
0.929 0.694 0.125 RC
1 LJ
N
338.5 92.5 M
337.621 90.379 L
335.5 89.5 L
333.379 90.379 L
332.5 92.5 L
333.379 94.621 L
335.5 95.5 L
337.621 94.621 L
cp
S
GR
GS
0.929 0.694 0.125 RC
1 LJ
N
342.5 92.5 M
341.621 90.379 L
339.5 89.5 L
337.379 90.379 L
336.5 92.5 L
337.379 94.621 L
339.5 95.5 L
341.621 94.621 L
cp
S
GR
GS
0.929 0.694 0.125 RC
1 LJ
N
345.5 92.5 M
344.621 90.379 L
342.5 89.5 L
340.379 90.379 L
339.5 92.5 L
340.379 94.621 L
342.5 95.5 L
344.621 94.621 L
cp
S
GR
GS
0.929 0.694 0.125 RC
1 LJ
N
349.5 91.5 M
348.621 89.379 L
346.5 88.5 L
344.379 89.379 L
343.5 91.5 L
344.379 93.621 L
346.5 94.5 L
348.621 93.621 L
cp
S
GR
GS
0.929 0.694 0.125 RC
1 LJ
N
353.5 91.5 M
352.621 89.379 L
350.5 88.5 L
348.379 89.379 L
347.5 91.5 L
348.379 93.621 L
350.5 94.5 L
352.621 93.621 L
cp
S
GR
GS
0.929 0.694 0.125 RC
1 LJ
N
357.5 91.5 M
356.621 89.379 L
354.5 88.5 L
352.379 89.379 L
351.5 91.5 L
352.379 93.621 L
354.5 94.5 L
356.621 93.621 L
cp
S
GR
GS
0.929 0.694 0.125 RC
1 LJ
N
360.5 91.5 M
359.621 89.379 L
357.5 88.5 L
355.379 89.379 L
354.5 91.5 L
355.379 93.621 L
357.5 94.5 L
359.621 93.621 L
cp
S
GR
GS
0.929 0.694 0.125 RC
1 LJ
N
364.5 91.5 M
363.621 89.379 L
361.5 88.5 L
359.379 89.379 L
358.5 91.5 L
359.379 93.621 L
361.5 94.5 L
363.621 93.621 L
cp
S
GR
GS
0.929 0.694 0.125 RC
1 LJ
N
368.5 91.5 M
367.621 89.379 L
365.5 88.5 L
363.379 89.379 L
362.5 91.5 L
363.379 93.621 L
365.5 94.5 L
367.621 93.621 L
cp
S
GR
GS
0.929 0.694 0.125 RC
1 LJ
N
371.5 91.5 M
370.621 89.379 L
368.5 88.5 L
366.379 89.379 L
365.5 91.5 L
366.379 93.621 L
368.5 94.5 L
370.621 93.621 L
cp
S
GR
GS
0.929 0.694 0.125 RC
1 LJ
N
375.5 91.5 M
374.621 89.379 L
372.5 88.5 L
370.379 89.379 L
369.5 91.5 L
370.379 93.621 L
372.5 94.5 L
374.621 93.621 L
cp
S
GR
GS
0.929 0.694 0.125 RC
1 LJ
N
379.5 91.5 M
378.621 89.379 L
376.5 88.5 L
374.379 89.379 L
373.5 91.5 L
374.379 93.621 L
376.5 94.5 L
378.621 93.621 L
cp
S
GR
GS
0.929 0.694 0.125 RC
1 LJ
N
383.5 91.5 M
382.621 89.379 L
380.5 88.5 L
378.379 89.379 L
377.5 91.5 L
378.379 93.621 L
380.5 94.5 L
382.621 93.621 L
cp
S
GR
GS
0.929 0.694 0.125 RC
1 LJ
N
386.5 91.5 M
385.621 89.379 L
383.5 88.5 L
381.379 89.379 L
380.5 91.5 L
381.379 93.621 L
383.5 94.5 L
385.621 93.621 L
cp
S
GR
GS
0.929 0.694 0.125 RC
1 LJ
N
390.5 91.5 M
389.621 89.379 L
387.5 88.5 L
385.379 89.379 L
384.5 91.5 L
385.379 93.621 L
387.5 94.5 L
389.621 93.621 L
cp
S
GR
GS
0.929 0.694 0.125 RC
1 LJ
N
394.5 91.5 M
393.621 89.379 L
391.5 88.5 L
389.379 89.379 L
388.5 91.5 L
389.379 93.621 L
391.5 94.5 L
393.621 93.621 L
cp
S
GR
GS
0.929 0.694 0.125 RC
1 LJ
N
397.5 91.5 M
396.621 89.379 L
394.5 88.5 L
392.379 89.379 L
391.5 91.5 L
392.379 93.621 L
394.5 94.5 L
396.621 93.621 L
cp
S
GR
GS
0.929 0.694 0.125 RC
1 LJ
N
401.5 91.5 M
400.621 89.379 L
398.5 88.5 L
396.379 89.379 L
395.5 91.5 L
396.379 93.621 L
398.5 94.5 L
400.621 93.621 L
cp
S
GR
GS
0.929 0.694 0.125 RC
1 LJ
N
405.5 91.5 M
404.621 89.379 L
402.5 88.5 L
400.379 89.379 L
399.5 91.5 L
400.379 93.621 L
402.5 94.5 L
404.621 93.621 L
cp
S
GR
GS
0.929 0.694 0.125 RC
1 LJ
N
409.5 91.5 M
408.621 89.379 L
406.5 88.5 L
404.379 89.379 L
403.5 91.5 L
404.379 93.621 L
406.5 94.5 L
408.621 93.621 L
cp
S
GR
GS
0.929 0.694 0.125 RC
1 LJ
N
412.5 91.5 M
411.621 89.379 L
409.5 88.5 L
407.379 89.379 L
406.5 91.5 L
407.379 93.621 L
409.5 94.5 L
411.621 93.621 L
cp
S
GR
GS
0.929 0.694 0.125 RC
1 LJ
N
416.5 91.5 M
415.621 89.379 L
413.5 88.5 L
411.379 89.379 L
410.5 91.5 L
411.379 93.621 L
413.5 94.5 L
415.621 93.621 L
cp
S
GR
GS
0.929 0.694 0.125 RC
1 LJ
N
420.5 91.5 M
419.621 89.379 L
417.5 88.5 L
415.379 89.379 L
414.5 91.5 L
415.379 93.621 L
417.5 94.5 L
419.621 93.621 L
cp
S
GR
GS
0.929 0.694 0.125 RC
1 LJ
N
424.5 91.5 M
423.621 89.379 L
421.5 88.5 L
419.379 89.379 L
418.5 91.5 L
419.379 93.621 L
421.5 94.5 L
423.621 93.621 L
cp
S
GR
GS
0.929 0.694 0.125 RC
1 LJ
N
427.5 91.5 M
426.621 89.379 L
424.5 88.5 L
422.379 89.379 L
421.5 91.5 L
422.379 93.621 L
424.5 94.5 L
426.621 93.621 L
cp
S
GR
GS
0.929 0.694 0.125 RC
1 LJ
N
431.5 91.5 M
430.621 89.379 L
428.5 88.5 L
426.379 89.379 L
425.5 91.5 L
426.379 93.621 L
428.5 94.5 L
430.621 93.621 L
cp
S
GR
GS
0.929 0.694 0.125 RC
1 LJ
N
435.5 91.5 M
434.621 89.379 L
432.5 88.5 L
430.379 89.379 L
429.5 91.5 L
430.379 93.621 L
432.5 94.5 L
434.621 93.621 L
cp
S
GR
GS
0.929 0.694 0.125 RC
1 LJ
N
438.5 91.5 M
437.621 89.379 L
435.5 88.5 L
433.379 89.379 L
432.5 91.5 L
433.379 93.621 L
435.5 94.5 L
437.621 93.621 L
cp
S
GR
GS
0.929 0.694 0.125 RC
1 LJ
N
442.5 91.5 M
441.621 89.379 L
439.5 88.5 L
437.379 89.379 L
436.5 91.5 L
437.379 93.621 L
439.5 94.5 L
441.621 93.621 L
cp
S
GR
GS
0.929 0.694 0.125 RC
1 LJ
N
446.5 91.5 M
445.621 89.379 L
443.5 88.5 L
441.379 89.379 L
440.5 91.5 L
441.379 93.621 L
443.5 94.5 L
445.621 93.621 L
cp
S
GR
GS
0.929 0.694 0.125 RC
1 LJ
N
450.5 91.5 M
449.621 89.379 L
447.5 88.5 L
445.379 89.379 L
444.5 91.5 L
445.379 93.621 L
447.5 94.5 L
449.621 93.621 L
cp
S
GR
GS
0.929 0.694 0.125 RC
1 LJ
N
453.5 91.5 M
452.621 89.379 L
450.5 88.5 L
448.379 89.379 L
447.5 91.5 L
448.379 93.621 L
450.5 94.5 L
452.621 93.621 L
cp
S
GR
GS
[1 0 0 1 360 53.75] CT
/Helvetica 18 F
GS
[1 0 0 1 0 0] CT
0 4.5 moveto 
1 -1 scale
(Random shuffling) t 
GR
GR
GS
0 0.447 0.741 RC
1 LJ
N
327 53.75 M
357 53.75 L
S
GR
GS
0 0.447 0.741 RC
1 LJ
N
344.5 53.5 M
343.621 51.379 L
341.5 50.5 L
339.379 51.379 L
338.5 53.5 L
339.379 55.621 L
341.5 56.5 L
343.621 55.621 L
cp
S
GR
GS
[1 0 0 1 360 72.75] CT
/Helvetica 18 F
GS
[1 0 0 1 0 0] CT
0 4.5 moveto 
1 -1 scale
(Smart shuffling) t 
GR
GR
GS
0.851 0.325 0.098 RC
1 LJ
N
327 72.75 M
357 72.75 L
S
GR
GS
0.851 0.325 0.098 RC
1 LJ
N
344.5 72.5 M
343.621 70.379 L
341.5 69.5 L
339.379 70.379 L
338.5 72.5 L
339.379 74.621 L
341.5 75.5 L
343.621 74.621 L
cp
S
GR
GS
[1 0 0 1 360 91.75] CT
/Helvetica 18 F
GS
[1 0 0 1 0 0] CT
0 4.5 moveto 
1 -1 scale
(Weighted shuffling) t 
GR
GR
GS
0.929 0.694 0.125 RC
1 LJ
N
327 91.75 M
357 91.75 L
S
GR
GS
0.929 0.694 0.125 RC
1 LJ
N
344.5 91.5 M
343.621 89.379 L
341.5 88.5 L
339.379 89.379 L
338.5 91.5 L
339.379 93.621 L
341.5 94.5 L
343.621 93.621 L
cp
S
GR
%%Trailer
%%Pages: 1
%%EOF
