%!PS-Adobe-3.0 EPSF-3.0
%%Creator: (MATLAB, The Mathworks, Inc. Version 8.6.0.267246 \(R2015b\). Operating System: Mac OS X)
%%Title: /Users/gauthiermuguerza/Desktop/rsgd/report/images/compareALS.eps
%%CreationDate: 2018-05-27T12:34:05
%%Pages: (atend)
%%BoundingBox:    23    10   530   419
%%LanguageLevel: 3
%%EndComments
%%BeginProlog
%%BeginResource: procset (Apache XML Graphics Std ProcSet) 1.2 0
%%Version: 1.2 0
%%Copyright: (Copyright 2001-2003,2010 The Apache Software Foundation. License terms: http://www.apache.org/licenses/LICENSE-2.0)
/bd{bind def}bind def
/ld{load def}bd
/GR/grestore ld
/M/moveto ld
/LJ/setlinejoin ld
/C/curveto ld
/f/fill ld
/LW/setlinewidth ld
/GC/setgray ld
/t/show ld
/N/newpath ld
/CT/concat ld
/cp/closepath ld
/S/stroke ld
/L/lineto ld
/CC/setcmykcolor ld
/A/ashow ld
/GS/gsave ld
/RC/setrgbcolor ld
/RM/rmoveto ld
/ML/setmiterlimit ld
/re {4 2 roll M
1 index 0 rlineto
0 exch rlineto
neg 0 rlineto
cp } bd
/_ctm matrix def
/_tm matrix def
/BT { _ctm currentmatrix pop matrix _tm copy pop 0 0 moveto } bd
/ET { _ctm setmatrix } bd
/iTm { _ctm setmatrix _tm concat } bd
/Tm { _tm astore pop iTm 0 0 moveto } bd
/ux 0.0 def
/uy 0.0 def
/F {
  /Tp exch def
  /Tf exch def
  Tf findfont Tp scalefont setfont
  /cf Tf def  /cs Tp def
} bd
/ULS {currentpoint /uy exch def /ux exch def} bd
/ULE {
  /Tcx currentpoint pop def
  gsave
  newpath
  cf findfont cs scalefont dup
  /FontMatrix get 0 get /Ts exch def /FontInfo get dup
  /UnderlinePosition get Ts mul /To exch def
  /UnderlineThickness get Ts mul /Tt exch def
  ux uy To add moveto  Tcx uy To add lineto
  Tt setlinewidth stroke
  grestore
} bd
/OLE {
  /Tcx currentpoint pop def
  gsave
  newpath
  cf findfont cs scalefont dup
  /FontMatrix get 0 get /Ts exch def /FontInfo get dup
  /UnderlinePosition get Ts mul /To exch def
  /UnderlineThickness get Ts mul /Tt exch def
  ux uy To add cs add moveto Tcx uy To add cs add lineto
  Tt setlinewidth stroke
  grestore
} bd
/SOE {
  /Tcx currentpoint pop def
  gsave
  newpath
  cf findfont cs scalefont dup
  /FontMatrix get 0 get /Ts exch def /FontInfo get dup
  /UnderlinePosition get Ts mul /To exch def
  /UnderlineThickness get Ts mul /Tt exch def
  ux uy To add cs 10 mul 26 idiv add moveto Tcx uy To add cs 10 mul 26 idiv add lineto
  Tt setlinewidth stroke
  grestore
} bd
/QT {
/Y22 exch store
/X22 exch store
/Y21 exch store
/X21 exch store
currentpoint
/Y21 load 2 mul add 3 div exch
/X21 load 2 mul add 3 div exch
/X21 load 2 mul /X22 load add 3 div
/Y21 load 2 mul /Y22 load add 3 div
/X22 load /Y22 load curveto
} bd
/SSPD {
dup length /d exch dict def
{
/v exch def
/k exch def
currentpagedevice k known {
/cpdv currentpagedevice k get def
v cpdv ne {
/upd false def
/nullv v type /nulltype eq def
/nullcpdv cpdv type /nulltype eq def
nullv nullcpdv or
{
/upd true def
} {
/sametype v type cpdv type eq def
sametype {
v type /arraytype eq {
/vlen v length def
/cpdvlen cpdv length def
vlen cpdvlen eq {
0 1 vlen 1 sub {
/i exch def
/obj v i get def
/cpdobj cpdv i get def
obj cpdobj ne {
/upd true def
exit
} if
} for
} {
/upd true def
} ifelse
} {
v type /dicttype eq {
v {
/dv exch def
/dk exch def
/cpddv cpdv dk get def
dv cpddv ne {
/upd true def
exit
} if
} forall
} {
/upd true def
} ifelse
} ifelse
} if
} ifelse
upd true eq {
d k v put
} if
} if
} if
} forall
d length 0 gt {
d setpagedevice
} if
} bd
%%EndResource
%%BeginResource: procset (Apache XML Graphics EPS ProcSet) 1.0 0
%%Version: 1.0 0
%%Copyright: (Copyright 2002-2003 The Apache Software Foundation. License terms: http://www.apache.org/licenses/LICENSE-2.0)
/BeginEPSF { %def
/b4_Inc_state save def         % Save state for cleanup
/dict_count countdictstack def % Count objects on dict stack
/op_count count 1 sub def      % Count objects on operand stack
userdict begin                 % Push userdict on dict stack
/showpage { } def              % Redefine showpage, { } = null proc
0 setgray 0 setlinecap         % Prepare graphics state
1 setlinewidth 0 setlinejoin
10 setmiterlimit [ ] 0 setdash newpath
/languagelevel where           % If level not equal to 1 then
{pop languagelevel             % set strokeadjust and
1 ne                           % overprint to their defaults.
{false setstrokeadjust false setoverprint
} if
} if
} bd
/EndEPSF { %def
count op_count sub {pop} repeat            % Clean up stacks
countdictstack dict_count sub {end} repeat
b4_Inc_state restore
} bd
%%EndResource
%FOPBeginFontDict
%%IncludeResource: font Courier-Bold
%%IncludeResource: font Helvetica
%%IncludeResource: font Courier-BoldOblique
%%IncludeResource: font Courier-Oblique
%%IncludeResource: font Times-Roman
%%IncludeResource: font Helvetica-BoldOblique
%%IncludeResource: font Helvetica-Bold
%%IncludeResource: font Helvetica-Oblique
%%IncludeResource: font Times-BoldItalic
%%IncludeResource: font Courier
%%IncludeResource: font Times-Italic
%%IncludeResource: font Times-Bold
%%IncludeResource: font Symbol
%%IncludeResource: font ZapfDingbats
%FOPEndFontDict
%%BeginResource: encoding WinAnsiEncoding
/WinAnsiEncoding [
/.notdef /.notdef /.notdef /.notdef /.notdef
/.notdef /.notdef /.notdef /.notdef /.notdef
/.notdef /.notdef /.notdef /.notdef /.notdef
/.notdef /.notdef /.notdef /.notdef /.notdef
/.notdef /.notdef /.notdef /.notdef /.notdef
/.notdef /.notdef /.notdef /.notdef /.notdef
/.notdef /.notdef /space /exclam /quotedbl
/numbersign /dollar /percent /ampersand /quotesingle
/parenleft /parenright /asterisk /plus /comma
/hyphen /period /slash /zero /one
/two /three /four /five /six
/seven /eight /nine /colon /semicolon
/less /equal /greater /question /at
/A /B /C /D /E
/F /G /H /I /J
/K /L /M /N /O
/P /Q /R /S /T
/U /V /W /X /Y
/Z /bracketleft /backslash /bracketright /asciicircum
/underscore /quoteleft /a /b /c
/d /e /f /g /h
/i /j /k /l /m
/n /o /p /q /r
/s /t /u /v /w
/x /y /z /braceleft /bar
/braceright /asciitilde /bullet /Euro /bullet
/quotesinglbase /florin /quotedblbase /ellipsis /dagger
/daggerdbl /circumflex /perthousand /Scaron /guilsinglleft
/OE /bullet /Zcaron /bullet /bullet
/quoteleft /quoteright /quotedblleft /quotedblright /bullet
/endash /emdash /asciitilde /trademark /scaron
/guilsinglright /oe /bullet /zcaron /Ydieresis
/space /exclamdown /cent /sterling /currency
/yen /brokenbar /section /dieresis /copyright
/ordfeminine /guillemotleft /logicalnot /sfthyphen /registered
/macron /degree /plusminus /twosuperior /threesuperior
/acute /mu /paragraph /middot /cedilla
/onesuperior /ordmasculine /guillemotright /onequarter /onehalf
/threequarters /questiondown /Agrave /Aacute /Acircumflex
/Atilde /Adieresis /Aring /AE /Ccedilla
/Egrave /Eacute /Ecircumflex /Edieresis /Igrave
/Iacute /Icircumflex /Idieresis /Eth /Ntilde
/Ograve /Oacute /Ocircumflex /Otilde /Odieresis
/multiply /Oslash /Ugrave /Uacute /Ucircumflex
/Udieresis /Yacute /Thorn /germandbls /agrave
/aacute /acircumflex /atilde /adieresis /aring
/ae /ccedilla /egrave /eacute /ecircumflex
/edieresis /igrave /iacute /icircumflex /idieresis
/eth /ntilde /ograve /oacute /ocircumflex
/otilde /odieresis /divide /oslash /ugrave
/uacute /ucircumflex /udieresis /yacute /thorn
/ydieresis
] def
%%EndResource
%FOPBeginFontReencode
/Courier-Bold findfont
dup length dict begin
  {1 index /FID ne {def} {pop pop} ifelse} forall
  /Encoding WinAnsiEncoding def
  currentdict
end
/Courier-Bold exch definefont pop
/Helvetica findfont
dup length dict begin
  {1 index /FID ne {def} {pop pop} ifelse} forall
  /Encoding WinAnsiEncoding def
  currentdict
end
/Helvetica exch definefont pop
/Courier-BoldOblique findfont
dup length dict begin
  {1 index /FID ne {def} {pop pop} ifelse} forall
  /Encoding WinAnsiEncoding def
  currentdict
end
/Courier-BoldOblique exch definefont pop
/Courier-Oblique findfont
dup length dict begin
  {1 index /FID ne {def} {pop pop} ifelse} forall
  /Encoding WinAnsiEncoding def
  currentdict
end
/Courier-Oblique exch definefont pop
/Times-Roman findfont
dup length dict begin
  {1 index /FID ne {def} {pop pop} ifelse} forall
  /Encoding WinAnsiEncoding def
  currentdict
end
/Times-Roman exch definefont pop
/Helvetica-BoldOblique findfont
dup length dict begin
  {1 index /FID ne {def} {pop pop} ifelse} forall
  /Encoding WinAnsiEncoding def
  currentdict
end
/Helvetica-BoldOblique exch definefont pop
/Helvetica-Bold findfont
dup length dict begin
  {1 index /FID ne {def} {pop pop} ifelse} forall
  /Encoding WinAnsiEncoding def
  currentdict
end
/Helvetica-Bold exch definefont pop
/Helvetica-Oblique findfont
dup length dict begin
  {1 index /FID ne {def} {pop pop} ifelse} forall
  /Encoding WinAnsiEncoding def
  currentdict
end
/Helvetica-Oblique exch definefont pop
/Times-BoldItalic findfont
dup length dict begin
  {1 index /FID ne {def} {pop pop} ifelse} forall
  /Encoding WinAnsiEncoding def
  currentdict
end
/Times-BoldItalic exch definefont pop
/Courier findfont
dup length dict begin
  {1 index /FID ne {def} {pop pop} ifelse} forall
  /Encoding WinAnsiEncoding def
  currentdict
end
/Courier exch definefont pop
/Times-Italic findfont
dup length dict begin
  {1 index /FID ne {def} {pop pop} ifelse} forall
  /Encoding WinAnsiEncoding def
  currentdict
end
/Times-Italic exch definefont pop
/Times-Bold findfont
dup length dict begin
  {1 index /FID ne {def} {pop pop} ifelse} forall
  /Encoding WinAnsiEncoding def
  currentdict
end
/Times-Bold exch definefont pop
%FOPEndFontReencode
%%EndProlog
%%Page: 1 1
%%PageBoundingBox: 0 0 576 432
%%BeginPageSetup
[1 0 0 -1 0 432] CT
%%EndPageSetup
GS
1 GC
N
0 0 576 432 re
f
GR
GS
1 GC
N
0 0 576 432 re
f
GR
GS
1 GC
N
75 384.5 M
521.5 384.5 L
521.5 32.5 L
75 32.5 L
cp
f
GR
GS
0.149 GC
2 setlinecap
1 LJ
0.5 LW
N
75 384.5 M
521.5 384.5 L
S
GR
GS
0.149 GC
2 setlinecap
1 LJ
0.5 LW
N
75 384.5 M
75 380.035 L
S
GR
GS
0.149 GC
2 setlinecap
1 LJ
0.5 LW
N
138.786 384.5 M
138.786 380.035 L
S
GR
GS
0.149 GC
2 setlinecap
1 LJ
0.5 LW
N
202.571 384.5 M
202.571 380.035 L
S
GR
GS
0.149 GC
2 setlinecap
1 LJ
0.5 LW
N
266.357 384.5 M
266.357 380.035 L
S
GR
GS
0.149 GC
2 setlinecap
1 LJ
0.5 LW
N
330.143 384.5 M
330.143 380.035 L
S
GR
GS
0.149 GC
2 setlinecap
1 LJ
0.5 LW
N
393.929 384.5 M
393.929 380.035 L
S
GR
GS
0.149 GC
2 setlinecap
1 LJ
0.5 LW
N
457.714 384.5 M
457.714 380.035 L
S
GR
GS
0.149 GC
2 setlinecap
1 LJ
0.5 LW
N
521.5 384.5 M
521.5 380.035 L
S
GR
GS
[1 0 0 1 75 389.5] CT
0.149 GC
/Helvetica 15 F
GS
[1 0 0 1 0 0] CT
-4.5 12 moveto 
1 -1 scale
(0) t 
GR
GR
GS
[1 0 0 1 138.78572 389.5] CT
0.149 GC
/Helvetica 15 F
GS
[1 0 0 1 0 0] CT
-8.5 12 moveto 
1 -1 scale
(10) t 
GR
GR
GS
[1 0 0 1 202.57144 389.5] CT
0.149 GC
/Helvetica 15 F
GS
[1 0 0 1 0 0] CT
-8.5 12 moveto 
1 -1 scale
(20) t 
GR
GR
GS
[1 0 0 1 266.35715 389.5] CT
0.149 GC
/Helvetica 15 F
GS
[1 0 0 1 0 0] CT
-8.5 12 moveto 
1 -1 scale
(30) t 
GR
GR
GS
[1 0 0 1 330.14288 389.5] CT
0.149 GC
/Helvetica 15 F
GS
[1 0 0 1 0 0] CT
-8.5 12 moveto 
1 -1 scale
(40) t 
GR
GR
GS
[1 0 0 1 393.92859 389.5] CT
0.149 GC
/Helvetica 15 F
GS
[1 0 0 1 0 0] CT
-8.5 12 moveto 
1 -1 scale
(50) t 
GR
GR
GS
[1 0 0 1 457.71429 389.5] CT
0.149 GC
/Helvetica 15 F
GS
[1 0 0 1 0 0] CT
-8.5 12 moveto 
1 -1 scale
(60) t 
GR
GR
GS
[1 0 0 1 521.5 389.5] CT
0.149 GC
/Helvetica 15 F
GS
[1 0 0 1 0 0] CT
-8.5 12 moveto 
1 -1 scale
(70) t 
GR
GR
GS
[1 0 0 1 298.25021 406] CT
0.149 GC
/Helvetica 15 F
GS
[1 0 0 1 0 0] CT
-27.5 12 moveto 
1 -1 scale
(Time \(s\)) t 
GR
GR
GS
0.149 GC
2 setlinecap
1 LJ
0.5 LW
N
75 384.5 M
75 32.5 L
S
GR
GS
0.149 GC
2 setlinecap
1 LJ
0.5 LW
N
75 384.5 M
79.465 384.5 L
S
GR
GS
0.149 GC
2 setlinecap
1 LJ
0.5 LW
N
75 314.1 M
79.465 314.1 L
S
GR
GS
0.149 GC
2 setlinecap
1 LJ
0.5 LW
N
75 243.7 M
79.465 243.7 L
S
GR
GS
0.149 GC
2 setlinecap
1 LJ
0.5 LW
N
75 173.3 M
79.465 173.3 L
S
GR
GS
0.149 GC
2 setlinecap
1 LJ
0.5 LW
N
75 102.9 M
79.465 102.9 L
S
GR
GS
0.149 GC
2 setlinecap
1 LJ
0.5 LW
N
75 32.5 M
79.465 32.5 L
S
GR
GS
[1 0 0 1 42 392] CT
0.149 GC
/Helvetica 15 F
GS
[1 0 0 1 0 0] CT
0 0 moveto 
1 -1 scale
(10) t 
GR
GR
GS
[1 0 0 1 59 385] CT
0.149 GC
/Helvetica 12 F
GS
[1 0 0 1 0 0] CT
0 0 moveto 
1 -1 scale
(-8) t 
GR
GR
GS
[1 0 0 1 42 321] CT
0.149 GC
/Helvetica 15 F
GS
[1 0 0 1 0 0] CT
0 0 moveto 
1 -1 scale
(10) t 
GR
GR
GS
[1 0 0 1 59 314] CT
0.149 GC
/Helvetica 12 F
GS
[1 0 0 1 0 0] CT
0 0 moveto 
1 -1 scale
(-6) t 
GR
GR
GS
[1 0 0 1 42 251] CT
0.149 GC
/Helvetica 15 F
GS
[1 0 0 1 0 0] CT
0 0 moveto 
1 -1 scale
(10) t 
GR
GR
GS
[1 0 0 1 59 244] CT
0.149 GC
/Helvetica 12 F
GS
[1 0 0 1 0 0] CT
0 0 moveto 
1 -1 scale
(-4) t 
GR
GR
GS
[1 0 0 1 42 180] CT
0.149 GC
/Helvetica 15 F
GS
[1 0 0 1 0 0] CT
0 0 moveto 
1 -1 scale
(10) t 
GR
GR
GS
[1 0 0 1 59 173] CT
0.149 GC
/Helvetica 12 F
GS
[1 0 0 1 0 0] CT
0 0 moveto 
1 -1 scale
(-2) t 
GR
GR
GS
[1 0 0 1 46 110] CT
0.149 GC
/Helvetica 15 F
GS
[1 0 0 1 0 0] CT
0 0 moveto 
1 -1 scale
(10) t 
GR
GR
GS
[1 0 0 1 63 103] CT
0.149 GC
/Helvetica 12 F
GS
[1 0 0 1 0 0] CT
0 0 moveto 
1 -1 scale
(0) t 
GR
GR
GS
[1 0 0 1 46 40] CT
0.149 GC
/Helvetica 15 F
GS
[1 0 0 1 0 0] CT
0 0 moveto 
1 -1 scale
(10) t 
GR
GR
GS
[1 0 0 1 63 33] CT
0.149 GC
/Helvetica 12 F
GS
[1 0 0 1 0 0] CT
0 0 moveto 
1 -1 scale
(2) t 
GR
GR
GS
[0 -1 1 0 39 208.49983] CT
0.149 GC
/Helvetica 15 F
GS
[1 0 0 1 0 0] CT
-22 -4 moveto 
1 -1 scale
(RMSE) t 
GR
GR
GS
[1 0 0 1 298.25031 30.4375] CT
/Helvetica-Bold 17 F
GS
[1 0 0 1 0 0] CT
-157 -4 moveto 
1 -1 scale
(1000 by 1000, rank 10, over-sampling 6) t 
GR
GR
GS
0 0.447 0.741 RC
1 LJ
2 LW
N
75 80.234 M
75.235 80.235 L
75.436 80.237 L
75.651 80.239 L
75.865 80.242 L
76.183 80.245 L
76.489 80.248 L
76.767 80.251 L
77.036 80.255 L
77.301 80.26 L
77.584 80.264 L
77.851 80.27 L
78.152 80.276 L
78.45 80.283 L
78.768 80.291 L
79.113 80.299 L
79.447 80.308 L
79.725 80.319 L
80.051 80.331 L
80.408 80.344 L
80.722 80.359 L
81.034 80.375 L
81.334 80.393 L
81.645 80.412 L
82.002 80.435 L
82.303 80.459 L
82.61 80.485 L
82.932 80.515 L
83.26 80.547 L
83.582 80.583 L
83.964 80.621 L
84.291 80.664 L
84.654 80.711 L
85.05 80.761 L
85.492 80.817 L
85.922 80.876 L
86.314 80.943 L
86.715 81.024 L
87.143 81.105 L
87.58 81.191 L
88.065 81.281 L
88.472 81.378 L
88.872 81.487 L
89.276 81.611 L
89.755 81.739 L
90.203 81.883 L
90.632 82.028 L
91.057 82.187 L
91.486 82.356 L
91.91 82.527 L
S
GR
GS
0 0.447 0.741 RC
1 LJ
2 LW
N
91.486 82.356 M
91.91 82.527 L
92.357 82.718 L
92.842 82.912 L
93.297 83.106 L
93.749 83.306 L
94.165 83.513 L
94.593 83.73 L
95.062 83.949 L
95.494 84.163 L
95.986 84.354 L
96.442 84.538 L
96.885 84.721 L
97.303 84.882 L
97.8 85.045 L
98.269 85.189 L
98.689 85.33 L
99.148 85.459 L
99.644 85.594 L
100.099 85.704 L
100.585 85.848 L
101.061 86.005 L
101.552 86.167 L
102.051 86.374 L
102.515 86.644 L
102.973 86.933 L
103.415 87.268 L
103.878 87.653 L
104.326 88.087 L
104.76 88.575 L
105.349 89.073 L
105.812 89.571 L
106.305 89.878 L
106.813 90.314 L
107.292 90.492 L
107.822 90.405 L
108.259 92.305 L
108.765 93.954 L
109.278 95.507 L
109.769 97.162 L
110.295 98.731 L
110.817 100.159 L
111.27 101.443 L
111.781 102.495 L
112.305 102.911 L
112.843 102.731 L
113.392 105.646 L
113.822 108.312 L
114.331 110.649 L
114.794 112.717 L
115.343 114.612 L
115.847 116.199 L
S
GR
GS
0 0.447 0.741 RC
1 LJ
2 LW
N
115.343 114.612 M
115.847 116.199 L
116.409 117.474 L
116.924 117.607 L
117.484 117.127 L
118.021 120.322 L
118.529 123.071 L
119.071 125.702 L
119.57 127.999 L
120.102 130.086 L
120.613 131.466 L
121.111 132.328 L
121.693 132.964 L
122.22 132.58 L
122.838 136.211 L
123.405 139.349 L
123.984 142.051 L
124.484 144.572 L
125.049 146.595 L
125.572 148.098 L
126.128 149.198 L
126.657 149.416 L
127.196 148.483 L
127.694 152.479 L
128.225 155.913 L
128.751 158.86 L
129.267 161.407 L
129.777 163.303 L
130.353 164.85 L
130.872 165.761 L
131.408 166.019 L
131.947 165.169 L
132.477 169.291 L
133.002 172.931 L
133.528 175.863 L
134.024 178.416 L
134.6 180.613 L
135.134 182.261 L
135.668 182.535 L
136.198 181.301 L
136.739 185.188 L
137.271 188.723 L
137.842 191.624 L
138.429 194.15 L
138.985 196.165 L
139.594 197.471 L
140.15 198.488 L
140.718 198.62 L
141.293 197.598 L
141.83 200.953 L
142.419 203.387 L
142.998 204.833 L
S
GR
GS
0 0.447 0.741 RC
1 LJ
2 LW
N
142.419 203.387 M
142.998 204.833 L
143.533 206.07 L
144.126 206.852 L
144.714 207.308 L
145.353 207.595 L
145.958 207.438 L
146.53 208.456 L
147.142 208.999 L
S
GR
GS
0.851 0.325 0.098 RC
1 LJ
2 LW
N
75 57.568 M
112.883 74.451 L
152.066 90.311 L
190.107 97.366 L
228.088 97.048 L
265.84 105.159 L
303.678 138.149 L
341.528 179.064 L
379.37 212.869 L
417.29 245.694 L
455.245 279.53 L
492.97 315.333 L
S
GR
GS
0.929 0.694 0.125 RC
1 LJ
2 LW
N
75 80.234 M
76.421 80.237 L
77.802 80.24 L
80.118 80.242 L
81.957 80.245 L
83.761 80.249 L
86.074 80.253 L
86.764 80.258 L
87.647 80.264 L
88.972 80.269 L
89.622 80.277 L
90.514 80.284 L
92.171 80.291 L
93.616 80.299 L
94.428 80.31 L
95.56 80.32 L
96.177 80.333 L
98.155 80.343 L
99.905 80.355 L
101.803 80.368 L
102.733 80.386 L
103.626 80.405 L
105.822 80.421 L
106.496 80.445 L
108.541 80.465 L
110.347 80.487 L
110.918 80.519 L
111.355 80.553 L
112.943 80.585 L
114.625 80.619 L
116.069 80.658 L
118.15 80.695 L
119.35 80.745 L
120.688 80.796 L
121.826 80.857 L
123.134 80.92 L
125.389 80.976 L
127.126 81.044 L
128.428 81.125 L
129.396 81.219 L
131.653 81.297 L
132.122 81.409 L
134.131 81.503 L
135.213 81.63 L
135.629 81.757 L
136.763 81.899 L
137.981 82.049 L
138.614 82.222 L
139.536 82.406 L
141.323 82.56 L
S
GR
GS
0.929 0.694 0.125 RC
1 LJ
2 LW
N
139.536 82.406 M
141.323 82.56 L
143.328 82.719 L
143.705 82.897 L
144.495 83.127 L
145.563 83.345 L
146.19 83.581 L
146.939 83.814 L
148.502 84.015 L
150.274 84.209 L
150.764 84.425 L
152.833 84.606 L
154.593 84.795 L
155.946 85.002 L
157.402 85.196 L
158.557 85.393 L
159.117 85.561 L
159.891 85.762 L
160.678 85.977 L
161.588 86.232 L
162.781 86.534 L
164.706 86.857 L
166.352 87.264 L
167.498 87.774 L
169.607 88.32 L
170.078 88.482 L
171.284 89.403 L
173.545 90.255 L
174.237 90.973 L
175.48 92.288 L
176.502 93.674 L
177.053 94.076 L
177.559 94.372 L
178.383 97.486 L
179.491 101.17 L
179.953 100.599 L
181.399 103.464 L
183.624 105.899 L
184.927 108.825 L
185.694 111.62 L
186.164 112.864 L
187.579 116.805 L
188.12 118.144 L
190.246 122.583 L
191.374 126.517 L
192.896 130.916 L
194.019 134.539 L
195.144 138.664 L
196.489 143.489 L
198.77 148.667 L
199.447 146.856 L
199.869 140.123 L
S
GR
GS
0.929 0.694 0.125 RC
1 LJ
2 LW
N
199.447 146.856 M
199.869 140.123 L
200.293 141.629 L
201.207 145.677 L
203.437 148.844 L
203.968 151.485 L
205.521 155.212 L
205.996 156.432 L
206.565 158.848 L
207.538 163.333 L
209.236 167.426 L
210.4 171.001 L
211.383 174.206 L
212.87 178.337 L
213.944 181.463 L
215.821 186.071 L
217.996 190.062 L
218.894 190.58 L
220.058 193.944 L
221.776 199.413 L
222.894 197.19 L
223.713 203.662 L
224.316 204.748 L
226.167 215.045 L
S
GR
GS
[1 0 0 1 391 51.5] CT
/Helvetica 14 F
GS
[1 0 0 1 0 0] CT
0 3.5 moveto 
1 -1 scale
(Increase batch-size) t 
GR
GR
GS
0 0.447 0.741 RC
1 LJ
2 LW
N
358 51.5 M
388 51.5 L
S
GR
GS
[1 0 0 1 391 66] CT
/Helvetica 14 F
GS
[1 0 0 1 0 0] CT
0 3.5 moveto 
1 -1 scale
(ALS) t 
GR
GR
GS
0.851 0.325 0.098 RC
1 LJ
2 LW
N
358 66 M
388 66 L
S
GR
GS
[1 0 0 1 391 80.5] CT
/Helvetica 14 F
GS
[1 0 0 1 0 0] CT
0 3.5 moveto 
1 -1 scale
(Random batch-size) t 
GR
GR
GS
0.929 0.694 0.125 RC
1 LJ
2 LW
N
358 80.5 M
388 80.5 L
S
GR
%%Trailer
%%Pages: 1
%%EOF
