%!PS-Adobe-3.0 EPSF-3.0
%%Creator: (MATLAB, The Mathworks, Inc. Version 8.6.0.267246 \(R2015b\). Operating System: Mac OS X)
%%Title: /Users/gauthiermuguerza/Desktop/rsgd/report/images/fourNoise.eps
%%CreationDate: 2018-05-30T17:15:39
%%Pages: (atend)
%%BoundingBox:    23    10   530   419
%%LanguageLevel: 3
%%EndComments
%%BeginProlog
%%BeginResource: procset (Apache XML Graphics Std ProcSet) 1.2 0
%%Version: 1.2 0
%%Copyright: (Copyright 2001-2003,2010 The Apache Software Foundation. License terms: http://www.apache.org/licenses/LICENSE-2.0)
/bd{bind def}bind def
/ld{load def}bd
/GR/grestore ld
/M/moveto ld
/LJ/setlinejoin ld
/C/curveto ld
/f/fill ld
/LW/setlinewidth ld
/GC/setgray ld
/t/show ld
/N/newpath ld
/CT/concat ld
/cp/closepath ld
/S/stroke ld
/L/lineto ld
/CC/setcmykcolor ld
/A/ashow ld
/GS/gsave ld
/RC/setrgbcolor ld
/RM/rmoveto ld
/ML/setmiterlimit ld
/re {4 2 roll M
1 index 0 rlineto
0 exch rlineto
neg 0 rlineto
cp } bd
/_ctm matrix def
/_tm matrix def
/BT { _ctm currentmatrix pop matrix _tm copy pop 0 0 moveto } bd
/ET { _ctm setmatrix } bd
/iTm { _ctm setmatrix _tm concat } bd
/Tm { _tm astore pop iTm 0 0 moveto } bd
/ux 0.0 def
/uy 0.0 def
/F {
  /Tp exch def
  /Tf exch def
  Tf findfont Tp scalefont setfont
  /cf Tf def  /cs Tp def
} bd
/ULS {currentpoint /uy exch def /ux exch def} bd
/ULE {
  /Tcx currentpoint pop def
  gsave
  newpath
  cf findfont cs scalefont dup
  /FontMatrix get 0 get /Ts exch def /FontInfo get dup
  /UnderlinePosition get Ts mul /To exch def
  /UnderlineThickness get Ts mul /Tt exch def
  ux uy To add moveto  Tcx uy To add lineto
  Tt setlinewidth stroke
  grestore
} bd
/OLE {
  /Tcx currentpoint pop def
  gsave
  newpath
  cf findfont cs scalefont dup
  /FontMatrix get 0 get /Ts exch def /FontInfo get dup
  /UnderlinePosition get Ts mul /To exch def
  /UnderlineThickness get Ts mul /Tt exch def
  ux uy To add cs add moveto Tcx uy To add cs add lineto
  Tt setlinewidth stroke
  grestore
} bd
/SOE {
  /Tcx currentpoint pop def
  gsave
  newpath
  cf findfont cs scalefont dup
  /FontMatrix get 0 get /Ts exch def /FontInfo get dup
  /UnderlinePosition get Ts mul /To exch def
  /UnderlineThickness get Ts mul /Tt exch def
  ux uy To add cs 10 mul 26 idiv add moveto Tcx uy To add cs 10 mul 26 idiv add lineto
  Tt setlinewidth stroke
  grestore
} bd
/QT {
/Y22 exch store
/X22 exch store
/Y21 exch store
/X21 exch store
currentpoint
/Y21 load 2 mul add 3 div exch
/X21 load 2 mul add 3 div exch
/X21 load 2 mul /X22 load add 3 div
/Y21 load 2 mul /Y22 load add 3 div
/X22 load /Y22 load curveto
} bd
/SSPD {
dup length /d exch dict def
{
/v exch def
/k exch def
currentpagedevice k known {
/cpdv currentpagedevice k get def
v cpdv ne {
/upd false def
/nullv v type /nulltype eq def
/nullcpdv cpdv type /nulltype eq def
nullv nullcpdv or
{
/upd true def
} {
/sametype v type cpdv type eq def
sametype {
v type /arraytype eq {
/vlen v length def
/cpdvlen cpdv length def
vlen cpdvlen eq {
0 1 vlen 1 sub {
/i exch def
/obj v i get def
/cpdobj cpdv i get def
obj cpdobj ne {
/upd true def
exit
} if
} for
} {
/upd true def
} ifelse
} {
v type /dicttype eq {
v {
/dv exch def
/dk exch def
/cpddv cpdv dk get def
dv cpddv ne {
/upd true def
exit
} if
} forall
} {
/upd true def
} ifelse
} ifelse
} if
} ifelse
upd true eq {
d k v put
} if
} if
} if
} forall
d length 0 gt {
d setpagedevice
} if
} bd
%%EndResource
%%BeginResource: procset (Apache XML Graphics EPS ProcSet) 1.0 0
%%Version: 1.0 0
%%Copyright: (Copyright 2002-2003 The Apache Software Foundation. License terms: http://www.apache.org/licenses/LICENSE-2.0)
/BeginEPSF { %def
/b4_Inc_state save def         % Save state for cleanup
/dict_count countdictstack def % Count objects on dict stack
/op_count count 1 sub def      % Count objects on operand stack
userdict begin                 % Push userdict on dict stack
/showpage { } def              % Redefine showpage, { } = null proc
0 setgray 0 setlinecap         % Prepare graphics state
1 setlinewidth 0 setlinejoin
10 setmiterlimit [ ] 0 setdash newpath
/languagelevel where           % If level not equal to 1 then
{pop languagelevel             % set strokeadjust and
1 ne                           % overprint to their defaults.
{false setstrokeadjust false setoverprint
} if
} if
} bd
/EndEPSF { %def
count op_count sub {pop} repeat            % Clean up stacks
countdictstack dict_count sub {end} repeat
b4_Inc_state restore
} bd
%%EndResource
%FOPBeginFontDict
%%IncludeResource: font Courier-Bold
%%IncludeResource: font Helvetica
%%IncludeResource: font Courier-BoldOblique
%%IncludeResource: font Courier-Oblique
%%IncludeResource: font Times-Roman
%%IncludeResource: font Helvetica-BoldOblique
%%IncludeResource: font Helvetica-Bold
%%IncludeResource: font Helvetica-Oblique
%%IncludeResource: font Times-BoldItalic
%%IncludeResource: font Courier
%%IncludeResource: font Times-Italic
%%IncludeResource: font Times-Bold
%%IncludeResource: font Symbol
%%IncludeResource: font ZapfDingbats
%FOPEndFontDict
%%BeginResource: encoding WinAnsiEncoding
/WinAnsiEncoding [
/.notdef /.notdef /.notdef /.notdef /.notdef
/.notdef /.notdef /.notdef /.notdef /.notdef
/.notdef /.notdef /.notdef /.notdef /.notdef
/.notdef /.notdef /.notdef /.notdef /.notdef
/.notdef /.notdef /.notdef /.notdef /.notdef
/.notdef /.notdef /.notdef /.notdef /.notdef
/.notdef /.notdef /space /exclam /quotedbl
/numbersign /dollar /percent /ampersand /quotesingle
/parenleft /parenright /asterisk /plus /comma
/hyphen /period /slash /zero /one
/two /three /four /five /six
/seven /eight /nine /colon /semicolon
/less /equal /greater /question /at
/A /B /C /D /E
/F /G /H /I /J
/K /L /M /N /O
/P /Q /R /S /T
/U /V /W /X /Y
/Z /bracketleft /backslash /bracketright /asciicircum
/underscore /quoteleft /a /b /c
/d /e /f /g /h
/i /j /k /l /m
/n /o /p /q /r
/s /t /u /v /w
/x /y /z /braceleft /bar
/braceright /asciitilde /bullet /Euro /bullet
/quotesinglbase /florin /quotedblbase /ellipsis /dagger
/daggerdbl /circumflex /perthousand /Scaron /guilsinglleft
/OE /bullet /Zcaron /bullet /bullet
/quoteleft /quoteright /quotedblleft /quotedblright /bullet
/endash /emdash /asciitilde /trademark /scaron
/guilsinglright /oe /bullet /zcaron /Ydieresis
/space /exclamdown /cent /sterling /currency
/yen /brokenbar /section /dieresis /copyright
/ordfeminine /guillemotleft /logicalnot /sfthyphen /registered
/macron /degree /plusminus /twosuperior /threesuperior
/acute /mu /paragraph /middot /cedilla
/onesuperior /ordmasculine /guillemotright /onequarter /onehalf
/threequarters /questiondown /Agrave /Aacute /Acircumflex
/Atilde /Adieresis /Aring /AE /Ccedilla
/Egrave /Eacute /Ecircumflex /Edieresis /Igrave
/Iacute /Icircumflex /Idieresis /Eth /Ntilde
/Ograve /Oacute /Ocircumflex /Otilde /Odieresis
/multiply /Oslash /Ugrave /Uacute /Ucircumflex
/Udieresis /Yacute /Thorn /germandbls /agrave
/aacute /acircumflex /atilde /adieresis /aring
/ae /ccedilla /egrave /eacute /ecircumflex
/edieresis /igrave /iacute /icircumflex /idieresis
/eth /ntilde /ograve /oacute /ocircumflex
/otilde /odieresis /divide /oslash /ugrave
/uacute /ucircumflex /udieresis /yacute /thorn
/ydieresis
] def
%%EndResource
%FOPBeginFontReencode
/Courier-Bold findfont
dup length dict begin
  {1 index /FID ne {def} {pop pop} ifelse} forall
  /Encoding WinAnsiEncoding def
  currentdict
end
/Courier-Bold exch definefont pop
/Helvetica findfont
dup length dict begin
  {1 index /FID ne {def} {pop pop} ifelse} forall
  /Encoding WinAnsiEncoding def
  currentdict
end
/Helvetica exch definefont pop
/Courier-BoldOblique findfont
dup length dict begin
  {1 index /FID ne {def} {pop pop} ifelse} forall
  /Encoding WinAnsiEncoding def
  currentdict
end
/Courier-BoldOblique exch definefont pop
/Courier-Oblique findfont
dup length dict begin
  {1 index /FID ne {def} {pop pop} ifelse} forall
  /Encoding WinAnsiEncoding def
  currentdict
end
/Courier-Oblique exch definefont pop
/Times-Roman findfont
dup length dict begin
  {1 index /FID ne {def} {pop pop} ifelse} forall
  /Encoding WinAnsiEncoding def
  currentdict
end
/Times-Roman exch definefont pop
/Helvetica-BoldOblique findfont
dup length dict begin
  {1 index /FID ne {def} {pop pop} ifelse} forall
  /Encoding WinAnsiEncoding def
  currentdict
end
/Helvetica-BoldOblique exch definefont pop
/Helvetica-Bold findfont
dup length dict begin
  {1 index /FID ne {def} {pop pop} ifelse} forall
  /Encoding WinAnsiEncoding def
  currentdict
end
/Helvetica-Bold exch definefont pop
/Helvetica-Oblique findfont
dup length dict begin
  {1 index /FID ne {def} {pop pop} ifelse} forall
  /Encoding WinAnsiEncoding def
  currentdict
end
/Helvetica-Oblique exch definefont pop
/Times-BoldItalic findfont
dup length dict begin
  {1 index /FID ne {def} {pop pop} ifelse} forall
  /Encoding WinAnsiEncoding def
  currentdict
end
/Times-BoldItalic exch definefont pop
/Courier findfont
dup length dict begin
  {1 index /FID ne {def} {pop pop} ifelse} forall
  /Encoding WinAnsiEncoding def
  currentdict
end
/Courier exch definefont pop
/Times-Italic findfont
dup length dict begin
  {1 index /FID ne {def} {pop pop} ifelse} forall
  /Encoding WinAnsiEncoding def
  currentdict
end
/Times-Italic exch definefont pop
/Times-Bold findfont
dup length dict begin
  {1 index /FID ne {def} {pop pop} ifelse} forall
  /Encoding WinAnsiEncoding def
  currentdict
end
/Times-Bold exch definefont pop
%FOPEndFontReencode
%%EndProlog
%%Page: 1 1
%%PageBoundingBox: 0 0 576 432
%%BeginPageSetup
[1 0 0 -1 0 432] CT
%%EndPageSetup
GS
1 GC
N
0 0 576 432 re
f
GR
GS
1 GC
N
0 0 576 432 re
f
GR
GS
1 GC
N
75 384.5 M
521.5 384.5 L
521.5 32.5 L
75 32.5 L
cp
f
GR
GS
0.149 GC
2 setlinecap
1 LJ
0.5 LW
N
75 384.5 M
521.5 384.5 L
S
GR
GS
0.149 GC
2 setlinecap
1 LJ
0.5 LW
N
75 384.5 M
75 380.035 L
S
GR
GS
0.149 GC
2 setlinecap
1 LJ
0.5 LW
N
130.813 384.5 M
130.813 380.035 L
S
GR
GS
0.149 GC
2 setlinecap
1 LJ
0.5 LW
N
186.625 384.5 M
186.625 380.035 L
S
GR
GS
0.149 GC
2 setlinecap
1 LJ
0.5 LW
N
242.438 384.5 M
242.438 380.035 L
S
GR
GS
0.149 GC
2 setlinecap
1 LJ
0.5 LW
N
298.25 384.5 M
298.25 380.035 L
S
GR
GS
0.149 GC
2 setlinecap
1 LJ
0.5 LW
N
354.063 384.5 M
354.063 380.035 L
S
GR
GS
0.149 GC
2 setlinecap
1 LJ
0.5 LW
N
409.875 384.5 M
409.875 380.035 L
S
GR
GS
0.149 GC
2 setlinecap
1 LJ
0.5 LW
N
465.688 384.5 M
465.688 380.035 L
S
GR
GS
0.149 GC
2 setlinecap
1 LJ
0.5 LW
N
521.5 384.5 M
521.5 380.035 L
S
GR
GS
[1 0 0 1 75 389.5] CT
0.149 GC
/Helvetica 15 F
GS
[1 0 0 1 0 0] CT
-4.5 12 moveto 
1 -1 scale
(0) t 
GR
GR
GS
[1 0 0 1 130.8125 389.5] CT
0.149 GC
/Helvetica 15 F
GS
[1 0 0 1 0 0] CT
-4.5 12 moveto 
1 -1 scale
(5) t 
GR
GR
GS
[1 0 0 1 186.625 389.5] CT
0.149 GC
/Helvetica 15 F
GS
[1 0 0 1 0 0] CT
-8.5 12 moveto 
1 -1 scale
(10) t 
GR
GR
GS
[1 0 0 1 242.4375 389.5] CT
0.149 GC
/Helvetica 15 F
GS
[1 0 0 1 0 0] CT
-8.5 12 moveto 
1 -1 scale
(15) t 
GR
GR
GS
[1 0 0 1 298.25 389.5] CT
0.149 GC
/Helvetica 15 F
GS
[1 0 0 1 0 0] CT
-8.5 12 moveto 
1 -1 scale
(20) t 
GR
GR
GS
[1 0 0 1 354.0625 389.5] CT
0.149 GC
/Helvetica 15 F
GS
[1 0 0 1 0 0] CT
-8.5 12 moveto 
1 -1 scale
(25) t 
GR
GR
GS
[1 0 0 1 409.875 389.5] CT
0.149 GC
/Helvetica 15 F
GS
[1 0 0 1 0 0] CT
-8.5 12 moveto 
1 -1 scale
(30) t 
GR
GR
GS
[1 0 0 1 465.6875 389.5] CT
0.149 GC
/Helvetica 15 F
GS
[1 0 0 1 0 0] CT
-8.5 12 moveto 
1 -1 scale
(35) t 
GR
GR
GS
[1 0 0 1 521.5 389.5] CT
0.149 GC
/Helvetica 15 F
GS
[1 0 0 1 0 0] CT
-8.5 12 moveto 
1 -1 scale
(40) t 
GR
GR
GS
[1 0 0 1 298.25021 406] CT
0.149 GC
/Helvetica 15 F
GS
[1 0 0 1 0 0] CT
-31 12 moveto 
1 -1 scale
(Iterations) t 
GR
GR
GS
0.149 GC
2 setlinecap
1 LJ
0.5 LW
N
75 384.5 M
75 32.5 L
S
GR
GS
0.149 GC
2 setlinecap
1 LJ
0.5 LW
N
75 384.5 M
79.465 384.5 L
S
GR
GS
0.149 GC
2 setlinecap
1 LJ
0.5 LW
N
75 267.167 M
79.465 267.167 L
S
GR
GS
0.149 GC
2 setlinecap
1 LJ
0.5 LW
N
75 149.833 M
79.465 149.833 L
S
GR
GS
0.149 GC
2 setlinecap
1 LJ
0.5 LW
N
75 32.5 M
79.465 32.5 L
S
GR
GS
0.149 GC
2 setlinecap
1 LJ
0.5 LW
N
75 349.179 M
77.232 349.179 L
S
GR
GS
0.149 GC
2 setlinecap
1 LJ
0.5 LW
N
75 328.518 M
77.232 328.518 L
S
GR
GS
0.149 GC
2 setlinecap
1 LJ
0.5 LW
N
75 313.858 M
77.232 313.858 L
S
GR
GS
0.149 GC
2 setlinecap
1 LJ
0.5 LW
N
75 302.488 M
77.232 302.488 L
S
GR
GS
0.149 GC
2 setlinecap
1 LJ
0.5 LW
N
75 293.197 M
77.232 293.197 L
S
GR
GS
0.149 GC
2 setlinecap
1 LJ
0.5 LW
N
75 285.342 M
77.232 285.342 L
S
GR
GS
0.149 GC
2 setlinecap
1 LJ
0.5 LW
N
75 278.537 M
77.232 278.537 L
S
GR
GS
0.149 GC
2 setlinecap
1 LJ
0.5 LW
N
75 272.536 M
77.232 272.536 L
S
GR
GS
0.149 GC
2 setlinecap
1 LJ
0.5 LW
N
75 231.846 M
77.232 231.846 L
S
GR
GS
0.149 GC
2 setlinecap
1 LJ
0.5 LW
N
75 211.184 M
77.232 211.184 L
S
GR
GS
0.149 GC
2 setlinecap
1 LJ
0.5 LW
N
75 196.525 M
77.232 196.525 L
S
GR
GS
0.149 GC
2 setlinecap
1 LJ
0.5 LW
N
75 185.154 M
77.232 185.154 L
S
GR
GS
0.149 GC
2 setlinecap
1 LJ
0.5 LW
N
75 175.864 M
77.232 175.864 L
S
GR
GS
0.149 GC
2 setlinecap
1 LJ
0.5 LW
N
75 168.008 M
77.232 168.008 L
S
GR
GS
0.149 GC
2 setlinecap
1 LJ
0.5 LW
N
75 161.204 M
77.232 161.204 L
S
GR
GS
0.149 GC
2 setlinecap
1 LJ
0.5 LW
N
75 155.202 M
77.232 155.202 L
S
GR
GS
0.149 GC
2 setlinecap
1 LJ
0.5 LW
N
75 114.512 M
77.232 114.512 L
S
GR
GS
0.149 GC
2 setlinecap
1 LJ
0.5 LW
N
75 93.851 M
77.232 93.851 L
S
GR
GS
0.149 GC
2 setlinecap
1 LJ
0.5 LW
N
75 79.192 M
77.232 79.192 L
S
GR
GS
0.149 GC
2 setlinecap
1 LJ
0.5 LW
N
75 67.821 M
77.232 67.821 L
S
GR
GS
0.149 GC
2 setlinecap
1 LJ
0.5 LW
N
75 58.53 M
77.232 58.53 L
S
GR
GS
0.149 GC
2 setlinecap
1 LJ
0.5 LW
N
75 50.675 M
77.232 50.675 L
S
GR
GS
0.149 GC
2 setlinecap
1 LJ
0.5 LW
N
75 43.871 M
77.232 43.871 L
S
GR
GS
0.149 GC
2 setlinecap
1 LJ
0.5 LW
N
75 37.869 M
77.232 37.869 L
S
GR
GS
[1 0 0 1 42 392] CT
0.149 GC
/Helvetica 15 F
GS
[1 0 0 1 0 0] CT
0 0 moveto 
1 -1 scale
(10) t 
GR
GR
GS
[1 0 0 1 59 385] CT
0.149 GC
/Helvetica 12 F
GS
[1 0 0 1 0 0] CT
0 0 moveto 
1 -1 scale
(-2) t 
GR
GR
GS
[1 0 0 1 42 274] CT
0.149 GC
/Helvetica 15 F
GS
[1 0 0 1 0 0] CT
0 0 moveto 
1 -1 scale
(10) t 
GR
GR
GS
[1 0 0 1 59 267] CT
0.149 GC
/Helvetica 12 F
GS
[1 0 0 1 0 0] CT
0 0 moveto 
1 -1 scale
(-1) t 
GR
GR
GS
[1 0 0 1 46 157] CT
0.149 GC
/Helvetica 15 F
GS
[1 0 0 1 0 0] CT
0 0 moveto 
1 -1 scale
(10) t 
GR
GR
GS
[1 0 0 1 63 150] CT
0.149 GC
/Helvetica 12 F
GS
[1 0 0 1 0 0] CT
0 0 moveto 
1 -1 scale
(0) t 
GR
GR
GS
[1 0 0 1 46 40] CT
0.149 GC
/Helvetica 15 F
GS
[1 0 0 1 0 0] CT
0 0 moveto 
1 -1 scale
(10) t 
GR
GR
GS
[1 0 0 1 63 33] CT
0.149 GC
/Helvetica 12 F
GS
[1 0 0 1 0 0] CT
0 0 moveto 
1 -1 scale
(1) t 
GR
GR
GS
[0 -1 1 0 39 208.49983] CT
0.149 GC
/Helvetica 15 F
GS
[1 0 0 1 0 0] CT
-22 -4 moveto 
1 -1 scale
(RMSE) t 
GR
GR
GS
[1 0 0 1 298.25031 30.4375] CT
/Helvetica-Bold 17 F
GS
[1 0 0 1 0 0] CT
-210.5 -4 moveto 
1 -1 scale
(100 by 100, rank 4, over-sampling 4, Condition No. 0) t 
GR
GR
GS
0 0.447 0.741 RC
1 LJ
N
86.162 95.676 M
97.325 120.239 L
108.488 147.461 L
119.65 187.486 L
130.813 234.908 L
141.975 260.102 L
153.137 267.701 L
164.3 268.672 L
175.462 267.866 L
186.625 271.954 L
197.788 272.401 L
208.95 272.188 L
220.112 273.258 L
231.275 273.531 L
242.438 273.553 L
253.6 273.461 L
264.763 273.783 L
275.925 273.908 L
287.087 273.943 L
298.25 273.93 L
309.412 274.029 L
320.575 274.081 L
331.737 274.104 L
342.9 274.11 L
354.063 274.101 L
365.225 274.137 L
376.388 274.158 L
387.55 274.17 L
398.713 274.175 L
409.875 274.173 L
421.037 274.188 L
432.2 274.198 L
443.362 274.204 L
454.525 274.207 L
465.688 274.208 L
476.85 274.206 L
488.013 274.212 L
499.175 274.217 L
510.338 274.22 L
521.5 274.222 L
S
GR
GS
0 0.447 0.741 RC
1 LJ
N
89.5 95.5 M
88.621 93.379 L
86.5 92.5 L
84.379 93.379 L
83.5 95.5 L
84.379 97.621 L
86.5 98.5 L
88.621 97.621 L
cp
S
GR
GS
0 0.447 0.741 RC
1 LJ
N
100.5 120.5 M
99.621 118.379 L
97.5 117.5 L
95.379 118.379 L
94.5 120.5 L
95.379 122.621 L
97.5 123.5 L
99.621 122.621 L
cp
S
GR
GS
0 0.447 0.741 RC
1 LJ
N
111.5 147.5 M
110.621 145.379 L
108.5 144.5 L
106.379 145.379 L
105.5 147.5 L
106.379 149.621 L
108.5 150.5 L
110.621 149.621 L
cp
S
GR
GS
0 0.447 0.741 RC
1 LJ
N
122.5 187.5 M
121.621 185.379 L
119.5 184.5 L
117.379 185.379 L
116.5 187.5 L
117.379 189.621 L
119.5 190.5 L
121.621 189.621 L
cp
S
GR
GS
0 0.447 0.741 RC
1 LJ
N
133.5 234.5 M
132.621 232.379 L
130.5 231.5 L
128.379 232.379 L
127.5 234.5 L
128.379 236.621 L
130.5 237.5 L
132.621 236.621 L
cp
S
GR
GS
0 0.447 0.741 RC
1 LJ
N
144.5 260.5 M
143.621 258.379 L
141.5 257.5 L
139.379 258.379 L
138.5 260.5 L
139.379 262.621 L
141.5 263.5 L
143.621 262.621 L
cp
S
GR
GS
0 0.447 0.741 RC
1 LJ
N
156.5 267.5 M
155.621 265.379 L
153.5 264.5 L
151.379 265.379 L
150.5 267.5 L
151.379 269.621 L
153.5 270.5 L
155.621 269.621 L
cp
S
GR
GS
0 0.447 0.741 RC
1 LJ
N
167.5 268.5 M
166.621 266.379 L
164.5 265.5 L
162.379 266.379 L
161.5 268.5 L
162.379 270.621 L
164.5 271.5 L
166.621 270.621 L
cp
S
GR
GS
0 0.447 0.741 RC
1 LJ
N
178.5 267.5 M
177.621 265.379 L
175.5 264.5 L
173.379 265.379 L
172.5 267.5 L
173.379 269.621 L
175.5 270.5 L
177.621 269.621 L
cp
S
GR
GS
0 0.447 0.741 RC
1 LJ
N
189.5 271.5 M
188.621 269.379 L
186.5 268.5 L
184.379 269.379 L
183.5 271.5 L
184.379 273.621 L
186.5 274.5 L
188.621 273.621 L
cp
S
GR
GS
0 0.447 0.741 RC
1 LJ
N
200.5 272.5 M
199.621 270.379 L
197.5 269.5 L
195.379 270.379 L
194.5 272.5 L
195.379 274.621 L
197.5 275.5 L
199.621 274.621 L
cp
S
GR
GS
0 0.447 0.741 RC
1 LJ
N
211.5 272.5 M
210.621 270.379 L
208.5 269.5 L
206.379 270.379 L
205.5 272.5 L
206.379 274.621 L
208.5 275.5 L
210.621 274.621 L
cp
S
GR
GS
0 0.447 0.741 RC
1 LJ
N
223.5 273.5 M
222.621 271.379 L
220.5 270.5 L
218.379 271.379 L
217.5 273.5 L
218.379 275.621 L
220.5 276.5 L
222.621 275.621 L
cp
S
GR
GS
0 0.447 0.741 RC
1 LJ
N
234.5 273.5 M
233.621 271.379 L
231.5 270.5 L
229.379 271.379 L
228.5 273.5 L
229.379 275.621 L
231.5 276.5 L
233.621 275.621 L
cp
S
GR
GS
0 0.447 0.741 RC
1 LJ
N
245.5 273.5 M
244.621 271.379 L
242.5 270.5 L
240.379 271.379 L
239.5 273.5 L
240.379 275.621 L
242.5 276.5 L
244.621 275.621 L
cp
S
GR
GS
0 0.447 0.741 RC
1 LJ
N
256.5 273.5 M
255.621 271.379 L
253.5 270.5 L
251.379 271.379 L
250.5 273.5 L
251.379 275.621 L
253.5 276.5 L
255.621 275.621 L
cp
S
GR
GS
0 0.447 0.741 RC
1 LJ
N
267.5 273.5 M
266.621 271.379 L
264.5 270.5 L
262.379 271.379 L
261.5 273.5 L
262.379 275.621 L
264.5 276.5 L
266.621 275.621 L
cp
S
GR
GS
0 0.447 0.741 RC
1 LJ
N
278.5 273.5 M
277.621 271.379 L
275.5 270.5 L
273.379 271.379 L
272.5 273.5 L
273.379 275.621 L
275.5 276.5 L
277.621 275.621 L
cp
S
GR
GS
0 0.447 0.741 RC
1 LJ
N
290.5 273.5 M
289.621 271.379 L
287.5 270.5 L
285.379 271.379 L
284.5 273.5 L
285.379 275.621 L
287.5 276.5 L
289.621 275.621 L
cp
S
GR
GS
0 0.447 0.741 RC
1 LJ
N
301.5 273.5 M
300.621 271.379 L
298.5 270.5 L
296.379 271.379 L
295.5 273.5 L
296.379 275.621 L
298.5 276.5 L
300.621 275.621 L
cp
S
GR
GS
0 0.447 0.741 RC
1 LJ
N
312.5 274.5 M
311.621 272.379 L
309.5 271.5 L
307.379 272.379 L
306.5 274.5 L
307.379 276.621 L
309.5 277.5 L
311.621 276.621 L
cp
S
GR
GS
0 0.447 0.741 RC
1 LJ
N
323.5 274.5 M
322.621 272.379 L
320.5 271.5 L
318.379 272.379 L
317.5 274.5 L
318.379 276.621 L
320.5 277.5 L
322.621 276.621 L
cp
S
GR
GS
0 0.447 0.741 RC
1 LJ
N
334.5 274.5 M
333.621 272.379 L
331.5 271.5 L
329.379 272.379 L
328.5 274.5 L
329.379 276.621 L
331.5 277.5 L
333.621 276.621 L
cp
S
GR
GS
0 0.447 0.741 RC
1 LJ
N
345.5 274.5 M
344.621 272.379 L
342.5 271.5 L
340.379 272.379 L
339.5 274.5 L
340.379 276.621 L
342.5 277.5 L
344.621 276.621 L
cp
S
GR
GS
0 0.447 0.741 RC
1 LJ
N
357.5 274.5 M
356.621 272.379 L
354.5 271.5 L
352.379 272.379 L
351.5 274.5 L
352.379 276.621 L
354.5 277.5 L
356.621 276.621 L
cp
S
GR
GS
0 0.447 0.741 RC
1 LJ
N
368.5 274.5 M
367.621 272.379 L
365.5 271.5 L
363.379 272.379 L
362.5 274.5 L
363.379 276.621 L
365.5 277.5 L
367.621 276.621 L
cp
S
GR
GS
0 0.447 0.741 RC
1 LJ
N
379.5 274.5 M
378.621 272.379 L
376.5 271.5 L
374.379 272.379 L
373.5 274.5 L
374.379 276.621 L
376.5 277.5 L
378.621 276.621 L
cp
S
GR
GS
0 0.447 0.741 RC
1 LJ
N
390.5 274.5 M
389.621 272.379 L
387.5 271.5 L
385.379 272.379 L
384.5 274.5 L
385.379 276.621 L
387.5 277.5 L
389.621 276.621 L
cp
S
GR
GS
0 0.447 0.741 RC
1 LJ
N
401.5 274.5 M
400.621 272.379 L
398.5 271.5 L
396.379 272.379 L
395.5 274.5 L
396.379 276.621 L
398.5 277.5 L
400.621 276.621 L
cp
S
GR
GS
0 0.447 0.741 RC
1 LJ
N
412.5 274.5 M
411.621 272.379 L
409.5 271.5 L
407.379 272.379 L
406.5 274.5 L
407.379 276.621 L
409.5 277.5 L
411.621 276.621 L
cp
S
GR
GS
0 0.447 0.741 RC
1 LJ
N
424.5 274.5 M
423.621 272.379 L
421.5 271.5 L
419.379 272.379 L
418.5 274.5 L
419.379 276.621 L
421.5 277.5 L
423.621 276.621 L
cp
S
GR
GS
0 0.447 0.741 RC
1 LJ
N
435.5 274.5 M
434.621 272.379 L
432.5 271.5 L
430.379 272.379 L
429.5 274.5 L
430.379 276.621 L
432.5 277.5 L
434.621 276.621 L
cp
S
GR
GS
0 0.447 0.741 RC
1 LJ
N
446.5 274.5 M
445.621 272.379 L
443.5 271.5 L
441.379 272.379 L
440.5 274.5 L
441.379 276.621 L
443.5 277.5 L
445.621 276.621 L
cp
S
GR
GS
0 0.447 0.741 RC
1 LJ
N
457.5 274.5 M
456.621 272.379 L
454.5 271.5 L
452.379 272.379 L
451.5 274.5 L
452.379 276.621 L
454.5 277.5 L
456.621 276.621 L
cp
S
GR
GS
0 0.447 0.741 RC
1 LJ
N
468.5 274.5 M
467.621 272.379 L
465.5 271.5 L
463.379 272.379 L
462.5 274.5 L
463.379 276.621 L
465.5 277.5 L
467.621 276.621 L
cp
S
GR
GS
0 0.447 0.741 RC
1 LJ
N
479.5 274.5 M
478.621 272.379 L
476.5 271.5 L
474.379 272.379 L
473.5 274.5 L
474.379 276.621 L
476.5 277.5 L
478.621 276.621 L
cp
S
GR
GS
0 0.447 0.741 RC
1 LJ
N
491.5 274.5 M
490.621 272.379 L
488.5 271.5 L
486.379 272.379 L
485.5 274.5 L
486.379 276.621 L
488.5 277.5 L
490.621 276.621 L
cp
S
GR
GS
0 0.447 0.741 RC
1 LJ
N
502.5 274.5 M
501.621 272.379 L
499.5 271.5 L
497.379 272.379 L
496.5 274.5 L
497.379 276.621 L
499.5 277.5 L
501.621 276.621 L
cp
S
GR
GS
0 0.447 0.741 RC
1 LJ
N
513.5 274.5 M
512.621 272.379 L
510.5 271.5 L
508.379 272.379 L
507.5 274.5 L
508.379 276.621 L
510.5 277.5 L
512.621 276.621 L
cp
S
GR
GS
0 0.447 0.741 RC
1 LJ
N
524.5 274.5 M
523.621 272.379 L
521.5 271.5 L
519.379 272.379 L
518.5 274.5 L
519.379 276.621 L
521.5 277.5 L
523.621 276.621 L
cp
S
GR
GS
0.851 0.325 0.098 RC
1 LJ
N
86.162 95.676 M
97.325 122.586 L
108.488 155.597 L
119.65 197.757 L
130.813 239.983 L
141.975 261.131 L
153.137 267.501 L
164.3 268.535 L
175.462 270.247 L
186.625 272.945 L
197.788 273.31 L
208.95 273.934 L
220.112 273.935 L
231.275 274.011 L
242.438 274.029 L
253.6 274.152 L
264.763 274.182 L
275.925 274.191 L
287.087 274.218 L
298.25 274.235 L
309.412 274.229 L
320.575 274.237 L
331.737 274.241 L
342.9 274.243 L
354.063 274.246 L
365.225 274.251 L
376.388 274.249 L
387.55 274.249 L
398.713 274.249 L
409.875 274.249 L
421.037 274.25 L
432.2 274.25 L
443.362 274.25 L
454.525 274.25 L
465.688 274.25 L
476.85 274.25 L
488.013 274.25 L
499.175 274.25 L
510.338 274.25 L
521.5 274.25 L
S
GR
GS
0.851 0.325 0.098 RC
1 LJ
N
89.5 95.5 M
88.621 93.379 L
86.5 92.5 L
84.379 93.379 L
83.5 95.5 L
84.379 97.621 L
86.5 98.5 L
88.621 97.621 L
cp
S
GR
GS
0.851 0.325 0.098 RC
1 LJ
N
100.5 122.5 M
99.621 120.379 L
97.5 119.5 L
95.379 120.379 L
94.5 122.5 L
95.379 124.621 L
97.5 125.5 L
99.621 124.621 L
cp
S
GR
GS
0.851 0.325 0.098 RC
1 LJ
N
111.5 155.5 M
110.621 153.379 L
108.5 152.5 L
106.379 153.379 L
105.5 155.5 L
106.379 157.621 L
108.5 158.5 L
110.621 157.621 L
cp
S
GR
GS
0.851 0.325 0.098 RC
1 LJ
N
122.5 197.5 M
121.621 195.379 L
119.5 194.5 L
117.379 195.379 L
116.5 197.5 L
117.379 199.621 L
119.5 200.5 L
121.621 199.621 L
cp
S
GR
GS
0.851 0.325 0.098 RC
1 LJ
N
133.5 239.5 M
132.621 237.379 L
130.5 236.5 L
128.379 237.379 L
127.5 239.5 L
128.379 241.621 L
130.5 242.5 L
132.621 241.621 L
cp
S
GR
GS
0.851 0.325 0.098 RC
1 LJ
N
144.5 261.5 M
143.621 259.379 L
141.5 258.5 L
139.379 259.379 L
138.5 261.5 L
139.379 263.621 L
141.5 264.5 L
143.621 263.621 L
cp
S
GR
GS
0.851 0.325 0.098 RC
1 LJ
N
156.5 267.5 M
155.621 265.379 L
153.5 264.5 L
151.379 265.379 L
150.5 267.5 L
151.379 269.621 L
153.5 270.5 L
155.621 269.621 L
cp
S
GR
GS
0.851 0.325 0.098 RC
1 LJ
N
167.5 268.5 M
166.621 266.379 L
164.5 265.5 L
162.379 266.379 L
161.5 268.5 L
162.379 270.621 L
164.5 271.5 L
166.621 270.621 L
cp
S
GR
GS
0.851 0.325 0.098 RC
1 LJ
N
178.5 270.5 M
177.621 268.379 L
175.5 267.5 L
173.379 268.379 L
172.5 270.5 L
173.379 272.621 L
175.5 273.5 L
177.621 272.621 L
cp
S
GR
GS
0.851 0.325 0.098 RC
1 LJ
N
189.5 272.5 M
188.621 270.379 L
186.5 269.5 L
184.379 270.379 L
183.5 272.5 L
184.379 274.621 L
186.5 275.5 L
188.621 274.621 L
cp
S
GR
GS
0.851 0.325 0.098 RC
1 LJ
N
200.5 273.5 M
199.621 271.379 L
197.5 270.5 L
195.379 271.379 L
194.5 273.5 L
195.379 275.621 L
197.5 276.5 L
199.621 275.621 L
cp
S
GR
GS
0.851 0.325 0.098 RC
1 LJ
N
211.5 273.5 M
210.621 271.379 L
208.5 270.5 L
206.379 271.379 L
205.5 273.5 L
206.379 275.621 L
208.5 276.5 L
210.621 275.621 L
cp
S
GR
GS
0.851 0.325 0.098 RC
1 LJ
N
223.5 273.5 M
222.621 271.379 L
220.5 270.5 L
218.379 271.379 L
217.5 273.5 L
218.379 275.621 L
220.5 276.5 L
222.621 275.621 L
cp
S
GR
GS
0.851 0.325 0.098 RC
1 LJ
N
234.5 274.5 M
233.621 272.379 L
231.5 271.5 L
229.379 272.379 L
228.5 274.5 L
229.379 276.621 L
231.5 277.5 L
233.621 276.621 L
cp
S
GR
GS
0.851 0.325 0.098 RC
1 LJ
N
245.5 274.5 M
244.621 272.379 L
242.5 271.5 L
240.379 272.379 L
239.5 274.5 L
240.379 276.621 L
242.5 277.5 L
244.621 276.621 L
cp
S
GR
GS
0.851 0.325 0.098 RC
1 LJ
N
256.5 274.5 M
255.621 272.379 L
253.5 271.5 L
251.379 272.379 L
250.5 274.5 L
251.379 276.621 L
253.5 277.5 L
255.621 276.621 L
cp
S
GR
GS
0.851 0.325 0.098 RC
1 LJ
N
267.5 274.5 M
266.621 272.379 L
264.5 271.5 L
262.379 272.379 L
261.5 274.5 L
262.379 276.621 L
264.5 277.5 L
266.621 276.621 L
cp
S
GR
GS
0.851 0.325 0.098 RC
1 LJ
N
278.5 274.5 M
277.621 272.379 L
275.5 271.5 L
273.379 272.379 L
272.5 274.5 L
273.379 276.621 L
275.5 277.5 L
277.621 276.621 L
cp
S
GR
GS
0.851 0.325 0.098 RC
1 LJ
N
290.5 274.5 M
289.621 272.379 L
287.5 271.5 L
285.379 272.379 L
284.5 274.5 L
285.379 276.621 L
287.5 277.5 L
289.621 276.621 L
cp
S
GR
GS
0.851 0.325 0.098 RC
1 LJ
N
301.5 274.5 M
300.621 272.379 L
298.5 271.5 L
296.379 272.379 L
295.5 274.5 L
296.379 276.621 L
298.5 277.5 L
300.621 276.621 L
cp
S
GR
GS
0.851 0.325 0.098 RC
1 LJ
N
312.5 274.5 M
311.621 272.379 L
309.5 271.5 L
307.379 272.379 L
306.5 274.5 L
307.379 276.621 L
309.5 277.5 L
311.621 276.621 L
cp
S
GR
GS
0.851 0.325 0.098 RC
1 LJ
N
323.5 274.5 M
322.621 272.379 L
320.5 271.5 L
318.379 272.379 L
317.5 274.5 L
318.379 276.621 L
320.5 277.5 L
322.621 276.621 L
cp
S
GR
GS
0.851 0.325 0.098 RC
1 LJ
N
334.5 274.5 M
333.621 272.379 L
331.5 271.5 L
329.379 272.379 L
328.5 274.5 L
329.379 276.621 L
331.5 277.5 L
333.621 276.621 L
cp
S
GR
GS
0.851 0.325 0.098 RC
1 LJ
N
345.5 274.5 M
344.621 272.379 L
342.5 271.5 L
340.379 272.379 L
339.5 274.5 L
340.379 276.621 L
342.5 277.5 L
344.621 276.621 L
cp
S
GR
GS
0.851 0.325 0.098 RC
1 LJ
N
357.5 274.5 M
356.621 272.379 L
354.5 271.5 L
352.379 272.379 L
351.5 274.5 L
352.379 276.621 L
354.5 277.5 L
356.621 276.621 L
cp
S
GR
GS
0.851 0.325 0.098 RC
1 LJ
N
368.5 274.5 M
367.621 272.379 L
365.5 271.5 L
363.379 272.379 L
362.5 274.5 L
363.379 276.621 L
365.5 277.5 L
367.621 276.621 L
cp
S
GR
GS
0.851 0.325 0.098 RC
1 LJ
N
379.5 274.5 M
378.621 272.379 L
376.5 271.5 L
374.379 272.379 L
373.5 274.5 L
374.379 276.621 L
376.5 277.5 L
378.621 276.621 L
cp
S
GR
GS
0.851 0.325 0.098 RC
1 LJ
N
390.5 274.5 M
389.621 272.379 L
387.5 271.5 L
385.379 272.379 L
384.5 274.5 L
385.379 276.621 L
387.5 277.5 L
389.621 276.621 L
cp
S
GR
GS
0.851 0.325 0.098 RC
1 LJ
N
401.5 274.5 M
400.621 272.379 L
398.5 271.5 L
396.379 272.379 L
395.5 274.5 L
396.379 276.621 L
398.5 277.5 L
400.621 276.621 L
cp
S
GR
GS
0.851 0.325 0.098 RC
1 LJ
N
412.5 274.5 M
411.621 272.379 L
409.5 271.5 L
407.379 272.379 L
406.5 274.5 L
407.379 276.621 L
409.5 277.5 L
411.621 276.621 L
cp
S
GR
GS
0.851 0.325 0.098 RC
1 LJ
N
424.5 274.5 M
423.621 272.379 L
421.5 271.5 L
419.379 272.379 L
418.5 274.5 L
419.379 276.621 L
421.5 277.5 L
423.621 276.621 L
cp
S
GR
GS
0.851 0.325 0.098 RC
1 LJ
N
435.5 274.5 M
434.621 272.379 L
432.5 271.5 L
430.379 272.379 L
429.5 274.5 L
430.379 276.621 L
432.5 277.5 L
434.621 276.621 L
cp
S
GR
GS
0.851 0.325 0.098 RC
1 LJ
N
446.5 274.5 M
445.621 272.379 L
443.5 271.5 L
441.379 272.379 L
440.5 274.5 L
441.379 276.621 L
443.5 277.5 L
445.621 276.621 L
cp
S
GR
GS
0.851 0.325 0.098 RC
1 LJ
N
457.5 274.5 M
456.621 272.379 L
454.5 271.5 L
452.379 272.379 L
451.5 274.5 L
452.379 276.621 L
454.5 277.5 L
456.621 276.621 L
cp
S
GR
GS
0.851 0.325 0.098 RC
1 LJ
N
468.5 274.5 M
467.621 272.379 L
465.5 271.5 L
463.379 272.379 L
462.5 274.5 L
463.379 276.621 L
465.5 277.5 L
467.621 276.621 L
cp
S
GR
GS
0.851 0.325 0.098 RC
1 LJ
N
479.5 274.5 M
478.621 272.379 L
476.5 271.5 L
474.379 272.379 L
473.5 274.5 L
474.379 276.621 L
476.5 277.5 L
478.621 276.621 L
cp
S
GR
GS
0.851 0.325 0.098 RC
1 LJ
N
491.5 274.5 M
490.621 272.379 L
488.5 271.5 L
486.379 272.379 L
485.5 274.5 L
486.379 276.621 L
488.5 277.5 L
490.621 276.621 L
cp
S
GR
GS
0.851 0.325 0.098 RC
1 LJ
N
502.5 274.5 M
501.621 272.379 L
499.5 271.5 L
497.379 272.379 L
496.5 274.5 L
497.379 276.621 L
499.5 277.5 L
501.621 276.621 L
cp
S
GR
GS
0.851 0.325 0.098 RC
1 LJ
N
513.5 274.5 M
512.621 272.379 L
510.5 271.5 L
508.379 272.379 L
507.5 274.5 L
508.379 276.621 L
510.5 277.5 L
512.621 276.621 L
cp
S
GR
GS
0.851 0.325 0.098 RC
1 LJ
N
524.5 274.5 M
523.621 272.379 L
521.5 271.5 L
519.379 272.379 L
518.5 274.5 L
519.379 276.621 L
521.5 277.5 L
523.621 276.621 L
cp
S
GR
GS
0.929 0.694 0.125 RC
1 LJ
N
86.162 95.676 M
97.325 118.147 L
108.488 139.512 L
119.65 173.951 L
130.813 208.05 L
141.975 237.055 L
153.137 256.396 L
164.3 262.499 L
175.462 263.806 L
186.625 262.393 L
197.788 267.804 L
208.95 268.329 L
220.112 267.227 L
231.275 269.925 L
242.438 270.788 L
253.6 270.256 L
264.763 271.517 L
275.925 271.929 L
287.087 272.059 L
298.25 271.71 L
309.412 272.404 L
320.575 272.617 L
331.737 272.806 L
342.9 272.903 L
354.063 273.153 L
365.225 273.365 L
376.388 273.264 L
387.55 273.37 L
398.713 273.439 L
409.875 273.459 L
421.037 273.489 L
432.2 273.562 L
443.362 273.621 L
454.525 273.7 L
465.688 273.684 L
476.85 273.686 L
488.013 273.727 L
499.175 273.745 L
510.338 273.77 L
521.5 273.779 L
S
GR
GS
0.929 0.694 0.125 RC
1 LJ
N
89.5 95.5 M
88.621 93.379 L
86.5 92.5 L
84.379 93.379 L
83.5 95.5 L
84.379 97.621 L
86.5 98.5 L
88.621 97.621 L
cp
S
GR
GS
0.929 0.694 0.125 RC
1 LJ
N
100.5 118.5 M
99.621 116.379 L
97.5 115.5 L
95.379 116.379 L
94.5 118.5 L
95.379 120.621 L
97.5 121.5 L
99.621 120.621 L
cp
S
GR
GS
0.929 0.694 0.125 RC
1 LJ
N
111.5 139.5 M
110.621 137.379 L
108.5 136.5 L
106.379 137.379 L
105.5 139.5 L
106.379 141.621 L
108.5 142.5 L
110.621 141.621 L
cp
S
GR
GS
0.929 0.694 0.125 RC
1 LJ
N
122.5 173.5 M
121.621 171.379 L
119.5 170.5 L
117.379 171.379 L
116.5 173.5 L
117.379 175.621 L
119.5 176.5 L
121.621 175.621 L
cp
S
GR
GS
0.929 0.694 0.125 RC
1 LJ
N
133.5 208.5 M
132.621 206.379 L
130.5 205.5 L
128.379 206.379 L
127.5 208.5 L
128.379 210.621 L
130.5 211.5 L
132.621 210.621 L
cp
S
GR
GS
0.929 0.694 0.125 RC
1 LJ
N
144.5 237.5 M
143.621 235.379 L
141.5 234.5 L
139.379 235.379 L
138.5 237.5 L
139.379 239.621 L
141.5 240.5 L
143.621 239.621 L
cp
S
GR
GS
0.929 0.694 0.125 RC
1 LJ
N
156.5 256.5 M
155.621 254.379 L
153.5 253.5 L
151.379 254.379 L
150.5 256.5 L
151.379 258.621 L
153.5 259.5 L
155.621 258.621 L
cp
S
GR
GS
0.929 0.694 0.125 RC
1 LJ
N
167.5 262.5 M
166.621 260.379 L
164.5 259.5 L
162.379 260.379 L
161.5 262.5 L
162.379 264.621 L
164.5 265.5 L
166.621 264.621 L
cp
S
GR
GS
0.929 0.694 0.125 RC
1 LJ
N
178.5 263.5 M
177.621 261.379 L
175.5 260.5 L
173.379 261.379 L
172.5 263.5 L
173.379 265.621 L
175.5 266.5 L
177.621 265.621 L
cp
S
GR
GS
0.929 0.694 0.125 RC
1 LJ
N
189.5 262.5 M
188.621 260.379 L
186.5 259.5 L
184.379 260.379 L
183.5 262.5 L
184.379 264.621 L
186.5 265.5 L
188.621 264.621 L
cp
S
GR
GS
0.929 0.694 0.125 RC
1 LJ
N
200.5 267.5 M
199.621 265.379 L
197.5 264.5 L
195.379 265.379 L
194.5 267.5 L
195.379 269.621 L
197.5 270.5 L
199.621 269.621 L
cp
S
GR
GS
0.929 0.694 0.125 RC
1 LJ
N
211.5 268.5 M
210.621 266.379 L
208.5 265.5 L
206.379 266.379 L
205.5 268.5 L
206.379 270.621 L
208.5 271.5 L
210.621 270.621 L
cp
S
GR
GS
0.929 0.694 0.125 RC
1 LJ
N
223.5 267.5 M
222.621 265.379 L
220.5 264.5 L
218.379 265.379 L
217.5 267.5 L
218.379 269.621 L
220.5 270.5 L
222.621 269.621 L
cp
S
GR
GS
0.929 0.694 0.125 RC
1 LJ
N
234.5 269.5 M
233.621 267.379 L
231.5 266.5 L
229.379 267.379 L
228.5 269.5 L
229.379 271.621 L
231.5 272.5 L
233.621 271.621 L
cp
S
GR
GS
0.929 0.694 0.125 RC
1 LJ
N
245.5 270.5 M
244.621 268.379 L
242.5 267.5 L
240.379 268.379 L
239.5 270.5 L
240.379 272.621 L
242.5 273.5 L
244.621 272.621 L
cp
S
GR
GS
0.929 0.694 0.125 RC
1 LJ
N
256.5 270.5 M
255.621 268.379 L
253.5 267.5 L
251.379 268.379 L
250.5 270.5 L
251.379 272.621 L
253.5 273.5 L
255.621 272.621 L
cp
S
GR
GS
0.929 0.694 0.125 RC
1 LJ
N
267.5 271.5 M
266.621 269.379 L
264.5 268.5 L
262.379 269.379 L
261.5 271.5 L
262.379 273.621 L
264.5 274.5 L
266.621 273.621 L
cp
S
GR
GS
0.929 0.694 0.125 RC
1 LJ
N
278.5 271.5 M
277.621 269.379 L
275.5 268.5 L
273.379 269.379 L
272.5 271.5 L
273.379 273.621 L
275.5 274.5 L
277.621 273.621 L
cp
S
GR
GS
0.929 0.694 0.125 RC
1 LJ
N
290.5 272.5 M
289.621 270.379 L
287.5 269.5 L
285.379 270.379 L
284.5 272.5 L
285.379 274.621 L
287.5 275.5 L
289.621 274.621 L
cp
S
GR
GS
0.929 0.694 0.125 RC
1 LJ
N
301.5 271.5 M
300.621 269.379 L
298.5 268.5 L
296.379 269.379 L
295.5 271.5 L
296.379 273.621 L
298.5 274.5 L
300.621 273.621 L
cp
S
GR
GS
0.929 0.694 0.125 RC
1 LJ
N
312.5 272.5 M
311.621 270.379 L
309.5 269.5 L
307.379 270.379 L
306.5 272.5 L
307.379 274.621 L
309.5 275.5 L
311.621 274.621 L
cp
S
GR
GS
0.929 0.694 0.125 RC
1 LJ
N
323.5 272.5 M
322.621 270.379 L
320.5 269.5 L
318.379 270.379 L
317.5 272.5 L
318.379 274.621 L
320.5 275.5 L
322.621 274.621 L
cp
S
GR
GS
0.929 0.694 0.125 RC
1 LJ
N
334.5 272.5 M
333.621 270.379 L
331.5 269.5 L
329.379 270.379 L
328.5 272.5 L
329.379 274.621 L
331.5 275.5 L
333.621 274.621 L
cp
S
GR
GS
0.929 0.694 0.125 RC
1 LJ
N
345.5 272.5 M
344.621 270.379 L
342.5 269.5 L
340.379 270.379 L
339.5 272.5 L
340.379 274.621 L
342.5 275.5 L
344.621 274.621 L
cp
S
GR
GS
0.929 0.694 0.125 RC
1 LJ
N
357.5 273.5 M
356.621 271.379 L
354.5 270.5 L
352.379 271.379 L
351.5 273.5 L
352.379 275.621 L
354.5 276.5 L
356.621 275.621 L
cp
S
GR
GS
0.929 0.694 0.125 RC
1 LJ
N
368.5 273.5 M
367.621 271.379 L
365.5 270.5 L
363.379 271.379 L
362.5 273.5 L
363.379 275.621 L
365.5 276.5 L
367.621 275.621 L
cp
S
GR
GS
0.929 0.694 0.125 RC
1 LJ
N
379.5 273.5 M
378.621 271.379 L
376.5 270.5 L
374.379 271.379 L
373.5 273.5 L
374.379 275.621 L
376.5 276.5 L
378.621 275.621 L
cp
S
GR
GS
0.929 0.694 0.125 RC
1 LJ
N
390.5 273.5 M
389.621 271.379 L
387.5 270.5 L
385.379 271.379 L
384.5 273.5 L
385.379 275.621 L
387.5 276.5 L
389.621 275.621 L
cp
S
GR
GS
0.929 0.694 0.125 RC
1 LJ
N
401.5 273.5 M
400.621 271.379 L
398.5 270.5 L
396.379 271.379 L
395.5 273.5 L
396.379 275.621 L
398.5 276.5 L
400.621 275.621 L
cp
S
GR
GS
0.929 0.694 0.125 RC
1 LJ
N
412.5 273.5 M
411.621 271.379 L
409.5 270.5 L
407.379 271.379 L
406.5 273.5 L
407.379 275.621 L
409.5 276.5 L
411.621 275.621 L
cp
S
GR
GS
0.929 0.694 0.125 RC
1 LJ
N
424.5 273.5 M
423.621 271.379 L
421.5 270.5 L
419.379 271.379 L
418.5 273.5 L
419.379 275.621 L
421.5 276.5 L
423.621 275.621 L
cp
S
GR
GS
0.929 0.694 0.125 RC
1 LJ
N
435.5 273.5 M
434.621 271.379 L
432.5 270.5 L
430.379 271.379 L
429.5 273.5 L
430.379 275.621 L
432.5 276.5 L
434.621 275.621 L
cp
S
GR
GS
0.929 0.694 0.125 RC
1 LJ
N
446.5 273.5 M
445.621 271.379 L
443.5 270.5 L
441.379 271.379 L
440.5 273.5 L
441.379 275.621 L
443.5 276.5 L
445.621 275.621 L
cp
S
GR
GS
0.929 0.694 0.125 RC
1 LJ
N
457.5 273.5 M
456.621 271.379 L
454.5 270.5 L
452.379 271.379 L
451.5 273.5 L
452.379 275.621 L
454.5 276.5 L
456.621 275.621 L
cp
S
GR
GS
0.929 0.694 0.125 RC
1 LJ
N
468.5 273.5 M
467.621 271.379 L
465.5 270.5 L
463.379 271.379 L
462.5 273.5 L
463.379 275.621 L
465.5 276.5 L
467.621 275.621 L
cp
S
GR
GS
0.929 0.694 0.125 RC
1 LJ
N
479.5 273.5 M
478.621 271.379 L
476.5 270.5 L
474.379 271.379 L
473.5 273.5 L
474.379 275.621 L
476.5 276.5 L
478.621 275.621 L
cp
S
GR
GS
0.929 0.694 0.125 RC
1 LJ
N
491.5 273.5 M
490.621 271.379 L
488.5 270.5 L
486.379 271.379 L
485.5 273.5 L
486.379 275.621 L
488.5 276.5 L
490.621 275.621 L
cp
S
GR
GS
0.929 0.694 0.125 RC
1 LJ
N
502.5 273.5 M
501.621 271.379 L
499.5 270.5 L
497.379 271.379 L
496.5 273.5 L
497.379 275.621 L
499.5 276.5 L
501.621 275.621 L
cp
S
GR
GS
0.929 0.694 0.125 RC
1 LJ
N
513.5 273.5 M
512.621 271.379 L
510.5 270.5 L
508.379 271.379 L
507.5 273.5 L
508.379 275.621 L
510.5 276.5 L
512.621 275.621 L
cp
S
GR
GS
0.929 0.694 0.125 RC
1 LJ
N
524.5 273.5 M
523.621 271.379 L
521.5 270.5 L
519.379 271.379 L
518.5 273.5 L
519.379 275.621 L
521.5 276.5 L
523.621 275.621 L
cp
S
GR
GS
0.494 0.184 0.557 RC
1 LJ
N
86.162 95.676 M
97.325 120.239 L
108.488 137.754 L
119.65 179.817 L
130.813 212.159 L
141.975 244.488 L
153.137 256.67 L
164.3 265.838 L
175.462 265.58 L
186.625 269.178 L
197.788 267.985 L
208.95 273.19 L
220.112 272.904 L
231.275 274.016 L
242.438 274.02 L
253.6 274.042 L
264.763 274.236 L
275.925 274.223 L
287.087 274.254 L
298.25 274.25 L
309.412 274.263 L
320.575 274.256 L
331.737 274.263 L
342.9 274.26 L
354.063 274.261 L
365.225 274.26 L
376.388 274.26 L
387.55 274.26 L
398.713 274.26 L
409.875 274.26 L
421.037 274.26 L
432.2 274.26 L
443.362 274.26 L
454.525 274.26 L
465.688 274.26 L
476.85 274.26 L
488.013 274.26 L
499.175 274.26 L
510.338 274.26 L
521.5 274.26 L
S
GR
GS
0.494 0.184 0.557 RC
1 LJ
N
89.5 95.5 M
88.621 93.379 L
86.5 92.5 L
84.379 93.379 L
83.5 95.5 L
84.379 97.621 L
86.5 98.5 L
88.621 97.621 L
cp
S
GR
GS
0.494 0.184 0.557 RC
1 LJ
N
100.5 120.5 M
99.621 118.379 L
97.5 117.5 L
95.379 118.379 L
94.5 120.5 L
95.379 122.621 L
97.5 123.5 L
99.621 122.621 L
cp
S
GR
GS
0.494 0.184 0.557 RC
1 LJ
N
111.5 137.5 M
110.621 135.379 L
108.5 134.5 L
106.379 135.379 L
105.5 137.5 L
106.379 139.621 L
108.5 140.5 L
110.621 139.621 L
cp
S
GR
GS
0.494 0.184 0.557 RC
1 LJ
N
122.5 179.5 M
121.621 177.379 L
119.5 176.5 L
117.379 177.379 L
116.5 179.5 L
117.379 181.621 L
119.5 182.5 L
121.621 181.621 L
cp
S
GR
GS
0.494 0.184 0.557 RC
1 LJ
N
133.5 212.5 M
132.621 210.379 L
130.5 209.5 L
128.379 210.379 L
127.5 212.5 L
128.379 214.621 L
130.5 215.5 L
132.621 214.621 L
cp
S
GR
GS
0.494 0.184 0.557 RC
1 LJ
N
144.5 244.5 M
143.621 242.379 L
141.5 241.5 L
139.379 242.379 L
138.5 244.5 L
139.379 246.621 L
141.5 247.5 L
143.621 246.621 L
cp
S
GR
GS
0.494 0.184 0.557 RC
1 LJ
N
156.5 256.5 M
155.621 254.379 L
153.5 253.5 L
151.379 254.379 L
150.5 256.5 L
151.379 258.621 L
153.5 259.5 L
155.621 258.621 L
cp
S
GR
GS
0.494 0.184 0.557 RC
1 LJ
N
167.5 265.5 M
166.621 263.379 L
164.5 262.5 L
162.379 263.379 L
161.5 265.5 L
162.379 267.621 L
164.5 268.5 L
166.621 267.621 L
cp
S
GR
GS
0.494 0.184 0.557 RC
1 LJ
N
178.5 265.5 M
177.621 263.379 L
175.5 262.5 L
173.379 263.379 L
172.5 265.5 L
173.379 267.621 L
175.5 268.5 L
177.621 267.621 L
cp
S
GR
GS
0.494 0.184 0.557 RC
1 LJ
N
189.5 269.5 M
188.621 267.379 L
186.5 266.5 L
184.379 267.379 L
183.5 269.5 L
184.379 271.621 L
186.5 272.5 L
188.621 271.621 L
cp
S
GR
GS
0.494 0.184 0.557 RC
1 LJ
N
200.5 267.5 M
199.621 265.379 L
197.5 264.5 L
195.379 265.379 L
194.5 267.5 L
195.379 269.621 L
197.5 270.5 L
199.621 269.621 L
cp
S
GR
GS
0.494 0.184 0.557 RC
1 LJ
N
211.5 273.5 M
210.621 271.379 L
208.5 270.5 L
206.379 271.379 L
205.5 273.5 L
206.379 275.621 L
208.5 276.5 L
210.621 275.621 L
cp
S
GR
GS
0.494 0.184 0.557 RC
1 LJ
N
223.5 272.5 M
222.621 270.379 L
220.5 269.5 L
218.379 270.379 L
217.5 272.5 L
218.379 274.621 L
220.5 275.5 L
222.621 274.621 L
cp
S
GR
GS
0.494 0.184 0.557 RC
1 LJ
N
234.5 274.5 M
233.621 272.379 L
231.5 271.5 L
229.379 272.379 L
228.5 274.5 L
229.379 276.621 L
231.5 277.5 L
233.621 276.621 L
cp
S
GR
GS
0.494 0.184 0.557 RC
1 LJ
N
245.5 274.5 M
244.621 272.379 L
242.5 271.5 L
240.379 272.379 L
239.5 274.5 L
240.379 276.621 L
242.5 277.5 L
244.621 276.621 L
cp
S
GR
GS
0.494 0.184 0.557 RC
1 LJ
N
256.5 274.5 M
255.621 272.379 L
253.5 271.5 L
251.379 272.379 L
250.5 274.5 L
251.379 276.621 L
253.5 277.5 L
255.621 276.621 L
cp
S
GR
GS
0.494 0.184 0.557 RC
1 LJ
N
267.5 274.5 M
266.621 272.379 L
264.5 271.5 L
262.379 272.379 L
261.5 274.5 L
262.379 276.621 L
264.5 277.5 L
266.621 276.621 L
cp
S
GR
GS
0.494 0.184 0.557 RC
1 LJ
N
278.5 274.5 M
277.621 272.379 L
275.5 271.5 L
273.379 272.379 L
272.5 274.5 L
273.379 276.621 L
275.5 277.5 L
277.621 276.621 L
cp
S
GR
GS
0.494 0.184 0.557 RC
1 LJ
N
290.5 274.5 M
289.621 272.379 L
287.5 271.5 L
285.379 272.379 L
284.5 274.5 L
285.379 276.621 L
287.5 277.5 L
289.621 276.621 L
cp
S
GR
GS
0.494 0.184 0.557 RC
1 LJ
N
301.5 274.5 M
300.621 272.379 L
298.5 271.5 L
296.379 272.379 L
295.5 274.5 L
296.379 276.621 L
298.5 277.5 L
300.621 276.621 L
cp
S
GR
GS
0.494 0.184 0.557 RC
1 LJ
N
312.5 274.5 M
311.621 272.379 L
309.5 271.5 L
307.379 272.379 L
306.5 274.5 L
307.379 276.621 L
309.5 277.5 L
311.621 276.621 L
cp
S
GR
GS
0.494 0.184 0.557 RC
1 LJ
N
323.5 274.5 M
322.621 272.379 L
320.5 271.5 L
318.379 272.379 L
317.5 274.5 L
318.379 276.621 L
320.5 277.5 L
322.621 276.621 L
cp
S
GR
GS
0.494 0.184 0.557 RC
1 LJ
N
334.5 274.5 M
333.621 272.379 L
331.5 271.5 L
329.379 272.379 L
328.5 274.5 L
329.379 276.621 L
331.5 277.5 L
333.621 276.621 L
cp
S
GR
GS
0.494 0.184 0.557 RC
1 LJ
N
345.5 274.5 M
344.621 272.379 L
342.5 271.5 L
340.379 272.379 L
339.5 274.5 L
340.379 276.621 L
342.5 277.5 L
344.621 276.621 L
cp
S
GR
GS
0.494 0.184 0.557 RC
1 LJ
N
357.5 274.5 M
356.621 272.379 L
354.5 271.5 L
352.379 272.379 L
351.5 274.5 L
352.379 276.621 L
354.5 277.5 L
356.621 276.621 L
cp
S
GR
GS
0.494 0.184 0.557 RC
1 LJ
N
368.5 274.5 M
367.621 272.379 L
365.5 271.5 L
363.379 272.379 L
362.5 274.5 L
363.379 276.621 L
365.5 277.5 L
367.621 276.621 L
cp
S
GR
GS
0.494 0.184 0.557 RC
1 LJ
N
379.5 274.5 M
378.621 272.379 L
376.5 271.5 L
374.379 272.379 L
373.5 274.5 L
374.379 276.621 L
376.5 277.5 L
378.621 276.621 L
cp
S
GR
GS
0.494 0.184 0.557 RC
1 LJ
N
390.5 274.5 M
389.621 272.379 L
387.5 271.5 L
385.379 272.379 L
384.5 274.5 L
385.379 276.621 L
387.5 277.5 L
389.621 276.621 L
cp
S
GR
GS
0.494 0.184 0.557 RC
1 LJ
N
401.5 274.5 M
400.621 272.379 L
398.5 271.5 L
396.379 272.379 L
395.5 274.5 L
396.379 276.621 L
398.5 277.5 L
400.621 276.621 L
cp
S
GR
GS
0.494 0.184 0.557 RC
1 LJ
N
412.5 274.5 M
411.621 272.379 L
409.5 271.5 L
407.379 272.379 L
406.5 274.5 L
407.379 276.621 L
409.5 277.5 L
411.621 276.621 L
cp
S
GR
GS
0.494 0.184 0.557 RC
1 LJ
N
424.5 274.5 M
423.621 272.379 L
421.5 271.5 L
419.379 272.379 L
418.5 274.5 L
419.379 276.621 L
421.5 277.5 L
423.621 276.621 L
cp
S
GR
GS
0.494 0.184 0.557 RC
1 LJ
N
435.5 274.5 M
434.621 272.379 L
432.5 271.5 L
430.379 272.379 L
429.5 274.5 L
430.379 276.621 L
432.5 277.5 L
434.621 276.621 L
cp
S
GR
GS
0.494 0.184 0.557 RC
1 LJ
N
446.5 274.5 M
445.621 272.379 L
443.5 271.5 L
441.379 272.379 L
440.5 274.5 L
441.379 276.621 L
443.5 277.5 L
445.621 276.621 L
cp
S
GR
GS
0.494 0.184 0.557 RC
1 LJ
N
457.5 274.5 M
456.621 272.379 L
454.5 271.5 L
452.379 272.379 L
451.5 274.5 L
452.379 276.621 L
454.5 277.5 L
456.621 276.621 L
cp
S
GR
GS
0.494 0.184 0.557 RC
1 LJ
N
468.5 274.5 M
467.621 272.379 L
465.5 271.5 L
463.379 272.379 L
462.5 274.5 L
463.379 276.621 L
465.5 277.5 L
467.621 276.621 L
cp
S
GR
GS
0.494 0.184 0.557 RC
1 LJ
N
479.5 274.5 M
478.621 272.379 L
476.5 271.5 L
474.379 272.379 L
473.5 274.5 L
474.379 276.621 L
476.5 277.5 L
478.621 276.621 L
cp
S
GR
GS
0.494 0.184 0.557 RC
1 LJ
N
491.5 274.5 M
490.621 272.379 L
488.5 271.5 L
486.379 272.379 L
485.5 274.5 L
486.379 276.621 L
488.5 277.5 L
490.621 276.621 L
cp
S
GR
GS
0.494 0.184 0.557 RC
1 LJ
N
502.5 274.5 M
501.621 272.379 L
499.5 271.5 L
497.379 272.379 L
496.5 274.5 L
497.379 276.621 L
499.5 277.5 L
501.621 276.621 L
cp
S
GR
GS
0.494 0.184 0.557 RC
1 LJ
N
513.5 274.5 M
512.621 272.379 L
510.5 271.5 L
508.379 272.379 L
507.5 274.5 L
508.379 276.621 L
510.5 277.5 L
512.621 276.621 L
cp
S
GR
GS
0.494 0.184 0.557 RC
1 LJ
N
524.5 274.5 M
523.621 272.379 L
521.5 271.5 L
519.379 272.379 L
518.5 274.5 L
519.379 276.621 L
521.5 277.5 L
523.621 276.621 L
cp
S
GR
GS
[1 0 0 1 297.5 51.5] CT
/Helvetica 14 F
GS
[1 0 0 1 0 0] CT
0 3.5 moveto 
1 -1 scale
(No shuffling) t 
GR
GR
GS
0 0.447 0.741 RC
1 LJ
N
264.5 51.5 M
294.5 51.5 L
S
GR
GS
0 0.447 0.741 RC
1 LJ
N
282.5 51.5 M
281.621 49.379 L
279.5 48.5 L
277.379 49.379 L
276.5 51.5 L
277.379 53.621 L
279.5 54.5 L
281.621 53.621 L
cp
S
GR
GS
[1 0 0 1 297.5 66] CT
/Helvetica 14 F
GS
[1 0 0 1 0 0] CT
0 3.5 moveto 
1 -1 scale
(Random shuffling) t 
GR
GR
GS
0.851 0.325 0.098 RC
1 LJ
N
264.5 66 M
294.5 66 L
S
GR
GS
0.851 0.325 0.098 RC
1 LJ
N
282.5 65.5 M
281.621 63.379 L
279.5 62.5 L
277.379 63.379 L
276.5 65.5 L
277.379 67.621 L
279.5 68.5 L
281.621 67.621 L
cp
S
GR
GS
[1 0 0 1 297.5 80.5] CT
/Helvetica 14 F
GS
[1 0 0 1 0 0] CT
0 3.5 moveto 
1 -1 scale
(Random shuffling with replacement) t 
GR
GR
GS
0.929 0.694 0.125 RC
1 LJ
N
264.5 80.5 M
294.5 80.5 L
S
GR
GS
0.929 0.694 0.125 RC
1 LJ
N
282.5 80.5 M
281.621 78.379 L
279.5 77.5 L
277.379 78.379 L
276.5 80.5 L
277.379 82.621 L
279.5 83.5 L
281.621 82.621 L
cp
S
GR
GS
[1 0 0 1 297.5 95] CT
/Helvetica 14 F
GS
[1 0 0 1 0 0] CT
0 3.5 moveto 
1 -1 scale
(Smart shuffling) t 
GR
GR
GS
0.494 0.184 0.557 RC
1 LJ
N
264.5 95 M
294.5 95 L
S
GR
GS
0.494 0.184 0.557 RC
1 LJ
N
282.5 95.5 M
281.621 93.379 L
279.5 92.5 L
277.379 93.379 L
276.5 95.5 L
277.379 97.621 L
279.5 98.5 L
281.621 97.621 L
cp
S
GR
%%Trailer
%%Pages: 1
%%EOF
