%!PS-Adobe-3.0 EPSF-3.0
%%Creator: (MATLAB, The Mathworks, Inc. Version 8.6.0.267246 \(R2015b\). Operating System: Mac OS X)
%%Title: /Users/gauthiermuguerza/Desktop/rsgd/report/images/fourRect.eps
%%CreationDate: 2018-06-08T03:37:08
%%Pages: (atend)
%%BoundingBox:     8     0   538   413
%%LanguageLevel: 3
%%EndComments
%%BeginProlog
%%BeginResource: procset (Apache XML Graphics Std ProcSet) 1.2 0
%%Version: 1.2 0
%%Copyright: (Copyright 2001-2003,2010 The Apache Software Foundation. License terms: http://www.apache.org/licenses/LICENSE-2.0)
/bd{bind def}bind def
/ld{load def}bd
/GR/grestore ld
/M/moveto ld
/LJ/setlinejoin ld
/C/curveto ld
/f/fill ld
/LW/setlinewidth ld
/GC/setgray ld
/t/show ld
/N/newpath ld
/CT/concat ld
/cp/closepath ld
/S/stroke ld
/L/lineto ld
/CC/setcmykcolor ld
/A/ashow ld
/GS/gsave ld
/RC/setrgbcolor ld
/RM/rmoveto ld
/ML/setmiterlimit ld
/re {4 2 roll M
1 index 0 rlineto
0 exch rlineto
neg 0 rlineto
cp } bd
/_ctm matrix def
/_tm matrix def
/BT { _ctm currentmatrix pop matrix _tm copy pop 0 0 moveto } bd
/ET { _ctm setmatrix } bd
/iTm { _ctm setmatrix _tm concat } bd
/Tm { _tm astore pop iTm 0 0 moveto } bd
/ux 0.0 def
/uy 0.0 def
/F {
  /Tp exch def
  /Tf exch def
  Tf findfont Tp scalefont setfont
  /cf Tf def  /cs Tp def
} bd
/ULS {currentpoint /uy exch def /ux exch def} bd
/ULE {
  /Tcx currentpoint pop def
  gsave
  newpath
  cf findfont cs scalefont dup
  /FontMatrix get 0 get /Ts exch def /FontInfo get dup
  /UnderlinePosition get Ts mul /To exch def
  /UnderlineThickness get Ts mul /Tt exch def
  ux uy To add moveto  Tcx uy To add lineto
  Tt setlinewidth stroke
  grestore
} bd
/OLE {
  /Tcx currentpoint pop def
  gsave
  newpath
  cf findfont cs scalefont dup
  /FontMatrix get 0 get /Ts exch def /FontInfo get dup
  /UnderlinePosition get Ts mul /To exch def
  /UnderlineThickness get Ts mul /Tt exch def
  ux uy To add cs add moveto Tcx uy To add cs add lineto
  Tt setlinewidth stroke
  grestore
} bd
/SOE {
  /Tcx currentpoint pop def
  gsave
  newpath
  cf findfont cs scalefont dup
  /FontMatrix get 0 get /Ts exch def /FontInfo get dup
  /UnderlinePosition get Ts mul /To exch def
  /UnderlineThickness get Ts mul /Tt exch def
  ux uy To add cs 10 mul 26 idiv add moveto Tcx uy To add cs 10 mul 26 idiv add lineto
  Tt setlinewidth stroke
  grestore
} bd
/QT {
/Y22 exch store
/X22 exch store
/Y21 exch store
/X21 exch store
currentpoint
/Y21 load 2 mul add 3 div exch
/X21 load 2 mul add 3 div exch
/X21 load 2 mul /X22 load add 3 div
/Y21 load 2 mul /Y22 load add 3 div
/X22 load /Y22 load curveto
} bd
/SSPD {
dup length /d exch dict def
{
/v exch def
/k exch def
currentpagedevice k known {
/cpdv currentpagedevice k get def
v cpdv ne {
/upd false def
/nullv v type /nulltype eq def
/nullcpdv cpdv type /nulltype eq def
nullv nullcpdv or
{
/upd true def
} {
/sametype v type cpdv type eq def
sametype {
v type /arraytype eq {
/vlen v length def
/cpdvlen cpdv length def
vlen cpdvlen eq {
0 1 vlen 1 sub {
/i exch def
/obj v i get def
/cpdobj cpdv i get def
obj cpdobj ne {
/upd true def
exit
} if
} for
} {
/upd true def
} ifelse
} {
v type /dicttype eq {
v {
/dv exch def
/dk exch def
/cpddv cpdv dk get def
dv cpddv ne {
/upd true def
exit
} if
} forall
} {
/upd true def
} ifelse
} ifelse
} if
} ifelse
upd true eq {
d k v put
} if
} if
} if
} forall
d length 0 gt {
d setpagedevice
} if
} bd
%%EndResource
%%BeginResource: procset (Apache XML Graphics EPS ProcSet) 1.0 0
%%Version: 1.0 0
%%Copyright: (Copyright 2002-2003 The Apache Software Foundation. License terms: http://www.apache.org/licenses/LICENSE-2.0)
/BeginEPSF { %def
/b4_Inc_state save def         % Save state for cleanup
/dict_count countdictstack def % Count objects on dict stack
/op_count count 1 sub def      % Count objects on operand stack
userdict begin                 % Push userdict on dict stack
/showpage { } def              % Redefine showpage, { } = null proc
0 setgray 0 setlinecap         % Prepare graphics state
1 setlinewidth 0 setlinejoin
10 setmiterlimit [ ] 0 setdash newpath
/languagelevel where           % If level not equal to 1 then
{pop languagelevel             % set strokeadjust and
1 ne                           % overprint to their defaults.
{false setstrokeadjust false setoverprint
} if
} if
} bd
/EndEPSF { %def
count op_count sub {pop} repeat            % Clean up stacks
countdictstack dict_count sub {end} repeat
b4_Inc_state restore
} bd
%%EndResource
%FOPBeginFontDict
%%IncludeResource: font Courier-Bold
%%IncludeResource: font Helvetica
%%IncludeResource: font Courier-BoldOblique
%%IncludeResource: font Courier-Oblique
%%IncludeResource: font Times-Roman
%%IncludeResource: font Helvetica-BoldOblique
%%IncludeResource: font Helvetica-Bold
%%IncludeResource: font Helvetica-Oblique
%%IncludeResource: font Times-BoldItalic
%%IncludeResource: font Courier
%%IncludeResource: font Times-Italic
%%IncludeResource: font Times-Bold
%%IncludeResource: font Symbol
%%IncludeResource: font ZapfDingbats
%FOPEndFontDict
%%BeginResource: encoding WinAnsiEncoding
/WinAnsiEncoding [
/.notdef /.notdef /.notdef /.notdef /.notdef
/.notdef /.notdef /.notdef /.notdef /.notdef
/.notdef /.notdef /.notdef /.notdef /.notdef
/.notdef /.notdef /.notdef /.notdef /.notdef
/.notdef /.notdef /.notdef /.notdef /.notdef
/.notdef /.notdef /.notdef /.notdef /.notdef
/.notdef /.notdef /space /exclam /quotedbl
/numbersign /dollar /percent /ampersand /quotesingle
/parenleft /parenright /asterisk /plus /comma
/hyphen /period /slash /zero /one
/two /three /four /five /six
/seven /eight /nine /colon /semicolon
/less /equal /greater /question /at
/A /B /C /D /E
/F /G /H /I /J
/K /L /M /N /O
/P /Q /R /S /T
/U /V /W /X /Y
/Z /bracketleft /backslash /bracketright /asciicircum
/underscore /quoteleft /a /b /c
/d /e /f /g /h
/i /j /k /l /m
/n /o /p /q /r
/s /t /u /v /w
/x /y /z /braceleft /bar
/braceright /asciitilde /bullet /Euro /bullet
/quotesinglbase /florin /quotedblbase /ellipsis /dagger
/daggerdbl /circumflex /perthousand /Scaron /guilsinglleft
/OE /bullet /Zcaron /bullet /bullet
/quoteleft /quoteright /quotedblleft /quotedblright /bullet
/endash /emdash /asciitilde /trademark /scaron
/guilsinglright /oe /bullet /zcaron /Ydieresis
/space /exclamdown /cent /sterling /currency
/yen /brokenbar /section /dieresis /copyright
/ordfeminine /guillemotleft /logicalnot /sfthyphen /registered
/macron /degree /plusminus /twosuperior /threesuperior
/acute /mu /paragraph /middot /cedilla
/onesuperior /ordmasculine /guillemotright /onequarter /onehalf
/threequarters /questiondown /Agrave /Aacute /Acircumflex
/Atilde /Adieresis /Aring /AE /Ccedilla
/Egrave /Eacute /Ecircumflex /Edieresis /Igrave
/Iacute /Icircumflex /Idieresis /Eth /Ntilde
/Ograve /Oacute /Ocircumflex /Otilde /Odieresis
/multiply /Oslash /Ugrave /Uacute /Ucircumflex
/Udieresis /Yacute /Thorn /germandbls /agrave
/aacute /acircumflex /atilde /adieresis /aring
/ae /ccedilla /egrave /eacute /ecircumflex
/edieresis /igrave /iacute /icircumflex /idieresis
/eth /ntilde /ograve /oacute /ocircumflex
/otilde /odieresis /divide /oslash /ugrave
/uacute /ucircumflex /udieresis /yacute /thorn
/ydieresis
] def
%%EndResource
%FOPBeginFontReencode
/Courier-Bold findfont
dup length dict begin
  {1 index /FID ne {def} {pop pop} ifelse} forall
  /Encoding WinAnsiEncoding def
  currentdict
end
/Courier-Bold exch definefont pop
/Helvetica findfont
dup length dict begin
  {1 index /FID ne {def} {pop pop} ifelse} forall
  /Encoding WinAnsiEncoding def
  currentdict
end
/Helvetica exch definefont pop
/Courier-BoldOblique findfont
dup length dict begin
  {1 index /FID ne {def} {pop pop} ifelse} forall
  /Encoding WinAnsiEncoding def
  currentdict
end
/Courier-BoldOblique exch definefont pop
/Courier-Oblique findfont
dup length dict begin
  {1 index /FID ne {def} {pop pop} ifelse} forall
  /Encoding WinAnsiEncoding def
  currentdict
end
/Courier-Oblique exch definefont pop
/Times-Roman findfont
dup length dict begin
  {1 index /FID ne {def} {pop pop} ifelse} forall
  /Encoding WinAnsiEncoding def
  currentdict
end
/Times-Roman exch definefont pop
/Helvetica-BoldOblique findfont
dup length dict begin
  {1 index /FID ne {def} {pop pop} ifelse} forall
  /Encoding WinAnsiEncoding def
  currentdict
end
/Helvetica-BoldOblique exch definefont pop
/Helvetica-Bold findfont
dup length dict begin
  {1 index /FID ne {def} {pop pop} ifelse} forall
  /Encoding WinAnsiEncoding def
  currentdict
end
/Helvetica-Bold exch definefont pop
/Helvetica-Oblique findfont
dup length dict begin
  {1 index /FID ne {def} {pop pop} ifelse} forall
  /Encoding WinAnsiEncoding def
  currentdict
end
/Helvetica-Oblique exch definefont pop
/Times-BoldItalic findfont
dup length dict begin
  {1 index /FID ne {def} {pop pop} ifelse} forall
  /Encoding WinAnsiEncoding def
  currentdict
end
/Times-BoldItalic exch definefont pop
/Courier findfont
dup length dict begin
  {1 index /FID ne {def} {pop pop} ifelse} forall
  /Encoding WinAnsiEncoding def
  currentdict
end
/Courier exch definefont pop
/Times-Italic findfont
dup length dict begin
  {1 index /FID ne {def} {pop pop} ifelse} forall
  /Encoding WinAnsiEncoding def
  currentdict
end
/Times-Italic exch definefont pop
/Times-Bold findfont
dup length dict begin
  {1 index /FID ne {def} {pop pop} ifelse} forall
  /Encoding WinAnsiEncoding def
  currentdict
end
/Times-Bold exch definefont pop
%FOPEndFontReencode
%%EndProlog
%%Page: 1 1
%%PageBoundingBox: 0 0 576 432
%%BeginPageSetup
[1 0 0 -1 0 432] CT
%%EndPageSetup
GS
1 GC
N
0 0 576 432 re
f
GR
GS
1 GC
N
0 0 576 432 re
f
GR
GS
1 GC
N
75 384 M
521.5 384 L
521.5 32.5 L
75 32.5 L
cp
f
GR
GS
0.149 GC
2 setlinecap
1 LJ
0.5 LW
N
75 384 M
521.5 384 L
S
GR
GS
0.149 GC
2 setlinecap
1 LJ
0.5 LW
N
75 384 M
75 379.535 L
S
GR
GS
0.149 GC
2 setlinecap
1 LJ
0.5 LW
N
149.417 384 M
149.417 379.535 L
S
GR
GS
0.149 GC
2 setlinecap
1 LJ
0.5 LW
N
223.833 384 M
223.833 379.535 L
S
GR
GS
0.149 GC
2 setlinecap
1 LJ
0.5 LW
N
298.25 384 M
298.25 379.535 L
S
GR
GS
0.149 GC
2 setlinecap
1 LJ
0.5 LW
N
372.667 384 M
372.667 379.535 L
S
GR
GS
0.149 GC
2 setlinecap
1 LJ
0.5 LW
N
447.083 384 M
447.083 379.535 L
S
GR
GS
0.149 GC
2 setlinecap
1 LJ
0.5 LW
N
521.5 384 M
521.5 379.535 L
S
GR
GS
[1 0 0 1 75 390] CT
0.149 GC
/Helvetica 20 F
GS
[1 0 0 1 0 0] CT
-6 16 moveto 
1 -1 scale
(0) t 
GR
GR
GS
[1 0 0 1 149.41667 390] CT
0.149 GC
/Helvetica 20 F
GS
[1 0 0 1 0 0] CT
-11.5 16 moveto 
1 -1 scale
(20) t 
GR
GR
GS
[1 0 0 1 223.83334 390] CT
0.149 GC
/Helvetica 20 F
GS
[1 0 0 1 0 0] CT
-11.5 16 moveto 
1 -1 scale
(40) t 
GR
GR
GS
[1 0 0 1 298.25 390] CT
0.149 GC
/Helvetica 20 F
GS
[1 0 0 1 0 0] CT
-11.5 16 moveto 
1 -1 scale
(60) t 
GR
GR
GS
[1 0 0 1 372.66669 390] CT
0.149 GC
/Helvetica 20 F
GS
[1 0 0 1 0 0] CT
-11.5 16 moveto 
1 -1 scale
(80) t 
GR
GR
GS
[1 0 0 1 447.08331 390] CT
0.149 GC
/Helvetica 20 F
GS
[1 0 0 1 0 0] CT
-17 16 moveto 
1 -1 scale
(100) t 
GR
GR
GS
[1 0 0 1 521.5 390] CT
0.149 GC
/Helvetica 20 F
GS
[1 0 0 1 0 0] CT
-17 16 moveto 
1 -1 scale
(120) t 
GR
GR
GS
[1 0 0 1 298.25021 411.5] CT
0.149 GC
/Helvetica 17 F
GS
[1 0 0 1 0 0] CT
-41.5 16 moveto 
1 -1 scale
(Iterations) t 
GR
GR
GS
0.149 GC
2 setlinecap
1 LJ
0.5 LW
N
75 384 M
75 32.5 L
S
GR
GS
0.149 GC
2 setlinecap
1 LJ
0.5 LW
N
75 384 M
79.465 384 L
S
GR
GS
0.149 GC
2 setlinecap
1 LJ
0.5 LW
N
75 325.417 M
79.465 325.417 L
S
GR
GS
0.149 GC
2 setlinecap
1 LJ
0.5 LW
N
75 266.833 M
79.465 266.833 L
S
GR
GS
0.149 GC
2 setlinecap
1 LJ
0.5 LW
N
75 208.25 M
79.465 208.25 L
S
GR
GS
0.149 GC
2 setlinecap
1 LJ
0.5 LW
N
75 149.667 M
79.465 149.667 L
S
GR
GS
0.149 GC
2 setlinecap
1 LJ
0.5 LW
N
75 91.083 M
79.465 91.083 L
S
GR
GS
0.149 GC
2 setlinecap
1 LJ
0.5 LW
N
75 32.5 M
79.465 32.5 L
S
GR
GS
0.149 GC
2 setlinecap
1 LJ
0.5 LW
N
75 366.365 M
77.232 366.365 L
S
GR
GS
0.149 GC
2 setlinecap
1 LJ
0.5 LW
N
75 356.049 M
77.232 356.049 L
S
GR
GS
0.149 GC
2 setlinecap
1 LJ
0.5 LW
N
75 348.729 M
77.232 348.729 L
S
GR
GS
0.149 GC
2 setlinecap
1 LJ
0.5 LW
N
75 343.052 M
77.232 343.052 L
S
GR
GS
0.149 GC
2 setlinecap
1 LJ
0.5 LW
N
75 338.413 M
77.232 338.413 L
S
GR
GS
0.149 GC
2 setlinecap
1 LJ
0.5 LW
N
75 334.491 M
77.232 334.491 L
S
GR
GS
0.149 GC
2 setlinecap
1 LJ
0.5 LW
N
75 331.094 M
77.232 331.094 L
S
GR
GS
0.149 GC
2 setlinecap
1 LJ
0.5 LW
N
75 328.097 M
77.232 328.097 L
S
GR
GS
0.149 GC
2 setlinecap
1 LJ
0.5 LW
N
75 307.781 M
77.232 307.781 L
S
GR
GS
0.149 GC
2 setlinecap
1 LJ
0.5 LW
N
75 297.465 M
77.232 297.465 L
S
GR
GS
0.149 GC
2 setlinecap
1 LJ
0.5 LW
N
75 290.146 M
77.232 290.146 L
S
GR
GS
0.149 GC
2 setlinecap
1 LJ
0.5 LW
N
75 284.469 M
77.232 284.469 L
S
GR
GS
0.149 GC
2 setlinecap
1 LJ
0.5 LW
N
75 279.83 M
77.232 279.83 L
S
GR
GS
0.149 GC
2 setlinecap
1 LJ
0.5 LW
N
75 275.908 M
77.232 275.908 L
S
GR
GS
0.149 GC
2 setlinecap
1 LJ
0.5 LW
N
75 272.511 M
77.232 272.511 L
S
GR
GS
0.149 GC
2 setlinecap
1 LJ
0.5 LW
N
75 269.514 M
77.232 269.514 L
S
GR
GS
0.149 GC
2 setlinecap
1 LJ
0.5 LW
N
75 249.198 M
77.232 249.198 L
S
GR
GS
0.149 GC
2 setlinecap
1 LJ
0.5 LW
N
75 238.882 M
77.232 238.882 L
S
GR
GS
0.149 GC
2 setlinecap
1 LJ
0.5 LW
N
75 231.563 M
77.232 231.563 L
S
GR
GS
0.149 GC
2 setlinecap
1 LJ
0.5 LW
N
75 225.885 M
77.232 225.885 L
S
GR
GS
0.149 GC
2 setlinecap
1 LJ
0.5 LW
N
75 221.247 M
77.232 221.247 L
S
GR
GS
0.149 GC
2 setlinecap
1 LJ
0.5 LW
N
75 217.325 M
77.232 217.325 L
S
GR
GS
0.149 GC
2 setlinecap
1 LJ
0.5 LW
N
75 213.927 M
77.232 213.927 L
S
GR
GS
0.149 GC
2 setlinecap
1 LJ
0.5 LW
N
75 210.931 M
77.232 210.931 L
S
GR
GS
0.149 GC
2 setlinecap
1 LJ
0.5 LW
N
75 190.615 M
77.232 190.615 L
S
GR
GS
0.149 GC
2 setlinecap
1 LJ
0.5 LW
N
75 180.299 M
77.232 180.299 L
S
GR
GS
0.149 GC
2 setlinecap
1 LJ
0.5 LW
N
75 172.979 M
77.232 172.979 L
S
GR
GS
0.149 GC
2 setlinecap
1 LJ
0.5 LW
N
75 167.302 M
77.232 167.302 L
S
GR
GS
0.149 GC
2 setlinecap
1 LJ
0.5 LW
N
75 162.663 M
77.232 162.663 L
S
GR
GS
0.149 GC
2 setlinecap
1 LJ
0.5 LW
N
75 158.741 M
77.232 158.741 L
S
GR
GS
0.149 GC
2 setlinecap
1 LJ
0.5 LW
N
75 155.344 M
77.232 155.344 L
S
GR
GS
0.149 GC
2 setlinecap
1 LJ
0.5 LW
N
75 152.347 M
77.232 152.347 L
S
GR
GS
0.149 GC
2 setlinecap
1 LJ
0.5 LW
N
75 132.031 M
77.232 132.031 L
S
GR
GS
0.149 GC
2 setlinecap
1 LJ
0.5 LW
N
75 121.715 M
77.232 121.715 L
S
GR
GS
0.149 GC
2 setlinecap
1 LJ
0.5 LW
N
75 114.396 M
77.232 114.396 L
S
GR
GS
0.149 GC
2 setlinecap
1 LJ
0.5 LW
N
75 108.719 M
77.232 108.719 L
S
GR
GS
0.149 GC
2 setlinecap
1 LJ
0.5 LW
N
75 104.08 M
77.232 104.08 L
S
GR
GS
0.149 GC
2 setlinecap
1 LJ
0.5 LW
N
75 100.158 M
77.232 100.158 L
S
GR
GS
0.149 GC
2 setlinecap
1 LJ
0.5 LW
N
75 96.761 M
77.232 96.761 L
S
GR
GS
0.149 GC
2 setlinecap
1 LJ
0.5 LW
N
75 93.764 M
77.232 93.764 L
S
GR
GS
0.149 GC
2 setlinecap
1 LJ
0.5 LW
N
75 73.448 M
77.232 73.448 L
S
GR
GS
0.149 GC
2 setlinecap
1 LJ
0.5 LW
N
75 63.132 M
77.232 63.132 L
S
GR
GS
0.149 GC
2 setlinecap
1 LJ
0.5 LW
N
75 55.813 M
77.232 55.813 L
S
GR
GS
0.149 GC
2 setlinecap
1 LJ
0.5 LW
N
75 50.135 M
77.232 50.135 L
S
GR
GS
0.149 GC
2 setlinecap
1 LJ
0.5 LW
N
75 45.497 M
77.232 45.497 L
S
GR
GS
0.149 GC
2 setlinecap
1 LJ
0.5 LW
N
75 41.575 M
77.232 41.575 L
S
GR
GS
0.149 GC
2 setlinecap
1 LJ
0.5 LW
N
75 38.177 M
77.232 38.177 L
S
GR
GS
0.149 GC
2 setlinecap
1 LJ
0.5 LW
N
75 35.181 M
77.232 35.181 L
S
GR
GS
[1 0 0 1 31 393] CT
0.149 GC
/Helvetica 20 F
GS
[1 0 0 1 0 0] CT
0 0 moveto 
1 -1 scale
(10) t 
GR
GR
GS
[1 0 0 1 54 383] CT
0.149 GC
/Helvetica 16 F
GS
[1 0 0 1 0 0] CT
0 0 moveto 
1 -1 scale
(-5) t 
GR
GR
GS
[1 0 0 1 31 334] CT
0.149 GC
/Helvetica 20 F
GS
[1 0 0 1 0 0] CT
0 0 moveto 
1 -1 scale
(10) t 
GR
GR
GS
[1 0 0 1 54 324] CT
0.149 GC
/Helvetica 16 F
GS
[1 0 0 1 0 0] CT
0 0 moveto 
1 -1 scale
(-4) t 
GR
GR
GS
[1 0 0 1 31 276] CT
0.149 GC
/Helvetica 20 F
GS
[1 0 0 1 0 0] CT
0 0 moveto 
1 -1 scale
(10) t 
GR
GR
GS
[1 0 0 1 54 266] CT
0.149 GC
/Helvetica 16 F
GS
[1 0 0 1 0 0] CT
0 0 moveto 
1 -1 scale
(-3) t 
GR
GR
GS
[1 0 0 1 31 217] CT
0.149 GC
/Helvetica 20 F
GS
[1 0 0 1 0 0] CT
0 0 moveto 
1 -1 scale
(10) t 
GR
GR
GS
[1 0 0 1 54 207] CT
0.149 GC
/Helvetica 16 F
GS
[1 0 0 1 0 0] CT
0 0 moveto 
1 -1 scale
(-2) t 
GR
GR
GS
[1 0 0 1 31 159] CT
0.149 GC
/Helvetica 20 F
GS
[1 0 0 1 0 0] CT
0 0 moveto 
1 -1 scale
(10) t 
GR
GR
GS
[1 0 0 1 54 149] CT
0.149 GC
/Helvetica 16 F
GS
[1 0 0 1 0 0] CT
0 0 moveto 
1 -1 scale
(-1) t 
GR
GR
GS
[1 0 0 1 37 100] CT
0.149 GC
/Helvetica 20 F
GS
[1 0 0 1 0 0] CT
0 0 moveto 
1 -1 scale
(10) t 
GR
GR
GS
[1 0 0 1 60 90] CT
0.149 GC
/Helvetica 16 F
GS
[1 0 0 1 0 0] CT
0 0 moveto 
1 -1 scale
(0) t 
GR
GR
GS
[1 0 0 1 37 42] CT
0.149 GC
/Helvetica 20 F
GS
[1 0 0 1 0 0] CT
0 0 moveto 
1 -1 scale
(10) t 
GR
GR
GS
[1 0 0 1 60 32] CT
0.149 GC
/Helvetica 16 F
GS
[1 0 0 1 0 0] CT
0 0 moveto 
1 -1 scale
(1) t 
GR
GR
GS
[0 -1 1 0 29 208.24983] CT
0.149 GC
/Helvetica 17 F
GS
[1 0 0 1 0 0] CT
-54.5 -5 moveto 
1 -1 scale
(Train RMSE) t 
GR
GR
GS
0 0.447 0.741 RC
1 LJ
N
78.721 64.731 M
82.442 75.371 L
86.162 81.462 L
89.883 86.502 L
93.604 93.084 L
97.325 93.117 L
101.046 98.764 L
104.767 102.035 L
108.488 106.088 L
112.208 103.855 L
115.929 112.169 L
119.65 118.209 L
123.371 127.889 L
127.092 135.224 L
130.813 140.311 L
134.533 144.458 L
138.254 149.329 L
141.975 154.564 L
145.696 157.498 L
149.417 158.376 L
153.137 158.424 L
156.858 165.563 L
160.579 170.344 L
164.3 172.1 L
168.021 172.773 L
171.742 175.539 L
175.462 179.307 L
179.183 180.253 L
182.904 181.116 L
186.625 185.172 L
190.346 189.562 L
194.067 192.988 L
197.788 194.646 L
201.508 195.799 L
205.229 197.772 L
208.95 200.829 L
212.671 202.077 L
216.392 205.206 L
220.112 208.98 L
223.833 212.452 L
227.554 214.189 L
231.275 215.72 L
234.996 218.173 L
238.717 220.454 L
242.438 220.686 L
246.158 215.457 L
249.879 224.184 L
253.6 229.058 L
257.321 232.195 L
261.042 232.503 L
S
GR
GS
0 0.447 0.741 RC
1 LJ
N
257.321 232.195 M
261.042 232.503 L
264.763 235.058 L
268.483 240.38 L
272.204 244.853 L
275.925 245.164 L
279.646 247.876 L
283.367 251.132 L
287.087 255.506 L
290.808 258.315 L
294.529 259.741 L
298.25 261.379 L
301.971 265.97 L
305.692 271.05 L
309.412 273.955 L
313.133 275.67 L
316.854 277.733 L
320.575 280.591 L
324.296 283.054 L
328.017 284.531 L
331.737 286.255 L
335.458 287.462 L
339.179 290.854 L
342.9 293.859 L
346.621 296.611 L
350.342 298.837 L
354.063 300.363 L
357.783 301.47 L
361.504 302.644 L
365.225 304.792 L
368.946 302.933 L
372.667 308.272 L
376.388 310.398 L
380.108 311.978 L
383.829 314.125 L
387.55 315.819 L
391.271 315.952 L
394.992 315.33 L
398.713 317.397 L
402.433 320.248 L
406.154 322.222 L
409.875 322.229 L
413.596 321.96 L
417.317 324.133 L
421.037 326.864 L
424.758 325.417 L
428.479 325.417 L
432.2 325.417 L
435.921 325.417 L
439.642 325.417 L
443.362 325.417 L
447.083 325.417 L
S
GR
GS
0 0.447 0.741 RC
1 LJ
N
443.362 325.417 M
447.083 325.417 L
450.804 325.417 L
S
GR
GS
0 0.447 0.741 RC
1 LJ
N
81.5 64.5 M
80.621 62.379 L
78.5 61.5 L
76.379 62.379 L
75.5 64.5 L
76.379 66.621 L
78.5 67.5 L
80.621 66.621 L
cp
S
GR
GS
0 0.447 0.741 RC
1 LJ
N
85.5 75.5 M
84.621 73.379 L
82.5 72.5 L
80.379 73.379 L
79.5 75.5 L
80.379 77.621 L
82.5 78.5 L
84.621 77.621 L
cp
S
GR
GS
0 0.447 0.741 RC
1 LJ
N
89.5 81.5 M
88.621 79.379 L
86.5 78.5 L
84.379 79.379 L
83.5 81.5 L
84.379 83.621 L
86.5 84.5 L
88.621 83.621 L
cp
S
GR
GS
0 0.447 0.741 RC
1 LJ
N
92.5 86.5 M
91.621 84.379 L
89.5 83.5 L
87.379 84.379 L
86.5 86.5 L
87.379 88.621 L
89.5 89.5 L
91.621 88.621 L
cp
S
GR
GS
0 0.447 0.741 RC
1 LJ
N
96.5 93.5 M
95.621 91.379 L
93.5 90.5 L
91.379 91.379 L
90.5 93.5 L
91.379 95.621 L
93.5 96.5 L
95.621 95.621 L
cp
S
GR
GS
0 0.447 0.741 RC
1 LJ
N
100.5 93.5 M
99.621 91.379 L
97.5 90.5 L
95.379 91.379 L
94.5 93.5 L
95.379 95.621 L
97.5 96.5 L
99.621 95.621 L
cp
S
GR
GS
0 0.447 0.741 RC
1 LJ
N
104.5 98.5 M
103.621 96.379 L
101.5 95.5 L
99.379 96.379 L
98.5 98.5 L
99.379 100.621 L
101.5 101.5 L
103.621 100.621 L
cp
S
GR
GS
0 0.447 0.741 RC
1 LJ
N
107.5 102.5 M
106.621 100.379 L
104.5 99.5 L
102.379 100.379 L
101.5 102.5 L
102.379 104.621 L
104.5 105.5 L
106.621 104.621 L
cp
S
GR
GS
0 0.447 0.741 RC
1 LJ
N
111.5 106.5 M
110.621 104.379 L
108.5 103.5 L
106.379 104.379 L
105.5 106.5 L
106.379 108.621 L
108.5 109.5 L
110.621 108.621 L
cp
S
GR
GS
0 0.447 0.741 RC
1 LJ
N
115.5 103.5 M
114.621 101.379 L
112.5 100.5 L
110.379 101.379 L
109.5 103.5 L
110.379 105.621 L
112.5 106.5 L
114.621 105.621 L
cp
S
GR
GS
0 0.447 0.741 RC
1 LJ
N
118.5 112.5 M
117.621 110.379 L
115.5 109.5 L
113.379 110.379 L
112.5 112.5 L
113.379 114.621 L
115.5 115.5 L
117.621 114.621 L
cp
S
GR
GS
0 0.447 0.741 RC
1 LJ
N
122.5 118.5 M
121.621 116.379 L
119.5 115.5 L
117.379 116.379 L
116.5 118.5 L
117.379 120.621 L
119.5 121.5 L
121.621 120.621 L
cp
S
GR
GS
0 0.447 0.741 RC
1 LJ
N
126.5 127.5 M
125.621 125.379 L
123.5 124.5 L
121.379 125.379 L
120.5 127.5 L
121.379 129.621 L
123.5 130.5 L
125.621 129.621 L
cp
S
GR
GS
0 0.447 0.741 RC
1 LJ
N
130.5 135.5 M
129.621 133.379 L
127.5 132.5 L
125.379 133.379 L
124.5 135.5 L
125.379 137.621 L
127.5 138.5 L
129.621 137.621 L
cp
S
GR
GS
0 0.447 0.741 RC
1 LJ
N
133.5 140.5 M
132.621 138.379 L
130.5 137.5 L
128.379 138.379 L
127.5 140.5 L
128.379 142.621 L
130.5 143.5 L
132.621 142.621 L
cp
S
GR
GS
0 0.447 0.741 RC
1 LJ
N
137.5 144.5 M
136.621 142.379 L
134.5 141.5 L
132.379 142.379 L
131.5 144.5 L
132.379 146.621 L
134.5 147.5 L
136.621 146.621 L
cp
S
GR
GS
0 0.447 0.741 RC
1 LJ
N
141.5 149.5 M
140.621 147.379 L
138.5 146.5 L
136.379 147.379 L
135.5 149.5 L
136.379 151.621 L
138.5 152.5 L
140.621 151.621 L
cp
S
GR
GS
0 0.447 0.741 RC
1 LJ
N
144.5 154.5 M
143.621 152.379 L
141.5 151.5 L
139.379 152.379 L
138.5 154.5 L
139.379 156.621 L
141.5 157.5 L
143.621 156.621 L
cp
S
GR
GS
0 0.447 0.741 RC
1 LJ
N
148.5 157.5 M
147.621 155.379 L
145.5 154.5 L
143.379 155.379 L
142.5 157.5 L
143.379 159.621 L
145.5 160.5 L
147.621 159.621 L
cp
S
GR
GS
0 0.447 0.741 RC
1 LJ
N
152.5 158.5 M
151.621 156.379 L
149.5 155.5 L
147.379 156.379 L
146.5 158.5 L
147.379 160.621 L
149.5 161.5 L
151.621 160.621 L
cp
S
GR
GS
0 0.447 0.741 RC
1 LJ
N
156.5 158.5 M
155.621 156.379 L
153.5 155.5 L
151.379 156.379 L
150.5 158.5 L
151.379 160.621 L
153.5 161.5 L
155.621 160.621 L
cp
S
GR
GS
0 0.447 0.741 RC
1 LJ
N
159.5 165.5 M
158.621 163.379 L
156.5 162.5 L
154.379 163.379 L
153.5 165.5 L
154.379 167.621 L
156.5 168.5 L
158.621 167.621 L
cp
S
GR
GS
0 0.447 0.741 RC
1 LJ
N
163.5 170.5 M
162.621 168.379 L
160.5 167.5 L
158.379 168.379 L
157.5 170.5 L
158.379 172.621 L
160.5 173.5 L
162.621 172.621 L
cp
S
GR
GS
0 0.447 0.741 RC
1 LJ
N
167.5 172.5 M
166.621 170.379 L
164.5 169.5 L
162.379 170.379 L
161.5 172.5 L
162.379 174.621 L
164.5 175.5 L
166.621 174.621 L
cp
S
GR
GS
0 0.447 0.741 RC
1 LJ
N
171.5 172.5 M
170.621 170.379 L
168.5 169.5 L
166.379 170.379 L
165.5 172.5 L
166.379 174.621 L
168.5 175.5 L
170.621 174.621 L
cp
S
GR
GS
0 0.447 0.741 RC
1 LJ
N
174.5 175.5 M
173.621 173.379 L
171.5 172.5 L
169.379 173.379 L
168.5 175.5 L
169.379 177.621 L
171.5 178.5 L
173.621 177.621 L
cp
S
GR
GS
0 0.447 0.741 RC
1 LJ
N
178.5 179.5 M
177.621 177.379 L
175.5 176.5 L
173.379 177.379 L
172.5 179.5 L
173.379 181.621 L
175.5 182.5 L
177.621 181.621 L
cp
S
GR
GS
0 0.447 0.741 RC
1 LJ
N
182.5 180.5 M
181.621 178.379 L
179.5 177.5 L
177.379 178.379 L
176.5 180.5 L
177.379 182.621 L
179.5 183.5 L
181.621 182.621 L
cp
S
GR
GS
0 0.447 0.741 RC
1 LJ
N
185.5 181.5 M
184.621 179.379 L
182.5 178.5 L
180.379 179.379 L
179.5 181.5 L
180.379 183.621 L
182.5 184.5 L
184.621 183.621 L
cp
S
GR
GS
0 0.447 0.741 RC
1 LJ
N
189.5 185.5 M
188.621 183.379 L
186.5 182.5 L
184.379 183.379 L
183.5 185.5 L
184.379 187.621 L
186.5 188.5 L
188.621 187.621 L
cp
S
GR
GS
0 0.447 0.741 RC
1 LJ
N
193.5 189.5 M
192.621 187.379 L
190.5 186.5 L
188.379 187.379 L
187.5 189.5 L
188.379 191.621 L
190.5 192.5 L
192.621 191.621 L
cp
S
GR
GS
0 0.447 0.741 RC
1 LJ
N
197.5 192.5 M
196.621 190.379 L
194.5 189.5 L
192.379 190.379 L
191.5 192.5 L
192.379 194.621 L
194.5 195.5 L
196.621 194.621 L
cp
S
GR
GS
0 0.447 0.741 RC
1 LJ
N
200.5 194.5 M
199.621 192.379 L
197.5 191.5 L
195.379 192.379 L
194.5 194.5 L
195.379 196.621 L
197.5 197.5 L
199.621 196.621 L
cp
S
GR
GS
0 0.447 0.741 RC
1 LJ
N
204.5 195.5 M
203.621 193.379 L
201.5 192.5 L
199.379 193.379 L
198.5 195.5 L
199.379 197.621 L
201.5 198.5 L
203.621 197.621 L
cp
S
GR
GS
0 0.447 0.741 RC
1 LJ
N
208.5 197.5 M
207.621 195.379 L
205.5 194.5 L
203.379 195.379 L
202.5 197.5 L
203.379 199.621 L
205.5 200.5 L
207.621 199.621 L
cp
S
GR
GS
0 0.447 0.741 RC
1 LJ
N
211.5 200.5 M
210.621 198.379 L
208.5 197.5 L
206.379 198.379 L
205.5 200.5 L
206.379 202.621 L
208.5 203.5 L
210.621 202.621 L
cp
S
GR
GS
0 0.447 0.741 RC
1 LJ
N
215.5 202.5 M
214.621 200.379 L
212.5 199.5 L
210.379 200.379 L
209.5 202.5 L
210.379 204.621 L
212.5 205.5 L
214.621 204.621 L
cp
S
GR
GS
0 0.447 0.741 RC
1 LJ
N
219.5 205.5 M
218.621 203.379 L
216.5 202.5 L
214.379 203.379 L
213.5 205.5 L
214.379 207.621 L
216.5 208.5 L
218.621 207.621 L
cp
S
GR
GS
0 0.447 0.741 RC
1 LJ
N
223.5 208.5 M
222.621 206.379 L
220.5 205.5 L
218.379 206.379 L
217.5 208.5 L
218.379 210.621 L
220.5 211.5 L
222.621 210.621 L
cp
S
GR
GS
0 0.447 0.741 RC
1 LJ
N
226.5 212.5 M
225.621 210.379 L
223.5 209.5 L
221.379 210.379 L
220.5 212.5 L
221.379 214.621 L
223.5 215.5 L
225.621 214.621 L
cp
S
GR
GS
0 0.447 0.741 RC
1 LJ
N
230.5 214.5 M
229.621 212.379 L
227.5 211.5 L
225.379 212.379 L
224.5 214.5 L
225.379 216.621 L
227.5 217.5 L
229.621 216.621 L
cp
S
GR
GS
0 0.447 0.741 RC
1 LJ
N
234.5 215.5 M
233.621 213.379 L
231.5 212.5 L
229.379 213.379 L
228.5 215.5 L
229.379 217.621 L
231.5 218.5 L
233.621 217.621 L
cp
S
GR
GS
0 0.447 0.741 RC
1 LJ
N
237.5 218.5 M
236.621 216.379 L
234.5 215.5 L
232.379 216.379 L
231.5 218.5 L
232.379 220.621 L
234.5 221.5 L
236.621 220.621 L
cp
S
GR
GS
0 0.447 0.741 RC
1 LJ
N
241.5 220.5 M
240.621 218.379 L
238.5 217.5 L
236.379 218.379 L
235.5 220.5 L
236.379 222.621 L
238.5 223.5 L
240.621 222.621 L
cp
S
GR
GS
0 0.447 0.741 RC
1 LJ
N
245.5 220.5 M
244.621 218.379 L
242.5 217.5 L
240.379 218.379 L
239.5 220.5 L
240.379 222.621 L
242.5 223.5 L
244.621 222.621 L
cp
S
GR
GS
0 0.447 0.741 RC
1 LJ
N
249.5 215.5 M
248.621 213.379 L
246.5 212.5 L
244.379 213.379 L
243.5 215.5 L
244.379 217.621 L
246.5 218.5 L
248.621 217.621 L
cp
S
GR
GS
0 0.447 0.741 RC
1 LJ
N
252.5 224.5 M
251.621 222.379 L
249.5 221.5 L
247.379 222.379 L
246.5 224.5 L
247.379 226.621 L
249.5 227.5 L
251.621 226.621 L
cp
S
GR
GS
0 0.447 0.741 RC
1 LJ
N
256.5 229.5 M
255.621 227.379 L
253.5 226.5 L
251.379 227.379 L
250.5 229.5 L
251.379 231.621 L
253.5 232.5 L
255.621 231.621 L
cp
S
GR
GS
0 0.447 0.741 RC
1 LJ
N
260.5 232.5 M
259.621 230.379 L
257.5 229.5 L
255.379 230.379 L
254.5 232.5 L
255.379 234.621 L
257.5 235.5 L
259.621 234.621 L
cp
S
GR
GS
0 0.447 0.741 RC
1 LJ
N
264.5 232.5 M
263.621 230.379 L
261.5 229.5 L
259.379 230.379 L
258.5 232.5 L
259.379 234.621 L
261.5 235.5 L
263.621 234.621 L
cp
S
GR
GS
0 0.447 0.741 RC
1 LJ
N
267.5 235.5 M
266.621 233.379 L
264.5 232.5 L
262.379 233.379 L
261.5 235.5 L
262.379 237.621 L
264.5 238.5 L
266.621 237.621 L
cp
S
GR
GS
0 0.447 0.741 RC
1 LJ
N
271.5 240.5 M
270.621 238.379 L
268.5 237.5 L
266.379 238.379 L
265.5 240.5 L
266.379 242.621 L
268.5 243.5 L
270.621 242.621 L
cp
S
GR
GS
0 0.447 0.741 RC
1 LJ
N
275.5 244.5 M
274.621 242.379 L
272.5 241.5 L
270.379 242.379 L
269.5 244.5 L
270.379 246.621 L
272.5 247.5 L
274.621 246.621 L
cp
S
GR
GS
0 0.447 0.741 RC
1 LJ
N
278.5 245.5 M
277.621 243.379 L
275.5 242.5 L
273.379 243.379 L
272.5 245.5 L
273.379 247.621 L
275.5 248.5 L
277.621 247.621 L
cp
S
GR
GS
0 0.447 0.741 RC
1 LJ
N
282.5 247.5 M
281.621 245.379 L
279.5 244.5 L
277.379 245.379 L
276.5 247.5 L
277.379 249.621 L
279.5 250.5 L
281.621 249.621 L
cp
S
GR
GS
0 0.447 0.741 RC
1 LJ
N
286.5 251.5 M
285.621 249.379 L
283.5 248.5 L
281.379 249.379 L
280.5 251.5 L
281.379 253.621 L
283.5 254.5 L
285.621 253.621 L
cp
S
GR
GS
0 0.447 0.741 RC
1 LJ
N
290.5 255.5 M
289.621 253.379 L
287.5 252.5 L
285.379 253.379 L
284.5 255.5 L
285.379 257.621 L
287.5 258.5 L
289.621 257.621 L
cp
S
GR
GS
0 0.447 0.741 RC
1 LJ
N
293.5 258.5 M
292.621 256.379 L
290.5 255.5 L
288.379 256.379 L
287.5 258.5 L
288.379 260.621 L
290.5 261.5 L
292.621 260.621 L
cp
S
GR
GS
0 0.447 0.741 RC
1 LJ
N
297.5 259.5 M
296.621 257.379 L
294.5 256.5 L
292.379 257.379 L
291.5 259.5 L
292.379 261.621 L
294.5 262.5 L
296.621 261.621 L
cp
S
GR
GS
0 0.447 0.741 RC
1 LJ
N
301.5 261.5 M
300.621 259.379 L
298.5 258.5 L
296.379 259.379 L
295.5 261.5 L
296.379 263.621 L
298.5 264.5 L
300.621 263.621 L
cp
S
GR
GS
0 0.447 0.741 RC
1 LJ
N
304.5 265.5 M
303.621 263.379 L
301.5 262.5 L
299.379 263.379 L
298.5 265.5 L
299.379 267.621 L
301.5 268.5 L
303.621 267.621 L
cp
S
GR
GS
0 0.447 0.741 RC
1 LJ
N
308.5 271.5 M
307.621 269.379 L
305.5 268.5 L
303.379 269.379 L
302.5 271.5 L
303.379 273.621 L
305.5 274.5 L
307.621 273.621 L
cp
S
GR
GS
0 0.447 0.741 RC
1 LJ
N
312.5 273.5 M
311.621 271.379 L
309.5 270.5 L
307.379 271.379 L
306.5 273.5 L
307.379 275.621 L
309.5 276.5 L
311.621 275.621 L
cp
S
GR
GS
0 0.447 0.741 RC
1 LJ
N
316.5 275.5 M
315.621 273.379 L
313.5 272.5 L
311.379 273.379 L
310.5 275.5 L
311.379 277.621 L
313.5 278.5 L
315.621 277.621 L
cp
S
GR
GS
0 0.447 0.741 RC
1 LJ
N
319.5 277.5 M
318.621 275.379 L
316.5 274.5 L
314.379 275.379 L
313.5 277.5 L
314.379 279.621 L
316.5 280.5 L
318.621 279.621 L
cp
S
GR
GS
0 0.447 0.741 RC
1 LJ
N
323.5 280.5 M
322.621 278.379 L
320.5 277.5 L
318.379 278.379 L
317.5 280.5 L
318.379 282.621 L
320.5 283.5 L
322.621 282.621 L
cp
S
GR
GS
0 0.447 0.741 RC
1 LJ
N
327.5 283.5 M
326.621 281.379 L
324.5 280.5 L
322.379 281.379 L
321.5 283.5 L
322.379 285.621 L
324.5 286.5 L
326.621 285.621 L
cp
S
GR
GS
0 0.447 0.741 RC
1 LJ
N
331.5 284.5 M
330.621 282.379 L
328.5 281.5 L
326.379 282.379 L
325.5 284.5 L
326.379 286.621 L
328.5 287.5 L
330.621 286.621 L
cp
S
GR
GS
0 0.447 0.741 RC
1 LJ
N
334.5 286.5 M
333.621 284.379 L
331.5 283.5 L
329.379 284.379 L
328.5 286.5 L
329.379 288.621 L
331.5 289.5 L
333.621 288.621 L
cp
S
GR
GS
0 0.447 0.741 RC
1 LJ
N
338.5 287.5 M
337.621 285.379 L
335.5 284.5 L
333.379 285.379 L
332.5 287.5 L
333.379 289.621 L
335.5 290.5 L
337.621 289.621 L
cp
S
GR
GS
0 0.447 0.741 RC
1 LJ
N
342.5 290.5 M
341.621 288.379 L
339.5 287.5 L
337.379 288.379 L
336.5 290.5 L
337.379 292.621 L
339.5 293.5 L
341.621 292.621 L
cp
S
GR
GS
0 0.447 0.741 RC
1 LJ
N
345.5 293.5 M
344.621 291.379 L
342.5 290.5 L
340.379 291.379 L
339.5 293.5 L
340.379 295.621 L
342.5 296.5 L
344.621 295.621 L
cp
S
GR
GS
0 0.447 0.741 RC
1 LJ
N
349.5 296.5 M
348.621 294.379 L
346.5 293.5 L
344.379 294.379 L
343.5 296.5 L
344.379 298.621 L
346.5 299.5 L
348.621 298.621 L
cp
S
GR
GS
0 0.447 0.741 RC
1 LJ
N
353.5 298.5 M
352.621 296.379 L
350.5 295.5 L
348.379 296.379 L
347.5 298.5 L
348.379 300.621 L
350.5 301.5 L
352.621 300.621 L
cp
S
GR
GS
0 0.447 0.741 RC
1 LJ
N
357.5 300.5 M
356.621 298.379 L
354.5 297.5 L
352.379 298.379 L
351.5 300.5 L
352.379 302.621 L
354.5 303.5 L
356.621 302.621 L
cp
S
GR
GS
0 0.447 0.741 RC
1 LJ
N
360.5 301.5 M
359.621 299.379 L
357.5 298.5 L
355.379 299.379 L
354.5 301.5 L
355.379 303.621 L
357.5 304.5 L
359.621 303.621 L
cp
S
GR
GS
0 0.447 0.741 RC
1 LJ
N
364.5 302.5 M
363.621 300.379 L
361.5 299.5 L
359.379 300.379 L
358.5 302.5 L
359.379 304.621 L
361.5 305.5 L
363.621 304.621 L
cp
S
GR
GS
0 0.447 0.741 RC
1 LJ
N
368.5 304.5 M
367.621 302.379 L
365.5 301.5 L
363.379 302.379 L
362.5 304.5 L
363.379 306.621 L
365.5 307.5 L
367.621 306.621 L
cp
S
GR
GS
0 0.447 0.741 RC
1 LJ
N
371.5 302.5 M
370.621 300.379 L
368.5 299.5 L
366.379 300.379 L
365.5 302.5 L
366.379 304.621 L
368.5 305.5 L
370.621 304.621 L
cp
S
GR
GS
0 0.447 0.741 RC
1 LJ
N
375.5 308.5 M
374.621 306.379 L
372.5 305.5 L
370.379 306.379 L
369.5 308.5 L
370.379 310.621 L
372.5 311.5 L
374.621 310.621 L
cp
S
GR
GS
0 0.447 0.741 RC
1 LJ
N
379.5 310.5 M
378.621 308.379 L
376.5 307.5 L
374.379 308.379 L
373.5 310.5 L
374.379 312.621 L
376.5 313.5 L
378.621 312.621 L
cp
S
GR
GS
0 0.447 0.741 RC
1 LJ
N
383.5 311.5 M
382.621 309.379 L
380.5 308.5 L
378.379 309.379 L
377.5 311.5 L
378.379 313.621 L
380.5 314.5 L
382.621 313.621 L
cp
S
GR
GS
0 0.447 0.741 RC
1 LJ
N
386.5 314.5 M
385.621 312.379 L
383.5 311.5 L
381.379 312.379 L
380.5 314.5 L
381.379 316.621 L
383.5 317.5 L
385.621 316.621 L
cp
S
GR
GS
0 0.447 0.741 RC
1 LJ
N
390.5 315.5 M
389.621 313.379 L
387.5 312.5 L
385.379 313.379 L
384.5 315.5 L
385.379 317.621 L
387.5 318.5 L
389.621 317.621 L
cp
S
GR
GS
0 0.447 0.741 RC
1 LJ
N
394.5 315.5 M
393.621 313.379 L
391.5 312.5 L
389.379 313.379 L
388.5 315.5 L
389.379 317.621 L
391.5 318.5 L
393.621 317.621 L
cp
S
GR
GS
0 0.447 0.741 RC
1 LJ
N
397.5 315.5 M
396.621 313.379 L
394.5 312.5 L
392.379 313.379 L
391.5 315.5 L
392.379 317.621 L
394.5 318.5 L
396.621 317.621 L
cp
S
GR
GS
0 0.447 0.741 RC
1 LJ
N
401.5 317.5 M
400.621 315.379 L
398.5 314.5 L
396.379 315.379 L
395.5 317.5 L
396.379 319.621 L
398.5 320.5 L
400.621 319.621 L
cp
S
GR
GS
0 0.447 0.741 RC
1 LJ
N
405.5 320.5 M
404.621 318.379 L
402.5 317.5 L
400.379 318.379 L
399.5 320.5 L
400.379 322.621 L
402.5 323.5 L
404.621 322.621 L
cp
S
GR
GS
0 0.447 0.741 RC
1 LJ
N
409.5 322.5 M
408.621 320.379 L
406.5 319.5 L
404.379 320.379 L
403.5 322.5 L
404.379 324.621 L
406.5 325.5 L
408.621 324.621 L
cp
S
GR
GS
0 0.447 0.741 RC
1 LJ
N
412.5 322.5 M
411.621 320.379 L
409.5 319.5 L
407.379 320.379 L
406.5 322.5 L
407.379 324.621 L
409.5 325.5 L
411.621 324.621 L
cp
S
GR
GS
0 0.447 0.741 RC
1 LJ
N
416.5 321.5 M
415.621 319.379 L
413.5 318.5 L
411.379 319.379 L
410.5 321.5 L
411.379 323.621 L
413.5 324.5 L
415.621 323.621 L
cp
S
GR
GS
0 0.447 0.741 RC
1 LJ
N
420.5 324.5 M
419.621 322.379 L
417.5 321.5 L
415.379 322.379 L
414.5 324.5 L
415.379 326.621 L
417.5 327.5 L
419.621 326.621 L
cp
S
GR
GS
0 0.447 0.741 RC
1 LJ
N
424.5 326.5 M
423.621 324.379 L
421.5 323.5 L
419.379 324.379 L
418.5 326.5 L
419.379 328.621 L
421.5 329.5 L
423.621 328.621 L
cp
S
GR
GS
0 0.447 0.741 RC
1 LJ
N
427.5 325.5 M
426.621 323.379 L
424.5 322.5 L
422.379 323.379 L
421.5 325.5 L
422.379 327.621 L
424.5 328.5 L
426.621 327.621 L
cp
S
GR
GS
0 0.447 0.741 RC
1 LJ
N
431.5 325.5 M
430.621 323.379 L
428.5 322.5 L
426.379 323.379 L
425.5 325.5 L
426.379 327.621 L
428.5 328.5 L
430.621 327.621 L
cp
S
GR
GS
0 0.447 0.741 RC
1 LJ
N
435.5 325.5 M
434.621 323.379 L
432.5 322.5 L
430.379 323.379 L
429.5 325.5 L
430.379 327.621 L
432.5 328.5 L
434.621 327.621 L
cp
S
GR
GS
0 0.447 0.741 RC
1 LJ
N
438.5 325.5 M
437.621 323.379 L
435.5 322.5 L
433.379 323.379 L
432.5 325.5 L
433.379 327.621 L
435.5 328.5 L
437.621 327.621 L
cp
S
GR
GS
0 0.447 0.741 RC
1 LJ
N
442.5 325.5 M
441.621 323.379 L
439.5 322.5 L
437.379 323.379 L
436.5 325.5 L
437.379 327.621 L
439.5 328.5 L
441.621 327.621 L
cp
S
GR
GS
0 0.447 0.741 RC
1 LJ
N
446.5 325.5 M
445.621 323.379 L
443.5 322.5 L
441.379 323.379 L
440.5 325.5 L
441.379 327.621 L
443.5 328.5 L
445.621 327.621 L
cp
S
GR
GS
0 0.447 0.741 RC
1 LJ
N
450.5 325.5 M
449.621 323.379 L
447.5 322.5 L
445.379 323.379 L
444.5 325.5 L
445.379 327.621 L
447.5 328.5 L
449.621 327.621 L
cp
S
GR
GS
0 0.447 0.741 RC
1 LJ
N
453.5 325.5 M
452.621 323.379 L
450.5 322.5 L
448.379 323.379 L
447.5 325.5 L
448.379 327.621 L
450.5 328.5 L
452.621 327.621 L
cp
S
GR
GS
0.851 0.325 0.098 RC
1 LJ
N
78.721 64.731 M
82.442 86.997 L
86.162 113.227 L
89.883 135.488 L
93.604 154.296 L
97.325 171.782 L
101.046 187.214 L
104.767 201.816 L
108.488 215.347 L
112.208 227.38 L
115.929 239.603 L
119.65 251.012 L
123.371 256.629 L
127.092 276.456 L
130.813 286.836 L
134.533 295.512 L
138.254 304.617 L
141.975 306.795 L
145.696 310.924 L
149.417 307.848 L
S
GR
GS
0.851 0.325 0.098 RC
1 LJ
N
81.5 64.5 M
80.621 62.379 L
78.5 61.5 L
76.379 62.379 L
75.5 64.5 L
76.379 66.621 L
78.5 67.5 L
80.621 66.621 L
cp
S
GR
GS
0.851 0.325 0.098 RC
1 LJ
N
85.5 86.5 M
84.621 84.379 L
82.5 83.5 L
80.379 84.379 L
79.5 86.5 L
80.379 88.621 L
82.5 89.5 L
84.621 88.621 L
cp
S
GR
GS
0.851 0.325 0.098 RC
1 LJ
N
89.5 113.5 M
88.621 111.379 L
86.5 110.5 L
84.379 111.379 L
83.5 113.5 L
84.379 115.621 L
86.5 116.5 L
88.621 115.621 L
cp
S
GR
GS
0.851 0.325 0.098 RC
1 LJ
N
92.5 135.5 M
91.621 133.379 L
89.5 132.5 L
87.379 133.379 L
86.5 135.5 L
87.379 137.621 L
89.5 138.5 L
91.621 137.621 L
cp
S
GR
GS
0.851 0.325 0.098 RC
1 LJ
N
96.5 154.5 M
95.621 152.379 L
93.5 151.5 L
91.379 152.379 L
90.5 154.5 L
91.379 156.621 L
93.5 157.5 L
95.621 156.621 L
cp
S
GR
GS
0.851 0.325 0.098 RC
1 LJ
N
100.5 171.5 M
99.621 169.379 L
97.5 168.5 L
95.379 169.379 L
94.5 171.5 L
95.379 173.621 L
97.5 174.5 L
99.621 173.621 L
cp
S
GR
GS
0.851 0.325 0.098 RC
1 LJ
N
104.5 187.5 M
103.621 185.379 L
101.5 184.5 L
99.379 185.379 L
98.5 187.5 L
99.379 189.621 L
101.5 190.5 L
103.621 189.621 L
cp
S
GR
GS
0.851 0.325 0.098 RC
1 LJ
N
107.5 201.5 M
106.621 199.379 L
104.5 198.5 L
102.379 199.379 L
101.5 201.5 L
102.379 203.621 L
104.5 204.5 L
106.621 203.621 L
cp
S
GR
GS
0.851 0.325 0.098 RC
1 LJ
N
111.5 215.5 M
110.621 213.379 L
108.5 212.5 L
106.379 213.379 L
105.5 215.5 L
106.379 217.621 L
108.5 218.5 L
110.621 217.621 L
cp
S
GR
GS
0.851 0.325 0.098 RC
1 LJ
N
115.5 227.5 M
114.621 225.379 L
112.5 224.5 L
110.379 225.379 L
109.5 227.5 L
110.379 229.621 L
112.5 230.5 L
114.621 229.621 L
cp
S
GR
GS
0.851 0.325 0.098 RC
1 LJ
N
118.5 239.5 M
117.621 237.379 L
115.5 236.5 L
113.379 237.379 L
112.5 239.5 L
113.379 241.621 L
115.5 242.5 L
117.621 241.621 L
cp
S
GR
GS
0.851 0.325 0.098 RC
1 LJ
N
122.5 251.5 M
121.621 249.379 L
119.5 248.5 L
117.379 249.379 L
116.5 251.5 L
117.379 253.621 L
119.5 254.5 L
121.621 253.621 L
cp
S
GR
GS
0.851 0.325 0.098 RC
1 LJ
N
126.5 256.5 M
125.621 254.379 L
123.5 253.5 L
121.379 254.379 L
120.5 256.5 L
121.379 258.621 L
123.5 259.5 L
125.621 258.621 L
cp
S
GR
GS
0.851 0.325 0.098 RC
1 LJ
N
130.5 276.5 M
129.621 274.379 L
127.5 273.5 L
125.379 274.379 L
124.5 276.5 L
125.379 278.621 L
127.5 279.5 L
129.621 278.621 L
cp
S
GR
GS
0.851 0.325 0.098 RC
1 LJ
N
133.5 286.5 M
132.621 284.379 L
130.5 283.5 L
128.379 284.379 L
127.5 286.5 L
128.379 288.621 L
130.5 289.5 L
132.621 288.621 L
cp
S
GR
GS
0.851 0.325 0.098 RC
1 LJ
N
137.5 295.5 M
136.621 293.379 L
134.5 292.5 L
132.379 293.379 L
131.5 295.5 L
132.379 297.621 L
134.5 298.5 L
136.621 297.621 L
cp
S
GR
GS
0.851 0.325 0.098 RC
1 LJ
N
141.5 304.5 M
140.621 302.379 L
138.5 301.5 L
136.379 302.379 L
135.5 304.5 L
136.379 306.621 L
138.5 307.5 L
140.621 306.621 L
cp
S
GR
GS
0.851 0.325 0.098 RC
1 LJ
N
144.5 306.5 M
143.621 304.379 L
141.5 303.5 L
139.379 304.379 L
138.5 306.5 L
139.379 308.621 L
141.5 309.5 L
143.621 308.621 L
cp
S
GR
GS
0.851 0.325 0.098 RC
1 LJ
N
148.5 310.5 M
147.621 308.379 L
145.5 307.5 L
143.379 308.379 L
142.5 310.5 L
143.379 312.621 L
145.5 313.5 L
147.621 312.621 L
cp
S
GR
GS
0.851 0.325 0.098 RC
1 LJ
N
152.5 307.5 M
151.621 305.379 L
149.5 304.5 L
147.379 305.379 L
146.5 307.5 L
147.379 309.621 L
149.5 310.5 L
151.621 309.621 L
cp
S
GR
GS
0.929 0.694 0.125 RC
1 LJ
N
78.721 64.731 M
82.442 82.245 L
86.162 102.202 L
89.883 122.27 L
93.604 140.035 L
97.325 155.588 L
101.046 170.485 L
104.767 183.157 L
108.488 195.853 L
112.208 208.168 L
115.929 215.323 L
119.65 228.208 L
123.371 237.937 L
127.092 243.913 L
130.813 247.624 L
134.533 260.659 L
138.254 266.312 L
141.975 274.567 L
145.696 277.723 L
149.417 277.712 L
153.137 287.773 L
156.858 287.306 L
160.579 291.978 L
164.3 289.342 L
168.021 292.809 L
171.742 294.216 L
175.462 296.541 L
179.183 296.323 L
182.904 297.831 L
186.625 297.287 L
190.346 297.459 L
194.067 298.096 L
197.788 298.356 L
201.508 301.435 L
205.229 301.013 L
208.95 302.009 L
212.671 301.936 L
216.392 302.029 L
220.112 302.539 L
223.833 303.089 L
227.554 303 L
231.275 303.241 L
234.996 303.928 L
238.717 304.154 L
242.438 304.55 L
246.158 304.449 L
249.879 304.766 L
253.6 304.69 L
257.321 304.621 L
261.042 304.707 L
S
GR
GS
0.929 0.694 0.125 RC
1 LJ
N
257.321 304.621 M
261.042 304.707 L
264.763 304.816 L
268.483 304.795 L
272.204 304.814 L
275.925 304.862 L
279.646 304.866 L
283.367 304.882 L
287.087 304.877 L
290.808 304.887 L
294.529 304.89 L
298.25 304.898 L
301.971 304.884 L
305.692 304.899 L
309.412 304.885 L
313.133 304.899 L
316.854 304.898 L
320.575 304.907 L
324.296 304.92 L
328.017 304.92 L
331.737 304.925 L
335.458 304.926 L
339.179 304.928 L
342.9 304.937 L
346.621 304.939 L
350.342 304.95 L
354.063 304.953 L
357.783 304.958 L
361.504 304.964 L
365.225 304.97 L
368.946 304.976 L
372.667 304.979 L
376.388 304.993 L
380.108 304.999 L
383.829 304.993 L
387.55 304.996 L
391.271 304.999 L
394.992 305.006 L
398.713 305.015 L
402.433 305.008 L
406.154 305.011 L
409.875 305.021 L
413.596 305.02 L
417.317 305.023 L
421.037 305.027 L
424.758 305.027 L
428.479 305.03 L
432.2 305.036 L
435.921 305.038 L
439.642 305.035 L
443.362 305.037 L
447.083 305.038 L
S
GR
GS
0.929 0.694 0.125 RC
1 LJ
N
443.362 305.037 M
447.083 305.038 L
450.804 305.043 L
S
GR
GS
0.929 0.694 0.125 RC
1 LJ
N
81.5 64.5 M
80.621 62.379 L
78.5 61.5 L
76.379 62.379 L
75.5 64.5 L
76.379 66.621 L
78.5 67.5 L
80.621 66.621 L
cp
S
GR
GS
0.929 0.694 0.125 RC
1 LJ
N
85.5 82.5 M
84.621 80.379 L
82.5 79.5 L
80.379 80.379 L
79.5 82.5 L
80.379 84.621 L
82.5 85.5 L
84.621 84.621 L
cp
S
GR
GS
0.929 0.694 0.125 RC
1 LJ
N
89.5 102.5 M
88.621 100.379 L
86.5 99.5 L
84.379 100.379 L
83.5 102.5 L
84.379 104.621 L
86.5 105.5 L
88.621 104.621 L
cp
S
GR
GS
0.929 0.694 0.125 RC
1 LJ
N
92.5 122.5 M
91.621 120.379 L
89.5 119.5 L
87.379 120.379 L
86.5 122.5 L
87.379 124.621 L
89.5 125.5 L
91.621 124.621 L
cp
S
GR
GS
0.929 0.694 0.125 RC
1 LJ
N
96.5 140.5 M
95.621 138.379 L
93.5 137.5 L
91.379 138.379 L
90.5 140.5 L
91.379 142.621 L
93.5 143.5 L
95.621 142.621 L
cp
S
GR
GS
0.929 0.694 0.125 RC
1 LJ
N
100.5 155.5 M
99.621 153.379 L
97.5 152.5 L
95.379 153.379 L
94.5 155.5 L
95.379 157.621 L
97.5 158.5 L
99.621 157.621 L
cp
S
GR
GS
0.929 0.694 0.125 RC
1 LJ
N
104.5 170.5 M
103.621 168.379 L
101.5 167.5 L
99.379 168.379 L
98.5 170.5 L
99.379 172.621 L
101.5 173.5 L
103.621 172.621 L
cp
S
GR
GS
0.929 0.694 0.125 RC
1 LJ
N
107.5 183.5 M
106.621 181.379 L
104.5 180.5 L
102.379 181.379 L
101.5 183.5 L
102.379 185.621 L
104.5 186.5 L
106.621 185.621 L
cp
S
GR
GS
0.929 0.694 0.125 RC
1 LJ
N
111.5 195.5 M
110.621 193.379 L
108.5 192.5 L
106.379 193.379 L
105.5 195.5 L
106.379 197.621 L
108.5 198.5 L
110.621 197.621 L
cp
S
GR
GS
0.929 0.694 0.125 RC
1 LJ
N
115.5 208.5 M
114.621 206.379 L
112.5 205.5 L
110.379 206.379 L
109.5 208.5 L
110.379 210.621 L
112.5 211.5 L
114.621 210.621 L
cp
S
GR
GS
0.929 0.694 0.125 RC
1 LJ
N
118.5 215.5 M
117.621 213.379 L
115.5 212.5 L
113.379 213.379 L
112.5 215.5 L
113.379 217.621 L
115.5 218.5 L
117.621 217.621 L
cp
S
GR
GS
0.929 0.694 0.125 RC
1 LJ
N
122.5 228.5 M
121.621 226.379 L
119.5 225.5 L
117.379 226.379 L
116.5 228.5 L
117.379 230.621 L
119.5 231.5 L
121.621 230.621 L
cp
S
GR
GS
0.929 0.694 0.125 RC
1 LJ
N
126.5 237.5 M
125.621 235.379 L
123.5 234.5 L
121.379 235.379 L
120.5 237.5 L
121.379 239.621 L
123.5 240.5 L
125.621 239.621 L
cp
S
GR
GS
0.929 0.694 0.125 RC
1 LJ
N
130.5 243.5 M
129.621 241.379 L
127.5 240.5 L
125.379 241.379 L
124.5 243.5 L
125.379 245.621 L
127.5 246.5 L
129.621 245.621 L
cp
S
GR
GS
0.929 0.694 0.125 RC
1 LJ
N
133.5 247.5 M
132.621 245.379 L
130.5 244.5 L
128.379 245.379 L
127.5 247.5 L
128.379 249.621 L
130.5 250.5 L
132.621 249.621 L
cp
S
GR
GS
0.929 0.694 0.125 RC
1 LJ
N
137.5 260.5 M
136.621 258.379 L
134.5 257.5 L
132.379 258.379 L
131.5 260.5 L
132.379 262.621 L
134.5 263.5 L
136.621 262.621 L
cp
S
GR
GS
0.929 0.694 0.125 RC
1 LJ
N
141.5 266.5 M
140.621 264.379 L
138.5 263.5 L
136.379 264.379 L
135.5 266.5 L
136.379 268.621 L
138.5 269.5 L
140.621 268.621 L
cp
S
GR
GS
0.929 0.694 0.125 RC
1 LJ
N
144.5 274.5 M
143.621 272.379 L
141.5 271.5 L
139.379 272.379 L
138.5 274.5 L
139.379 276.621 L
141.5 277.5 L
143.621 276.621 L
cp
S
GR
GS
0.929 0.694 0.125 RC
1 LJ
N
148.5 277.5 M
147.621 275.379 L
145.5 274.5 L
143.379 275.379 L
142.5 277.5 L
143.379 279.621 L
145.5 280.5 L
147.621 279.621 L
cp
S
GR
GS
0.929 0.694 0.125 RC
1 LJ
N
152.5 277.5 M
151.621 275.379 L
149.5 274.5 L
147.379 275.379 L
146.5 277.5 L
147.379 279.621 L
149.5 280.5 L
151.621 279.621 L
cp
S
GR
GS
0.929 0.694 0.125 RC
1 LJ
N
156.5 287.5 M
155.621 285.379 L
153.5 284.5 L
151.379 285.379 L
150.5 287.5 L
151.379 289.621 L
153.5 290.5 L
155.621 289.621 L
cp
S
GR
GS
0.929 0.694 0.125 RC
1 LJ
N
159.5 287.5 M
158.621 285.379 L
156.5 284.5 L
154.379 285.379 L
153.5 287.5 L
154.379 289.621 L
156.5 290.5 L
158.621 289.621 L
cp
S
GR
GS
0.929 0.694 0.125 RC
1 LJ
N
163.5 291.5 M
162.621 289.379 L
160.5 288.5 L
158.379 289.379 L
157.5 291.5 L
158.379 293.621 L
160.5 294.5 L
162.621 293.621 L
cp
S
GR
GS
0.929 0.694 0.125 RC
1 LJ
N
167.5 289.5 M
166.621 287.379 L
164.5 286.5 L
162.379 287.379 L
161.5 289.5 L
162.379 291.621 L
164.5 292.5 L
166.621 291.621 L
cp
S
GR
GS
0.929 0.694 0.125 RC
1 LJ
N
171.5 292.5 M
170.621 290.379 L
168.5 289.5 L
166.379 290.379 L
165.5 292.5 L
166.379 294.621 L
168.5 295.5 L
170.621 294.621 L
cp
S
GR
GS
0.929 0.694 0.125 RC
1 LJ
N
174.5 294.5 M
173.621 292.379 L
171.5 291.5 L
169.379 292.379 L
168.5 294.5 L
169.379 296.621 L
171.5 297.5 L
173.621 296.621 L
cp
S
GR
GS
0.929 0.694 0.125 RC
1 LJ
N
178.5 296.5 M
177.621 294.379 L
175.5 293.5 L
173.379 294.379 L
172.5 296.5 L
173.379 298.621 L
175.5 299.5 L
177.621 298.621 L
cp
S
GR
GS
0.929 0.694 0.125 RC
1 LJ
N
182.5 296.5 M
181.621 294.379 L
179.5 293.5 L
177.379 294.379 L
176.5 296.5 L
177.379 298.621 L
179.5 299.5 L
181.621 298.621 L
cp
S
GR
GS
0.929 0.694 0.125 RC
1 LJ
N
185.5 297.5 M
184.621 295.379 L
182.5 294.5 L
180.379 295.379 L
179.5 297.5 L
180.379 299.621 L
182.5 300.5 L
184.621 299.621 L
cp
S
GR
GS
0.929 0.694 0.125 RC
1 LJ
N
189.5 297.5 M
188.621 295.379 L
186.5 294.5 L
184.379 295.379 L
183.5 297.5 L
184.379 299.621 L
186.5 300.5 L
188.621 299.621 L
cp
S
GR
GS
0.929 0.694 0.125 RC
1 LJ
N
193.5 297.5 M
192.621 295.379 L
190.5 294.5 L
188.379 295.379 L
187.5 297.5 L
188.379 299.621 L
190.5 300.5 L
192.621 299.621 L
cp
S
GR
GS
0.929 0.694 0.125 RC
1 LJ
N
197.5 298.5 M
196.621 296.379 L
194.5 295.5 L
192.379 296.379 L
191.5 298.5 L
192.379 300.621 L
194.5 301.5 L
196.621 300.621 L
cp
S
GR
GS
0.929 0.694 0.125 RC
1 LJ
N
200.5 298.5 M
199.621 296.379 L
197.5 295.5 L
195.379 296.379 L
194.5 298.5 L
195.379 300.621 L
197.5 301.5 L
199.621 300.621 L
cp
S
GR
GS
0.929 0.694 0.125 RC
1 LJ
N
204.5 301.5 M
203.621 299.379 L
201.5 298.5 L
199.379 299.379 L
198.5 301.5 L
199.379 303.621 L
201.5 304.5 L
203.621 303.621 L
cp
S
GR
GS
0.929 0.694 0.125 RC
1 LJ
N
208.5 301.5 M
207.621 299.379 L
205.5 298.5 L
203.379 299.379 L
202.5 301.5 L
203.379 303.621 L
205.5 304.5 L
207.621 303.621 L
cp
S
GR
GS
0.929 0.694 0.125 RC
1 LJ
N
211.5 302.5 M
210.621 300.379 L
208.5 299.5 L
206.379 300.379 L
205.5 302.5 L
206.379 304.621 L
208.5 305.5 L
210.621 304.621 L
cp
S
GR
GS
0.929 0.694 0.125 RC
1 LJ
N
215.5 301.5 M
214.621 299.379 L
212.5 298.5 L
210.379 299.379 L
209.5 301.5 L
210.379 303.621 L
212.5 304.5 L
214.621 303.621 L
cp
S
GR
GS
0.929 0.694 0.125 RC
1 LJ
N
219.5 302.5 M
218.621 300.379 L
216.5 299.5 L
214.379 300.379 L
213.5 302.5 L
214.379 304.621 L
216.5 305.5 L
218.621 304.621 L
cp
S
GR
GS
0.929 0.694 0.125 RC
1 LJ
N
223.5 302.5 M
222.621 300.379 L
220.5 299.5 L
218.379 300.379 L
217.5 302.5 L
218.379 304.621 L
220.5 305.5 L
222.621 304.621 L
cp
S
GR
GS
0.929 0.694 0.125 RC
1 LJ
N
226.5 303.5 M
225.621 301.379 L
223.5 300.5 L
221.379 301.379 L
220.5 303.5 L
221.379 305.621 L
223.5 306.5 L
225.621 305.621 L
cp
S
GR
GS
0.929 0.694 0.125 RC
1 LJ
N
230.5 303.5 M
229.621 301.379 L
227.5 300.5 L
225.379 301.379 L
224.5 303.5 L
225.379 305.621 L
227.5 306.5 L
229.621 305.621 L
cp
S
GR
GS
0.929 0.694 0.125 RC
1 LJ
N
234.5 303.5 M
233.621 301.379 L
231.5 300.5 L
229.379 301.379 L
228.5 303.5 L
229.379 305.621 L
231.5 306.5 L
233.621 305.621 L
cp
S
GR
GS
0.929 0.694 0.125 RC
1 LJ
N
237.5 303.5 M
236.621 301.379 L
234.5 300.5 L
232.379 301.379 L
231.5 303.5 L
232.379 305.621 L
234.5 306.5 L
236.621 305.621 L
cp
S
GR
GS
0.929 0.694 0.125 RC
1 LJ
N
241.5 304.5 M
240.621 302.379 L
238.5 301.5 L
236.379 302.379 L
235.5 304.5 L
236.379 306.621 L
238.5 307.5 L
240.621 306.621 L
cp
S
GR
GS
0.929 0.694 0.125 RC
1 LJ
N
245.5 304.5 M
244.621 302.379 L
242.5 301.5 L
240.379 302.379 L
239.5 304.5 L
240.379 306.621 L
242.5 307.5 L
244.621 306.621 L
cp
S
GR
GS
0.929 0.694 0.125 RC
1 LJ
N
249.5 304.5 M
248.621 302.379 L
246.5 301.5 L
244.379 302.379 L
243.5 304.5 L
244.379 306.621 L
246.5 307.5 L
248.621 306.621 L
cp
S
GR
GS
0.929 0.694 0.125 RC
1 LJ
N
252.5 304.5 M
251.621 302.379 L
249.5 301.5 L
247.379 302.379 L
246.5 304.5 L
247.379 306.621 L
249.5 307.5 L
251.621 306.621 L
cp
S
GR
GS
0.929 0.694 0.125 RC
1 LJ
N
256.5 304.5 M
255.621 302.379 L
253.5 301.5 L
251.379 302.379 L
250.5 304.5 L
251.379 306.621 L
253.5 307.5 L
255.621 306.621 L
cp
S
GR
GS
0.929 0.694 0.125 RC
1 LJ
N
260.5 304.5 M
259.621 302.379 L
257.5 301.5 L
255.379 302.379 L
254.5 304.5 L
255.379 306.621 L
257.5 307.5 L
259.621 306.621 L
cp
S
GR
GS
0.929 0.694 0.125 RC
1 LJ
N
264.5 304.5 M
263.621 302.379 L
261.5 301.5 L
259.379 302.379 L
258.5 304.5 L
259.379 306.621 L
261.5 307.5 L
263.621 306.621 L
cp
S
GR
GS
0.929 0.694 0.125 RC
1 LJ
N
267.5 304.5 M
266.621 302.379 L
264.5 301.5 L
262.379 302.379 L
261.5 304.5 L
262.379 306.621 L
264.5 307.5 L
266.621 306.621 L
cp
S
GR
GS
0.929 0.694 0.125 RC
1 LJ
N
271.5 304.5 M
270.621 302.379 L
268.5 301.5 L
266.379 302.379 L
265.5 304.5 L
266.379 306.621 L
268.5 307.5 L
270.621 306.621 L
cp
S
GR
GS
0.929 0.694 0.125 RC
1 LJ
N
275.5 304.5 M
274.621 302.379 L
272.5 301.5 L
270.379 302.379 L
269.5 304.5 L
270.379 306.621 L
272.5 307.5 L
274.621 306.621 L
cp
S
GR
GS
0.929 0.694 0.125 RC
1 LJ
N
278.5 304.5 M
277.621 302.379 L
275.5 301.5 L
273.379 302.379 L
272.5 304.5 L
273.379 306.621 L
275.5 307.5 L
277.621 306.621 L
cp
S
GR
GS
0.929 0.694 0.125 RC
1 LJ
N
282.5 304.5 M
281.621 302.379 L
279.5 301.5 L
277.379 302.379 L
276.5 304.5 L
277.379 306.621 L
279.5 307.5 L
281.621 306.621 L
cp
S
GR
GS
0.929 0.694 0.125 RC
1 LJ
N
286.5 304.5 M
285.621 302.379 L
283.5 301.5 L
281.379 302.379 L
280.5 304.5 L
281.379 306.621 L
283.5 307.5 L
285.621 306.621 L
cp
S
GR
GS
0.929 0.694 0.125 RC
1 LJ
N
290.5 304.5 M
289.621 302.379 L
287.5 301.5 L
285.379 302.379 L
284.5 304.5 L
285.379 306.621 L
287.5 307.5 L
289.621 306.621 L
cp
S
GR
GS
0.929 0.694 0.125 RC
1 LJ
N
293.5 304.5 M
292.621 302.379 L
290.5 301.5 L
288.379 302.379 L
287.5 304.5 L
288.379 306.621 L
290.5 307.5 L
292.621 306.621 L
cp
S
GR
GS
0.929 0.694 0.125 RC
1 LJ
N
297.5 304.5 M
296.621 302.379 L
294.5 301.5 L
292.379 302.379 L
291.5 304.5 L
292.379 306.621 L
294.5 307.5 L
296.621 306.621 L
cp
S
GR
GS
0.929 0.694 0.125 RC
1 LJ
N
301.5 304.5 M
300.621 302.379 L
298.5 301.5 L
296.379 302.379 L
295.5 304.5 L
296.379 306.621 L
298.5 307.5 L
300.621 306.621 L
cp
S
GR
GS
0.929 0.694 0.125 RC
1 LJ
N
304.5 304.5 M
303.621 302.379 L
301.5 301.5 L
299.379 302.379 L
298.5 304.5 L
299.379 306.621 L
301.5 307.5 L
303.621 306.621 L
cp
S
GR
GS
0.929 0.694 0.125 RC
1 LJ
N
308.5 304.5 M
307.621 302.379 L
305.5 301.5 L
303.379 302.379 L
302.5 304.5 L
303.379 306.621 L
305.5 307.5 L
307.621 306.621 L
cp
S
GR
GS
0.929 0.694 0.125 RC
1 LJ
N
312.5 304.5 M
311.621 302.379 L
309.5 301.5 L
307.379 302.379 L
306.5 304.5 L
307.379 306.621 L
309.5 307.5 L
311.621 306.621 L
cp
S
GR
GS
0.929 0.694 0.125 RC
1 LJ
N
316.5 304.5 M
315.621 302.379 L
313.5 301.5 L
311.379 302.379 L
310.5 304.5 L
311.379 306.621 L
313.5 307.5 L
315.621 306.621 L
cp
S
GR
GS
0.929 0.694 0.125 RC
1 LJ
N
319.5 304.5 M
318.621 302.379 L
316.5 301.5 L
314.379 302.379 L
313.5 304.5 L
314.379 306.621 L
316.5 307.5 L
318.621 306.621 L
cp
S
GR
GS
0.929 0.694 0.125 RC
1 LJ
N
323.5 304.5 M
322.621 302.379 L
320.5 301.5 L
318.379 302.379 L
317.5 304.5 L
318.379 306.621 L
320.5 307.5 L
322.621 306.621 L
cp
S
GR
GS
0.929 0.694 0.125 RC
1 LJ
N
327.5 304.5 M
326.621 302.379 L
324.5 301.5 L
322.379 302.379 L
321.5 304.5 L
322.379 306.621 L
324.5 307.5 L
326.621 306.621 L
cp
S
GR
GS
0.929 0.694 0.125 RC
1 LJ
N
331.5 304.5 M
330.621 302.379 L
328.5 301.5 L
326.379 302.379 L
325.5 304.5 L
326.379 306.621 L
328.5 307.5 L
330.621 306.621 L
cp
S
GR
GS
0.929 0.694 0.125 RC
1 LJ
N
334.5 304.5 M
333.621 302.379 L
331.5 301.5 L
329.379 302.379 L
328.5 304.5 L
329.379 306.621 L
331.5 307.5 L
333.621 306.621 L
cp
S
GR
GS
0.929 0.694 0.125 RC
1 LJ
N
338.5 304.5 M
337.621 302.379 L
335.5 301.5 L
333.379 302.379 L
332.5 304.5 L
333.379 306.621 L
335.5 307.5 L
337.621 306.621 L
cp
S
GR
GS
0.929 0.694 0.125 RC
1 LJ
N
342.5 304.5 M
341.621 302.379 L
339.5 301.5 L
337.379 302.379 L
336.5 304.5 L
337.379 306.621 L
339.5 307.5 L
341.621 306.621 L
cp
S
GR
GS
0.929 0.694 0.125 RC
1 LJ
N
345.5 304.5 M
344.621 302.379 L
342.5 301.5 L
340.379 302.379 L
339.5 304.5 L
340.379 306.621 L
342.5 307.5 L
344.621 306.621 L
cp
S
GR
GS
0.929 0.694 0.125 RC
1 LJ
N
349.5 304.5 M
348.621 302.379 L
346.5 301.5 L
344.379 302.379 L
343.5 304.5 L
344.379 306.621 L
346.5 307.5 L
348.621 306.621 L
cp
S
GR
GS
0.929 0.694 0.125 RC
1 LJ
N
353.5 304.5 M
352.621 302.379 L
350.5 301.5 L
348.379 302.379 L
347.5 304.5 L
348.379 306.621 L
350.5 307.5 L
352.621 306.621 L
cp
S
GR
GS
0.929 0.694 0.125 RC
1 LJ
N
357.5 304.5 M
356.621 302.379 L
354.5 301.5 L
352.379 302.379 L
351.5 304.5 L
352.379 306.621 L
354.5 307.5 L
356.621 306.621 L
cp
S
GR
GS
0.929 0.694 0.125 RC
1 LJ
N
360.5 304.5 M
359.621 302.379 L
357.5 301.5 L
355.379 302.379 L
354.5 304.5 L
355.379 306.621 L
357.5 307.5 L
359.621 306.621 L
cp
S
GR
GS
0.929 0.694 0.125 RC
1 LJ
N
364.5 304.5 M
363.621 302.379 L
361.5 301.5 L
359.379 302.379 L
358.5 304.5 L
359.379 306.621 L
361.5 307.5 L
363.621 306.621 L
cp
S
GR
GS
0.929 0.694 0.125 RC
1 LJ
N
368.5 304.5 M
367.621 302.379 L
365.5 301.5 L
363.379 302.379 L
362.5 304.5 L
363.379 306.621 L
365.5 307.5 L
367.621 306.621 L
cp
S
GR
GS
0.929 0.694 0.125 RC
1 LJ
N
371.5 304.5 M
370.621 302.379 L
368.5 301.5 L
366.379 302.379 L
365.5 304.5 L
366.379 306.621 L
368.5 307.5 L
370.621 306.621 L
cp
S
GR
GS
0.929 0.694 0.125 RC
1 LJ
N
375.5 304.5 M
374.621 302.379 L
372.5 301.5 L
370.379 302.379 L
369.5 304.5 L
370.379 306.621 L
372.5 307.5 L
374.621 306.621 L
cp
S
GR
GS
0.929 0.694 0.125 RC
1 LJ
N
379.5 304.5 M
378.621 302.379 L
376.5 301.5 L
374.379 302.379 L
373.5 304.5 L
374.379 306.621 L
376.5 307.5 L
378.621 306.621 L
cp
S
GR
GS
0.929 0.694 0.125 RC
1 LJ
N
383.5 304.5 M
382.621 302.379 L
380.5 301.5 L
378.379 302.379 L
377.5 304.5 L
378.379 306.621 L
380.5 307.5 L
382.621 306.621 L
cp
S
GR
GS
0.929 0.694 0.125 RC
1 LJ
N
386.5 304.5 M
385.621 302.379 L
383.5 301.5 L
381.379 302.379 L
380.5 304.5 L
381.379 306.621 L
383.5 307.5 L
385.621 306.621 L
cp
S
GR
GS
0.929 0.694 0.125 RC
1 LJ
N
390.5 304.5 M
389.621 302.379 L
387.5 301.5 L
385.379 302.379 L
384.5 304.5 L
385.379 306.621 L
387.5 307.5 L
389.621 306.621 L
cp
S
GR
GS
0.929 0.694 0.125 RC
1 LJ
N
394.5 304.5 M
393.621 302.379 L
391.5 301.5 L
389.379 302.379 L
388.5 304.5 L
389.379 306.621 L
391.5 307.5 L
393.621 306.621 L
cp
S
GR
GS
0.929 0.694 0.125 RC
1 LJ
N
397.5 305.5 M
396.621 303.379 L
394.5 302.5 L
392.379 303.379 L
391.5 305.5 L
392.379 307.621 L
394.5 308.5 L
396.621 307.621 L
cp
S
GR
GS
0.929 0.694 0.125 RC
1 LJ
N
401.5 305.5 M
400.621 303.379 L
398.5 302.5 L
396.379 303.379 L
395.5 305.5 L
396.379 307.621 L
398.5 308.5 L
400.621 307.621 L
cp
S
GR
GS
0.929 0.694 0.125 RC
1 LJ
N
405.5 305.5 M
404.621 303.379 L
402.5 302.5 L
400.379 303.379 L
399.5 305.5 L
400.379 307.621 L
402.5 308.5 L
404.621 307.621 L
cp
S
GR
GS
0.929 0.694 0.125 RC
1 LJ
N
409.5 305.5 M
408.621 303.379 L
406.5 302.5 L
404.379 303.379 L
403.5 305.5 L
404.379 307.621 L
406.5 308.5 L
408.621 307.621 L
cp
S
GR
GS
0.929 0.694 0.125 RC
1 LJ
N
412.5 305.5 M
411.621 303.379 L
409.5 302.5 L
407.379 303.379 L
406.5 305.5 L
407.379 307.621 L
409.5 308.5 L
411.621 307.621 L
cp
S
GR
GS
0.929 0.694 0.125 RC
1 LJ
N
416.5 305.5 M
415.621 303.379 L
413.5 302.5 L
411.379 303.379 L
410.5 305.5 L
411.379 307.621 L
413.5 308.5 L
415.621 307.621 L
cp
S
GR
GS
0.929 0.694 0.125 RC
1 LJ
N
420.5 305.5 M
419.621 303.379 L
417.5 302.5 L
415.379 303.379 L
414.5 305.5 L
415.379 307.621 L
417.5 308.5 L
419.621 307.621 L
cp
S
GR
GS
0.929 0.694 0.125 RC
1 LJ
N
424.5 305.5 M
423.621 303.379 L
421.5 302.5 L
419.379 303.379 L
418.5 305.5 L
419.379 307.621 L
421.5 308.5 L
423.621 307.621 L
cp
S
GR
GS
0.929 0.694 0.125 RC
1 LJ
N
427.5 305.5 M
426.621 303.379 L
424.5 302.5 L
422.379 303.379 L
421.5 305.5 L
422.379 307.621 L
424.5 308.5 L
426.621 307.621 L
cp
S
GR
GS
0.929 0.694 0.125 RC
1 LJ
N
431.5 305.5 M
430.621 303.379 L
428.5 302.5 L
426.379 303.379 L
425.5 305.5 L
426.379 307.621 L
428.5 308.5 L
430.621 307.621 L
cp
S
GR
GS
0.929 0.694 0.125 RC
1 LJ
N
435.5 305.5 M
434.621 303.379 L
432.5 302.5 L
430.379 303.379 L
429.5 305.5 L
430.379 307.621 L
432.5 308.5 L
434.621 307.621 L
cp
S
GR
GS
0.929 0.694 0.125 RC
1 LJ
N
438.5 305.5 M
437.621 303.379 L
435.5 302.5 L
433.379 303.379 L
432.5 305.5 L
433.379 307.621 L
435.5 308.5 L
437.621 307.621 L
cp
S
GR
GS
0.929 0.694 0.125 RC
1 LJ
N
442.5 305.5 M
441.621 303.379 L
439.5 302.5 L
437.379 303.379 L
436.5 305.5 L
437.379 307.621 L
439.5 308.5 L
441.621 307.621 L
cp
S
GR
GS
0.929 0.694 0.125 RC
1 LJ
N
446.5 305.5 M
445.621 303.379 L
443.5 302.5 L
441.379 303.379 L
440.5 305.5 L
441.379 307.621 L
443.5 308.5 L
445.621 307.621 L
cp
S
GR
GS
0.929 0.694 0.125 RC
1 LJ
N
450.5 305.5 M
449.621 303.379 L
447.5 302.5 L
445.379 303.379 L
444.5 305.5 L
445.379 307.621 L
447.5 308.5 L
449.621 307.621 L
cp
S
GR
GS
0.929 0.694 0.125 RC
1 LJ
N
453.5 305.5 M
452.621 303.379 L
450.5 302.5 L
448.379 303.379 L
447.5 305.5 L
448.379 307.621 L
450.5 308.5 L
452.621 307.621 L
cp
S
GR
GS
0.494 0.184 0.557 RC
1 LJ
N
78.721 64.731 M
82.442 75.371 L
86.162 76.392 L
89.883 85.464 L
93.604 84.649 L
97.325 93.729 L
101.046 94.005 L
104.767 100.339 L
108.488 103.648 L
112.208 110.553 L
115.929 112.976 L
119.65 119.919 L
123.371 123.785 L
127.092 129.73 L
130.813 134.647 L
134.533 148.018 L
138.254 154.064 L
141.975 173.326 L
145.696 181.581 L
149.417 189.194 L
153.137 189.574 L
156.858 205.194 L
160.579 212.547 L
164.3 218.412 L
168.021 224.446 L
171.742 228.394 L
175.462 234.119 L
179.183 237.276 L
182.904 242.466 L
186.625 245.389 L
190.346 251.474 L
194.067 253.862 L
197.788 259.349 L
201.508 260.144 L
205.229 269.04 L
208.95 267.396 L
212.671 279.343 L
216.392 280.876 L
220.112 285.009 L
223.833 286.589 L
227.554 288.499 L
231.275 292.784 L
234.996 295.674 L
238.717 300.033 L
242.438 303.707 L
246.158 309.19 L
249.879 311.663 L
253.6 317.509 L
257.321 319.482 L
261.042 319.926 L
S
GR
GS
0.494 0.184 0.557 RC
1 LJ
N
257.321 319.482 M
261.042 319.926 L
264.763 322.161 L
268.483 321.616 L
S
GR
GS
0.494 0.184 0.557 RC
1 LJ
N
81.5 64.5 M
80.621 62.379 L
78.5 61.5 L
76.379 62.379 L
75.5 64.5 L
76.379 66.621 L
78.5 67.5 L
80.621 66.621 L
cp
S
GR
GS
0.494 0.184 0.557 RC
1 LJ
N
85.5 75.5 M
84.621 73.379 L
82.5 72.5 L
80.379 73.379 L
79.5 75.5 L
80.379 77.621 L
82.5 78.5 L
84.621 77.621 L
cp
S
GR
GS
0.494 0.184 0.557 RC
1 LJ
N
89.5 76.5 M
88.621 74.379 L
86.5 73.5 L
84.379 74.379 L
83.5 76.5 L
84.379 78.621 L
86.5 79.5 L
88.621 78.621 L
cp
S
GR
GS
0.494 0.184 0.557 RC
1 LJ
N
92.5 85.5 M
91.621 83.379 L
89.5 82.5 L
87.379 83.379 L
86.5 85.5 L
87.379 87.621 L
89.5 88.5 L
91.621 87.621 L
cp
S
GR
GS
0.494 0.184 0.557 RC
1 LJ
N
96.5 84.5 M
95.621 82.379 L
93.5 81.5 L
91.379 82.379 L
90.5 84.5 L
91.379 86.621 L
93.5 87.5 L
95.621 86.621 L
cp
S
GR
GS
0.494 0.184 0.557 RC
1 LJ
N
100.5 93.5 M
99.621 91.379 L
97.5 90.5 L
95.379 91.379 L
94.5 93.5 L
95.379 95.621 L
97.5 96.5 L
99.621 95.621 L
cp
S
GR
GS
0.494 0.184 0.557 RC
1 LJ
N
104.5 94.5 M
103.621 92.379 L
101.5 91.5 L
99.379 92.379 L
98.5 94.5 L
99.379 96.621 L
101.5 97.5 L
103.621 96.621 L
cp
S
GR
GS
0.494 0.184 0.557 RC
1 LJ
N
107.5 100.5 M
106.621 98.379 L
104.5 97.5 L
102.379 98.379 L
101.5 100.5 L
102.379 102.621 L
104.5 103.5 L
106.621 102.621 L
cp
S
GR
GS
0.494 0.184 0.557 RC
1 LJ
N
111.5 103.5 M
110.621 101.379 L
108.5 100.5 L
106.379 101.379 L
105.5 103.5 L
106.379 105.621 L
108.5 106.5 L
110.621 105.621 L
cp
S
GR
GS
0.494 0.184 0.557 RC
1 LJ
N
115.5 110.5 M
114.621 108.379 L
112.5 107.5 L
110.379 108.379 L
109.5 110.5 L
110.379 112.621 L
112.5 113.5 L
114.621 112.621 L
cp
S
GR
GS
0.494 0.184 0.557 RC
1 LJ
N
118.5 112.5 M
117.621 110.379 L
115.5 109.5 L
113.379 110.379 L
112.5 112.5 L
113.379 114.621 L
115.5 115.5 L
117.621 114.621 L
cp
S
GR
GS
0.494 0.184 0.557 RC
1 LJ
N
122.5 119.5 M
121.621 117.379 L
119.5 116.5 L
117.379 117.379 L
116.5 119.5 L
117.379 121.621 L
119.5 122.5 L
121.621 121.621 L
cp
S
GR
GS
0.494 0.184 0.557 RC
1 LJ
N
126.5 123.5 M
125.621 121.379 L
123.5 120.5 L
121.379 121.379 L
120.5 123.5 L
121.379 125.621 L
123.5 126.5 L
125.621 125.621 L
cp
S
GR
GS
0.494 0.184 0.557 RC
1 LJ
N
130.5 129.5 M
129.621 127.379 L
127.5 126.5 L
125.379 127.379 L
124.5 129.5 L
125.379 131.621 L
127.5 132.5 L
129.621 131.621 L
cp
S
GR
GS
0.494 0.184 0.557 RC
1 LJ
N
133.5 134.5 M
132.621 132.379 L
130.5 131.5 L
128.379 132.379 L
127.5 134.5 L
128.379 136.621 L
130.5 137.5 L
132.621 136.621 L
cp
S
GR
GS
0.494 0.184 0.557 RC
1 LJ
N
137.5 148.5 M
136.621 146.379 L
134.5 145.5 L
132.379 146.379 L
131.5 148.5 L
132.379 150.621 L
134.5 151.5 L
136.621 150.621 L
cp
S
GR
GS
0.494 0.184 0.557 RC
1 LJ
N
141.5 154.5 M
140.621 152.379 L
138.5 151.5 L
136.379 152.379 L
135.5 154.5 L
136.379 156.621 L
138.5 157.5 L
140.621 156.621 L
cp
S
GR
GS
0.494 0.184 0.557 RC
1 LJ
N
144.5 173.5 M
143.621 171.379 L
141.5 170.5 L
139.379 171.379 L
138.5 173.5 L
139.379 175.621 L
141.5 176.5 L
143.621 175.621 L
cp
S
GR
GS
0.494 0.184 0.557 RC
1 LJ
N
148.5 181.5 M
147.621 179.379 L
145.5 178.5 L
143.379 179.379 L
142.5 181.5 L
143.379 183.621 L
145.5 184.5 L
147.621 183.621 L
cp
S
GR
GS
0.494 0.184 0.557 RC
1 LJ
N
152.5 189.5 M
151.621 187.379 L
149.5 186.5 L
147.379 187.379 L
146.5 189.5 L
147.379 191.621 L
149.5 192.5 L
151.621 191.621 L
cp
S
GR
GS
0.494 0.184 0.557 RC
1 LJ
N
156.5 189.5 M
155.621 187.379 L
153.5 186.5 L
151.379 187.379 L
150.5 189.5 L
151.379 191.621 L
153.5 192.5 L
155.621 191.621 L
cp
S
GR
GS
0.494 0.184 0.557 RC
1 LJ
N
159.5 205.5 M
158.621 203.379 L
156.5 202.5 L
154.379 203.379 L
153.5 205.5 L
154.379 207.621 L
156.5 208.5 L
158.621 207.621 L
cp
S
GR
GS
0.494 0.184 0.557 RC
1 LJ
N
163.5 212.5 M
162.621 210.379 L
160.5 209.5 L
158.379 210.379 L
157.5 212.5 L
158.379 214.621 L
160.5 215.5 L
162.621 214.621 L
cp
S
GR
GS
0.494 0.184 0.557 RC
1 LJ
N
167.5 218.5 M
166.621 216.379 L
164.5 215.5 L
162.379 216.379 L
161.5 218.5 L
162.379 220.621 L
164.5 221.5 L
166.621 220.621 L
cp
S
GR
GS
0.494 0.184 0.557 RC
1 LJ
N
171.5 224.5 M
170.621 222.379 L
168.5 221.5 L
166.379 222.379 L
165.5 224.5 L
166.379 226.621 L
168.5 227.5 L
170.621 226.621 L
cp
S
GR
GS
0.494 0.184 0.557 RC
1 LJ
N
174.5 228.5 M
173.621 226.379 L
171.5 225.5 L
169.379 226.379 L
168.5 228.5 L
169.379 230.621 L
171.5 231.5 L
173.621 230.621 L
cp
S
GR
GS
0.494 0.184 0.557 RC
1 LJ
N
178.5 234.5 M
177.621 232.379 L
175.5 231.5 L
173.379 232.379 L
172.5 234.5 L
173.379 236.621 L
175.5 237.5 L
177.621 236.621 L
cp
S
GR
GS
0.494 0.184 0.557 RC
1 LJ
N
182.5 237.5 M
181.621 235.379 L
179.5 234.5 L
177.379 235.379 L
176.5 237.5 L
177.379 239.621 L
179.5 240.5 L
181.621 239.621 L
cp
S
GR
GS
0.494 0.184 0.557 RC
1 LJ
N
185.5 242.5 M
184.621 240.379 L
182.5 239.5 L
180.379 240.379 L
179.5 242.5 L
180.379 244.621 L
182.5 245.5 L
184.621 244.621 L
cp
S
GR
GS
0.494 0.184 0.557 RC
1 LJ
N
189.5 245.5 M
188.621 243.379 L
186.5 242.5 L
184.379 243.379 L
183.5 245.5 L
184.379 247.621 L
186.5 248.5 L
188.621 247.621 L
cp
S
GR
GS
0.494 0.184 0.557 RC
1 LJ
N
193.5 251.5 M
192.621 249.379 L
190.5 248.5 L
188.379 249.379 L
187.5 251.5 L
188.379 253.621 L
190.5 254.5 L
192.621 253.621 L
cp
S
GR
GS
0.494 0.184 0.557 RC
1 LJ
N
197.5 253.5 M
196.621 251.379 L
194.5 250.5 L
192.379 251.379 L
191.5 253.5 L
192.379 255.621 L
194.5 256.5 L
196.621 255.621 L
cp
S
GR
GS
0.494 0.184 0.557 RC
1 LJ
N
200.5 259.5 M
199.621 257.379 L
197.5 256.5 L
195.379 257.379 L
194.5 259.5 L
195.379 261.621 L
197.5 262.5 L
199.621 261.621 L
cp
S
GR
GS
0.494 0.184 0.557 RC
1 LJ
N
204.5 260.5 M
203.621 258.379 L
201.5 257.5 L
199.379 258.379 L
198.5 260.5 L
199.379 262.621 L
201.5 263.5 L
203.621 262.621 L
cp
S
GR
GS
0.494 0.184 0.557 RC
1 LJ
N
208.5 269.5 M
207.621 267.379 L
205.5 266.5 L
203.379 267.379 L
202.5 269.5 L
203.379 271.621 L
205.5 272.5 L
207.621 271.621 L
cp
S
GR
GS
0.494 0.184 0.557 RC
1 LJ
N
211.5 267.5 M
210.621 265.379 L
208.5 264.5 L
206.379 265.379 L
205.5 267.5 L
206.379 269.621 L
208.5 270.5 L
210.621 269.621 L
cp
S
GR
GS
0.494 0.184 0.557 RC
1 LJ
N
215.5 279.5 M
214.621 277.379 L
212.5 276.5 L
210.379 277.379 L
209.5 279.5 L
210.379 281.621 L
212.5 282.5 L
214.621 281.621 L
cp
S
GR
GS
0.494 0.184 0.557 RC
1 LJ
N
219.5 280.5 M
218.621 278.379 L
216.5 277.5 L
214.379 278.379 L
213.5 280.5 L
214.379 282.621 L
216.5 283.5 L
218.621 282.621 L
cp
S
GR
GS
0.494 0.184 0.557 RC
1 LJ
N
223.5 285.5 M
222.621 283.379 L
220.5 282.5 L
218.379 283.379 L
217.5 285.5 L
218.379 287.621 L
220.5 288.5 L
222.621 287.621 L
cp
S
GR
GS
0.494 0.184 0.557 RC
1 LJ
N
226.5 286.5 M
225.621 284.379 L
223.5 283.5 L
221.379 284.379 L
220.5 286.5 L
221.379 288.621 L
223.5 289.5 L
225.621 288.621 L
cp
S
GR
GS
0.494 0.184 0.557 RC
1 LJ
N
230.5 288.5 M
229.621 286.379 L
227.5 285.5 L
225.379 286.379 L
224.5 288.5 L
225.379 290.621 L
227.5 291.5 L
229.621 290.621 L
cp
S
GR
GS
0.494 0.184 0.557 RC
1 LJ
N
234.5 292.5 M
233.621 290.379 L
231.5 289.5 L
229.379 290.379 L
228.5 292.5 L
229.379 294.621 L
231.5 295.5 L
233.621 294.621 L
cp
S
GR
GS
0.494 0.184 0.557 RC
1 LJ
N
237.5 295.5 M
236.621 293.379 L
234.5 292.5 L
232.379 293.379 L
231.5 295.5 L
232.379 297.621 L
234.5 298.5 L
236.621 297.621 L
cp
S
GR
GS
0.494 0.184 0.557 RC
1 LJ
N
241.5 300.5 M
240.621 298.379 L
238.5 297.5 L
236.379 298.379 L
235.5 300.5 L
236.379 302.621 L
238.5 303.5 L
240.621 302.621 L
cp
S
GR
GS
0.494 0.184 0.557 RC
1 LJ
N
245.5 303.5 M
244.621 301.379 L
242.5 300.5 L
240.379 301.379 L
239.5 303.5 L
240.379 305.621 L
242.5 306.5 L
244.621 305.621 L
cp
S
GR
GS
0.494 0.184 0.557 RC
1 LJ
N
249.5 309.5 M
248.621 307.379 L
246.5 306.5 L
244.379 307.379 L
243.5 309.5 L
244.379 311.621 L
246.5 312.5 L
248.621 311.621 L
cp
S
GR
GS
0.494 0.184 0.557 RC
1 LJ
N
252.5 311.5 M
251.621 309.379 L
249.5 308.5 L
247.379 309.379 L
246.5 311.5 L
247.379 313.621 L
249.5 314.5 L
251.621 313.621 L
cp
S
GR
GS
0.494 0.184 0.557 RC
1 LJ
N
256.5 317.5 M
255.621 315.379 L
253.5 314.5 L
251.379 315.379 L
250.5 317.5 L
251.379 319.621 L
253.5 320.5 L
255.621 319.621 L
cp
S
GR
GS
0.494 0.184 0.557 RC
1 LJ
N
260.5 319.5 M
259.621 317.379 L
257.5 316.5 L
255.379 317.379 L
254.5 319.5 L
255.379 321.621 L
257.5 322.5 L
259.621 321.621 L
cp
S
GR
GS
0.494 0.184 0.557 RC
1 LJ
N
264.5 319.5 M
263.621 317.379 L
261.5 316.5 L
259.379 317.379 L
258.5 319.5 L
259.379 321.621 L
261.5 322.5 L
263.621 321.621 L
cp
S
GR
GS
0.494 0.184 0.557 RC
1 LJ
N
267.5 322.5 M
266.621 320.379 L
264.5 319.5 L
262.379 320.379 L
261.5 322.5 L
262.379 324.621 L
264.5 325.5 L
266.621 324.621 L
cp
S
GR
GS
0.494 0.184 0.557 RC
1 LJ
N
271.5 321.5 M
270.621 319.379 L
268.5 318.5 L
266.379 319.379 L
265.5 321.5 L
266.379 323.621 L
268.5 324.5 L
270.621 323.621 L
cp
S
GR
GS
[1 0 0 1 338 53.75] CT
/Helvetica 17 F
GS
[1 0 0 1 0 0] CT
0 4.5 moveto 
1 -1 scale
(No shuffling) t 
GR
GR
GS
0 0.447 0.741 RC
1 LJ
N
305 53.75 M
335 53.75 L
S
GR
GS
0 0.447 0.741 RC
1 LJ
N
323.5 53.5 M
322.621 51.379 L
320.5 50.5 L
318.379 51.379 L
317.5 53.5 L
318.379 55.621 L
320.5 56.5 L
322.621 55.621 L
cp
S
GR
GS
[1 0 0 1 338 72.75] CT
/Helvetica 17 F
GS
[1 0 0 1 0 0] CT
0 4.5 moveto 
1 -1 scale
(Random without repl.) t 
GR
GR
GS
0.851 0.325 0.098 RC
1 LJ
N
305 72.75 M
335 72.75 L
S
GR
GS
0.851 0.325 0.098 RC
1 LJ
N
323.5 72.5 M
322.621 70.379 L
320.5 69.5 L
318.379 70.379 L
317.5 72.5 L
318.379 74.621 L
320.5 75.5 L
322.621 74.621 L
cp
S
GR
GS
[1 0 0 1 338 91.75] CT
/Helvetica 17 F
GS
[1 0 0 1 0 0] CT
0 4.5 moveto 
1 -1 scale
(Random with repl.) t 
GR
GR
GS
0.929 0.694 0.125 RC
1 LJ
N
305 91.75 M
335 91.75 L
S
GR
GS
0.929 0.694 0.125 RC
1 LJ
N
323.5 91.5 M
322.621 89.379 L
320.5 88.5 L
318.379 89.379 L
317.5 91.5 L
318.379 93.621 L
320.5 94.5 L
322.621 93.621 L
cp
S
GR
GS
[1 0 0 1 338 110.75] CT
/Helvetica 17 F
GS
[1 0 0 1 0 0] CT
0 4.5 moveto 
1 -1 scale
(Smart shuffling) t 
GR
GR
GS
0.494 0.184 0.557 RC
1 LJ
N
305 110.75 M
335 110.75 L
S
GR
GS
0.494 0.184 0.557 RC
1 LJ
N
323.5 110.5 M
322.621 108.379 L
320.5 107.5 L
318.379 108.379 L
317.5 110.5 L
318.379 112.621 L
320.5 113.5 L
322.621 112.621 L
cp
S
GR
%%Trailer
%%Pages: 1
%%EOF
