%!PS-Adobe-3.0 EPSF-3.0
%%Creator: (MATLAB, The Mathworks, Inc. Version 8.6.0.267246 \(R2015b\). Operating System: Mac OS X)
%%Title: /Users/gauthiermuguerza/Desktop/rsgd/report/images/fourInOur.eps
%%CreationDate: 2018-06-03T14:59:35
%%Pages: (atend)
%%BoundingBox:     8     0   533   413
%%LanguageLevel: 3
%%EndComments
%%BeginProlog
%%BeginResource: procset (Apache XML Graphics Std ProcSet) 1.2 0
%%Version: 1.2 0
%%Copyright: (Copyright 2001-2003,2010 The Apache Software Foundation. License terms: http://www.apache.org/licenses/LICENSE-2.0)
/bd{bind def}bind def
/ld{load def}bd
/GR/grestore ld
/M/moveto ld
/LJ/setlinejoin ld
/C/curveto ld
/f/fill ld
/LW/setlinewidth ld
/GC/setgray ld
/t/show ld
/N/newpath ld
/CT/concat ld
/cp/closepath ld
/S/stroke ld
/L/lineto ld
/CC/setcmykcolor ld
/A/ashow ld
/GS/gsave ld
/RC/setrgbcolor ld
/RM/rmoveto ld
/ML/setmiterlimit ld
/re {4 2 roll M
1 index 0 rlineto
0 exch rlineto
neg 0 rlineto
cp } bd
/_ctm matrix def
/_tm matrix def
/BT { _ctm currentmatrix pop matrix _tm copy pop 0 0 moveto } bd
/ET { _ctm setmatrix } bd
/iTm { _ctm setmatrix _tm concat } bd
/Tm { _tm astore pop iTm 0 0 moveto } bd
/ux 0.0 def
/uy 0.0 def
/F {
  /Tp exch def
  /Tf exch def
  Tf findfont Tp scalefont setfont
  /cf Tf def  /cs Tp def
} bd
/ULS {currentpoint /uy exch def /ux exch def} bd
/ULE {
  /Tcx currentpoint pop def
  gsave
  newpath
  cf findfont cs scalefont dup
  /FontMatrix get 0 get /Ts exch def /FontInfo get dup
  /UnderlinePosition get Ts mul /To exch def
  /UnderlineThickness get Ts mul /Tt exch def
  ux uy To add moveto  Tcx uy To add lineto
  Tt setlinewidth stroke
  grestore
} bd
/OLE {
  /Tcx currentpoint pop def
  gsave
  newpath
  cf findfont cs scalefont dup
  /FontMatrix get 0 get /Ts exch def /FontInfo get dup
  /UnderlinePosition get Ts mul /To exch def
  /UnderlineThickness get Ts mul /Tt exch def
  ux uy To add cs add moveto Tcx uy To add cs add lineto
  Tt setlinewidth stroke
  grestore
} bd
/SOE {
  /Tcx currentpoint pop def
  gsave
  newpath
  cf findfont cs scalefont dup
  /FontMatrix get 0 get /Ts exch def /FontInfo get dup
  /UnderlinePosition get Ts mul /To exch def
  /UnderlineThickness get Ts mul /Tt exch def
  ux uy To add cs 10 mul 26 idiv add moveto Tcx uy To add cs 10 mul 26 idiv add lineto
  Tt setlinewidth stroke
  grestore
} bd
/QT {
/Y22 exch store
/X22 exch store
/Y21 exch store
/X21 exch store
currentpoint
/Y21 load 2 mul add 3 div exch
/X21 load 2 mul add 3 div exch
/X21 load 2 mul /X22 load add 3 div
/Y21 load 2 mul /Y22 load add 3 div
/X22 load /Y22 load curveto
} bd
/SSPD {
dup length /d exch dict def
{
/v exch def
/k exch def
currentpagedevice k known {
/cpdv currentpagedevice k get def
v cpdv ne {
/upd false def
/nullv v type /nulltype eq def
/nullcpdv cpdv type /nulltype eq def
nullv nullcpdv or
{
/upd true def
} {
/sametype v type cpdv type eq def
sametype {
v type /arraytype eq {
/vlen v length def
/cpdvlen cpdv length def
vlen cpdvlen eq {
0 1 vlen 1 sub {
/i exch def
/obj v i get def
/cpdobj cpdv i get def
obj cpdobj ne {
/upd true def
exit
} if
} for
} {
/upd true def
} ifelse
} {
v type /dicttype eq {
v {
/dv exch def
/dk exch def
/cpddv cpdv dk get def
dv cpddv ne {
/upd true def
exit
} if
} forall
} {
/upd true def
} ifelse
} ifelse
} if
} ifelse
upd true eq {
d k v put
} if
} if
} if
} forall
d length 0 gt {
d setpagedevice
} if
} bd
%%EndResource
%%BeginResource: procset (Apache XML Graphics EPS ProcSet) 1.0 0
%%Version: 1.0 0
%%Copyright: (Copyright 2002-2003 The Apache Software Foundation. License terms: http://www.apache.org/licenses/LICENSE-2.0)
/BeginEPSF { %def
/b4_Inc_state save def         % Save state for cleanup
/dict_count countdictstack def % Count objects on dict stack
/op_count count 1 sub def      % Count objects on operand stack
userdict begin                 % Push userdict on dict stack
/showpage { } def              % Redefine showpage, { } = null proc
0 setgray 0 setlinecap         % Prepare graphics state
1 setlinewidth 0 setlinejoin
10 setmiterlimit [ ] 0 setdash newpath
/languagelevel where           % If level not equal to 1 then
{pop languagelevel             % set strokeadjust and
1 ne                           % overprint to their defaults.
{false setstrokeadjust false setoverprint
} if
} if
} bd
/EndEPSF { %def
count op_count sub {pop} repeat            % Clean up stacks
countdictstack dict_count sub {end} repeat
b4_Inc_state restore
} bd
%%EndResource
%FOPBeginFontDict
%%IncludeResource: font Courier-Bold
%%IncludeResource: font Helvetica
%%IncludeResource: font Courier-BoldOblique
%%IncludeResource: font Courier-Oblique
%%IncludeResource: font Times-Roman
%%IncludeResource: font Helvetica-BoldOblique
%%IncludeResource: font Helvetica-Bold
%%IncludeResource: font Helvetica-Oblique
%%IncludeResource: font Times-BoldItalic
%%IncludeResource: font Courier
%%IncludeResource: font Times-Italic
%%IncludeResource: font Times-Bold
%%IncludeResource: font Symbol
%%IncludeResource: font ZapfDingbats
%FOPEndFontDict
%%BeginResource: encoding WinAnsiEncoding
/WinAnsiEncoding [
/.notdef /.notdef /.notdef /.notdef /.notdef
/.notdef /.notdef /.notdef /.notdef /.notdef
/.notdef /.notdef /.notdef /.notdef /.notdef
/.notdef /.notdef /.notdef /.notdef /.notdef
/.notdef /.notdef /.notdef /.notdef /.notdef
/.notdef /.notdef /.notdef /.notdef /.notdef
/.notdef /.notdef /space /exclam /quotedbl
/numbersign /dollar /percent /ampersand /quotesingle
/parenleft /parenright /asterisk /plus /comma
/hyphen /period /slash /zero /one
/two /three /four /five /six
/seven /eight /nine /colon /semicolon
/less /equal /greater /question /at
/A /B /C /D /E
/F /G /H /I /J
/K /L /M /N /O
/P /Q /R /S /T
/U /V /W /X /Y
/Z /bracketleft /backslash /bracketright /asciicircum
/underscore /quoteleft /a /b /c
/d /e /f /g /h
/i /j /k /l /m
/n /o /p /q /r
/s /t /u /v /w
/x /y /z /braceleft /bar
/braceright /asciitilde /bullet /Euro /bullet
/quotesinglbase /florin /quotedblbase /ellipsis /dagger
/daggerdbl /circumflex /perthousand /Scaron /guilsinglleft
/OE /bullet /Zcaron /bullet /bullet
/quoteleft /quoteright /quotedblleft /quotedblright /bullet
/endash /emdash /asciitilde /trademark /scaron
/guilsinglright /oe /bullet /zcaron /Ydieresis
/space /exclamdown /cent /sterling /currency
/yen /brokenbar /section /dieresis /copyright
/ordfeminine /guillemotleft /logicalnot /sfthyphen /registered
/macron /degree /plusminus /twosuperior /threesuperior
/acute /mu /paragraph /middot /cedilla
/onesuperior /ordmasculine /guillemotright /onequarter /onehalf
/threequarters /questiondown /Agrave /Aacute /Acircumflex
/Atilde /Adieresis /Aring /AE /Ccedilla
/Egrave /Eacute /Ecircumflex /Edieresis /Igrave
/Iacute /Icircumflex /Idieresis /Eth /Ntilde
/Ograve /Oacute /Ocircumflex /Otilde /Odieresis
/multiply /Oslash /Ugrave /Uacute /Ucircumflex
/Udieresis /Yacute /Thorn /germandbls /agrave
/aacute /acircumflex /atilde /adieresis /aring
/ae /ccedilla /egrave /eacute /ecircumflex
/edieresis /igrave /iacute /icircumflex /idieresis
/eth /ntilde /ograve /oacute /ocircumflex
/otilde /odieresis /divide /oslash /ugrave
/uacute /ucircumflex /udieresis /yacute /thorn
/ydieresis
] def
%%EndResource
%FOPBeginFontReencode
/Courier-Bold findfont
dup length dict begin
  {1 index /FID ne {def} {pop pop} ifelse} forall
  /Encoding WinAnsiEncoding def
  currentdict
end
/Courier-Bold exch definefont pop
/Helvetica findfont
dup length dict begin
  {1 index /FID ne {def} {pop pop} ifelse} forall
  /Encoding WinAnsiEncoding def
  currentdict
end
/Helvetica exch definefont pop
/Courier-BoldOblique findfont
dup length dict begin
  {1 index /FID ne {def} {pop pop} ifelse} forall
  /Encoding WinAnsiEncoding def
  currentdict
end
/Courier-BoldOblique exch definefont pop
/Courier-Oblique findfont
dup length dict begin
  {1 index /FID ne {def} {pop pop} ifelse} forall
  /Encoding WinAnsiEncoding def
  currentdict
end
/Courier-Oblique exch definefont pop
/Times-Roman findfont
dup length dict begin
  {1 index /FID ne {def} {pop pop} ifelse} forall
  /Encoding WinAnsiEncoding def
  currentdict
end
/Times-Roman exch definefont pop
/Helvetica-BoldOblique findfont
dup length dict begin
  {1 index /FID ne {def} {pop pop} ifelse} forall
  /Encoding WinAnsiEncoding def
  currentdict
end
/Helvetica-BoldOblique exch definefont pop
/Helvetica-Bold findfont
dup length dict begin
  {1 index /FID ne {def} {pop pop} ifelse} forall
  /Encoding WinAnsiEncoding def
  currentdict
end
/Helvetica-Bold exch definefont pop
/Helvetica-Oblique findfont
dup length dict begin
  {1 index /FID ne {def} {pop pop} ifelse} forall
  /Encoding WinAnsiEncoding def
  currentdict
end
/Helvetica-Oblique exch definefont pop
/Times-BoldItalic findfont
dup length dict begin
  {1 index /FID ne {def} {pop pop} ifelse} forall
  /Encoding WinAnsiEncoding def
  currentdict
end
/Times-BoldItalic exch definefont pop
/Courier findfont
dup length dict begin
  {1 index /FID ne {def} {pop pop} ifelse} forall
  /Encoding WinAnsiEncoding def
  currentdict
end
/Courier exch definefont pop
/Times-Italic findfont
dup length dict begin
  {1 index /FID ne {def} {pop pop} ifelse} forall
  /Encoding WinAnsiEncoding def
  currentdict
end
/Times-Italic exch definefont pop
/Times-Bold findfont
dup length dict begin
  {1 index /FID ne {def} {pop pop} ifelse} forall
  /Encoding WinAnsiEncoding def
  currentdict
end
/Times-Bold exch definefont pop
%FOPEndFontReencode
%%EndProlog
%%Page: 1 1
%%PageBoundingBox: 0 0 576 432
%%BeginPageSetup
[1 0 0 -1 0 432] CT
%%EndPageSetup
GS
1 GC
N
0 0 576 432 re
f
GR
GS
1 GC
N
0 0 576 432 re
f
GR
GS
1 GC
N
75 384 M
521.5 384 L
521.5 32.5 L
75 32.5 L
cp
f
GR
GS
0.149 GC
2 setlinecap
1 LJ
0.5 LW
N
75 384 M
521.5 384 L
S
GR
GS
0.149 GC
2 setlinecap
1 LJ
0.5 LW
N
75 384 M
75 379.535 L
S
GR
GS
0.149 GC
2 setlinecap
1 LJ
0.5 LW
N
186.625 384 M
186.625 379.535 L
S
GR
GS
0.149 GC
2 setlinecap
1 LJ
0.5 LW
N
298.25 384 M
298.25 379.535 L
S
GR
GS
0.149 GC
2 setlinecap
1 LJ
0.5 LW
N
409.875 384 M
409.875 379.535 L
S
GR
GS
0.149 GC
2 setlinecap
1 LJ
0.5 LW
N
521.5 384 M
521.5 379.535 L
S
GR
GS
[1 0 0 1 75 390] CT
0.149 GC
/Helvetica 20 F
GS
[1 0 0 1 0 0] CT
-6 16 moveto 
1 -1 scale
(0) t 
GR
GR
GS
[1 0 0 1 186.625 390] CT
0.149 GC
/Helvetica 20 F
GS
[1 0 0 1 0 0] CT
-11.5 16 moveto 
1 -1 scale
(10) t 
GR
GR
GS
[1 0 0 1 298.25 390] CT
0.149 GC
/Helvetica 20 F
GS
[1 0 0 1 0 0] CT
-11.5 16 moveto 
1 -1 scale
(20) t 
GR
GR
GS
[1 0 0 1 409.875 390] CT
0.149 GC
/Helvetica 20 F
GS
[1 0 0 1 0 0] CT
-11.5 16 moveto 
1 -1 scale
(30) t 
GR
GR
GS
[1 0 0 1 521.5 390] CT
0.149 GC
/Helvetica 20 F
GS
[1 0 0 1 0 0] CT
-11.5 16 moveto 
1 -1 scale
(40) t 
GR
GR
GS
[1 0 0 1 298.25021 411.5] CT
0.149 GC
/Helvetica 20 F
GS
[1 0 0 1 0 0] CT
-41.5 16 moveto 
1 -1 scale
(Iterations) t 
GR
GR
GS
0.149 GC
2 setlinecap
1 LJ
0.5 LW
N
75 384 M
75 32.5 L
S
GR
GS
0.149 GC
2 setlinecap
1 LJ
0.5 LW
N
75 384 M
79.465 384 L
S
GR
GS
0.149 GC
2 setlinecap
1 LJ
0.5 LW
N
75 313.7 M
79.465 313.7 L
S
GR
GS
0.149 GC
2 setlinecap
1 LJ
0.5 LW
N
75 243.4 M
79.465 243.4 L
S
GR
GS
0.149 GC
2 setlinecap
1 LJ
0.5 LW
N
75 173.1 M
79.465 173.1 L
S
GR
GS
0.149 GC
2 setlinecap
1 LJ
0.5 LW
N
75 102.8 M
79.465 102.8 L
S
GR
GS
0.149 GC
2 setlinecap
1 LJ
0.5 LW
N
75 32.5 M
79.465 32.5 L
S
GR
GS
0.149 GC
2 setlinecap
1 LJ
0.5 LW
N
75 362.838 M
77.232 362.838 L
S
GR
GS
0.149 GC
2 setlinecap
1 LJ
0.5 LW
N
75 350.458 M
77.232 350.458 L
S
GR
GS
0.149 GC
2 setlinecap
1 LJ
0.5 LW
N
75 341.675 M
77.232 341.675 L
S
GR
GS
0.149 GC
2 setlinecap
1 LJ
0.5 LW
N
75 334.862 M
77.232 334.862 L
S
GR
GS
0.149 GC
2 setlinecap
1 LJ
0.5 LW
N
75 329.296 M
77.232 329.296 L
S
GR
GS
0.149 GC
2 setlinecap
1 LJ
0.5 LW
N
75 324.59 M
77.232 324.59 L
S
GR
GS
0.149 GC
2 setlinecap
1 LJ
0.5 LW
N
75 320.513 M
77.232 320.513 L
S
GR
GS
0.149 GC
2 setlinecap
1 LJ
0.5 LW
N
75 316.917 M
77.232 316.917 L
S
GR
GS
0.149 GC
2 setlinecap
1 LJ
0.5 LW
N
75 292.538 M
77.232 292.538 L
S
GR
GS
0.149 GC
2 setlinecap
1 LJ
0.5 LW
N
75 280.158 M
77.232 280.158 L
S
GR
GS
0.149 GC
2 setlinecap
1 LJ
0.5 LW
N
75 271.375 M
77.232 271.375 L
S
GR
GS
0.149 GC
2 setlinecap
1 LJ
0.5 LW
N
75 264.562 M
77.232 264.562 L
S
GR
GS
0.149 GC
2 setlinecap
1 LJ
0.5 LW
N
75 258.996 M
77.232 258.996 L
S
GR
GS
0.149 GC
2 setlinecap
1 LJ
0.5 LW
N
75 254.29 M
77.232 254.29 L
S
GR
GS
0.149 GC
2 setlinecap
1 LJ
0.5 LW
N
75 250.213 M
77.232 250.213 L
S
GR
GS
0.149 GC
2 setlinecap
1 LJ
0.5 LW
N
75 246.617 M
77.232 246.617 L
S
GR
GS
0.149 GC
2 setlinecap
1 LJ
0.5 LW
N
75 222.238 M
77.232 222.238 L
S
GR
GS
0.149 GC
2 setlinecap
1 LJ
0.5 LW
N
75 209.858 M
77.232 209.858 L
S
GR
GS
0.149 GC
2 setlinecap
1 LJ
0.5 LW
N
75 201.075 M
77.232 201.075 L
S
GR
GS
0.149 GC
2 setlinecap
1 LJ
0.5 LW
N
75 194.262 M
77.232 194.262 L
S
GR
GS
0.149 GC
2 setlinecap
1 LJ
0.5 LW
N
75 188.696 M
77.232 188.696 L
S
GR
GS
0.149 GC
2 setlinecap
1 LJ
0.5 LW
N
75 183.99 M
77.232 183.99 L
S
GR
GS
0.149 GC
2 setlinecap
1 LJ
0.5 LW
N
75 179.913 M
77.232 179.913 L
S
GR
GS
0.149 GC
2 setlinecap
1 LJ
0.5 LW
N
75 176.317 M
77.232 176.317 L
S
GR
GS
0.149 GC
2 setlinecap
1 LJ
0.5 LW
N
75 151.938 M
77.232 151.938 L
S
GR
GS
0.149 GC
2 setlinecap
1 LJ
0.5 LW
N
75 139.558 M
77.232 139.558 L
S
GR
GS
0.149 GC
2 setlinecap
1 LJ
0.5 LW
N
75 130.775 M
77.232 130.775 L
S
GR
GS
0.149 GC
2 setlinecap
1 LJ
0.5 LW
N
75 123.962 M
77.232 123.962 L
S
GR
GS
0.149 GC
2 setlinecap
1 LJ
0.5 LW
N
75 118.396 M
77.232 118.396 L
S
GR
GS
0.149 GC
2 setlinecap
1 LJ
0.5 LW
N
75 113.69 M
77.232 113.69 L
S
GR
GS
0.149 GC
2 setlinecap
1 LJ
0.5 LW
N
75 109.613 M
77.232 109.613 L
S
GR
GS
0.149 GC
2 setlinecap
1 LJ
0.5 LW
N
75 106.017 M
77.232 106.017 L
S
GR
GS
0.149 GC
2 setlinecap
1 LJ
0.5 LW
N
75 81.638 M
77.232 81.638 L
S
GR
GS
0.149 GC
2 setlinecap
1 LJ
0.5 LW
N
75 69.258 M
77.232 69.258 L
S
GR
GS
0.149 GC
2 setlinecap
1 LJ
0.5 LW
N
75 60.475 M
77.232 60.475 L
S
GR
GS
0.149 GC
2 setlinecap
1 LJ
0.5 LW
N
75 53.662 M
77.232 53.662 L
S
GR
GS
0.149 GC
2 setlinecap
1 LJ
0.5 LW
N
75 48.096 M
77.232 48.096 L
S
GR
GS
0.149 GC
2 setlinecap
1 LJ
0.5 LW
N
75 43.39 M
77.232 43.39 L
S
GR
GS
0.149 GC
2 setlinecap
1 LJ
0.5 LW
N
75 39.313 M
77.232 39.313 L
S
GR
GS
0.149 GC
2 setlinecap
1 LJ
0.5 LW
N
75 35.717 M
77.232 35.717 L
S
GR
GS
[1 0 0 1 31 393] CT
0.149 GC
/Helvetica 20 F
GS
[1 0 0 1 0 0] CT
0 0 moveto 
1 -1 scale
(10) t 
GR
GR
GS
[1 0 0 1 54 383] CT
0.149 GC
/Helvetica 16 F
GS
[1 0 0 1 0 0] CT
0 0 moveto 
1 -1 scale
(-4) t 
GR
GR
GS
[1 0 0 1 31 323] CT
0.149 GC
/Helvetica 20 F
GS
[1 0 0 1 0 0] CT
0 0 moveto 
1 -1 scale
(10) t 
GR
GR
GS
[1 0 0 1 54 313] CT
0.149 GC
/Helvetica 16 F
GS
[1 0 0 1 0 0] CT
0 0 moveto 
1 -1 scale
(-3) t 
GR
GR
GS
[1 0 0 1 31 252] CT
0.149 GC
/Helvetica 20 F
GS
[1 0 0 1 0 0] CT
0 0 moveto 
1 -1 scale
(10) t 
GR
GR
GS
[1 0 0 1 54 242] CT
0.149 GC
/Helvetica 16 F
GS
[1 0 0 1 0 0] CT
0 0 moveto 
1 -1 scale
(-2) t 
GR
GR
GS
[1 0 0 1 31 182] CT
0.149 GC
/Helvetica 20 F
GS
[1 0 0 1 0 0] CT
0 0 moveto 
1 -1 scale
(10) t 
GR
GR
GS
[1 0 0 1 54 172] CT
0.149 GC
/Helvetica 16 F
GS
[1 0 0 1 0 0] CT
0 0 moveto 
1 -1 scale
(-1) t 
GR
GR
GS
[1 0 0 1 37 112] CT
0.149 GC
/Helvetica 20 F
GS
[1 0 0 1 0 0] CT
0 0 moveto 
1 -1 scale
(10) t 
GR
GR
GS
[1 0 0 1 60 102] CT
0.149 GC
/Helvetica 16 F
GS
[1 0 0 1 0 0] CT
0 0 moveto 
1 -1 scale
(0) t 
GR
GR
GS
[1 0 0 1 37 42] CT
0.149 GC
/Helvetica 20 F
GS
[1 0 0 1 0 0] CT
0 0 moveto 
1 -1 scale
(10) t 
GR
GR
GS
[1 0 0 1 60 32] CT
0.149 GC
/Helvetica 16 F
GS
[1 0 0 1 0 0] CT
0 0 moveto 
1 -1 scale
(1) t 
GR
GR
GS
[0 -1 1 0 29 208.24983] CT
0.149 GC
/Helvetica 20 F
GS
[1 0 0 1 0 0] CT
-54.5 -5 moveto 
1 -1 scale
(Train RMSE) t 
GR
GR
GS
0 0.447 0.741 RC
1 LJ
N
86.162 74.437 M
97.325 83.603 L
108.488 92.134 L
119.65 99.754 L
130.813 106.454 L
141.975 112.448 L
153.137 118.024 L
164.3 123.426 L
175.462 128.822 L
186.625 134.31 L
197.788 139.956 L
208.95 145.809 L
220.112 151.903 L
231.275 158.281 L
242.438 164.979 L
253.6 172.035 L
264.763 179.493 L
275.925 187.411 L
287.087 195.822 L
298.25 204.787 L
309.412 214.36 L
320.575 224.594 L
331.737 235.555 L
342.9 247.343 L
354.063 259.969 L
365.225 273.481 L
376.388 288.12 L
387.55 303.709 L
398.713 320.415 L
409.875 338.363 L
421.037 357.162 L
S
GR
GS
0 0.447 0.741 RC
1 LJ
N
89.5 74.5 M
88.621 72.379 L
86.5 71.5 L
84.379 72.379 L
83.5 74.5 L
84.379 76.621 L
86.5 77.5 L
88.621 76.621 L
cp
S
GR
GS
0 0.447 0.741 RC
1 LJ
N
100.5 83.5 M
99.621 81.379 L
97.5 80.5 L
95.379 81.379 L
94.5 83.5 L
95.379 85.621 L
97.5 86.5 L
99.621 85.621 L
cp
S
GR
GS
0 0.447 0.741 RC
1 LJ
N
111.5 92.5 M
110.621 90.379 L
108.5 89.5 L
106.379 90.379 L
105.5 92.5 L
106.379 94.621 L
108.5 95.5 L
110.621 94.621 L
cp
S
GR
GS
0 0.447 0.741 RC
1 LJ
N
122.5 99.5 M
121.621 97.379 L
119.5 96.5 L
117.379 97.379 L
116.5 99.5 L
117.379 101.621 L
119.5 102.5 L
121.621 101.621 L
cp
S
GR
GS
0 0.447 0.741 RC
1 LJ
N
133.5 106.5 M
132.621 104.379 L
130.5 103.5 L
128.379 104.379 L
127.5 106.5 L
128.379 108.621 L
130.5 109.5 L
132.621 108.621 L
cp
S
GR
GS
0 0.447 0.741 RC
1 LJ
N
144.5 112.5 M
143.621 110.379 L
141.5 109.5 L
139.379 110.379 L
138.5 112.5 L
139.379 114.621 L
141.5 115.5 L
143.621 114.621 L
cp
S
GR
GS
0 0.447 0.741 RC
1 LJ
N
156.5 118.5 M
155.621 116.379 L
153.5 115.5 L
151.379 116.379 L
150.5 118.5 L
151.379 120.621 L
153.5 121.5 L
155.621 120.621 L
cp
S
GR
GS
0 0.447 0.741 RC
1 LJ
N
167.5 123.5 M
166.621 121.379 L
164.5 120.5 L
162.379 121.379 L
161.5 123.5 L
162.379 125.621 L
164.5 126.5 L
166.621 125.621 L
cp
S
GR
GS
0 0.447 0.741 RC
1 LJ
N
178.5 128.5 M
177.621 126.379 L
175.5 125.5 L
173.379 126.379 L
172.5 128.5 L
173.379 130.621 L
175.5 131.5 L
177.621 130.621 L
cp
S
GR
GS
0 0.447 0.741 RC
1 LJ
N
189.5 134.5 M
188.621 132.379 L
186.5 131.5 L
184.379 132.379 L
183.5 134.5 L
184.379 136.621 L
186.5 137.5 L
188.621 136.621 L
cp
S
GR
GS
0 0.447 0.741 RC
1 LJ
N
200.5 139.5 M
199.621 137.379 L
197.5 136.5 L
195.379 137.379 L
194.5 139.5 L
195.379 141.621 L
197.5 142.5 L
199.621 141.621 L
cp
S
GR
GS
0 0.447 0.741 RC
1 LJ
N
211.5 145.5 M
210.621 143.379 L
208.5 142.5 L
206.379 143.379 L
205.5 145.5 L
206.379 147.621 L
208.5 148.5 L
210.621 147.621 L
cp
S
GR
GS
0 0.447 0.741 RC
1 LJ
N
223.5 151.5 M
222.621 149.379 L
220.5 148.5 L
218.379 149.379 L
217.5 151.5 L
218.379 153.621 L
220.5 154.5 L
222.621 153.621 L
cp
S
GR
GS
0 0.447 0.741 RC
1 LJ
N
234.5 158.5 M
233.621 156.379 L
231.5 155.5 L
229.379 156.379 L
228.5 158.5 L
229.379 160.621 L
231.5 161.5 L
233.621 160.621 L
cp
S
GR
GS
0 0.447 0.741 RC
1 LJ
N
245.5 164.5 M
244.621 162.379 L
242.5 161.5 L
240.379 162.379 L
239.5 164.5 L
240.379 166.621 L
242.5 167.5 L
244.621 166.621 L
cp
S
GR
GS
0 0.447 0.741 RC
1 LJ
N
256.5 172.5 M
255.621 170.379 L
253.5 169.5 L
251.379 170.379 L
250.5 172.5 L
251.379 174.621 L
253.5 175.5 L
255.621 174.621 L
cp
S
GR
GS
0 0.447 0.741 RC
1 LJ
N
267.5 179.5 M
266.621 177.379 L
264.5 176.5 L
262.379 177.379 L
261.5 179.5 L
262.379 181.621 L
264.5 182.5 L
266.621 181.621 L
cp
S
GR
GS
0 0.447 0.741 RC
1 LJ
N
278.5 187.5 M
277.621 185.379 L
275.5 184.5 L
273.379 185.379 L
272.5 187.5 L
273.379 189.621 L
275.5 190.5 L
277.621 189.621 L
cp
S
GR
GS
0 0.447 0.741 RC
1 LJ
N
290.5 195.5 M
289.621 193.379 L
287.5 192.5 L
285.379 193.379 L
284.5 195.5 L
285.379 197.621 L
287.5 198.5 L
289.621 197.621 L
cp
S
GR
GS
0 0.447 0.741 RC
1 LJ
N
301.5 204.5 M
300.621 202.379 L
298.5 201.5 L
296.379 202.379 L
295.5 204.5 L
296.379 206.621 L
298.5 207.5 L
300.621 206.621 L
cp
S
GR
GS
0 0.447 0.741 RC
1 LJ
N
312.5 214.5 M
311.621 212.379 L
309.5 211.5 L
307.379 212.379 L
306.5 214.5 L
307.379 216.621 L
309.5 217.5 L
311.621 216.621 L
cp
S
GR
GS
0 0.447 0.741 RC
1 LJ
N
323.5 224.5 M
322.621 222.379 L
320.5 221.5 L
318.379 222.379 L
317.5 224.5 L
318.379 226.621 L
320.5 227.5 L
322.621 226.621 L
cp
S
GR
GS
0 0.447 0.741 RC
1 LJ
N
334.5 235.5 M
333.621 233.379 L
331.5 232.5 L
329.379 233.379 L
328.5 235.5 L
329.379 237.621 L
331.5 238.5 L
333.621 237.621 L
cp
S
GR
GS
0 0.447 0.741 RC
1 LJ
N
345.5 247.5 M
344.621 245.379 L
342.5 244.5 L
340.379 245.379 L
339.5 247.5 L
340.379 249.621 L
342.5 250.5 L
344.621 249.621 L
cp
S
GR
GS
0 0.447 0.741 RC
1 LJ
N
357.5 259.5 M
356.621 257.379 L
354.5 256.5 L
352.379 257.379 L
351.5 259.5 L
352.379 261.621 L
354.5 262.5 L
356.621 261.621 L
cp
S
GR
GS
0 0.447 0.741 RC
1 LJ
N
368.5 273.5 M
367.621 271.379 L
365.5 270.5 L
363.379 271.379 L
362.5 273.5 L
363.379 275.621 L
365.5 276.5 L
367.621 275.621 L
cp
S
GR
GS
0 0.447 0.741 RC
1 LJ
N
379.5 288.5 M
378.621 286.379 L
376.5 285.5 L
374.379 286.379 L
373.5 288.5 L
374.379 290.621 L
376.5 291.5 L
378.621 290.621 L
cp
S
GR
GS
0 0.447 0.741 RC
1 LJ
N
390.5 303.5 M
389.621 301.379 L
387.5 300.5 L
385.379 301.379 L
384.5 303.5 L
385.379 305.621 L
387.5 306.5 L
389.621 305.621 L
cp
S
GR
GS
0 0.447 0.741 RC
1 LJ
N
401.5 320.5 M
400.621 318.379 L
398.5 317.5 L
396.379 318.379 L
395.5 320.5 L
396.379 322.621 L
398.5 323.5 L
400.621 322.621 L
cp
S
GR
GS
0 0.447 0.741 RC
1 LJ
N
412.5 338.5 M
411.621 336.379 L
409.5 335.5 L
407.379 336.379 L
406.5 338.5 L
407.379 340.621 L
409.5 341.5 L
411.621 340.621 L
cp
S
GR
GS
0 0.447 0.741 RC
1 LJ
N
424.5 357.5 M
423.621 355.379 L
421.5 354.5 L
419.379 355.379 L
418.5 357.5 L
419.379 359.621 L
421.5 360.5 L
423.621 359.621 L
cp
S
GR
GS
0.851 0.325 0.098 RC
1 LJ
N
86.162 74.437 M
97.325 83.853 L
108.488 92.36 L
119.65 99.957 L
130.813 106.58 L
141.975 112.527 L
153.137 118.063 L
164.3 123.443 L
175.462 128.823 L
186.625 134.297 L
197.788 139.934 L
208.95 145.768 L
220.112 151.85 L
231.275 158.203 L
242.438 164.885 L
253.6 171.911 L
264.763 179.364 L
275.925 187.246 L
287.087 195.644 L
298.25 204.571 L
309.412 214.126 L
320.575 224.306 L
331.737 235.224 L
342.9 246.855 L
354.063 259.327 L
365.225 272.652 L
376.388 286.8 L
387.55 302.133 L
398.713 318.037 L
409.875 335.674 L
421.037 353.441 L
S
GR
GS
0.851 0.325 0.098 RC
1 LJ
N
89.5 74.5 M
88.621 72.379 L
86.5 71.5 L
84.379 72.379 L
83.5 74.5 L
84.379 76.621 L
86.5 77.5 L
88.621 76.621 L
cp
S
GR
GS
0.851 0.325 0.098 RC
1 LJ
N
100.5 83.5 M
99.621 81.379 L
97.5 80.5 L
95.379 81.379 L
94.5 83.5 L
95.379 85.621 L
97.5 86.5 L
99.621 85.621 L
cp
S
GR
GS
0.851 0.325 0.098 RC
1 LJ
N
111.5 92.5 M
110.621 90.379 L
108.5 89.5 L
106.379 90.379 L
105.5 92.5 L
106.379 94.621 L
108.5 95.5 L
110.621 94.621 L
cp
S
GR
GS
0.851 0.325 0.098 RC
1 LJ
N
122.5 99.5 M
121.621 97.379 L
119.5 96.5 L
117.379 97.379 L
116.5 99.5 L
117.379 101.621 L
119.5 102.5 L
121.621 101.621 L
cp
S
GR
GS
0.851 0.325 0.098 RC
1 LJ
N
133.5 106.5 M
132.621 104.379 L
130.5 103.5 L
128.379 104.379 L
127.5 106.5 L
128.379 108.621 L
130.5 109.5 L
132.621 108.621 L
cp
S
GR
GS
0.851 0.325 0.098 RC
1 LJ
N
144.5 112.5 M
143.621 110.379 L
141.5 109.5 L
139.379 110.379 L
138.5 112.5 L
139.379 114.621 L
141.5 115.5 L
143.621 114.621 L
cp
S
GR
GS
0.851 0.325 0.098 RC
1 LJ
N
156.5 118.5 M
155.621 116.379 L
153.5 115.5 L
151.379 116.379 L
150.5 118.5 L
151.379 120.621 L
153.5 121.5 L
155.621 120.621 L
cp
S
GR
GS
0.851 0.325 0.098 RC
1 LJ
N
167.5 123.5 M
166.621 121.379 L
164.5 120.5 L
162.379 121.379 L
161.5 123.5 L
162.379 125.621 L
164.5 126.5 L
166.621 125.621 L
cp
S
GR
GS
0.851 0.325 0.098 RC
1 LJ
N
178.5 128.5 M
177.621 126.379 L
175.5 125.5 L
173.379 126.379 L
172.5 128.5 L
173.379 130.621 L
175.5 131.5 L
177.621 130.621 L
cp
S
GR
GS
0.851 0.325 0.098 RC
1 LJ
N
189.5 134.5 M
188.621 132.379 L
186.5 131.5 L
184.379 132.379 L
183.5 134.5 L
184.379 136.621 L
186.5 137.5 L
188.621 136.621 L
cp
S
GR
GS
0.851 0.325 0.098 RC
1 LJ
N
200.5 139.5 M
199.621 137.379 L
197.5 136.5 L
195.379 137.379 L
194.5 139.5 L
195.379 141.621 L
197.5 142.5 L
199.621 141.621 L
cp
S
GR
GS
0.851 0.325 0.098 RC
1 LJ
N
211.5 145.5 M
210.621 143.379 L
208.5 142.5 L
206.379 143.379 L
205.5 145.5 L
206.379 147.621 L
208.5 148.5 L
210.621 147.621 L
cp
S
GR
GS
0.851 0.325 0.098 RC
1 LJ
N
223.5 151.5 M
222.621 149.379 L
220.5 148.5 L
218.379 149.379 L
217.5 151.5 L
218.379 153.621 L
220.5 154.5 L
222.621 153.621 L
cp
S
GR
GS
0.851 0.325 0.098 RC
1 LJ
N
234.5 158.5 M
233.621 156.379 L
231.5 155.5 L
229.379 156.379 L
228.5 158.5 L
229.379 160.621 L
231.5 161.5 L
233.621 160.621 L
cp
S
GR
GS
0.851 0.325 0.098 RC
1 LJ
N
245.5 164.5 M
244.621 162.379 L
242.5 161.5 L
240.379 162.379 L
239.5 164.5 L
240.379 166.621 L
242.5 167.5 L
244.621 166.621 L
cp
S
GR
GS
0.851 0.325 0.098 RC
1 LJ
N
256.5 171.5 M
255.621 169.379 L
253.5 168.5 L
251.379 169.379 L
250.5 171.5 L
251.379 173.621 L
253.5 174.5 L
255.621 173.621 L
cp
S
GR
GS
0.851 0.325 0.098 RC
1 LJ
N
267.5 179.5 M
266.621 177.379 L
264.5 176.5 L
262.379 177.379 L
261.5 179.5 L
262.379 181.621 L
264.5 182.5 L
266.621 181.621 L
cp
S
GR
GS
0.851 0.325 0.098 RC
1 LJ
N
278.5 187.5 M
277.621 185.379 L
275.5 184.5 L
273.379 185.379 L
272.5 187.5 L
273.379 189.621 L
275.5 190.5 L
277.621 189.621 L
cp
S
GR
GS
0.851 0.325 0.098 RC
1 LJ
N
290.5 195.5 M
289.621 193.379 L
287.5 192.5 L
285.379 193.379 L
284.5 195.5 L
285.379 197.621 L
287.5 198.5 L
289.621 197.621 L
cp
S
GR
GS
0.851 0.325 0.098 RC
1 LJ
N
301.5 204.5 M
300.621 202.379 L
298.5 201.5 L
296.379 202.379 L
295.5 204.5 L
296.379 206.621 L
298.5 207.5 L
300.621 206.621 L
cp
S
GR
GS
0.851 0.325 0.098 RC
1 LJ
N
312.5 214.5 M
311.621 212.379 L
309.5 211.5 L
307.379 212.379 L
306.5 214.5 L
307.379 216.621 L
309.5 217.5 L
311.621 216.621 L
cp
S
GR
GS
0.851 0.325 0.098 RC
1 LJ
N
323.5 224.5 M
322.621 222.379 L
320.5 221.5 L
318.379 222.379 L
317.5 224.5 L
318.379 226.621 L
320.5 227.5 L
322.621 226.621 L
cp
S
GR
GS
0.851 0.325 0.098 RC
1 LJ
N
334.5 235.5 M
333.621 233.379 L
331.5 232.5 L
329.379 233.379 L
328.5 235.5 L
329.379 237.621 L
331.5 238.5 L
333.621 237.621 L
cp
S
GR
GS
0.851 0.325 0.098 RC
1 LJ
N
345.5 246.5 M
344.621 244.379 L
342.5 243.5 L
340.379 244.379 L
339.5 246.5 L
340.379 248.621 L
342.5 249.5 L
344.621 248.621 L
cp
S
GR
GS
0.851 0.325 0.098 RC
1 LJ
N
357.5 259.5 M
356.621 257.379 L
354.5 256.5 L
352.379 257.379 L
351.5 259.5 L
352.379 261.621 L
354.5 262.5 L
356.621 261.621 L
cp
S
GR
GS
0.851 0.325 0.098 RC
1 LJ
N
368.5 272.5 M
367.621 270.379 L
365.5 269.5 L
363.379 270.379 L
362.5 272.5 L
363.379 274.621 L
365.5 275.5 L
367.621 274.621 L
cp
S
GR
GS
0.851 0.325 0.098 RC
1 LJ
N
379.5 286.5 M
378.621 284.379 L
376.5 283.5 L
374.379 284.379 L
373.5 286.5 L
374.379 288.621 L
376.5 289.5 L
378.621 288.621 L
cp
S
GR
GS
0.851 0.325 0.098 RC
1 LJ
N
390.5 302.5 M
389.621 300.379 L
387.5 299.5 L
385.379 300.379 L
384.5 302.5 L
385.379 304.621 L
387.5 305.5 L
389.621 304.621 L
cp
S
GR
GS
0.851 0.325 0.098 RC
1 LJ
N
401.5 318.5 M
400.621 316.379 L
398.5 315.5 L
396.379 316.379 L
395.5 318.5 L
396.379 320.621 L
398.5 321.5 L
400.621 320.621 L
cp
S
GR
GS
0.851 0.325 0.098 RC
1 LJ
N
412.5 335.5 M
411.621 333.379 L
409.5 332.5 L
407.379 333.379 L
406.5 335.5 L
407.379 337.621 L
409.5 338.5 L
411.621 337.621 L
cp
S
GR
GS
0.851 0.325 0.098 RC
1 LJ
N
424.5 353.5 M
423.621 351.379 L
421.5 350.5 L
419.379 351.379 L
418.5 353.5 L
419.379 355.621 L
421.5 356.5 L
423.621 355.621 L
cp
S
GR
GS
0.929 0.694 0.125 RC
1 LJ
N
86.162 74.437 M
97.325 83.853 L
108.488 92.36 L
119.65 99.957 L
130.813 106.58 L
141.975 112.527 L
153.137 118.063 L
164.3 123.443 L
175.462 128.823 L
186.625 134.297 L
197.788 139.934 L
208.95 145.768 L
220.112 151.85 L
231.275 158.202 L
242.438 164.885 L
253.6 171.911 L
264.763 179.364 L
275.925 187.244 L
287.087 195.645 L
298.25 204.57 L
309.412 214.128 L
320.575 224.304 L
331.737 235.226 L
342.9 246.856 L
354.063 259.335 L
365.225 272.68 L
376.388 286.88 L
387.55 302.204 L
398.713 318.048 L
409.875 335.327 L
421.037 352.601 L
S
GR
GS
0.929 0.694 0.125 RC
1 LJ
N
89.5 74.5 M
88.621 72.379 L
86.5 71.5 L
84.379 72.379 L
83.5 74.5 L
84.379 76.621 L
86.5 77.5 L
88.621 76.621 L
cp
S
GR
GS
0.929 0.694 0.125 RC
1 LJ
N
100.5 83.5 M
99.621 81.379 L
97.5 80.5 L
95.379 81.379 L
94.5 83.5 L
95.379 85.621 L
97.5 86.5 L
99.621 85.621 L
cp
S
GR
GS
0.929 0.694 0.125 RC
1 LJ
N
111.5 92.5 M
110.621 90.379 L
108.5 89.5 L
106.379 90.379 L
105.5 92.5 L
106.379 94.621 L
108.5 95.5 L
110.621 94.621 L
cp
S
GR
GS
0.929 0.694 0.125 RC
1 LJ
N
122.5 99.5 M
121.621 97.379 L
119.5 96.5 L
117.379 97.379 L
116.5 99.5 L
117.379 101.621 L
119.5 102.5 L
121.621 101.621 L
cp
S
GR
GS
0.929 0.694 0.125 RC
1 LJ
N
133.5 106.5 M
132.621 104.379 L
130.5 103.5 L
128.379 104.379 L
127.5 106.5 L
128.379 108.621 L
130.5 109.5 L
132.621 108.621 L
cp
S
GR
GS
0.929 0.694 0.125 RC
1 LJ
N
144.5 112.5 M
143.621 110.379 L
141.5 109.5 L
139.379 110.379 L
138.5 112.5 L
139.379 114.621 L
141.5 115.5 L
143.621 114.621 L
cp
S
GR
GS
0.929 0.694 0.125 RC
1 LJ
N
156.5 118.5 M
155.621 116.379 L
153.5 115.5 L
151.379 116.379 L
150.5 118.5 L
151.379 120.621 L
153.5 121.5 L
155.621 120.621 L
cp
S
GR
GS
0.929 0.694 0.125 RC
1 LJ
N
167.5 123.5 M
166.621 121.379 L
164.5 120.5 L
162.379 121.379 L
161.5 123.5 L
162.379 125.621 L
164.5 126.5 L
166.621 125.621 L
cp
S
GR
GS
0.929 0.694 0.125 RC
1 LJ
N
178.5 128.5 M
177.621 126.379 L
175.5 125.5 L
173.379 126.379 L
172.5 128.5 L
173.379 130.621 L
175.5 131.5 L
177.621 130.621 L
cp
S
GR
GS
0.929 0.694 0.125 RC
1 LJ
N
189.5 134.5 M
188.621 132.379 L
186.5 131.5 L
184.379 132.379 L
183.5 134.5 L
184.379 136.621 L
186.5 137.5 L
188.621 136.621 L
cp
S
GR
GS
0.929 0.694 0.125 RC
1 LJ
N
200.5 139.5 M
199.621 137.379 L
197.5 136.5 L
195.379 137.379 L
194.5 139.5 L
195.379 141.621 L
197.5 142.5 L
199.621 141.621 L
cp
S
GR
GS
0.929 0.694 0.125 RC
1 LJ
N
211.5 145.5 M
210.621 143.379 L
208.5 142.5 L
206.379 143.379 L
205.5 145.5 L
206.379 147.621 L
208.5 148.5 L
210.621 147.621 L
cp
S
GR
GS
0.929 0.694 0.125 RC
1 LJ
N
223.5 151.5 M
222.621 149.379 L
220.5 148.5 L
218.379 149.379 L
217.5 151.5 L
218.379 153.621 L
220.5 154.5 L
222.621 153.621 L
cp
S
GR
GS
0.929 0.694 0.125 RC
1 LJ
N
234.5 158.5 M
233.621 156.379 L
231.5 155.5 L
229.379 156.379 L
228.5 158.5 L
229.379 160.621 L
231.5 161.5 L
233.621 160.621 L
cp
S
GR
GS
0.929 0.694 0.125 RC
1 LJ
N
245.5 164.5 M
244.621 162.379 L
242.5 161.5 L
240.379 162.379 L
239.5 164.5 L
240.379 166.621 L
242.5 167.5 L
244.621 166.621 L
cp
S
GR
GS
0.929 0.694 0.125 RC
1 LJ
N
256.5 171.5 M
255.621 169.379 L
253.5 168.5 L
251.379 169.379 L
250.5 171.5 L
251.379 173.621 L
253.5 174.5 L
255.621 173.621 L
cp
S
GR
GS
0.929 0.694 0.125 RC
1 LJ
N
267.5 179.5 M
266.621 177.379 L
264.5 176.5 L
262.379 177.379 L
261.5 179.5 L
262.379 181.621 L
264.5 182.5 L
266.621 181.621 L
cp
S
GR
GS
0.929 0.694 0.125 RC
1 LJ
N
278.5 187.5 M
277.621 185.379 L
275.5 184.5 L
273.379 185.379 L
272.5 187.5 L
273.379 189.621 L
275.5 190.5 L
277.621 189.621 L
cp
S
GR
GS
0.929 0.694 0.125 RC
1 LJ
N
290.5 195.5 M
289.621 193.379 L
287.5 192.5 L
285.379 193.379 L
284.5 195.5 L
285.379 197.621 L
287.5 198.5 L
289.621 197.621 L
cp
S
GR
GS
0.929 0.694 0.125 RC
1 LJ
N
301.5 204.5 M
300.621 202.379 L
298.5 201.5 L
296.379 202.379 L
295.5 204.5 L
296.379 206.621 L
298.5 207.5 L
300.621 206.621 L
cp
S
GR
GS
0.929 0.694 0.125 RC
1 LJ
N
312.5 214.5 M
311.621 212.379 L
309.5 211.5 L
307.379 212.379 L
306.5 214.5 L
307.379 216.621 L
309.5 217.5 L
311.621 216.621 L
cp
S
GR
GS
0.929 0.694 0.125 RC
1 LJ
N
323.5 224.5 M
322.621 222.379 L
320.5 221.5 L
318.379 222.379 L
317.5 224.5 L
318.379 226.621 L
320.5 227.5 L
322.621 226.621 L
cp
S
GR
GS
0.929 0.694 0.125 RC
1 LJ
N
334.5 235.5 M
333.621 233.379 L
331.5 232.5 L
329.379 233.379 L
328.5 235.5 L
329.379 237.621 L
331.5 238.5 L
333.621 237.621 L
cp
S
GR
GS
0.929 0.694 0.125 RC
1 LJ
N
345.5 246.5 M
344.621 244.379 L
342.5 243.5 L
340.379 244.379 L
339.5 246.5 L
340.379 248.621 L
342.5 249.5 L
344.621 248.621 L
cp
S
GR
GS
0.929 0.694 0.125 RC
1 LJ
N
357.5 259.5 M
356.621 257.379 L
354.5 256.5 L
352.379 257.379 L
351.5 259.5 L
352.379 261.621 L
354.5 262.5 L
356.621 261.621 L
cp
S
GR
GS
0.929 0.694 0.125 RC
1 LJ
N
368.5 272.5 M
367.621 270.379 L
365.5 269.5 L
363.379 270.379 L
362.5 272.5 L
363.379 274.621 L
365.5 275.5 L
367.621 274.621 L
cp
S
GR
GS
0.929 0.694 0.125 RC
1 LJ
N
379.5 286.5 M
378.621 284.379 L
376.5 283.5 L
374.379 284.379 L
373.5 286.5 L
374.379 288.621 L
376.5 289.5 L
378.621 288.621 L
cp
S
GR
GS
0.929 0.694 0.125 RC
1 LJ
N
390.5 302.5 M
389.621 300.379 L
387.5 299.5 L
385.379 300.379 L
384.5 302.5 L
385.379 304.621 L
387.5 305.5 L
389.621 304.621 L
cp
S
GR
GS
0.929 0.694 0.125 RC
1 LJ
N
401.5 318.5 M
400.621 316.379 L
398.5 315.5 L
396.379 316.379 L
395.5 318.5 L
396.379 320.621 L
398.5 321.5 L
400.621 320.621 L
cp
S
GR
GS
0.929 0.694 0.125 RC
1 LJ
N
412.5 335.5 M
411.621 333.379 L
409.5 332.5 L
407.379 333.379 L
406.5 335.5 L
407.379 337.621 L
409.5 338.5 L
411.621 337.621 L
cp
S
GR
GS
0.929 0.694 0.125 RC
1 LJ
N
424.5 352.5 M
423.621 350.379 L
421.5 349.5 L
419.379 350.379 L
418.5 352.5 L
419.379 354.621 L
421.5 355.5 L
423.621 354.621 L
cp
S
GR
GS
[1 0 0 1 266 53.75] CT
/Helvetica 18 F
GS
[1 0 0 1 0 0] CT
0 4.5 moveto 
1 -1 scale
(Random shuffling without repl.) t 
GR
GR
GS
0 0.447 0.741 RC
1 LJ
N
233 53.75 M
263 53.75 L
S
GR
GS
0 0.447 0.741 RC
1 LJ
N
250.5 53.5 M
249.621 51.379 L
247.5 50.5 L
245.379 51.379 L
244.5 53.5 L
245.379 55.621 L
247.5 56.5 L
249.621 55.621 L
cp
S
GR
GS
[1 0 0 1 266 72.75] CT
/Helvetica 18 F
GS
[1 0 0 1 0 0] CT
0 4.5 moveto 
1 -1 scale
(Out-shuffle) t 
GR
GR
GS
0.851 0.325 0.098 RC
1 LJ
N
233 72.75 M
263 72.75 L
S
GR
GS
0.851 0.325 0.098 RC
1 LJ
N
250.5 72.5 M
249.621 70.379 L
247.5 69.5 L
245.379 70.379 L
244.5 72.5 L
245.379 74.621 L
247.5 75.5 L
249.621 74.621 L
cp
S
GR
GS
[1 0 0 1 266 91.75] CT
/Helvetica 18 F
GS
[1 0 0 1 0 0] CT
0 4.5 moveto 
1 -1 scale
(In-shuffle) t 
GR
GR
GS
0.929 0.694 0.125 RC
1 LJ
N
233 91.75 M
263 91.75 L
S
GR
GS
0.929 0.694 0.125 RC
1 LJ
N
250.5 91.5 M
249.621 89.379 L
247.5 88.5 L
245.379 89.379 L
244.5 91.5 L
245.379 93.621 L
247.5 94.5 L
249.621 93.621 L
cp
S
GR
%%Trailer
%%Pages: 1
%%EOF
