%!PS-Adobe-3.0 EPSF-3.0
%%Creator: (MATLAB, The Mathworks, Inc. Version 8.6.0.267246 \(R2015b\). Operating System: Mac OS X)
%%Title: /Users/gauthiermuguerza/Desktop/rsgd/code/four.eps
%%CreationDate: 2018-05-23T15:32:46
%%Pages: (atend)
%%BoundingBox: 0 0 560 420
%%LanguageLevel: 2
%%EndComments
%%BeginProlog
%%BeginResource: procset (Apache XML Graphics Std ProcSet) 1.2 0
%%Version: 1.2 0
%%Copyright: (Copyright 2001-2003,2010 The Apache Software Foundation. License terms: http://www.apache.org/licenses/LICENSE-2.0)
/bd{bind def}bind def
/ld{load def}bd
/GR/grestore ld
/M/moveto ld
/LJ/setlinejoin ld
/C/curveto ld
/f/fill ld
/LW/setlinewidth ld
/GC/setgray ld
/t/show ld
/N/newpath ld
/CT/concat ld
/cp/closepath ld
/S/stroke ld
/L/lineto ld
/CC/setcmykcolor ld
/A/ashow ld
/GS/gsave ld
/RC/setrgbcolor ld
/RM/rmoveto ld
/ML/setmiterlimit ld
/re {4 2 roll M
1 index 0 rlineto
0 exch rlineto
neg 0 rlineto
cp } bd
/_ctm matrix def
/_tm matrix def
/BT { _ctm currentmatrix pop matrix _tm copy pop 0 0 moveto } bd
/ET { _ctm setmatrix } bd
/iTm { _ctm setmatrix _tm concat } bd
/Tm { _tm astore pop iTm 0 0 moveto } bd
/ux 0.0 def
/uy 0.0 def
/F {
  /Tp exch def
  /Tf exch def
  Tf findfont Tp scalefont setfont
  /cf Tf def  /cs Tp def
} bd
/ULS {currentpoint /uy exch def /ux exch def} bd
/ULE {
  /Tcx currentpoint pop def
  gsave
  newpath
  cf findfont cs scalefont dup
  /FontMatrix get 0 get /Ts exch def /FontInfo get dup
  /UnderlinePosition get Ts mul /To exch def
  /UnderlineThickness get Ts mul /Tt exch def
  ux uy To add moveto  Tcx uy To add lineto
  Tt setlinewidth stroke
  grestore
} bd
/OLE {
  /Tcx currentpoint pop def
  gsave
  newpath
  cf findfont cs scalefont dup
  /FontMatrix get 0 get /Ts exch def /FontInfo get dup
  /UnderlinePosition get Ts mul /To exch def
  /UnderlineThickness get Ts mul /Tt exch def
  ux uy To add cs add moveto Tcx uy To add cs add lineto
  Tt setlinewidth stroke
  grestore
} bd
/SOE {
  /Tcx currentpoint pop def
  gsave
  newpath
  cf findfont cs scalefont dup
  /FontMatrix get 0 get /Ts exch def /FontInfo get dup
  /UnderlinePosition get Ts mul /To exch def
  /UnderlineThickness get Ts mul /Tt exch def
  ux uy To add cs 10 mul 26 idiv add moveto Tcx uy To add cs 10 mul 26 idiv add lineto
  Tt setlinewidth stroke
  grestore
} bd
/QT {
/Y22 exch store
/X22 exch store
/Y21 exch store
/X21 exch store
currentpoint
/Y21 load 2 mul add 3 div exch
/X21 load 2 mul add 3 div exch
/X21 load 2 mul /X22 load add 3 div
/Y21 load 2 mul /Y22 load add 3 div
/X22 load /Y22 load curveto
} bd
/SSPD {
dup length /d exch dict def
{
/v exch def
/k exch def
currentpagedevice k known {
/cpdv currentpagedevice k get def
v cpdv ne {
/upd false def
/nullv v type /nulltype eq def
/nullcpdv cpdv type /nulltype eq def
nullv nullcpdv or
{
/upd true def
} {
/sametype v type cpdv type eq def
sametype {
v type /arraytype eq {
/vlen v length def
/cpdvlen cpdv length def
vlen cpdvlen eq {
0 1 vlen 1 sub {
/i exch def
/obj v i get def
/cpdobj cpdv i get def
obj cpdobj ne {
/upd true def
exit
} if
} for
} {
/upd true def
} ifelse
} {
v type /dicttype eq {
v {
/dv exch def
/dk exch def
/cpddv cpdv dk get def
dv cpddv ne {
/upd true def
exit
} if
} forall
} {
/upd true def
} ifelse
} ifelse
} if
} ifelse
upd true eq {
d k v put
} if
} if
} if
} forall
d length 0 gt {
d setpagedevice
} if
} bd
%%EndResource
%%BeginResource: procset (Apache XML Graphics EPS ProcSet) 1.0 0
%%Version: 1.0 0
%%Copyright: (Copyright 2002-2003 The Apache Software Foundation. License terms: http://www.apache.org/licenses/LICENSE-2.0)
/BeginEPSF { %def
/b4_Inc_state save def         % Save state for cleanup
/dict_count countdictstack def % Count objects on dict stack
/op_count count 1 sub def      % Count objects on operand stack
userdict begin                 % Push userdict on dict stack
/showpage { } def              % Redefine showpage, { } = null proc
0 setgray 0 setlinecap         % Prepare graphics state
1 setlinewidth 0 setlinejoin
10 setmiterlimit [ ] 0 setdash newpath
/languagelevel where           % If level not equal to 1 then
{pop languagelevel             % set strokeadjust and
1 ne                           % overprint to their defaults.
{false setstrokeadjust false setoverprint
} if
} if
} bd
/EndEPSF { %def
count op_count sub {pop} repeat            % Clean up stacks
countdictstack dict_count sub {end} repeat
b4_Inc_state restore
} bd
%%EndResource
%FOPBeginFontDict
%%IncludeResource: font Courier-Bold
%%IncludeResource: font Helvetica
%%IncludeResource: font Courier-BoldOblique
%%IncludeResource: font Courier-Oblique
%%IncludeResource: font Times-Roman
%%IncludeResource: font Helvetica-BoldOblique
%%IncludeResource: font Helvetica-Bold
%%IncludeResource: font Helvetica-Oblique
%%IncludeResource: font Times-BoldItalic
%%IncludeResource: font Courier
%%IncludeResource: font Times-Italic
%%IncludeResource: font Times-Bold
%%IncludeResource: font Symbol
%%IncludeResource: font ZapfDingbats
%FOPEndFontDict
%%BeginResource: encoding WinAnsiEncoding
/WinAnsiEncoding [
/.notdef /.notdef /.notdef /.notdef /.notdef
/.notdef /.notdef /.notdef /.notdef /.notdef
/.notdef /.notdef /.notdef /.notdef /.notdef
/.notdef /.notdef /.notdef /.notdef /.notdef
/.notdef /.notdef /.notdef /.notdef /.notdef
/.notdef /.notdef /.notdef /.notdef /.notdef
/.notdef /.notdef /space /exclam /quotedbl
/numbersign /dollar /percent /ampersand /quotesingle
/parenleft /parenright /asterisk /plus /comma
/hyphen /period /slash /zero /one
/two /three /four /five /six
/seven /eight /nine /colon /semicolon
/less /equal /greater /question /at
/A /B /C /D /E
/F /G /H /I /J
/K /L /M /N /O
/P /Q /R /S /T
/U /V /W /X /Y
/Z /bracketleft /backslash /bracketright /asciicircum
/underscore /quoteleft /a /b /c
/d /e /f /g /h
/i /j /k /l /m
/n /o /p /q /r
/s /t /u /v /w
/x /y /z /braceleft /bar
/braceright /asciitilde /bullet /Euro /bullet
/quotesinglbase /florin /quotedblbase /ellipsis /dagger
/daggerdbl /circumflex /perthousand /Scaron /guilsinglleft
/OE /bullet /Zcaron /bullet /bullet
/quoteleft /quoteright /quotedblleft /quotedblright /bullet
/endash /emdash /asciitilde /trademark /scaron
/guilsinglright /oe /bullet /zcaron /Ydieresis
/space /exclamdown /cent /sterling /currency
/yen /brokenbar /section /dieresis /copyright
/ordfeminine /guillemotleft /logicalnot /sfthyphen /registered
/macron /degree /plusminus /twosuperior /threesuperior
/acute /mu /paragraph /middot /cedilla
/onesuperior /ordmasculine /guillemotright /onequarter /onehalf
/threequarters /questiondown /Agrave /Aacute /Acircumflex
/Atilde /Adieresis /Aring /AE /Ccedilla
/Egrave /Eacute /Ecircumflex /Edieresis /Igrave
/Iacute /Icircumflex /Idieresis /Eth /Ntilde
/Ograve /Oacute /Ocircumflex /Otilde /Odieresis
/multiply /Oslash /Ugrave /Uacute /Ucircumflex
/Udieresis /Yacute /Thorn /germandbls /agrave
/aacute /acircumflex /atilde /adieresis /aring
/ae /ccedilla /egrave /eacute /ecircumflex
/edieresis /igrave /iacute /icircumflex /idieresis
/eth /ntilde /ograve /oacute /ocircumflex
/otilde /odieresis /divide /oslash /ugrave
/uacute /ucircumflex /udieresis /yacute /thorn
/ydieresis
] def
%%EndResource
%FOPBeginFontReencode
/Courier-Bold findfont
dup length dict begin
  {1 index /FID ne {def} {pop pop} ifelse} forall
  /Encoding WinAnsiEncoding def
  currentdict
end
/Courier-Bold exch definefont pop
/Helvetica findfont
dup length dict begin
  {1 index /FID ne {def} {pop pop} ifelse} forall
  /Encoding WinAnsiEncoding def
  currentdict
end
/Helvetica exch definefont pop
/Courier-BoldOblique findfont
dup length dict begin
  {1 index /FID ne {def} {pop pop} ifelse} forall
  /Encoding WinAnsiEncoding def
  currentdict
end
/Courier-BoldOblique exch definefont pop
/Courier-Oblique findfont
dup length dict begin
  {1 index /FID ne {def} {pop pop} ifelse} forall
  /Encoding WinAnsiEncoding def
  currentdict
end
/Courier-Oblique exch definefont pop
/Times-Roman findfont
dup length dict begin
  {1 index /FID ne {def} {pop pop} ifelse} forall
  /Encoding WinAnsiEncoding def
  currentdict
end
/Times-Roman exch definefont pop
/Helvetica-BoldOblique findfont
dup length dict begin
  {1 index /FID ne {def} {pop pop} ifelse} forall
  /Encoding WinAnsiEncoding def
  currentdict
end
/Helvetica-BoldOblique exch definefont pop
/Helvetica-Bold findfont
dup length dict begin
  {1 index /FID ne {def} {pop pop} ifelse} forall
  /Encoding WinAnsiEncoding def
  currentdict
end
/Helvetica-Bold exch definefont pop
/Helvetica-Oblique findfont
dup length dict begin
  {1 index /FID ne {def} {pop pop} ifelse} forall
  /Encoding WinAnsiEncoding def
  currentdict
end
/Helvetica-Oblique exch definefont pop
/Times-BoldItalic findfont
dup length dict begin
  {1 index /FID ne {def} {pop pop} ifelse} forall
  /Encoding WinAnsiEncoding def
  currentdict
end
/Times-BoldItalic exch definefont pop
/Courier findfont
dup length dict begin
  {1 index /FID ne {def} {pop pop} ifelse} forall
  /Encoding WinAnsiEncoding def
  currentdict
end
/Courier exch definefont pop
/Times-Italic findfont
dup length dict begin
  {1 index /FID ne {def} {pop pop} ifelse} forall
  /Encoding WinAnsiEncoding def
  currentdict
end
/Times-Italic exch definefont pop
/Times-Bold findfont
dup length dict begin
  {1 index /FID ne {def} {pop pop} ifelse} forall
  /Encoding WinAnsiEncoding def
  currentdict
end
/Times-Bold exch definefont pop
%FOPEndFontReencode
%%EndProlog
%%Page: 1 1
%%PageBoundingBox: 0 0 560 420
%%BeginPageSetup
[1 0 0 -1 0 420] CT
%%EndPageSetup
GS
1 GC
N
0 0 560 420 re
f
GR
GS
1 GC
N
0 0 560 420 re
f
GR
GS
1 GC
N
73 374 M
507 374 L
507 31.5 L
73 31.5 L
cp
f
GR
GS
0.149 GC
2 setlinecap
1 LJ
0.5 LW
N
73 374 M
507 374 L
S
GR
GS
0.149 GC
2 setlinecap
1 LJ
0.5 LW
N
73 374 M
73 369.66 L
S
GR
GS
0.149 GC
2 setlinecap
1 LJ
0.5 LW
N
121.222 374 M
121.222 369.66 L
S
GR
GS
0.149 GC
2 setlinecap
1 LJ
0.5 LW
N
169.444 374 M
169.444 369.66 L
S
GR
GS
0.149 GC
2 setlinecap
1 LJ
0.5 LW
N
217.667 374 M
217.667 369.66 L
S
GR
GS
0.149 GC
2 setlinecap
1 LJ
0.5 LW
N
265.889 374 M
265.889 369.66 L
S
GR
GS
0.149 GC
2 setlinecap
1 LJ
0.5 LW
N
314.111 374 M
314.111 369.66 L
S
GR
GS
0.149 GC
2 setlinecap
1 LJ
0.5 LW
N
362.333 374 M
362.333 369.66 L
S
GR
GS
0.149 GC
2 setlinecap
1 LJ
0.5 LW
N
410.556 374 M
410.556 369.66 L
S
GR
GS
0.149 GC
2 setlinecap
1 LJ
0.5 LW
N
458.778 374 M
458.778 369.66 L
S
GR
GS
0.149 GC
2 setlinecap
1 LJ
0.5 LW
N
507 374 M
507 369.66 L
S
GR
GS
[1 0 0 1 73 378] CT
0.149 GC
/Helvetica 10 F
GS
[1 0 0 1 0 0] CT
-3 8 moveto 
1 -1 scale
(0) t 
GR
GR
GS
[1 0 0 1 121.22222 378] CT
0.149 GC
/Helvetica 10 F
GS
[1 0 0 1 0 0] CT
-3 8 moveto 
1 -1 scale
(2) t 
GR
GR
GS
[1 0 0 1 169.44444 378] CT
0.149 GC
/Helvetica 10 F
GS
[1 0 0 1 0 0] CT
-3 8 moveto 
1 -1 scale
(4) t 
GR
GR
GS
[1 0 0 1 217.66667 378] CT
0.149 GC
/Helvetica 10 F
GS
[1 0 0 1 0 0] CT
-3 8 moveto 
1 -1 scale
(6) t 
GR
GR
GS
[1 0 0 1 265.88889 378] CT
0.149 GC
/Helvetica 10 F
GS
[1 0 0 1 0 0] CT
-3 8 moveto 
1 -1 scale
(8) t 
GR
GR
GS
[1 0 0 1 314.11111 378] CT
0.149 GC
/Helvetica 10 F
GS
[1 0 0 1 0 0] CT
-6 8 moveto 
1 -1 scale
(10) t 
GR
GR
GS
[1 0 0 1 362.33334 378] CT
0.149 GC
/Helvetica 10 F
GS
[1 0 0 1 0 0] CT
-6 8 moveto 
1 -1 scale
(12) t 
GR
GR
GS
[1 0 0 1 410.55557 378] CT
0.149 GC
/Helvetica 10 F
GS
[1 0 0 1 0 0] CT
-6 8 moveto 
1 -1 scale
(14) t 
GR
GR
GS
[1 0 0 1 458.77777 378] CT
0.149 GC
/Helvetica 10 F
GS
[1 0 0 1 0 0] CT
-6 8 moveto 
1 -1 scale
(16) t 
GR
GR
GS
[1 0 0 1 507 378] CT
0.149 GC
/Helvetica 10 F
GS
[1 0 0 1 0 0] CT
-6 8 moveto 
1 -1 scale
(18) t 
GR
GR
GS
[1 0 0 1 290.00021 389.5] CT
0.149 GC
/Helvetica 11 F
GS
[1 0 0 1 0 0] CT
-23 9 moveto 
1 -1 scale
(Iterations) t 
GR
GR
GS
0.149 GC
2 setlinecap
1 LJ
0.5 LW
N
73 374 M
73 31.5 L
S
GR
GS
0.149 GC
2 setlinecap
1 LJ
0.5 LW
N
73 374 M
77.34 374 L
S
GR
GS
0.149 GC
2 setlinecap
1 LJ
0.5 LW
N
73 325.071 M
77.34 325.071 L
S
GR
GS
0.149 GC
2 setlinecap
1 LJ
0.5 LW
N
73 276.143 M
77.34 276.143 L
S
GR
GS
0.149 GC
2 setlinecap
1 LJ
0.5 LW
N
73 227.214 M
77.34 227.214 L
S
GR
GS
0.149 GC
2 setlinecap
1 LJ
0.5 LW
N
73 178.286 M
77.34 178.286 L
S
GR
GS
0.149 GC
2 setlinecap
1 LJ
0.5 LW
N
73 129.357 M
77.34 129.357 L
S
GR
GS
0.149 GC
2 setlinecap
1 LJ
0.5 LW
N
73 80.429 M
77.34 80.429 L
S
GR
GS
0.149 GC
2 setlinecap
1 LJ
0.5 LW
N
73 31.5 M
77.34 31.5 L
S
GR
GS
0.149 GC
2 setlinecap
1 LJ
0.5 LW
N
73 359.271 M
75.17 359.271 L
S
GR
GS
0.149 GC
2 setlinecap
1 LJ
0.5 LW
N
73 350.655 M
75.17 350.655 L
S
GR
GS
0.149 GC
2 setlinecap
1 LJ
0.5 LW
N
73 344.542 M
75.17 344.542 L
S
GR
GS
0.149 GC
2 setlinecap
1 LJ
0.5 LW
N
73 339.8 M
75.17 339.8 L
S
GR
GS
0.149 GC
2 setlinecap
1 LJ
0.5 LW
N
73 335.926 M
75.17 335.926 L
S
GR
GS
0.149 GC
2 setlinecap
1 LJ
0.5 LW
N
73 332.651 M
75.17 332.651 L
S
GR
GS
0.149 GC
2 setlinecap
1 LJ
0.5 LW
N
73 329.813 M
75.17 329.813 L
S
GR
GS
0.149 GC
2 setlinecap
1 LJ
0.5 LW
N
73 327.31 M
75.17 327.31 L
S
GR
GS
0.149 GC
2 setlinecap
1 LJ
0.5 LW
N
73 310.342 M
75.17 310.342 L
S
GR
GS
0.149 GC
2 setlinecap
1 LJ
0.5 LW
N
73 301.727 M
75.17 301.727 L
S
GR
GS
0.149 GC
2 setlinecap
1 LJ
0.5 LW
N
73 295.613 M
75.17 295.613 L
S
GR
GS
0.149 GC
2 setlinecap
1 LJ
0.5 LW
N
73 290.872 M
75.17 290.872 L
S
GR
GS
0.149 GC
2 setlinecap
1 LJ
0.5 LW
N
73 286.998 M
75.17 286.998 L
S
GR
GS
0.149 GC
2 setlinecap
1 LJ
0.5 LW
N
73 283.722 M
75.17 283.722 L
S
GR
GS
0.149 GC
2 setlinecap
1 LJ
0.5 LW
N
73 280.885 M
75.17 280.885 L
S
GR
GS
0.149 GC
2 setlinecap
1 LJ
0.5 LW
N
73 278.382 M
75.17 278.382 L
S
GR
GS
0.149 GC
2 setlinecap
1 LJ
0.5 LW
N
73 261.414 M
75.17 261.414 L
S
GR
GS
0.149 GC
2 setlinecap
1 LJ
0.5 LW
N
73 252.798 M
75.17 252.798 L
S
GR
GS
0.149 GC
2 setlinecap
1 LJ
0.5 LW
N
73 246.685 M
75.17 246.685 L
S
GR
GS
0.149 GC
2 setlinecap
1 LJ
0.5 LW
N
73 241.943 M
75.17 241.943 L
S
GR
GS
0.149 GC
2 setlinecap
1 LJ
0.5 LW
N
73 238.069 M
75.17 238.069 L
S
GR
GS
0.149 GC
2 setlinecap
1 LJ
0.5 LW
N
73 234.793 M
75.17 234.793 L
S
GR
GS
0.149 GC
2 setlinecap
1 LJ
0.5 LW
N
73 231.956 M
75.17 231.956 L
S
GR
GS
0.149 GC
2 setlinecap
1 LJ
0.5 LW
N
73 229.453 M
75.17 229.453 L
S
GR
GS
0.149 GC
2 setlinecap
1 LJ
0.5 LW
N
73 212.485 M
75.17 212.485 L
S
GR
GS
0.149 GC
2 setlinecap
1 LJ
0.5 LW
N
73 203.869 M
75.17 203.869 L
S
GR
GS
0.149 GC
2 setlinecap
1 LJ
0.5 LW
N
73 197.756 M
75.17 197.756 L
S
GR
GS
0.149 GC
2 setlinecap
1 LJ
0.5 LW
N
73 193.015 M
75.17 193.015 L
S
GR
GS
0.149 GC
2 setlinecap
1 LJ
0.5 LW
N
73 189.14 M
75.17 189.14 L
S
GR
GS
0.149 GC
2 setlinecap
1 LJ
0.5 LW
N
73 185.865 M
75.17 185.865 L
S
GR
GS
0.149 GC
2 setlinecap
1 LJ
0.5 LW
N
73 183.027 M
75.17 183.027 L
S
GR
GS
0.149 GC
2 setlinecap
1 LJ
0.5 LW
N
73 180.525 M
75.17 180.525 L
S
GR
GS
0.149 GC
2 setlinecap
1 LJ
0.5 LW
N
73 163.557 M
75.17 163.557 L
S
GR
GS
0.149 GC
2 setlinecap
1 LJ
0.5 LW
N
73 154.941 M
75.17 154.941 L
S
GR
GS
0.149 GC
2 setlinecap
1 LJ
0.5 LW
N
73 148.828 M
75.17 148.828 L
S
GR
GS
0.149 GC
2 setlinecap
1 LJ
0.5 LW
N
73 144.086 M
75.17 144.086 L
S
GR
GS
0.149 GC
2 setlinecap
1 LJ
0.5 LW
N
73 140.212 M
75.17 140.212 L
S
GR
GS
0.149 GC
2 setlinecap
1 LJ
0.5 LW
N
73 136.936 M
75.17 136.936 L
S
GR
GS
0.149 GC
2 setlinecap
1 LJ
0.5 LW
N
73 134.099 M
75.17 134.099 L
S
GR
GS
0.149 GC
2 setlinecap
1 LJ
0.5 LW
N
73 131.596 M
75.17 131.596 L
S
GR
GS
0.149 GC
2 setlinecap
1 LJ
0.5 LW
N
73 114.628 M
75.17 114.628 L
S
GR
GS
0.149 GC
2 setlinecap
1 LJ
0.5 LW
N
73 106.012 M
75.17 106.012 L
S
GR
GS
0.149 GC
2 setlinecap
1 LJ
0.5 LW
N
73 99.899 M
75.17 99.899 L
S
GR
GS
0.149 GC
2 setlinecap
1 LJ
0.5 LW
N
73 95.158 M
75.17 95.158 L
S
GR
GS
0.149 GC
2 setlinecap
1 LJ
0.5 LW
N
73 91.283 M
75.17 91.283 L
S
GR
GS
0.149 GC
2 setlinecap
1 LJ
0.5 LW
N
73 88.008 M
75.17 88.008 L
S
GR
GS
0.149 GC
2 setlinecap
1 LJ
0.5 LW
N
73 85.17 M
75.17 85.17 L
S
GR
GS
0.149 GC
2 setlinecap
1 LJ
0.5 LW
N
73 82.667 M
75.17 82.667 L
S
GR
GS
0.149 GC
2 setlinecap
1 LJ
0.5 LW
N
73 65.7 M
75.17 65.7 L
S
GR
GS
0.149 GC
2 setlinecap
1 LJ
0.5 LW
N
73 57.084 M
75.17 57.084 L
S
GR
GS
0.149 GC
2 setlinecap
1 LJ
0.5 LW
N
73 50.971 M
75.17 50.971 L
S
GR
GS
0.149 GC
2 setlinecap
1 LJ
0.5 LW
N
73 46.229 M
75.17 46.229 L
S
GR
GS
0.149 GC
2 setlinecap
1 LJ
0.5 LW
N
73 42.355 M
75.17 42.355 L
S
GR
GS
0.149 GC
2 setlinecap
1 LJ
0.5 LW
N
73 39.079 M
75.17 39.079 L
S
GR
GS
0.149 GC
2 setlinecap
1 LJ
0.5 LW
N
73 36.242 M
75.17 36.242 L
S
GR
GS
0.149 GC
2 setlinecap
1 LJ
0.5 LW
N
73 33.739 M
75.17 33.739 L
S
GR
GS
[1 0 0 1 49 379] CT
0.149 GC
/Helvetica 10 F
GS
[1 0 0 1 0 0] CT
0 0 moveto 
1 -1 scale
(10) t 
GR
GR
GS
[1 0 0 1 61 374] CT
0.149 GC
/Helvetica 8 F
GS
[1 0 0 1 0 0] CT
0 0 moveto 
1 -1 scale
(-6) t 
GR
GR
GS
[1 0 0 1 49 330] CT
0.149 GC
/Helvetica 10 F
GS
[1 0 0 1 0 0] CT
0 0 moveto 
1 -1 scale
(10) t 
GR
GR
GS
[1 0 0 1 61 325] CT
0.149 GC
/Helvetica 8 F
GS
[1 0 0 1 0 0] CT
0 0 moveto 
1 -1 scale
(-5) t 
GR
GR
GS
[1 0 0 1 49 281] CT
0.149 GC
/Helvetica 10 F
GS
[1 0 0 1 0 0] CT
0 0 moveto 
1 -1 scale
(10) t 
GR
GR
GS
[1 0 0 1 61 276] CT
0.149 GC
/Helvetica 8 F
GS
[1 0 0 1 0 0] CT
0 0 moveto 
1 -1 scale
(-4) t 
GR
GR
GS
[1 0 0 1 49 232] CT
0.149 GC
/Helvetica 10 F
GS
[1 0 0 1 0 0] CT
0 0 moveto 
1 -1 scale
(10) t 
GR
GR
GS
[1 0 0 1 61 227] CT
0.149 GC
/Helvetica 8 F
GS
[1 0 0 1 0 0] CT
0 0 moveto 
1 -1 scale
(-3) t 
GR
GR
GS
[1 0 0 1 49 183] CT
0.149 GC
/Helvetica 10 F
GS
[1 0 0 1 0 0] CT
0 0 moveto 
1 -1 scale
(10) t 
GR
GR
GS
[1 0 0 1 61 178] CT
0.149 GC
/Helvetica 8 F
GS
[1 0 0 1 0 0] CT
0 0 moveto 
1 -1 scale
(-2) t 
GR
GR
GS
[1 0 0 1 49 134] CT
0.149 GC
/Helvetica 10 F
GS
[1 0 0 1 0 0] CT
0 0 moveto 
1 -1 scale
(10) t 
GR
GR
GS
[1 0 0 1 61 129] CT
0.149 GC
/Helvetica 8 F
GS
[1 0 0 1 0 0] CT
0 0 moveto 
1 -1 scale
(-1) t 
GR
GR
GS
[1 0 0 1 52 85] CT
0.149 GC
/Helvetica 10 F
GS
[1 0 0 1 0 0] CT
0 0 moveto 
1 -1 scale
(10) t 
GR
GR
GS
[1 0 0 1 64 80] CT
0.149 GC
/Helvetica 8 F
GS
[1 0 0 1 0 0] CT
0 0 moveto 
1 -1 scale
(0) t 
GR
GR
GS
[1 0 0 1 52 37] CT
0.149 GC
/Helvetica 10 F
GS
[1 0 0 1 0 0] CT
0 0 moveto 
1 -1 scale
(10) t 
GR
GR
GS
[1 0 0 1 64 32] CT
0.149 GC
/Helvetica 8 F
GS
[1 0 0 1 0 0] CT
0 0 moveto 
1 -1 scale
(1) t 
GR
GR
GS
[0 -1 1 0 47 202.74983] CT
0.149 GC
/Helvetica 11 F
GS
[1 0 0 1 0 0] CT
-58.5 -3 moveto 
1 -1 scale
(Root mean square error) t 
GR
GR
GS
[1 0 0 1 290.00027 30.125] CT
/Helvetica-Bold 11 F
GS
[1 0 0 1 0 0] CT
-136.5 -3 moveto 
1 -1 scale
(100 by 100, rank 5, over-sampling 4, Condition No. 0) t 
GR
GR
GS
0 0.447 0.741 RC
1 LJ
N
97.111 55.745 M
121.222 67.423 L
145.333 83.137 L
169.444 105.273 L
193.556 127.252 L
217.667 146.05 L
241.778 164.009 L
265.889 182.026 L
290 200.607 L
314.111 220.103 L
338.222 240.799 L
362.333 262.883 L
386.444 289.647 L
410.556 323.476 L
S
GR
GS
0 0.447 0.741 RC
1 LJ
N
100.5 55.5 M
99.621 53.379 L
97.5 52.5 L
95.379 53.379 L
94.5 55.5 L
95.379 57.621 L
97.5 58.5 L
99.621 57.621 L
cp
S
GR
GS
0 0.447 0.741 RC
1 LJ
N
124.5 67.5 M
123.621 65.379 L
121.5 64.5 L
119.379 65.379 L
118.5 67.5 L
119.379 69.621 L
121.5 70.5 L
123.621 69.621 L
cp
S
GR
GS
0 0.447 0.741 RC
1 LJ
N
148.5 83.5 M
147.621 81.379 L
145.5 80.5 L
143.379 81.379 L
142.5 83.5 L
143.379 85.621 L
145.5 86.5 L
147.621 85.621 L
cp
S
GR
GS
0 0.447 0.741 RC
1 LJ
N
172.5 105.5 M
171.621 103.379 L
169.5 102.5 L
167.379 103.379 L
166.5 105.5 L
167.379 107.621 L
169.5 108.5 L
171.621 107.621 L
cp
S
GR
GS
0 0.447 0.741 RC
1 LJ
N
196.5 127.5 M
195.621 125.379 L
193.5 124.5 L
191.379 125.379 L
190.5 127.5 L
191.379 129.621 L
193.5 130.5 L
195.621 129.621 L
cp
S
GR
GS
0 0.447 0.741 RC
1 LJ
N
220.5 146.5 M
219.621 144.379 L
217.5 143.5 L
215.379 144.379 L
214.5 146.5 L
215.379 148.621 L
217.5 149.5 L
219.621 148.621 L
cp
S
GR
GS
0 0.447 0.741 RC
1 LJ
N
244.5 164.5 M
243.621 162.379 L
241.5 161.5 L
239.379 162.379 L
238.5 164.5 L
239.379 166.621 L
241.5 167.5 L
243.621 166.621 L
cp
S
GR
GS
0 0.447 0.741 RC
1 LJ
N
268.5 182.5 M
267.621 180.379 L
265.5 179.5 L
263.379 180.379 L
262.5 182.5 L
263.379 184.621 L
265.5 185.5 L
267.621 184.621 L
cp
S
GR
GS
0 0.447 0.741 RC
1 LJ
N
293.5 200.5 M
292.621 198.379 L
290.5 197.5 L
288.379 198.379 L
287.5 200.5 L
288.379 202.621 L
290.5 203.5 L
292.621 202.621 L
cp
S
GR
GS
0 0.447 0.741 RC
1 LJ
N
317.5 220.5 M
316.621 218.379 L
314.5 217.5 L
312.379 218.379 L
311.5 220.5 L
312.379 222.621 L
314.5 223.5 L
316.621 222.621 L
cp
S
GR
GS
0 0.447 0.741 RC
1 LJ
N
341.5 240.5 M
340.621 238.379 L
338.5 237.5 L
336.379 238.379 L
335.5 240.5 L
336.379 242.621 L
338.5 243.5 L
340.621 242.621 L
cp
S
GR
GS
0 0.447 0.741 RC
1 LJ
N
365.5 262.5 M
364.621 260.379 L
362.5 259.5 L
360.379 260.379 L
359.5 262.5 L
360.379 264.621 L
362.5 265.5 L
364.621 264.621 L
cp
S
GR
GS
0 0.447 0.741 RC
1 LJ
N
389.5 289.5 M
388.621 287.379 L
386.5 286.5 L
384.379 287.379 L
383.5 289.5 L
384.379 291.621 L
386.5 292.5 L
388.621 291.621 L
cp
S
GR
GS
0 0.447 0.741 RC
1 LJ
N
413.5 323.5 M
412.621 321.379 L
410.5 320.5 L
408.379 321.379 L
407.5 323.5 L
408.379 325.621 L
410.5 326.5 L
412.621 325.621 L
cp
S
GR
GS
0.851 0.325 0.098 RC
1 LJ
N
97.111 55.745 M
121.222 69.282 L
145.333 87.178 L
169.444 108.812 L
193.556 128.785 L
217.667 146.994 L
241.778 164.217 L
265.889 181.648 L
290 200.072 L
314.111 218.577 L
338.222 237.975 L
362.333 259.108 L
386.444 280.756 L
410.556 320.924 L
S
GR
GS
0.851 0.325 0.098 RC
1 LJ
N
100.5 55.5 M
99.621 53.379 L
97.5 52.5 L
95.379 53.379 L
94.5 55.5 L
95.379 57.621 L
97.5 58.5 L
99.621 57.621 L
cp
S
GR
GS
0.851 0.325 0.098 RC
1 LJ
N
124.5 69.5 M
123.621 67.379 L
121.5 66.5 L
119.379 67.379 L
118.5 69.5 L
119.379 71.621 L
121.5 72.5 L
123.621 71.621 L
cp
S
GR
GS
0.851 0.325 0.098 RC
1 LJ
N
148.5 87.5 M
147.621 85.379 L
145.5 84.5 L
143.379 85.379 L
142.5 87.5 L
143.379 89.621 L
145.5 90.5 L
147.621 89.621 L
cp
S
GR
GS
0.851 0.325 0.098 RC
1 LJ
N
172.5 108.5 M
171.621 106.379 L
169.5 105.5 L
167.379 106.379 L
166.5 108.5 L
167.379 110.621 L
169.5 111.5 L
171.621 110.621 L
cp
S
GR
GS
0.851 0.325 0.098 RC
1 LJ
N
196.5 128.5 M
195.621 126.379 L
193.5 125.5 L
191.379 126.379 L
190.5 128.5 L
191.379 130.621 L
193.5 131.5 L
195.621 130.621 L
cp
S
GR
GS
0.851 0.325 0.098 RC
1 LJ
N
220.5 146.5 M
219.621 144.379 L
217.5 143.5 L
215.379 144.379 L
214.5 146.5 L
215.379 148.621 L
217.5 149.5 L
219.621 148.621 L
cp
S
GR
GS
0.851 0.325 0.098 RC
1 LJ
N
244.5 164.5 M
243.621 162.379 L
241.5 161.5 L
239.379 162.379 L
238.5 164.5 L
239.379 166.621 L
241.5 167.5 L
243.621 166.621 L
cp
S
GR
GS
0.851 0.325 0.098 RC
1 LJ
N
268.5 181.5 M
267.621 179.379 L
265.5 178.5 L
263.379 179.379 L
262.5 181.5 L
263.379 183.621 L
265.5 184.5 L
267.621 183.621 L
cp
S
GR
GS
0.851 0.325 0.098 RC
1 LJ
N
293.5 200.5 M
292.621 198.379 L
290.5 197.5 L
288.379 198.379 L
287.5 200.5 L
288.379 202.621 L
290.5 203.5 L
292.621 202.621 L
cp
S
GR
GS
0.851 0.325 0.098 RC
1 LJ
N
317.5 218.5 M
316.621 216.379 L
314.5 215.5 L
312.379 216.379 L
311.5 218.5 L
312.379 220.621 L
314.5 221.5 L
316.621 220.621 L
cp
S
GR
GS
0.851 0.325 0.098 RC
1 LJ
N
341.5 237.5 M
340.621 235.379 L
338.5 234.5 L
336.379 235.379 L
335.5 237.5 L
336.379 239.621 L
338.5 240.5 L
340.621 239.621 L
cp
S
GR
GS
0.851 0.325 0.098 RC
1 LJ
N
365.5 259.5 M
364.621 257.379 L
362.5 256.5 L
360.379 257.379 L
359.5 259.5 L
360.379 261.621 L
362.5 262.5 L
364.621 261.621 L
cp
S
GR
GS
0.851 0.325 0.098 RC
1 LJ
N
389.5 280.5 M
388.621 278.379 L
386.5 277.5 L
384.379 278.379 L
383.5 280.5 L
384.379 282.621 L
386.5 283.5 L
388.621 282.621 L
cp
S
GR
GS
0.851 0.325 0.098 RC
1 LJ
N
413.5 320.5 M
412.621 318.379 L
410.5 317.5 L
408.379 318.379 L
407.5 320.5 L
408.379 322.621 L
410.5 323.5 L
412.621 322.621 L
cp
S
GR
GS
0.929 0.694 0.125 RC
1 LJ
N
97.111 55.745 M
121.222 66.097 L
145.333 74.958 L
169.444 87.573 L
193.556 105.145 L
217.667 122.257 L
241.778 138.384 L
265.889 154.455 L
290 170.193 L
314.111 185.959 L
338.222 202.4 L
362.333 219.694 L
386.444 237.886 L
410.556 256.102 L
434.667 277.208 L
458.778 311.866 L
482.889 337.159 L
S
GR
GS
0.929 0.694 0.125 RC
1 LJ
N
100.5 55.5 M
99.621 53.379 L
97.5 52.5 L
95.379 53.379 L
94.5 55.5 L
95.379 57.621 L
97.5 58.5 L
99.621 57.621 L
cp
S
GR
GS
0.929 0.694 0.125 RC
1 LJ
N
124.5 66.5 M
123.621 64.379 L
121.5 63.5 L
119.379 64.379 L
118.5 66.5 L
119.379 68.621 L
121.5 69.5 L
123.621 68.621 L
cp
S
GR
GS
0.929 0.694 0.125 RC
1 LJ
N
148.5 74.5 M
147.621 72.379 L
145.5 71.5 L
143.379 72.379 L
142.5 74.5 L
143.379 76.621 L
145.5 77.5 L
147.621 76.621 L
cp
S
GR
GS
0.929 0.694 0.125 RC
1 LJ
N
172.5 87.5 M
171.621 85.379 L
169.5 84.5 L
167.379 85.379 L
166.5 87.5 L
167.379 89.621 L
169.5 90.5 L
171.621 89.621 L
cp
S
GR
GS
0.929 0.694 0.125 RC
1 LJ
N
196.5 105.5 M
195.621 103.379 L
193.5 102.5 L
191.379 103.379 L
190.5 105.5 L
191.379 107.621 L
193.5 108.5 L
195.621 107.621 L
cp
S
GR
GS
0.929 0.694 0.125 RC
1 LJ
N
220.5 122.5 M
219.621 120.379 L
217.5 119.5 L
215.379 120.379 L
214.5 122.5 L
215.379 124.621 L
217.5 125.5 L
219.621 124.621 L
cp
S
GR
GS
0.929 0.694 0.125 RC
1 LJ
N
244.5 138.5 M
243.621 136.379 L
241.5 135.5 L
239.379 136.379 L
238.5 138.5 L
239.379 140.621 L
241.5 141.5 L
243.621 140.621 L
cp
S
GR
GS
0.929 0.694 0.125 RC
1 LJ
N
268.5 154.5 M
267.621 152.379 L
265.5 151.5 L
263.379 152.379 L
262.5 154.5 L
263.379 156.621 L
265.5 157.5 L
267.621 156.621 L
cp
S
GR
GS
0.929 0.694 0.125 RC
1 LJ
N
293.5 170.5 M
292.621 168.379 L
290.5 167.5 L
288.379 168.379 L
287.5 170.5 L
288.379 172.621 L
290.5 173.5 L
292.621 172.621 L
cp
S
GR
GS
0.929 0.694 0.125 RC
1 LJ
N
317.5 185.5 M
316.621 183.379 L
314.5 182.5 L
312.379 183.379 L
311.5 185.5 L
312.379 187.621 L
314.5 188.5 L
316.621 187.621 L
cp
S
GR
GS
0.929 0.694 0.125 RC
1 LJ
N
341.5 202.5 M
340.621 200.379 L
338.5 199.5 L
336.379 200.379 L
335.5 202.5 L
336.379 204.621 L
338.5 205.5 L
340.621 204.621 L
cp
S
GR
GS
0.929 0.694 0.125 RC
1 LJ
N
365.5 219.5 M
364.621 217.379 L
362.5 216.5 L
360.379 217.379 L
359.5 219.5 L
360.379 221.621 L
362.5 222.5 L
364.621 221.621 L
cp
S
GR
GS
0.929 0.694 0.125 RC
1 LJ
N
389.5 237.5 M
388.621 235.379 L
386.5 234.5 L
384.379 235.379 L
383.5 237.5 L
384.379 239.621 L
386.5 240.5 L
388.621 239.621 L
cp
S
GR
GS
0.929 0.694 0.125 RC
1 LJ
N
413.5 256.5 M
412.621 254.379 L
410.5 253.5 L
408.379 254.379 L
407.5 256.5 L
408.379 258.621 L
410.5 259.5 L
412.621 258.621 L
cp
S
GR
GS
0.929 0.694 0.125 RC
1 LJ
N
437.5 277.5 M
436.621 275.379 L
434.5 274.5 L
432.379 275.379 L
431.5 277.5 L
432.379 279.621 L
434.5 280.5 L
436.621 279.621 L
cp
S
GR
GS
0.929 0.694 0.125 RC
1 LJ
N
461.5 311.5 M
460.621 309.379 L
458.5 308.5 L
456.379 309.379 L
455.5 311.5 L
456.379 313.621 L
458.5 314.5 L
460.621 313.621 L
cp
S
GR
GS
0.929 0.694 0.125 RC
1 LJ
N
485.5 337.5 M
484.621 335.379 L
482.5 334.5 L
480.379 335.379 L
479.5 337.5 L
480.379 339.621 L
482.5 340.5 L
484.621 339.621 L
cp
S
GR
GS
0.494 0.184 0.557 RC
1 LJ
N
97.111 55.745 M
121.222 67.423 L
145.333 76.237 L
169.444 93.482 L
193.556 106.763 L
217.667 121.767 L
241.778 132.043 L
265.889 145.202 L
290 154.076 L
314.111 167.066 L
338.222 176.057 L
362.333 191.833 L
386.444 201.784 L
410.556 224.419 L
434.667 235.314 L
458.778 265.105 L
482.889 278.138 L
507 317.122 L
S
GR
GS
0.494 0.184 0.557 RC
1 LJ
N
100.5 55.5 M
99.621 53.379 L
97.5 52.5 L
95.379 53.379 L
94.5 55.5 L
95.379 57.621 L
97.5 58.5 L
99.621 57.621 L
cp
S
GR
GS
0.494 0.184 0.557 RC
1 LJ
N
124.5 67.5 M
123.621 65.379 L
121.5 64.5 L
119.379 65.379 L
118.5 67.5 L
119.379 69.621 L
121.5 70.5 L
123.621 69.621 L
cp
S
GR
GS
0.494 0.184 0.557 RC
1 LJ
N
148.5 76.5 M
147.621 74.379 L
145.5 73.5 L
143.379 74.379 L
142.5 76.5 L
143.379 78.621 L
145.5 79.5 L
147.621 78.621 L
cp
S
GR
GS
0.494 0.184 0.557 RC
1 LJ
N
172.5 93.5 M
171.621 91.379 L
169.5 90.5 L
167.379 91.379 L
166.5 93.5 L
167.379 95.621 L
169.5 96.5 L
171.621 95.621 L
cp
S
GR
GS
0.494 0.184 0.557 RC
1 LJ
N
196.5 106.5 M
195.621 104.379 L
193.5 103.5 L
191.379 104.379 L
190.5 106.5 L
191.379 108.621 L
193.5 109.5 L
195.621 108.621 L
cp
S
GR
GS
0.494 0.184 0.557 RC
1 LJ
N
220.5 121.5 M
219.621 119.379 L
217.5 118.5 L
215.379 119.379 L
214.5 121.5 L
215.379 123.621 L
217.5 124.5 L
219.621 123.621 L
cp
S
GR
GS
0.494 0.184 0.557 RC
1 LJ
N
244.5 132.5 M
243.621 130.379 L
241.5 129.5 L
239.379 130.379 L
238.5 132.5 L
239.379 134.621 L
241.5 135.5 L
243.621 134.621 L
cp
S
GR
GS
0.494 0.184 0.557 RC
1 LJ
N
268.5 145.5 M
267.621 143.379 L
265.5 142.5 L
263.379 143.379 L
262.5 145.5 L
263.379 147.621 L
265.5 148.5 L
267.621 147.621 L
cp
S
GR
GS
0.494 0.184 0.557 RC
1 LJ
N
293.5 154.5 M
292.621 152.379 L
290.5 151.5 L
288.379 152.379 L
287.5 154.5 L
288.379 156.621 L
290.5 157.5 L
292.621 156.621 L
cp
S
GR
GS
0.494 0.184 0.557 RC
1 LJ
N
317.5 167.5 M
316.621 165.379 L
314.5 164.5 L
312.379 165.379 L
311.5 167.5 L
312.379 169.621 L
314.5 170.5 L
316.621 169.621 L
cp
S
GR
GS
0.494 0.184 0.557 RC
1 LJ
N
341.5 176.5 M
340.621 174.379 L
338.5 173.5 L
336.379 174.379 L
335.5 176.5 L
336.379 178.621 L
338.5 179.5 L
340.621 178.621 L
cp
S
GR
GS
0.494 0.184 0.557 RC
1 LJ
N
365.5 191.5 M
364.621 189.379 L
362.5 188.5 L
360.379 189.379 L
359.5 191.5 L
360.379 193.621 L
362.5 194.5 L
364.621 193.621 L
cp
S
GR
GS
0.494 0.184 0.557 RC
1 LJ
N
389.5 201.5 M
388.621 199.379 L
386.5 198.5 L
384.379 199.379 L
383.5 201.5 L
384.379 203.621 L
386.5 204.5 L
388.621 203.621 L
cp
S
GR
GS
0.494 0.184 0.557 RC
1 LJ
N
413.5 224.5 M
412.621 222.379 L
410.5 221.5 L
408.379 222.379 L
407.5 224.5 L
408.379 226.621 L
410.5 227.5 L
412.621 226.621 L
cp
S
GR
GS
0.494 0.184 0.557 RC
1 LJ
N
437.5 235.5 M
436.621 233.379 L
434.5 232.5 L
432.379 233.379 L
431.5 235.5 L
432.379 237.621 L
434.5 238.5 L
436.621 237.621 L
cp
S
GR
GS
0.494 0.184 0.557 RC
1 LJ
N
461.5 265.5 M
460.621 263.379 L
458.5 262.5 L
456.379 263.379 L
455.5 265.5 L
456.379 267.621 L
458.5 268.5 L
460.621 267.621 L
cp
S
GR
GS
0.494 0.184 0.557 RC
1 LJ
N
485.5 278.5 M
484.621 276.379 L
482.5 275.5 L
480.379 276.379 L
479.5 278.5 L
480.379 280.621 L
482.5 281.5 L
484.621 280.621 L
cp
S
GR
GS
0.494 0.184 0.557 RC
1 LJ
N
510.5 317.5 M
509.621 315.379 L
507.5 314.5 L
505.379 315.379 L
504.5 317.5 L
505.379 319.621 L
507.5 320.5 L
509.621 319.621 L
cp
S
GR
GS
[1 0 0 1 407.5 48.25] CT
/Helvetica 9 F
GS
[1 0 0 1 0 0] CT
0 2 moveto 
1 -1 scale
(No) t 
GR
GR
GS
0 0.447 0.741 RC
1 LJ
N
374.5 48.25 M
404.5 48.25 L
S
GR
GS
0 0.447 0.741 RC
1 LJ
N
392.5 48.5 M
391.621 46.379 L
389.5 45.5 L
387.379 46.379 L
386.5 48.5 L
387.379 50.621 L
389.5 51.5 L
391.621 50.621 L
cp
S
GR
GS
[1 0 0 1 407.5 58.25] CT
/Helvetica 9 F
GS
[1 0 0 1 0 0] CT
0 2 moveto 
1 -1 scale
(Random) t 
GR
GR
GS
0.851 0.325 0.098 RC
1 LJ
N
374.5 58.25 M
404.5 58.25 L
S
GR
GS
0.851 0.325 0.098 RC
1 LJ
N
392.5 58.5 M
391.621 56.379 L
389.5 55.5 L
387.379 56.379 L
386.5 58.5 L
387.379 60.621 L
389.5 61.5 L
391.621 60.621 L
cp
S
GR
GS
[1 0 0 1 407.5 68.25] CT
/Helvetica 9 F
GS
[1 0 0 1 0 0] CT
0 2 moveto 
1 -1 scale
(Random replacement) t 
GR
GR
GS
0.929 0.694 0.125 RC
1 LJ
N
374.5 68.25 M
404.5 68.25 L
S
GR
GS
0.929 0.694 0.125 RC
1 LJ
N
392.5 68.5 M
391.621 66.379 L
389.5 65.5 L
387.379 66.379 L
386.5 68.5 L
387.379 70.621 L
389.5 71.5 L
391.621 70.621 L
cp
S
GR
GS
[1 0 0 1 407.5 78.25] CT
/Helvetica 9 F
GS
[1 0 0 1 0 0] CT
0 2 moveto 
1 -1 scale
(Shuffling) t 
GR
GR
GS
0.494 0.184 0.557 RC
1 LJ
N
374.5 78.25 M
404.5 78.25 L
S
GR
GS
0.494 0.184 0.557 RC
1 LJ
N
392.5 78.5 M
391.621 76.379 L
389.5 75.5 L
387.379 76.379 L
386.5 78.5 L
387.379 80.621 L
389.5 81.5 L
391.621 80.621 L
cp
S
GR
%%Trailer
%%Pages: 1
%%EOF
