%!PS-Adobe-3.0 EPSF-3.0
%%Creator: (MATLAB, The Mathworks, Inc. Version 8.6.0.267246 \(R2015b\). Operating System: Mac OS X)
%%Title: /Users/gauthiermuguerza/Desktop/rsgd/code/four23.eps
%%CreationDate: 2018-05-23T14:59:13
%%Pages: (atend)
%%BoundingBox: 0 0 677 490
%%LanguageLevel: 2
%%EndComments
%%BeginProlog
%%BeginResource: procset (Apache XML Graphics Std ProcSet) 1.2 0
%%Version: 1.2 0
%%Copyright: (Copyright 2001-2003,2010 The Apache Software Foundation. License terms: http://www.apache.org/licenses/LICENSE-2.0)
/bd{bind def}bind def
/ld{load def}bd
/GR/grestore ld
/M/moveto ld
/LJ/setlinejoin ld
/C/curveto ld
/f/fill ld
/LW/setlinewidth ld
/GC/setgray ld
/t/show ld
/N/newpath ld
/CT/concat ld
/cp/closepath ld
/S/stroke ld
/L/lineto ld
/CC/setcmykcolor ld
/A/ashow ld
/GS/gsave ld
/RC/setrgbcolor ld
/RM/rmoveto ld
/ML/setmiterlimit ld
/re {4 2 roll M
1 index 0 rlineto
0 exch rlineto
neg 0 rlineto
cp } bd
/_ctm matrix def
/_tm matrix def
/BT { _ctm currentmatrix pop matrix _tm copy pop 0 0 moveto } bd
/ET { _ctm setmatrix } bd
/iTm { _ctm setmatrix _tm concat } bd
/Tm { _tm astore pop iTm 0 0 moveto } bd
/ux 0.0 def
/uy 0.0 def
/F {
  /Tp exch def
  /Tf exch def
  Tf findfont Tp scalefont setfont
  /cf Tf def  /cs Tp def
} bd
/ULS {currentpoint /uy exch def /ux exch def} bd
/ULE {
  /Tcx currentpoint pop def
  gsave
  newpath
  cf findfont cs scalefont dup
  /FontMatrix get 0 get /Ts exch def /FontInfo get dup
  /UnderlinePosition get Ts mul /To exch def
  /UnderlineThickness get Ts mul /Tt exch def
  ux uy To add moveto  Tcx uy To add lineto
  Tt setlinewidth stroke
  grestore
} bd
/OLE {
  /Tcx currentpoint pop def
  gsave
  newpath
  cf findfont cs scalefont dup
  /FontMatrix get 0 get /Ts exch def /FontInfo get dup
  /UnderlinePosition get Ts mul /To exch def
  /UnderlineThickness get Ts mul /Tt exch def
  ux uy To add cs add moveto Tcx uy To add cs add lineto
  Tt setlinewidth stroke
  grestore
} bd
/SOE {
  /Tcx currentpoint pop def
  gsave
  newpath
  cf findfont cs scalefont dup
  /FontMatrix get 0 get /Ts exch def /FontInfo get dup
  /UnderlinePosition get Ts mul /To exch def
  /UnderlineThickness get Ts mul /Tt exch def
  ux uy To add cs 10 mul 26 idiv add moveto Tcx uy To add cs 10 mul 26 idiv add lineto
  Tt setlinewidth stroke
  grestore
} bd
/QT {
/Y22 exch store
/X22 exch store
/Y21 exch store
/X21 exch store
currentpoint
/Y21 load 2 mul add 3 div exch
/X21 load 2 mul add 3 div exch
/X21 load 2 mul /X22 load add 3 div
/Y21 load 2 mul /Y22 load add 3 div
/X22 load /Y22 load curveto
} bd
/SSPD {
dup length /d exch dict def
{
/v exch def
/k exch def
currentpagedevice k known {
/cpdv currentpagedevice k get def
v cpdv ne {
/upd false def
/nullv v type /nulltype eq def
/nullcpdv cpdv type /nulltype eq def
nullv nullcpdv or
{
/upd true def
} {
/sametype v type cpdv type eq def
sametype {
v type /arraytype eq {
/vlen v length def
/cpdvlen cpdv length def
vlen cpdvlen eq {
0 1 vlen 1 sub {
/i exch def
/obj v i get def
/cpdobj cpdv i get def
obj cpdobj ne {
/upd true def
exit
} if
} for
} {
/upd true def
} ifelse
} {
v type /dicttype eq {
v {
/dv exch def
/dk exch def
/cpddv cpdv dk get def
dv cpddv ne {
/upd true def
exit
} if
} forall
} {
/upd true def
} ifelse
} ifelse
} if
} ifelse
upd true eq {
d k v put
} if
} if
} if
} forall
d length 0 gt {
d setpagedevice
} if
} bd
%%EndResource
%%BeginResource: procset (Apache XML Graphics EPS ProcSet) 1.0 0
%%Version: 1.0 0
%%Copyright: (Copyright 2002-2003 The Apache Software Foundation. License terms: http://www.apache.org/licenses/LICENSE-2.0)
/BeginEPSF { %def
/b4_Inc_state save def         % Save state for cleanup
/dict_count countdictstack def % Count objects on dict stack
/op_count count 1 sub def      % Count objects on operand stack
userdict begin                 % Push userdict on dict stack
/showpage { } def              % Redefine showpage, { } = null proc
0 setgray 0 setlinecap         % Prepare graphics state
1 setlinewidth 0 setlinejoin
10 setmiterlimit [ ] 0 setdash newpath
/languagelevel where           % If level not equal to 1 then
{pop languagelevel             % set strokeadjust and
1 ne                           % overprint to their defaults.
{false setstrokeadjust false setoverprint
} if
} if
} bd
/EndEPSF { %def
count op_count sub {pop} repeat            % Clean up stacks
countdictstack dict_count sub {end} repeat
b4_Inc_state restore
} bd
%%EndResource
%FOPBeginFontDict
%%IncludeResource: font Courier-Bold
%%IncludeResource: font Helvetica
%%IncludeResource: font Courier-BoldOblique
%%IncludeResource: font Courier-Oblique
%%IncludeResource: font Times-Roman
%%IncludeResource: font Helvetica-BoldOblique
%%IncludeResource: font Helvetica-Bold
%%IncludeResource: font Helvetica-Oblique
%%IncludeResource: font Times-BoldItalic
%%IncludeResource: font Courier
%%IncludeResource: font Times-Italic
%%IncludeResource: font Times-Bold
%%IncludeResource: font Symbol
%%IncludeResource: font ZapfDingbats
%FOPEndFontDict
%%BeginResource: encoding WinAnsiEncoding
/WinAnsiEncoding [
/.notdef /.notdef /.notdef /.notdef /.notdef
/.notdef /.notdef /.notdef /.notdef /.notdef
/.notdef /.notdef /.notdef /.notdef /.notdef
/.notdef /.notdef /.notdef /.notdef /.notdef
/.notdef /.notdef /.notdef /.notdef /.notdef
/.notdef /.notdef /.notdef /.notdef /.notdef
/.notdef /.notdef /space /exclam /quotedbl
/numbersign /dollar /percent /ampersand /quotesingle
/parenleft /parenright /asterisk /plus /comma
/hyphen /period /slash /zero /one
/two /three /four /five /six
/seven /eight /nine /colon /semicolon
/less /equal /greater /question /at
/A /B /C /D /E
/F /G /H /I /J
/K /L /M /N /O
/P /Q /R /S /T
/U /V /W /X /Y
/Z /bracketleft /backslash /bracketright /asciicircum
/underscore /quoteleft /a /b /c
/d /e /f /g /h
/i /j /k /l /m
/n /o /p /q /r
/s /t /u /v /w
/x /y /z /braceleft /bar
/braceright /asciitilde /bullet /Euro /bullet
/quotesinglbase /florin /quotedblbase /ellipsis /dagger
/daggerdbl /circumflex /perthousand /Scaron /guilsinglleft
/OE /bullet /Zcaron /bullet /bullet
/quoteleft /quoteright /quotedblleft /quotedblright /bullet
/endash /emdash /asciitilde /trademark /scaron
/guilsinglright /oe /bullet /zcaron /Ydieresis
/space /exclamdown /cent /sterling /currency
/yen /brokenbar /section /dieresis /copyright
/ordfeminine /guillemotleft /logicalnot /sfthyphen /registered
/macron /degree /plusminus /twosuperior /threesuperior
/acute /mu /paragraph /middot /cedilla
/onesuperior /ordmasculine /guillemotright /onequarter /onehalf
/threequarters /questiondown /Agrave /Aacute /Acircumflex
/Atilde /Adieresis /Aring /AE /Ccedilla
/Egrave /Eacute /Ecircumflex /Edieresis /Igrave
/Iacute /Icircumflex /Idieresis /Eth /Ntilde
/Ograve /Oacute /Ocircumflex /Otilde /Odieresis
/multiply /Oslash /Ugrave /Uacute /Ucircumflex
/Udieresis /Yacute /Thorn /germandbls /agrave
/aacute /acircumflex /atilde /adieresis /aring
/ae /ccedilla /egrave /eacute /ecircumflex
/edieresis /igrave /iacute /icircumflex /idieresis
/eth /ntilde /ograve /oacute /ocircumflex
/otilde /odieresis /divide /oslash /ugrave
/uacute /ucircumflex /udieresis /yacute /thorn
/ydieresis
] def
%%EndResource
%FOPBeginFontReencode
/Courier-Bold findfont
dup length dict begin
  {1 index /FID ne {def} {pop pop} ifelse} forall
  /Encoding WinAnsiEncoding def
  currentdict
end
/Courier-Bold exch definefont pop
/Helvetica findfont
dup length dict begin
  {1 index /FID ne {def} {pop pop} ifelse} forall
  /Encoding WinAnsiEncoding def
  currentdict
end
/Helvetica exch definefont pop
/Courier-BoldOblique findfont
dup length dict begin
  {1 index /FID ne {def} {pop pop} ifelse} forall
  /Encoding WinAnsiEncoding def
  currentdict
end
/Courier-BoldOblique exch definefont pop
/Courier-Oblique findfont
dup length dict begin
  {1 index /FID ne {def} {pop pop} ifelse} forall
  /Encoding WinAnsiEncoding def
  currentdict
end
/Courier-Oblique exch definefont pop
/Times-Roman findfont
dup length dict begin
  {1 index /FID ne {def} {pop pop} ifelse} forall
  /Encoding WinAnsiEncoding def
  currentdict
end
/Times-Roman exch definefont pop
/Helvetica-BoldOblique findfont
dup length dict begin
  {1 index /FID ne {def} {pop pop} ifelse} forall
  /Encoding WinAnsiEncoding def
  currentdict
end
/Helvetica-BoldOblique exch definefont pop
/Helvetica-Bold findfont
dup length dict begin
  {1 index /FID ne {def} {pop pop} ifelse} forall
  /Encoding WinAnsiEncoding def
  currentdict
end
/Helvetica-Bold exch definefont pop
/Helvetica-Oblique findfont
dup length dict begin
  {1 index /FID ne {def} {pop pop} ifelse} forall
  /Encoding WinAnsiEncoding def
  currentdict
end
/Helvetica-Oblique exch definefont pop
/Times-BoldItalic findfont
dup length dict begin
  {1 index /FID ne {def} {pop pop} ifelse} forall
  /Encoding WinAnsiEncoding def
  currentdict
end
/Times-BoldItalic exch definefont pop
/Courier findfont
dup length dict begin
  {1 index /FID ne {def} {pop pop} ifelse} forall
  /Encoding WinAnsiEncoding def
  currentdict
end
/Courier exch definefont pop
/Times-Italic findfont
dup length dict begin
  {1 index /FID ne {def} {pop pop} ifelse} forall
  /Encoding WinAnsiEncoding def
  currentdict
end
/Times-Italic exch definefont pop
/Times-Bold findfont
dup length dict begin
  {1 index /FID ne {def} {pop pop} ifelse} forall
  /Encoding WinAnsiEncoding def
  currentdict
end
/Times-Bold exch definefont pop
%FOPEndFontReencode
%%EndProlog
%%Page: 1 1
%%PageBoundingBox: 0 0 677 490
%%BeginPageSetup
[1 0 0 -1 0 490] CT
%%EndPageSetup
GS
1 GC
N
0 0 677 490 re
f
GR
GS
1 GC
N
0 0 677 490 re
f
GR
GS
1 GC
N
88 436 M
612.5 436 L
612.5 36.5 L
88 36.5 L
cp
f
GR
GS
0.149 GC
2 setlinecap
1 LJ
0.5 LW
N
88 436 M
612.5 436 L
S
GR
GS
0.149 GC
2 setlinecap
1 LJ
0.5 LW
N
88 436 M
88 430.755 L
S
GR
GS
0.149 GC
2 setlinecap
1 LJ
0.5 LW
N
175.417 436 M
175.417 430.755 L
S
GR
GS
0.149 GC
2 setlinecap
1 LJ
0.5 LW
N
262.833 436 M
262.833 430.755 L
S
GR
GS
0.149 GC
2 setlinecap
1 LJ
0.5 LW
N
350.25 436 M
350.25 430.755 L
S
GR
GS
0.149 GC
2 setlinecap
1 LJ
0.5 LW
N
437.667 436 M
437.667 430.755 L
S
GR
GS
0.149 GC
2 setlinecap
1 LJ
0.5 LW
N
525.083 436 M
525.083 430.755 L
S
GR
GS
0.149 GC
2 setlinecap
1 LJ
0.5 LW
N
612.5 436 M
612.5 430.755 L
S
GR
GS
[1 0 0 1 88 440] CT
0.149 GC
/Helvetica 10 F
GS
[1 0 0 1 0 0] CT
-3 8 moveto 
1 -1 scale
(0) t 
GR
GR
GS
[1 0 0 1 175.41667 440] CT
0.149 GC
/Helvetica 10 F
GS
[1 0 0 1 0 0] CT
-6 8 moveto 
1 -1 scale
(20) t 
GR
GR
GS
[1 0 0 1 262.83334 440] CT
0.149 GC
/Helvetica 10 F
GS
[1 0 0 1 0 0] CT
-6 8 moveto 
1 -1 scale
(40) t 
GR
GR
GS
[1 0 0 1 350.25 440] CT
0.149 GC
/Helvetica 10 F
GS
[1 0 0 1 0 0] CT
-6 8 moveto 
1 -1 scale
(60) t 
GR
GR
GS
[1 0 0 1 437.66669 440] CT
0.149 GC
/Helvetica 10 F
GS
[1 0 0 1 0 0] CT
-6 8 moveto 
1 -1 scale
(80) t 
GR
GR
GS
[1 0 0 1 525.08331 440] CT
0.149 GC
/Helvetica 10 F
GS
[1 0 0 1 0 0] CT
-8.5 8 moveto 
1 -1 scale
(100) t 
GR
GR
GS
[1 0 0 1 612.5 440] CT
0.149 GC
/Helvetica 10 F
GS
[1 0 0 1 0 0] CT
-8.5 8 moveto 
1 -1 scale
(120) t 
GR
GR
GS
[1 0 0 1 350.25024 451.5] CT
0.149 GC
/Helvetica 11 F
GS
[1 0 0 1 0 0] CT
-23 9 moveto 
1 -1 scale
(Iterations) t 
GR
GR
GS
0.149 GC
2 setlinecap
1 LJ
0.5 LW
N
88 436 M
88 36.5 L
S
GR
GS
0.149 GC
2 setlinecap
1 LJ
0.5 LW
N
88 436 M
93.245 436 L
S
GR
GS
0.149 GC
2 setlinecap
1 LJ
0.5 LW
N
88 369.417 M
93.245 369.417 L
S
GR
GS
0.149 GC
2 setlinecap
1 LJ
0.5 LW
N
88 302.833 M
93.245 302.833 L
S
GR
GS
0.149 GC
2 setlinecap
1 LJ
0.5 LW
N
88 236.25 M
93.245 236.25 L
S
GR
GS
0.149 GC
2 setlinecap
1 LJ
0.5 LW
N
88 169.667 M
93.245 169.667 L
S
GR
GS
0.149 GC
2 setlinecap
1 LJ
0.5 LW
N
88 103.083 M
93.245 103.083 L
S
GR
GS
0.149 GC
2 setlinecap
1 LJ
0.5 LW
N
88 36.5 M
93.245 36.5 L
S
GR
GS
0.149 GC
2 setlinecap
1 LJ
0.5 LW
N
88 415.956 M
90.622 415.956 L
S
GR
GS
0.149 GC
2 setlinecap
1 LJ
0.5 LW
N
88 404.232 M
90.622 404.232 L
S
GR
GS
0.149 GC
2 setlinecap
1 LJ
0.5 LW
N
88 395.913 M
90.622 395.913 L
S
GR
GS
0.149 GC
2 setlinecap
1 LJ
0.5 LW
N
88 389.46 M
90.622 389.46 L
S
GR
GS
0.149 GC
2 setlinecap
1 LJ
0.5 LW
N
88 384.188 M
90.622 384.188 L
S
GR
GS
0.149 GC
2 setlinecap
1 LJ
0.5 LW
N
88 379.731 M
90.622 379.731 L
S
GR
GS
0.149 GC
2 setlinecap
1 LJ
0.5 LW
N
88 375.869 M
90.622 375.869 L
S
GR
GS
0.149 GC
2 setlinecap
1 LJ
0.5 LW
N
88 372.463 M
90.622 372.463 L
S
GR
GS
0.149 GC
2 setlinecap
1 LJ
0.5 LW
N
88 349.373 M
90.622 349.373 L
S
GR
GS
0.149 GC
2 setlinecap
1 LJ
0.5 LW
N
88 337.648 M
90.622 337.648 L
S
GR
GS
0.149 GC
2 setlinecap
1 LJ
0.5 LW
N
88 329.329 M
90.622 329.329 L
S
GR
GS
0.149 GC
2 setlinecap
1 LJ
0.5 LW
N
88 322.877 M
90.622 322.877 L
S
GR
GS
0.149 GC
2 setlinecap
1 LJ
0.5 LW
N
88 317.605 M
90.622 317.605 L
S
GR
GS
0.149 GC
2 setlinecap
1 LJ
0.5 LW
N
88 313.147 M
90.622 313.147 L
S
GR
GS
0.149 GC
2 setlinecap
1 LJ
0.5 LW
N
88 309.286 M
90.622 309.286 L
S
GR
GS
0.149 GC
2 setlinecap
1 LJ
0.5 LW
N
88 305.88 M
90.622 305.88 L
S
GR
GS
0.149 GC
2 setlinecap
1 LJ
0.5 LW
N
88 282.79 M
90.622 282.79 L
S
GR
GS
0.149 GC
2 setlinecap
1 LJ
0.5 LW
N
88 271.065 M
90.622 271.065 L
S
GR
GS
0.149 GC
2 setlinecap
1 LJ
0.5 LW
N
88 262.746 M
90.622 262.746 L
S
GR
GS
0.149 GC
2 setlinecap
1 LJ
0.5 LW
N
88 256.294 M
90.622 256.294 L
S
GR
GS
0.149 GC
2 setlinecap
1 LJ
0.5 LW
N
88 251.021 M
90.622 251.021 L
S
GR
GS
0.149 GC
2 setlinecap
1 LJ
0.5 LW
N
88 246.564 M
90.622 246.564 L
S
GR
GS
0.149 GC
2 setlinecap
1 LJ
0.5 LW
N
88 242.703 M
90.622 242.703 L
S
GR
GS
0.149 GC
2 setlinecap
1 LJ
0.5 LW
N
88 239.297 M
90.622 239.297 L
S
GR
GS
0.149 GC
2 setlinecap
1 LJ
0.5 LW
N
88 216.206 M
90.622 216.206 L
S
GR
GS
0.149 GC
2 setlinecap
1 LJ
0.5 LW
N
88 204.482 M
90.622 204.482 L
S
GR
GS
0.149 GC
2 setlinecap
1 LJ
0.5 LW
N
88 196.163 M
90.622 196.163 L
S
GR
GS
0.149 GC
2 setlinecap
1 LJ
0.5 LW
N
88 189.71 M
90.622 189.71 L
S
GR
GS
0.149 GC
2 setlinecap
1 LJ
0.5 LW
N
88 184.438 M
90.622 184.438 L
S
GR
GS
0.149 GC
2 setlinecap
1 LJ
0.5 LW
N
88 179.981 M
90.622 179.981 L
S
GR
GS
0.149 GC
2 setlinecap
1 LJ
0.5 LW
N
88 176.119 M
90.622 176.119 L
S
GR
GS
0.149 GC
2 setlinecap
1 LJ
0.5 LW
N
88 172.713 M
90.622 172.713 L
S
GR
GS
0.149 GC
2 setlinecap
1 LJ
0.5 LW
N
88 149.623 M
90.622 149.623 L
S
GR
GS
0.149 GC
2 setlinecap
1 LJ
0.5 LW
N
88 137.898 M
90.622 137.898 L
S
GR
GS
0.149 GC
2 setlinecap
1 LJ
0.5 LW
N
88 129.58 M
90.622 129.58 L
S
GR
GS
0.149 GC
2 setlinecap
1 LJ
0.5 LW
N
88 123.127 M
90.622 123.127 L
S
GR
GS
0.149 GC
2 setlinecap
1 LJ
0.5 LW
N
88 117.855 M
90.622 117.855 L
S
GR
GS
0.149 GC
2 setlinecap
1 LJ
0.5 LW
N
88 113.397 M
90.622 113.397 L
S
GR
GS
0.149 GC
2 setlinecap
1 LJ
0.5 LW
N
88 109.536 M
90.622 109.536 L
S
GR
GS
0.149 GC
2 setlinecap
1 LJ
0.5 LW
N
88 106.13 M
90.622 106.13 L
S
GR
GS
0.149 GC
2 setlinecap
1 LJ
0.5 LW
N
88 83.04 M
90.622 83.04 L
S
GR
GS
0.149 GC
2 setlinecap
1 LJ
0.5 LW
N
88 71.315 M
90.622 71.315 L
S
GR
GS
0.149 GC
2 setlinecap
1 LJ
0.5 LW
N
88 62.996 M
90.622 62.996 L
S
GR
GS
0.149 GC
2 setlinecap
1 LJ
0.5 LW
N
88 56.544 M
90.622 56.544 L
S
GR
GS
0.149 GC
2 setlinecap
1 LJ
0.5 LW
N
88 51.271 M
90.622 51.271 L
S
GR
GS
0.149 GC
2 setlinecap
1 LJ
0.5 LW
N
88 46.814 M
90.622 46.814 L
S
GR
GS
0.149 GC
2 setlinecap
1 LJ
0.5 LW
N
88 42.953 M
90.622 42.953 L
S
GR
GS
0.149 GC
2 setlinecap
1 LJ
0.5 LW
N
88 39.547 M
90.622 39.547 L
S
GR
GS
[1 0 0 1 64 441] CT
0.149 GC
/Helvetica 10 F
GS
[1 0 0 1 0 0] CT
0 0 moveto 
1 -1 scale
(10) t 
GR
GR
GS
[1 0 0 1 76 436] CT
0.149 GC
/Helvetica 8 F
GS
[1 0 0 1 0 0] CT
0 0 moveto 
1 -1 scale
(-5) t 
GR
GR
GS
[1 0 0 1 64 374] CT
0.149 GC
/Helvetica 10 F
GS
[1 0 0 1 0 0] CT
0 0 moveto 
1 -1 scale
(10) t 
GR
GR
GS
[1 0 0 1 76 369] CT
0.149 GC
/Helvetica 8 F
GS
[1 0 0 1 0 0] CT
0 0 moveto 
1 -1 scale
(-4) t 
GR
GR
GS
[1 0 0 1 64 308] CT
0.149 GC
/Helvetica 10 F
GS
[1 0 0 1 0 0] CT
0 0 moveto 
1 -1 scale
(10) t 
GR
GR
GS
[1 0 0 1 76 303] CT
0.149 GC
/Helvetica 8 F
GS
[1 0 0 1 0 0] CT
0 0 moveto 
1 -1 scale
(-3) t 
GR
GR
GS
[1 0 0 1 64 241] CT
0.149 GC
/Helvetica 10 F
GS
[1 0 0 1 0 0] CT
0 0 moveto 
1 -1 scale
(10) t 
GR
GR
GS
[1 0 0 1 76 236] CT
0.149 GC
/Helvetica 8 F
GS
[1 0 0 1 0 0] CT
0 0 moveto 
1 -1 scale
(-2) t 
GR
GR
GS
[1 0 0 1 64 175] CT
0.149 GC
/Helvetica 10 F
GS
[1 0 0 1 0 0] CT
0 0 moveto 
1 -1 scale
(10) t 
GR
GR
GS
[1 0 0 1 76 170] CT
0.149 GC
/Helvetica 8 F
GS
[1 0 0 1 0 0] CT
0 0 moveto 
1 -1 scale
(-1) t 
GR
GR
GS
[1 0 0 1 67 108] CT
0.149 GC
/Helvetica 10 F
GS
[1 0 0 1 0 0] CT
0 0 moveto 
1 -1 scale
(10) t 
GR
GR
GS
[1 0 0 1 79 103] CT
0.149 GC
/Helvetica 8 F
GS
[1 0 0 1 0 0] CT
0 0 moveto 
1 -1 scale
(0) t 
GR
GR
GS
[1 0 0 1 67 42] CT
0.149 GC
/Helvetica 10 F
GS
[1 0 0 1 0 0] CT
0 0 moveto 
1 -1 scale
(10) t 
GR
GR
GS
[1 0 0 1 79 37] CT
0.149 GC
/Helvetica 8 F
GS
[1 0 0 1 0 0] CT
0 0 moveto 
1 -1 scale
(1) t 
GR
GR
GS
[0 -1 1 0 62 236.24982] CT
0.149 GC
/Helvetica 11 F
GS
[1 0 0 1 0 0] CT
-58.5 -3 moveto 
1 -1 scale
(Root mean square error) t 
GR
GR
GS
[1 0 0 1 350.25034 35.125] CT
/Helvetica-Bold 11 F
GS
[1 0 0 1 0 0] CT
-145.5 -3 moveto 
1 -1 scale
(100 by 1000, rank 10, over-sampling 5, Condition No. 10) t 
GR
GR
GS
0 0.447 0.741 RC
1 LJ
N
92.371 51.683 M
96.742 53.578 L
101.113 51.378 L
105.483 59.309 L
109.854 62.031 L
114.225 64.789 L
118.596 68.372 L
122.967 71.964 L
127.338 74.633 L
131.708 77.421 L
136.079 82.672 L
140.45 86.675 L
144.821 91.593 L
149.192 96.325 L
153.563 100.476 L
157.933 104.155 L
162.304 107.16 L
166.675 108.959 L
171.046 112.518 L
175.417 116.655 L
179.787 119.556 L
184.158 120.595 L
188.529 123.264 L
192.9 125.809 L
197.271 129.523 L
201.642 132.434 L
206.012 134.528 L
210.383 136.4 L
214.754 137.758 L
219.125 141.954 L
223.496 142.751 L
227.867 137.964 L
232.238 145.398 L
236.608 151.448 L
240.979 152.662 L
245.35 155.125 L
249.721 157.409 L
254.092 165.326 L
258.462 170.794 L
262.833 175.787 L
267.204 179.985 L
271.575 182.649 L
275.946 184.803 L
280.317 186.845 L
284.688 188.776 L
289.058 191.927 L
293.429 194.068 L
297.8 196.318 L
302.171 198.886 L
306.542 201.155 L
S
GR
GS
0 0.447 0.741 RC
1 LJ
N
302.171 198.886 M
306.542 201.155 L
310.913 202.405 L
315.283 202.741 L
319.654 203.622 L
324.025 206.901 L
328.396 209.74 L
332.767 211.96 L
337.137 213.8 L
341.508 215.534 L
345.879 217.092 L
350.25 218.119 L
354.621 217.956 L
358.992 220.704 L
363.362 222.97 L
367.733 225.215 L
372.104 226.933 L
376.475 228.179 L
380.846 229.015 L
385.217 229.93 L
389.587 230.59 L
393.958 225.741 L
398.329 233.038 L
402.7 235.489 L
407.071 237.044 L
411.442 238.205 L
415.813 239.333 L
420.183 241.241 L
424.554 242.926 L
428.925 242.253 L
433.296 245.916 L
437.667 247.637 L
442.038 249.153 L
446.408 250.696 L
450.779 252.438 L
455.15 254.062 L
459.521 254.923 L
463.892 254.028 L
468.263 256.243 L
472.633 258.365 L
477.004 261.101 L
481.375 263.67 L
485.746 264.794 L
490.117 264.57 L
494.487 265.211 L
498.858 267.525 L
503.229 266.853 L
507.6 273.105 L
511.971 274.764 L
516.342 275.329 L
520.712 277.089 L
525.083 279.727 L
S
GR
GS
0 0.447 0.741 RC
1 LJ
N
520.712 277.089 M
525.083 279.727 L
529.454 282.11 L
S
GR
GS
0 0.447 0.741 RC
1 LJ
N
95.5 51.5 M
94.621 49.379 L
92.5 48.5 L
90.379 49.379 L
89.5 51.5 L
90.379 53.621 L
92.5 54.5 L
94.621 53.621 L
cp
S
GR
GS
0 0.447 0.741 RC
1 LJ
N
99.5 53.5 M
98.621 51.379 L
96.5 50.5 L
94.379 51.379 L
93.5 53.5 L
94.379 55.621 L
96.5 56.5 L
98.621 55.621 L
cp
S
GR
GS
0 0.447 0.741 RC
1 LJ
N
104.5 51.5 M
103.621 49.379 L
101.5 48.5 L
99.379 49.379 L
98.5 51.5 L
99.379 53.621 L
101.5 54.5 L
103.621 53.621 L
cp
S
GR
GS
0 0.447 0.741 RC
1 LJ
N
108.5 59.5 M
107.621 57.379 L
105.5 56.5 L
103.379 57.379 L
102.5 59.5 L
103.379 61.621 L
105.5 62.5 L
107.621 61.621 L
cp
S
GR
GS
0 0.447 0.741 RC
1 LJ
N
112.5 62.5 M
111.621 60.379 L
109.5 59.5 L
107.379 60.379 L
106.5 62.5 L
107.379 64.621 L
109.5 65.5 L
111.621 64.621 L
cp
S
GR
GS
0 0.447 0.741 RC
1 LJ
N
117.5 64.5 M
116.621 62.379 L
114.5 61.5 L
112.379 62.379 L
111.5 64.5 L
112.379 66.621 L
114.5 67.5 L
116.621 66.621 L
cp
S
GR
GS
0 0.447 0.741 RC
1 LJ
N
121.5 68.5 M
120.621 66.379 L
118.5 65.5 L
116.379 66.379 L
115.5 68.5 L
116.379 70.621 L
118.5 71.5 L
120.621 70.621 L
cp
S
GR
GS
0 0.447 0.741 RC
1 LJ
N
125.5 71.5 M
124.621 69.379 L
122.5 68.5 L
120.379 69.379 L
119.5 71.5 L
120.379 73.621 L
122.5 74.5 L
124.621 73.621 L
cp
S
GR
GS
0 0.447 0.741 RC
1 LJ
N
130.5 74.5 M
129.621 72.379 L
127.5 71.5 L
125.379 72.379 L
124.5 74.5 L
125.379 76.621 L
127.5 77.5 L
129.621 76.621 L
cp
S
GR
GS
0 0.447 0.741 RC
1 LJ
N
134.5 77.5 M
133.621 75.379 L
131.5 74.5 L
129.379 75.379 L
128.5 77.5 L
129.379 79.621 L
131.5 80.5 L
133.621 79.621 L
cp
S
GR
GS
0 0.447 0.741 RC
1 LJ
N
139.5 82.5 M
138.621 80.379 L
136.5 79.5 L
134.379 80.379 L
133.5 82.5 L
134.379 84.621 L
136.5 85.5 L
138.621 84.621 L
cp
S
GR
GS
0 0.447 0.741 RC
1 LJ
N
143.5 86.5 M
142.621 84.379 L
140.5 83.5 L
138.379 84.379 L
137.5 86.5 L
138.379 88.621 L
140.5 89.5 L
142.621 88.621 L
cp
S
GR
GS
0 0.447 0.741 RC
1 LJ
N
147.5 91.5 M
146.621 89.379 L
144.5 88.5 L
142.379 89.379 L
141.5 91.5 L
142.379 93.621 L
144.5 94.5 L
146.621 93.621 L
cp
S
GR
GS
0 0.447 0.741 RC
1 LJ
N
152.5 96.5 M
151.621 94.379 L
149.5 93.5 L
147.379 94.379 L
146.5 96.5 L
147.379 98.621 L
149.5 99.5 L
151.621 98.621 L
cp
S
GR
GS
0 0.447 0.741 RC
1 LJ
N
156.5 100.5 M
155.621 98.379 L
153.5 97.5 L
151.379 98.379 L
150.5 100.5 L
151.379 102.621 L
153.5 103.5 L
155.621 102.621 L
cp
S
GR
GS
0 0.447 0.741 RC
1 LJ
N
160.5 104.5 M
159.621 102.379 L
157.5 101.5 L
155.379 102.379 L
154.5 104.5 L
155.379 106.621 L
157.5 107.5 L
159.621 106.621 L
cp
S
GR
GS
0 0.447 0.741 RC
1 LJ
N
165.5 107.5 M
164.621 105.379 L
162.5 104.5 L
160.379 105.379 L
159.5 107.5 L
160.379 109.621 L
162.5 110.5 L
164.621 109.621 L
cp
S
GR
GS
0 0.447 0.741 RC
1 LJ
N
169.5 108.5 M
168.621 106.379 L
166.5 105.5 L
164.379 106.379 L
163.5 108.5 L
164.379 110.621 L
166.5 111.5 L
168.621 110.621 L
cp
S
GR
GS
0 0.447 0.741 RC
1 LJ
N
174.5 112.5 M
173.621 110.379 L
171.5 109.5 L
169.379 110.379 L
168.5 112.5 L
169.379 114.621 L
171.5 115.5 L
173.621 114.621 L
cp
S
GR
GS
0 0.447 0.741 RC
1 LJ
N
178.5 116.5 M
177.621 114.379 L
175.5 113.5 L
173.379 114.379 L
172.5 116.5 L
173.379 118.621 L
175.5 119.5 L
177.621 118.621 L
cp
S
GR
GS
0 0.447 0.741 RC
1 LJ
N
182.5 119.5 M
181.621 117.379 L
179.5 116.5 L
177.379 117.379 L
176.5 119.5 L
177.379 121.621 L
179.5 122.5 L
181.621 121.621 L
cp
S
GR
GS
0 0.447 0.741 RC
1 LJ
N
187.5 120.5 M
186.621 118.379 L
184.5 117.5 L
182.379 118.379 L
181.5 120.5 L
182.379 122.621 L
184.5 123.5 L
186.621 122.621 L
cp
S
GR
GS
0 0.447 0.741 RC
1 LJ
N
191.5 123.5 M
190.621 121.379 L
188.5 120.5 L
186.379 121.379 L
185.5 123.5 L
186.379 125.621 L
188.5 126.5 L
190.621 125.621 L
cp
S
GR
GS
0 0.447 0.741 RC
1 LJ
N
195.5 125.5 M
194.621 123.379 L
192.5 122.5 L
190.379 123.379 L
189.5 125.5 L
190.379 127.621 L
192.5 128.5 L
194.621 127.621 L
cp
S
GR
GS
0 0.447 0.741 RC
1 LJ
N
200.5 129.5 M
199.621 127.379 L
197.5 126.5 L
195.379 127.379 L
194.5 129.5 L
195.379 131.621 L
197.5 132.5 L
199.621 131.621 L
cp
S
GR
GS
0 0.447 0.741 RC
1 LJ
N
204.5 132.5 M
203.621 130.379 L
201.5 129.5 L
199.379 130.379 L
198.5 132.5 L
199.379 134.621 L
201.5 135.5 L
203.621 134.621 L
cp
S
GR
GS
0 0.447 0.741 RC
1 LJ
N
209.5 134.5 M
208.621 132.379 L
206.5 131.5 L
204.379 132.379 L
203.5 134.5 L
204.379 136.621 L
206.5 137.5 L
208.621 136.621 L
cp
S
GR
GS
0 0.447 0.741 RC
1 LJ
N
213.5 136.5 M
212.621 134.379 L
210.5 133.5 L
208.379 134.379 L
207.5 136.5 L
208.379 138.621 L
210.5 139.5 L
212.621 138.621 L
cp
S
GR
GS
0 0.447 0.741 RC
1 LJ
N
217.5 137.5 M
216.621 135.379 L
214.5 134.5 L
212.379 135.379 L
211.5 137.5 L
212.379 139.621 L
214.5 140.5 L
216.621 139.621 L
cp
S
GR
GS
0 0.447 0.741 RC
1 LJ
N
222.5 141.5 M
221.621 139.379 L
219.5 138.5 L
217.379 139.379 L
216.5 141.5 L
217.379 143.621 L
219.5 144.5 L
221.621 143.621 L
cp
S
GR
GS
0 0.447 0.741 RC
1 LJ
N
226.5 142.5 M
225.621 140.379 L
223.5 139.5 L
221.379 140.379 L
220.5 142.5 L
221.379 144.621 L
223.5 145.5 L
225.621 144.621 L
cp
S
GR
GS
0 0.447 0.741 RC
1 LJ
N
230.5 137.5 M
229.621 135.379 L
227.5 134.5 L
225.379 135.379 L
224.5 137.5 L
225.379 139.621 L
227.5 140.5 L
229.621 139.621 L
cp
S
GR
GS
0 0.447 0.741 RC
1 LJ
N
235.5 145.5 M
234.621 143.379 L
232.5 142.5 L
230.379 143.379 L
229.5 145.5 L
230.379 147.621 L
232.5 148.5 L
234.621 147.621 L
cp
S
GR
GS
0 0.447 0.741 RC
1 LJ
N
239.5 151.5 M
238.621 149.379 L
236.5 148.5 L
234.379 149.379 L
233.5 151.5 L
234.379 153.621 L
236.5 154.5 L
238.621 153.621 L
cp
S
GR
GS
0 0.447 0.741 RC
1 LJ
N
243.5 152.5 M
242.621 150.379 L
240.5 149.5 L
238.379 150.379 L
237.5 152.5 L
238.379 154.621 L
240.5 155.5 L
242.621 154.621 L
cp
S
GR
GS
0 0.447 0.741 RC
1 LJ
N
248.5 155.5 M
247.621 153.379 L
245.5 152.5 L
243.379 153.379 L
242.5 155.5 L
243.379 157.621 L
245.5 158.5 L
247.621 157.621 L
cp
S
GR
GS
0 0.447 0.741 RC
1 LJ
N
252.5 157.5 M
251.621 155.379 L
249.5 154.5 L
247.379 155.379 L
246.5 157.5 L
247.379 159.621 L
249.5 160.5 L
251.621 159.621 L
cp
S
GR
GS
0 0.447 0.741 RC
1 LJ
N
257.5 165.5 M
256.621 163.379 L
254.5 162.5 L
252.379 163.379 L
251.5 165.5 L
252.379 167.621 L
254.5 168.5 L
256.621 167.621 L
cp
S
GR
GS
0 0.447 0.741 RC
1 LJ
N
261.5 170.5 M
260.621 168.379 L
258.5 167.5 L
256.379 168.379 L
255.5 170.5 L
256.379 172.621 L
258.5 173.5 L
260.621 172.621 L
cp
S
GR
GS
0 0.447 0.741 RC
1 LJ
N
265.5 175.5 M
264.621 173.379 L
262.5 172.5 L
260.379 173.379 L
259.5 175.5 L
260.379 177.621 L
262.5 178.5 L
264.621 177.621 L
cp
S
GR
GS
0 0.447 0.741 RC
1 LJ
N
270.5 179.5 M
269.621 177.379 L
267.5 176.5 L
265.379 177.379 L
264.5 179.5 L
265.379 181.621 L
267.5 182.5 L
269.621 181.621 L
cp
S
GR
GS
0 0.447 0.741 RC
1 LJ
N
274.5 182.5 M
273.621 180.379 L
271.5 179.5 L
269.379 180.379 L
268.5 182.5 L
269.379 184.621 L
271.5 185.5 L
273.621 184.621 L
cp
S
GR
GS
0 0.447 0.741 RC
1 LJ
N
278.5 184.5 M
277.621 182.379 L
275.5 181.5 L
273.379 182.379 L
272.5 184.5 L
273.379 186.621 L
275.5 187.5 L
277.621 186.621 L
cp
S
GR
GS
0 0.447 0.741 RC
1 LJ
N
283.5 186.5 M
282.621 184.379 L
280.5 183.5 L
278.379 184.379 L
277.5 186.5 L
278.379 188.621 L
280.5 189.5 L
282.621 188.621 L
cp
S
GR
GS
0 0.447 0.741 RC
1 LJ
N
287.5 188.5 M
286.621 186.379 L
284.5 185.5 L
282.379 186.379 L
281.5 188.5 L
282.379 190.621 L
284.5 191.5 L
286.621 190.621 L
cp
S
GR
GS
0 0.447 0.741 RC
1 LJ
N
292.5 191.5 M
291.621 189.379 L
289.5 188.5 L
287.379 189.379 L
286.5 191.5 L
287.379 193.621 L
289.5 194.5 L
291.621 193.621 L
cp
S
GR
GS
0 0.447 0.741 RC
1 LJ
N
296.5 194.5 M
295.621 192.379 L
293.5 191.5 L
291.379 192.379 L
290.5 194.5 L
291.379 196.621 L
293.5 197.5 L
295.621 196.621 L
cp
S
GR
GS
0 0.447 0.741 RC
1 LJ
N
300.5 196.5 M
299.621 194.379 L
297.5 193.5 L
295.379 194.379 L
294.5 196.5 L
295.379 198.621 L
297.5 199.5 L
299.621 198.621 L
cp
S
GR
GS
0 0.447 0.741 RC
1 LJ
N
305.5 198.5 M
304.621 196.379 L
302.5 195.5 L
300.379 196.379 L
299.5 198.5 L
300.379 200.621 L
302.5 201.5 L
304.621 200.621 L
cp
S
GR
GS
0 0.447 0.741 RC
1 LJ
N
309.5 201.5 M
308.621 199.379 L
306.5 198.5 L
304.379 199.379 L
303.5 201.5 L
304.379 203.621 L
306.5 204.5 L
308.621 203.621 L
cp
S
GR
GS
0 0.447 0.741 RC
1 LJ
N
313.5 202.5 M
312.621 200.379 L
310.5 199.5 L
308.379 200.379 L
307.5 202.5 L
308.379 204.621 L
310.5 205.5 L
312.621 204.621 L
cp
S
GR
GS
0 0.447 0.741 RC
1 LJ
N
318.5 202.5 M
317.621 200.379 L
315.5 199.5 L
313.379 200.379 L
312.5 202.5 L
313.379 204.621 L
315.5 205.5 L
317.621 204.621 L
cp
S
GR
GS
0 0.447 0.741 RC
1 LJ
N
322.5 203.5 M
321.621 201.379 L
319.5 200.5 L
317.379 201.379 L
316.5 203.5 L
317.379 205.621 L
319.5 206.5 L
321.621 205.621 L
cp
S
GR
GS
0 0.447 0.741 RC
1 LJ
N
327.5 206.5 M
326.621 204.379 L
324.5 203.5 L
322.379 204.379 L
321.5 206.5 L
322.379 208.621 L
324.5 209.5 L
326.621 208.621 L
cp
S
GR
GS
0 0.447 0.741 RC
1 LJ
N
331.5 209.5 M
330.621 207.379 L
328.5 206.5 L
326.379 207.379 L
325.5 209.5 L
326.379 211.621 L
328.5 212.5 L
330.621 211.621 L
cp
S
GR
GS
0 0.447 0.741 RC
1 LJ
N
335.5 211.5 M
334.621 209.379 L
332.5 208.5 L
330.379 209.379 L
329.5 211.5 L
330.379 213.621 L
332.5 214.5 L
334.621 213.621 L
cp
S
GR
GS
0 0.447 0.741 RC
1 LJ
N
340.5 213.5 M
339.621 211.379 L
337.5 210.5 L
335.379 211.379 L
334.5 213.5 L
335.379 215.621 L
337.5 216.5 L
339.621 215.621 L
cp
S
GR
GS
0 0.447 0.741 RC
1 LJ
N
344.5 215.5 M
343.621 213.379 L
341.5 212.5 L
339.379 213.379 L
338.5 215.5 L
339.379 217.621 L
341.5 218.5 L
343.621 217.621 L
cp
S
GR
GS
0 0.447 0.741 RC
1 LJ
N
348.5 217.5 M
347.621 215.379 L
345.5 214.5 L
343.379 215.379 L
342.5 217.5 L
343.379 219.621 L
345.5 220.5 L
347.621 219.621 L
cp
S
GR
GS
0 0.447 0.741 RC
1 LJ
N
353.5 218.5 M
352.621 216.379 L
350.5 215.5 L
348.379 216.379 L
347.5 218.5 L
348.379 220.621 L
350.5 221.5 L
352.621 220.621 L
cp
S
GR
GS
0 0.447 0.741 RC
1 LJ
N
357.5 217.5 M
356.621 215.379 L
354.5 214.5 L
352.379 215.379 L
351.5 217.5 L
352.379 219.621 L
354.5 220.5 L
356.621 219.621 L
cp
S
GR
GS
0 0.447 0.741 RC
1 LJ
N
361.5 220.5 M
360.621 218.379 L
358.5 217.5 L
356.379 218.379 L
355.5 220.5 L
356.379 222.621 L
358.5 223.5 L
360.621 222.621 L
cp
S
GR
GS
0 0.447 0.741 RC
1 LJ
N
366.5 222.5 M
365.621 220.379 L
363.5 219.5 L
361.379 220.379 L
360.5 222.5 L
361.379 224.621 L
363.5 225.5 L
365.621 224.621 L
cp
S
GR
GS
0 0.447 0.741 RC
1 LJ
N
370.5 225.5 M
369.621 223.379 L
367.5 222.5 L
365.379 223.379 L
364.5 225.5 L
365.379 227.621 L
367.5 228.5 L
369.621 227.621 L
cp
S
GR
GS
0 0.447 0.741 RC
1 LJ
N
375.5 226.5 M
374.621 224.379 L
372.5 223.5 L
370.379 224.379 L
369.5 226.5 L
370.379 228.621 L
372.5 229.5 L
374.621 228.621 L
cp
S
GR
GS
0 0.447 0.741 RC
1 LJ
N
379.5 228.5 M
378.621 226.379 L
376.5 225.5 L
374.379 226.379 L
373.5 228.5 L
374.379 230.621 L
376.5 231.5 L
378.621 230.621 L
cp
S
GR
GS
0 0.447 0.741 RC
1 LJ
N
383.5 229.5 M
382.621 227.379 L
380.5 226.5 L
378.379 227.379 L
377.5 229.5 L
378.379 231.621 L
380.5 232.5 L
382.621 231.621 L
cp
S
GR
GS
0 0.447 0.741 RC
1 LJ
N
388.5 229.5 M
387.621 227.379 L
385.5 226.5 L
383.379 227.379 L
382.5 229.5 L
383.379 231.621 L
385.5 232.5 L
387.621 231.621 L
cp
S
GR
GS
0 0.447 0.741 RC
1 LJ
N
392.5 230.5 M
391.621 228.379 L
389.5 227.5 L
387.379 228.379 L
386.5 230.5 L
387.379 232.621 L
389.5 233.5 L
391.621 232.621 L
cp
S
GR
GS
0 0.447 0.741 RC
1 LJ
N
396.5 225.5 M
395.621 223.379 L
393.5 222.5 L
391.379 223.379 L
390.5 225.5 L
391.379 227.621 L
393.5 228.5 L
395.621 227.621 L
cp
S
GR
GS
0 0.447 0.741 RC
1 LJ
N
401.5 233.5 M
400.621 231.379 L
398.5 230.5 L
396.379 231.379 L
395.5 233.5 L
396.379 235.621 L
398.5 236.5 L
400.621 235.621 L
cp
S
GR
GS
0 0.447 0.741 RC
1 LJ
N
405.5 235.5 M
404.621 233.379 L
402.5 232.5 L
400.379 233.379 L
399.5 235.5 L
400.379 237.621 L
402.5 238.5 L
404.621 237.621 L
cp
S
GR
GS
0 0.447 0.741 RC
1 LJ
N
410.5 237.5 M
409.621 235.379 L
407.5 234.5 L
405.379 235.379 L
404.5 237.5 L
405.379 239.621 L
407.5 240.5 L
409.621 239.621 L
cp
S
GR
GS
0 0.447 0.741 RC
1 LJ
N
414.5 238.5 M
413.621 236.379 L
411.5 235.5 L
409.379 236.379 L
408.5 238.5 L
409.379 240.621 L
411.5 241.5 L
413.621 240.621 L
cp
S
GR
GS
0 0.447 0.741 RC
1 LJ
N
418.5 239.5 M
417.621 237.379 L
415.5 236.5 L
413.379 237.379 L
412.5 239.5 L
413.379 241.621 L
415.5 242.5 L
417.621 241.621 L
cp
S
GR
GS
0 0.447 0.741 RC
1 LJ
N
423.5 241.5 M
422.621 239.379 L
420.5 238.5 L
418.379 239.379 L
417.5 241.5 L
418.379 243.621 L
420.5 244.5 L
422.621 243.621 L
cp
S
GR
GS
0 0.447 0.741 RC
1 LJ
N
427.5 242.5 M
426.621 240.379 L
424.5 239.5 L
422.379 240.379 L
421.5 242.5 L
422.379 244.621 L
424.5 245.5 L
426.621 244.621 L
cp
S
GR
GS
0 0.447 0.741 RC
1 LJ
N
431.5 242.5 M
430.621 240.379 L
428.5 239.5 L
426.379 240.379 L
425.5 242.5 L
426.379 244.621 L
428.5 245.5 L
430.621 244.621 L
cp
S
GR
GS
0 0.447 0.741 RC
1 LJ
N
436.5 245.5 M
435.621 243.379 L
433.5 242.5 L
431.379 243.379 L
430.5 245.5 L
431.379 247.621 L
433.5 248.5 L
435.621 247.621 L
cp
S
GR
GS
0 0.447 0.741 RC
1 LJ
N
440.5 247.5 M
439.621 245.379 L
437.5 244.5 L
435.379 245.379 L
434.5 247.5 L
435.379 249.621 L
437.5 250.5 L
439.621 249.621 L
cp
S
GR
GS
0 0.447 0.741 RC
1 LJ
N
445.5 249.5 M
444.621 247.379 L
442.5 246.5 L
440.379 247.379 L
439.5 249.5 L
440.379 251.621 L
442.5 252.5 L
444.621 251.621 L
cp
S
GR
GS
0 0.447 0.741 RC
1 LJ
N
449.5 250.5 M
448.621 248.379 L
446.5 247.5 L
444.379 248.379 L
443.5 250.5 L
444.379 252.621 L
446.5 253.5 L
448.621 252.621 L
cp
S
GR
GS
0 0.447 0.741 RC
1 LJ
N
453.5 252.5 M
452.621 250.379 L
450.5 249.5 L
448.379 250.379 L
447.5 252.5 L
448.379 254.621 L
450.5 255.5 L
452.621 254.621 L
cp
S
GR
GS
0 0.447 0.741 RC
1 LJ
N
458.5 254.5 M
457.621 252.379 L
455.5 251.5 L
453.379 252.379 L
452.5 254.5 L
453.379 256.621 L
455.5 257.5 L
457.621 256.621 L
cp
S
GR
GS
0 0.447 0.741 RC
1 LJ
N
462.5 254.5 M
461.621 252.379 L
459.5 251.5 L
457.379 252.379 L
456.5 254.5 L
457.379 256.621 L
459.5 257.5 L
461.621 256.621 L
cp
S
GR
GS
0 0.447 0.741 RC
1 LJ
N
466.5 254.5 M
465.621 252.379 L
463.5 251.5 L
461.379 252.379 L
460.5 254.5 L
461.379 256.621 L
463.5 257.5 L
465.621 256.621 L
cp
S
GR
GS
0 0.447 0.741 RC
1 LJ
N
471.5 256.5 M
470.621 254.379 L
468.5 253.5 L
466.379 254.379 L
465.5 256.5 L
466.379 258.621 L
468.5 259.5 L
470.621 258.621 L
cp
S
GR
GS
0 0.447 0.741 RC
1 LJ
N
475.5 258.5 M
474.621 256.379 L
472.5 255.5 L
470.379 256.379 L
469.5 258.5 L
470.379 260.621 L
472.5 261.5 L
474.621 260.621 L
cp
S
GR
GS
0 0.447 0.741 RC
1 LJ
N
480.5 261.5 M
479.621 259.379 L
477.5 258.5 L
475.379 259.379 L
474.5 261.5 L
475.379 263.621 L
477.5 264.5 L
479.621 263.621 L
cp
S
GR
GS
0 0.447 0.741 RC
1 LJ
N
484.5 263.5 M
483.621 261.379 L
481.5 260.5 L
479.379 261.379 L
478.5 263.5 L
479.379 265.621 L
481.5 266.5 L
483.621 265.621 L
cp
S
GR
GS
0 0.447 0.741 RC
1 LJ
N
488.5 264.5 M
487.621 262.379 L
485.5 261.5 L
483.379 262.379 L
482.5 264.5 L
483.379 266.621 L
485.5 267.5 L
487.621 266.621 L
cp
S
GR
GS
0 0.447 0.741 RC
1 LJ
N
493.5 264.5 M
492.621 262.379 L
490.5 261.5 L
488.379 262.379 L
487.5 264.5 L
488.379 266.621 L
490.5 267.5 L
492.621 266.621 L
cp
S
GR
GS
0 0.447 0.741 RC
1 LJ
N
497.5 265.5 M
496.621 263.379 L
494.5 262.5 L
492.379 263.379 L
491.5 265.5 L
492.379 267.621 L
494.5 268.5 L
496.621 267.621 L
cp
S
GR
GS
0 0.447 0.741 RC
1 LJ
N
501.5 267.5 M
500.621 265.379 L
498.5 264.5 L
496.379 265.379 L
495.5 267.5 L
496.379 269.621 L
498.5 270.5 L
500.621 269.621 L
cp
S
GR
GS
0 0.447 0.741 RC
1 LJ
N
506.5 266.5 M
505.621 264.379 L
503.5 263.5 L
501.379 264.379 L
500.5 266.5 L
501.379 268.621 L
503.5 269.5 L
505.621 268.621 L
cp
S
GR
GS
0 0.447 0.741 RC
1 LJ
N
510.5 273.5 M
509.621 271.379 L
507.5 270.5 L
505.379 271.379 L
504.5 273.5 L
505.379 275.621 L
507.5 276.5 L
509.621 275.621 L
cp
S
GR
GS
0 0.447 0.741 RC
1 LJ
N
514.5 274.5 M
513.621 272.379 L
511.5 271.5 L
509.379 272.379 L
508.5 274.5 L
509.379 276.621 L
511.5 277.5 L
513.621 276.621 L
cp
S
GR
GS
0 0.447 0.741 RC
1 LJ
N
519.5 275.5 M
518.621 273.379 L
516.5 272.5 L
514.379 273.379 L
513.5 275.5 L
514.379 277.621 L
516.5 278.5 L
518.621 277.621 L
cp
S
GR
GS
0 0.447 0.741 RC
1 LJ
N
523.5 277.5 M
522.621 275.379 L
520.5 274.5 L
518.379 275.379 L
517.5 277.5 L
518.379 279.621 L
520.5 280.5 L
522.621 279.621 L
cp
S
GR
GS
0 0.447 0.741 RC
1 LJ
N
528.5 279.5 M
527.621 277.379 L
525.5 276.5 L
523.379 277.379 L
522.5 279.5 L
523.379 281.621 L
525.5 282.5 L
527.621 281.621 L
cp
S
GR
GS
0 0.447 0.741 RC
1 LJ
N
532.5 282.5 M
531.621 280.379 L
529.5 279.5 L
527.379 280.379 L
526.5 282.5 L
527.379 284.621 L
529.5 285.5 L
531.621 284.621 L
cp
S
GR
GS
0.851 0.325 0.098 RC
1 LJ
N
92.371 51.683 M
96.742 81.514 L
101.113 110.779 L
105.483 140.232 L
109.854 167.067 L
114.225 193.023 L
118.596 218.197 L
122.967 242.437 L
127.338 267.309 L
131.708 294.005 L
136.079 318.47 L
140.45 355.314 L
S
GR
GS
0.851 0.325 0.098 RC
1 LJ
N
95.5 51.5 M
94.621 49.379 L
92.5 48.5 L
90.379 49.379 L
89.5 51.5 L
90.379 53.621 L
92.5 54.5 L
94.621 53.621 L
cp
S
GR
GS
0.851 0.325 0.098 RC
1 LJ
N
99.5 81.5 M
98.621 79.379 L
96.5 78.5 L
94.379 79.379 L
93.5 81.5 L
94.379 83.621 L
96.5 84.5 L
98.621 83.621 L
cp
S
GR
GS
0.851 0.325 0.098 RC
1 LJ
N
104.5 110.5 M
103.621 108.379 L
101.5 107.5 L
99.379 108.379 L
98.5 110.5 L
99.379 112.621 L
101.5 113.5 L
103.621 112.621 L
cp
S
GR
GS
0.851 0.325 0.098 RC
1 LJ
N
108.5 140.5 M
107.621 138.379 L
105.5 137.5 L
103.379 138.379 L
102.5 140.5 L
103.379 142.621 L
105.5 143.5 L
107.621 142.621 L
cp
S
GR
GS
0.851 0.325 0.098 RC
1 LJ
N
112.5 167.5 M
111.621 165.379 L
109.5 164.5 L
107.379 165.379 L
106.5 167.5 L
107.379 169.621 L
109.5 170.5 L
111.621 169.621 L
cp
S
GR
GS
0.851 0.325 0.098 RC
1 LJ
N
117.5 193.5 M
116.621 191.379 L
114.5 190.5 L
112.379 191.379 L
111.5 193.5 L
112.379 195.621 L
114.5 196.5 L
116.621 195.621 L
cp
S
GR
GS
0.851 0.325 0.098 RC
1 LJ
N
121.5 218.5 M
120.621 216.379 L
118.5 215.5 L
116.379 216.379 L
115.5 218.5 L
116.379 220.621 L
118.5 221.5 L
120.621 220.621 L
cp
S
GR
GS
0.851 0.325 0.098 RC
1 LJ
N
125.5 242.5 M
124.621 240.379 L
122.5 239.5 L
120.379 240.379 L
119.5 242.5 L
120.379 244.621 L
122.5 245.5 L
124.621 244.621 L
cp
S
GR
GS
0.851 0.325 0.098 RC
1 LJ
N
130.5 267.5 M
129.621 265.379 L
127.5 264.5 L
125.379 265.379 L
124.5 267.5 L
125.379 269.621 L
127.5 270.5 L
129.621 269.621 L
cp
S
GR
GS
0.851 0.325 0.098 RC
1 LJ
N
134.5 294.5 M
133.621 292.379 L
131.5 291.5 L
129.379 292.379 L
128.5 294.5 L
129.379 296.621 L
131.5 297.5 L
133.621 296.621 L
cp
S
GR
GS
0.851 0.325 0.098 RC
1 LJ
N
139.5 318.5 M
138.621 316.379 L
136.5 315.5 L
134.379 316.379 L
133.5 318.5 L
134.379 320.621 L
136.5 321.5 L
138.621 320.621 L
cp
S
GR
GS
0.851 0.325 0.098 RC
1 LJ
N
143.5 355.5 M
142.621 353.379 L
140.5 352.5 L
138.379 353.379 L
137.5 355.5 L
138.379 357.621 L
140.5 358.5 L
142.621 357.621 L
cp
S
GR
GS
0.929 0.694 0.125 RC
1 LJ
N
92.371 51.683 M
96.742 77.543 L
101.113 102.06 L
105.483 126.218 L
109.854 150.19 L
114.225 172.841 L
118.596 194.426 L
122.967 215.843 L
127.338 235.811 L
131.708 253.048 L
136.079 273.415 L
140.45 285.47 L
144.821 311.411 L
149.192 341.652 L
153.563 365.33 L
157.933 389.522 L
S
GR
GS
0.929 0.694 0.125 RC
1 LJ
N
95.5 51.5 M
94.621 49.379 L
92.5 48.5 L
90.379 49.379 L
89.5 51.5 L
90.379 53.621 L
92.5 54.5 L
94.621 53.621 L
cp
S
GR
GS
0.929 0.694 0.125 RC
1 LJ
N
99.5 77.5 M
98.621 75.379 L
96.5 74.5 L
94.379 75.379 L
93.5 77.5 L
94.379 79.621 L
96.5 80.5 L
98.621 79.621 L
cp
S
GR
GS
0.929 0.694 0.125 RC
1 LJ
N
104.5 102.5 M
103.621 100.379 L
101.5 99.5 L
99.379 100.379 L
98.5 102.5 L
99.379 104.621 L
101.5 105.5 L
103.621 104.621 L
cp
S
GR
GS
0.929 0.694 0.125 RC
1 LJ
N
108.5 126.5 M
107.621 124.379 L
105.5 123.5 L
103.379 124.379 L
102.5 126.5 L
103.379 128.621 L
105.5 129.5 L
107.621 128.621 L
cp
S
GR
GS
0.929 0.694 0.125 RC
1 LJ
N
112.5 150.5 M
111.621 148.379 L
109.5 147.5 L
107.379 148.379 L
106.5 150.5 L
107.379 152.621 L
109.5 153.5 L
111.621 152.621 L
cp
S
GR
GS
0.929 0.694 0.125 RC
1 LJ
N
117.5 172.5 M
116.621 170.379 L
114.5 169.5 L
112.379 170.379 L
111.5 172.5 L
112.379 174.621 L
114.5 175.5 L
116.621 174.621 L
cp
S
GR
GS
0.929 0.694 0.125 RC
1 LJ
N
121.5 194.5 M
120.621 192.379 L
118.5 191.5 L
116.379 192.379 L
115.5 194.5 L
116.379 196.621 L
118.5 197.5 L
120.621 196.621 L
cp
S
GR
GS
0.929 0.694 0.125 RC
1 LJ
N
125.5 215.5 M
124.621 213.379 L
122.5 212.5 L
120.379 213.379 L
119.5 215.5 L
120.379 217.621 L
122.5 218.5 L
124.621 217.621 L
cp
S
GR
GS
0.929 0.694 0.125 RC
1 LJ
N
130.5 235.5 M
129.621 233.379 L
127.5 232.5 L
125.379 233.379 L
124.5 235.5 L
125.379 237.621 L
127.5 238.5 L
129.621 237.621 L
cp
S
GR
GS
0.929 0.694 0.125 RC
1 LJ
N
134.5 253.5 M
133.621 251.379 L
131.5 250.5 L
129.379 251.379 L
128.5 253.5 L
129.379 255.621 L
131.5 256.5 L
133.621 255.621 L
cp
S
GR
GS
0.929 0.694 0.125 RC
1 LJ
N
139.5 273.5 M
138.621 271.379 L
136.5 270.5 L
134.379 271.379 L
133.5 273.5 L
134.379 275.621 L
136.5 276.5 L
138.621 275.621 L
cp
S
GR
GS
0.929 0.694 0.125 RC
1 LJ
N
143.5 285.5 M
142.621 283.379 L
140.5 282.5 L
138.379 283.379 L
137.5 285.5 L
138.379 287.621 L
140.5 288.5 L
142.621 287.621 L
cp
S
GR
GS
0.929 0.694 0.125 RC
1 LJ
N
147.5 311.5 M
146.621 309.379 L
144.5 308.5 L
142.379 309.379 L
141.5 311.5 L
142.379 313.621 L
144.5 314.5 L
146.621 313.621 L
cp
S
GR
GS
0.929 0.694 0.125 RC
1 LJ
N
152.5 341.5 M
151.621 339.379 L
149.5 338.5 L
147.379 339.379 L
146.5 341.5 L
147.379 343.621 L
149.5 344.5 L
151.621 343.621 L
cp
S
GR
GS
0.929 0.694 0.125 RC
1 LJ
N
156.5 365.5 M
155.621 363.379 L
153.5 362.5 L
151.379 363.379 L
150.5 365.5 L
151.379 367.621 L
153.5 368.5 L
155.621 367.621 L
cp
S
GR
GS
0.929 0.694 0.125 RC
1 LJ
N
160.5 389.5 M
159.621 387.379 L
157.5 386.5 L
155.379 387.379 L
154.5 389.5 L
155.379 391.621 L
157.5 392.5 L
159.621 391.621 L
cp
S
GR
GS
0.494 0.184 0.557 RC
1 LJ
N
92.371 51.683 M
96.742 53.578 L
101.113 51.876 L
105.483 66.016 L
109.854 67.925 L
114.225 84.158 L
118.596 85.876 L
122.967 102.501 L
127.338 103.855 L
131.708 119.065 L
136.079 119.535 L
140.45 133.29 L
144.821 137.116 L
149.192 152.816 L
153.563 159.31 L
157.933 172.221 L
162.304 180.098 L
166.675 192.617 L
171.046 201.508 L
175.417 213.731 L
179.787 223.257 L
184.158 235.399 L
188.529 245.646 L
192.9 258.003 L
197.271 269.534 L
201.642 283.32 L
206.012 295.888 L
210.383 309.092 L
214.754 322.621 L
219.125 336.882 L
223.496 352.287 L
227.867 379.416 L
S
GR
GS
0.494 0.184 0.557 RC
1 LJ
N
95.5 51.5 M
94.621 49.379 L
92.5 48.5 L
90.379 49.379 L
89.5 51.5 L
90.379 53.621 L
92.5 54.5 L
94.621 53.621 L
cp
S
GR
GS
0.494 0.184 0.557 RC
1 LJ
N
99.5 53.5 M
98.621 51.379 L
96.5 50.5 L
94.379 51.379 L
93.5 53.5 L
94.379 55.621 L
96.5 56.5 L
98.621 55.621 L
cp
S
GR
GS
0.494 0.184 0.557 RC
1 LJ
N
104.5 51.5 M
103.621 49.379 L
101.5 48.5 L
99.379 49.379 L
98.5 51.5 L
99.379 53.621 L
101.5 54.5 L
103.621 53.621 L
cp
S
GR
GS
0.494 0.184 0.557 RC
1 LJ
N
108.5 66.5 M
107.621 64.379 L
105.5 63.5 L
103.379 64.379 L
102.5 66.5 L
103.379 68.621 L
105.5 69.5 L
107.621 68.621 L
cp
S
GR
GS
0.494 0.184 0.557 RC
1 LJ
N
112.5 67.5 M
111.621 65.379 L
109.5 64.5 L
107.379 65.379 L
106.5 67.5 L
107.379 69.621 L
109.5 70.5 L
111.621 69.621 L
cp
S
GR
GS
0.494 0.184 0.557 RC
1 LJ
N
117.5 84.5 M
116.621 82.379 L
114.5 81.5 L
112.379 82.379 L
111.5 84.5 L
112.379 86.621 L
114.5 87.5 L
116.621 86.621 L
cp
S
GR
GS
0.494 0.184 0.557 RC
1 LJ
N
121.5 85.5 M
120.621 83.379 L
118.5 82.5 L
116.379 83.379 L
115.5 85.5 L
116.379 87.621 L
118.5 88.5 L
120.621 87.621 L
cp
S
GR
GS
0.494 0.184 0.557 RC
1 LJ
N
125.5 102.5 M
124.621 100.379 L
122.5 99.5 L
120.379 100.379 L
119.5 102.5 L
120.379 104.621 L
122.5 105.5 L
124.621 104.621 L
cp
S
GR
GS
0.494 0.184 0.557 RC
1 LJ
N
130.5 103.5 M
129.621 101.379 L
127.5 100.5 L
125.379 101.379 L
124.5 103.5 L
125.379 105.621 L
127.5 106.5 L
129.621 105.621 L
cp
S
GR
GS
0.494 0.184 0.557 RC
1 LJ
N
134.5 119.5 M
133.621 117.379 L
131.5 116.5 L
129.379 117.379 L
128.5 119.5 L
129.379 121.621 L
131.5 122.5 L
133.621 121.621 L
cp
S
GR
GS
0.494 0.184 0.557 RC
1 LJ
N
139.5 119.5 M
138.621 117.379 L
136.5 116.5 L
134.379 117.379 L
133.5 119.5 L
134.379 121.621 L
136.5 122.5 L
138.621 121.621 L
cp
S
GR
GS
0.494 0.184 0.557 RC
1 LJ
N
143.5 133.5 M
142.621 131.379 L
140.5 130.5 L
138.379 131.379 L
137.5 133.5 L
138.379 135.621 L
140.5 136.5 L
142.621 135.621 L
cp
S
GR
GS
0.494 0.184 0.557 RC
1 LJ
N
147.5 137.5 M
146.621 135.379 L
144.5 134.5 L
142.379 135.379 L
141.5 137.5 L
142.379 139.621 L
144.5 140.5 L
146.621 139.621 L
cp
S
GR
GS
0.494 0.184 0.557 RC
1 LJ
N
152.5 152.5 M
151.621 150.379 L
149.5 149.5 L
147.379 150.379 L
146.5 152.5 L
147.379 154.621 L
149.5 155.5 L
151.621 154.621 L
cp
S
GR
GS
0.494 0.184 0.557 RC
1 LJ
N
156.5 159.5 M
155.621 157.379 L
153.5 156.5 L
151.379 157.379 L
150.5 159.5 L
151.379 161.621 L
153.5 162.5 L
155.621 161.621 L
cp
S
GR
GS
0.494 0.184 0.557 RC
1 LJ
N
160.5 172.5 M
159.621 170.379 L
157.5 169.5 L
155.379 170.379 L
154.5 172.5 L
155.379 174.621 L
157.5 175.5 L
159.621 174.621 L
cp
S
GR
GS
0.494 0.184 0.557 RC
1 LJ
N
165.5 180.5 M
164.621 178.379 L
162.5 177.5 L
160.379 178.379 L
159.5 180.5 L
160.379 182.621 L
162.5 183.5 L
164.621 182.621 L
cp
S
GR
GS
0.494 0.184 0.557 RC
1 LJ
N
169.5 192.5 M
168.621 190.379 L
166.5 189.5 L
164.379 190.379 L
163.5 192.5 L
164.379 194.621 L
166.5 195.5 L
168.621 194.621 L
cp
S
GR
GS
0.494 0.184 0.557 RC
1 LJ
N
174.5 201.5 M
173.621 199.379 L
171.5 198.5 L
169.379 199.379 L
168.5 201.5 L
169.379 203.621 L
171.5 204.5 L
173.621 203.621 L
cp
S
GR
GS
0.494 0.184 0.557 RC
1 LJ
N
178.5 213.5 M
177.621 211.379 L
175.5 210.5 L
173.379 211.379 L
172.5 213.5 L
173.379 215.621 L
175.5 216.5 L
177.621 215.621 L
cp
S
GR
GS
0.494 0.184 0.557 RC
1 LJ
N
182.5 223.5 M
181.621 221.379 L
179.5 220.5 L
177.379 221.379 L
176.5 223.5 L
177.379 225.621 L
179.5 226.5 L
181.621 225.621 L
cp
S
GR
GS
0.494 0.184 0.557 RC
1 LJ
N
187.5 235.5 M
186.621 233.379 L
184.5 232.5 L
182.379 233.379 L
181.5 235.5 L
182.379 237.621 L
184.5 238.5 L
186.621 237.621 L
cp
S
GR
GS
0.494 0.184 0.557 RC
1 LJ
N
191.5 245.5 M
190.621 243.379 L
188.5 242.5 L
186.379 243.379 L
185.5 245.5 L
186.379 247.621 L
188.5 248.5 L
190.621 247.621 L
cp
S
GR
GS
0.494 0.184 0.557 RC
1 LJ
N
195.5 258.5 M
194.621 256.379 L
192.5 255.5 L
190.379 256.379 L
189.5 258.5 L
190.379 260.621 L
192.5 261.5 L
194.621 260.621 L
cp
S
GR
GS
0.494 0.184 0.557 RC
1 LJ
N
200.5 269.5 M
199.621 267.379 L
197.5 266.5 L
195.379 267.379 L
194.5 269.5 L
195.379 271.621 L
197.5 272.5 L
199.621 271.621 L
cp
S
GR
GS
0.494 0.184 0.557 RC
1 LJ
N
204.5 283.5 M
203.621 281.379 L
201.5 280.5 L
199.379 281.379 L
198.5 283.5 L
199.379 285.621 L
201.5 286.5 L
203.621 285.621 L
cp
S
GR
GS
0.494 0.184 0.557 RC
1 LJ
N
209.5 295.5 M
208.621 293.379 L
206.5 292.5 L
204.379 293.379 L
203.5 295.5 L
204.379 297.621 L
206.5 298.5 L
208.621 297.621 L
cp
S
GR
GS
0.494 0.184 0.557 RC
1 LJ
N
213.5 309.5 M
212.621 307.379 L
210.5 306.5 L
208.379 307.379 L
207.5 309.5 L
208.379 311.621 L
210.5 312.5 L
212.621 311.621 L
cp
S
GR
GS
0.494 0.184 0.557 RC
1 LJ
N
217.5 322.5 M
216.621 320.379 L
214.5 319.5 L
212.379 320.379 L
211.5 322.5 L
212.379 324.621 L
214.5 325.5 L
216.621 324.621 L
cp
S
GR
GS
0.494 0.184 0.557 RC
1 LJ
N
222.5 336.5 M
221.621 334.379 L
219.5 333.5 L
217.379 334.379 L
216.5 336.5 L
217.379 338.621 L
219.5 339.5 L
221.621 338.621 L
cp
S
GR
GS
0.494 0.184 0.557 RC
1 LJ
N
226.5 352.5 M
225.621 350.379 L
223.5 349.5 L
221.379 350.379 L
220.5 352.5 L
221.379 354.621 L
223.5 355.5 L
225.621 354.621 L
cp
S
GR
GS
0.494 0.184 0.557 RC
1 LJ
N
230.5 379.5 M
229.621 377.379 L
227.5 376.5 L
225.379 377.379 L
224.5 379.5 L
225.379 381.621 L
227.5 382.5 L
229.621 381.621 L
cp
S
GR
GS
[1 0 0 1 513 53.25] CT
/Helvetica 9 F
GS
[1 0 0 1 0 0] CT
0 2 moveto 
1 -1 scale
(No) t 
GR
GR
GS
0 0.447 0.741 RC
1 LJ
N
480 53.25 M
510 53.25 L
S
GR
GS
0 0.447 0.741 RC
1 LJ
N
497.5 53.5 M
496.621 51.379 L
494.5 50.5 L
492.379 51.379 L
491.5 53.5 L
492.379 55.621 L
494.5 56.5 L
496.621 55.621 L
cp
S
GR
GS
[1 0 0 1 513 63.25] CT
/Helvetica 9 F
GS
[1 0 0 1 0 0] CT
0 2 moveto 
1 -1 scale
(Random) t 
GR
GR
GS
0.851 0.325 0.098 RC
1 LJ
N
480 63.25 M
510 63.25 L
S
GR
GS
0.851 0.325 0.098 RC
1 LJ
N
497.5 63.5 M
496.621 61.379 L
494.5 60.5 L
492.379 61.379 L
491.5 63.5 L
492.379 65.621 L
494.5 66.5 L
496.621 65.621 L
cp
S
GR
GS
[1 0 0 1 513 73.25] CT
/Helvetica 9 F
GS
[1 0 0 1 0 0] CT
0 2 moveto 
1 -1 scale
(Random replacement) t 
GR
GR
GS
0.929 0.694 0.125 RC
1 LJ
N
480 73.25 M
510 73.25 L
S
GR
GS
0.929 0.694 0.125 RC
1 LJ
N
497.5 73.5 M
496.621 71.379 L
494.5 70.5 L
492.379 71.379 L
491.5 73.5 L
492.379 75.621 L
494.5 76.5 L
496.621 75.621 L
cp
S
GR
GS
[1 0 0 1 513 83.25] CT
/Helvetica 9 F
GS
[1 0 0 1 0 0] CT
0 2 moveto 
1 -1 scale
(Shuffling) t 
GR
GR
GS
0.494 0.184 0.557 RC
1 LJ
N
480 83.25 M
510 83.25 L
S
GR
GS
0.494 0.184 0.557 RC
1 LJ
N
497.5 83.5 M
496.621 81.379 L
494.5 80.5 L
492.379 81.379 L
491.5 83.5 L
492.379 85.621 L
494.5 86.5 L
496.621 85.621 L
cp
S
GR
%%Trailer
%%Pages: 1
%%EOF
