%!PS-Adobe-3.0 EPSF-3.0
%%Creator: (MATLAB, The Mathworks, Inc. Version 8.6.0.267246 \(R2015b\). Operating System: Mac OS X)
%%Title: /Users/gauthiermuguerza/Desktop/rsgd/report/images/fourNoiseTrain.eps
%%CreationDate: 2018-05-31T18:09:50
%%Pages: (atend)
%%BoundingBox:     8     0   533   426
%%LanguageLevel: 3
%%EndComments
%%BeginProlog
%%BeginResource: procset (Apache XML Graphics Std ProcSet) 1.2 0
%%Version: 1.2 0
%%Copyright: (Copyright 2001-2003,2010 The Apache Software Foundation. License terms: http://www.apache.org/licenses/LICENSE-2.0)
/bd{bind def}bind def
/ld{load def}bd
/GR/grestore ld
/M/moveto ld
/LJ/setlinejoin ld
/C/curveto ld
/f/fill ld
/LW/setlinewidth ld
/GC/setgray ld
/t/show ld
/N/newpath ld
/CT/concat ld
/cp/closepath ld
/S/stroke ld
/L/lineto ld
/CC/setcmykcolor ld
/A/ashow ld
/GS/gsave ld
/RC/setrgbcolor ld
/RM/rmoveto ld
/ML/setmiterlimit ld
/re {4 2 roll M
1 index 0 rlineto
0 exch rlineto
neg 0 rlineto
cp } bd
/_ctm matrix def
/_tm matrix def
/BT { _ctm currentmatrix pop matrix _tm copy pop 0 0 moveto } bd
/ET { _ctm setmatrix } bd
/iTm { _ctm setmatrix _tm concat } bd
/Tm { _tm astore pop iTm 0 0 moveto } bd
/ux 0.0 def
/uy 0.0 def
/F {
  /Tp exch def
  /Tf exch def
  Tf findfont Tp scalefont setfont
  /cf Tf def  /cs Tp def
} bd
/ULS {currentpoint /uy exch def /ux exch def} bd
/ULE {
  /Tcx currentpoint pop def
  gsave
  newpath
  cf findfont cs scalefont dup
  /FontMatrix get 0 get /Ts exch def /FontInfo get dup
  /UnderlinePosition get Ts mul /To exch def
  /UnderlineThickness get Ts mul /Tt exch def
  ux uy To add moveto  Tcx uy To add lineto
  Tt setlinewidth stroke
  grestore
} bd
/OLE {
  /Tcx currentpoint pop def
  gsave
  newpath
  cf findfont cs scalefont dup
  /FontMatrix get 0 get /Ts exch def /FontInfo get dup
  /UnderlinePosition get Ts mul /To exch def
  /UnderlineThickness get Ts mul /Tt exch def
  ux uy To add cs add moveto Tcx uy To add cs add lineto
  Tt setlinewidth stroke
  grestore
} bd
/SOE {
  /Tcx currentpoint pop def
  gsave
  newpath
  cf findfont cs scalefont dup
  /FontMatrix get 0 get /Ts exch def /FontInfo get dup
  /UnderlinePosition get Ts mul /To exch def
  /UnderlineThickness get Ts mul /Tt exch def
  ux uy To add cs 10 mul 26 idiv add moveto Tcx uy To add cs 10 mul 26 idiv add lineto
  Tt setlinewidth stroke
  grestore
} bd
/QT {
/Y22 exch store
/X22 exch store
/Y21 exch store
/X21 exch store
currentpoint
/Y21 load 2 mul add 3 div exch
/X21 load 2 mul add 3 div exch
/X21 load 2 mul /X22 load add 3 div
/Y21 load 2 mul /Y22 load add 3 div
/X22 load /Y22 load curveto
} bd
/SSPD {
dup length /d exch dict def
{
/v exch def
/k exch def
currentpagedevice k known {
/cpdv currentpagedevice k get def
v cpdv ne {
/upd false def
/nullv v type /nulltype eq def
/nullcpdv cpdv type /nulltype eq def
nullv nullcpdv or
{
/upd true def
} {
/sametype v type cpdv type eq def
sametype {
v type /arraytype eq {
/vlen v length def
/cpdvlen cpdv length def
vlen cpdvlen eq {
0 1 vlen 1 sub {
/i exch def
/obj v i get def
/cpdobj cpdv i get def
obj cpdobj ne {
/upd true def
exit
} if
} for
} {
/upd true def
} ifelse
} {
v type /dicttype eq {
v {
/dv exch def
/dk exch def
/cpddv cpdv dk get def
dv cpddv ne {
/upd true def
exit
} if
} forall
} {
/upd true def
} ifelse
} ifelse
} if
} ifelse
upd true eq {
d k v put
} if
} if
} if
} forall
d length 0 gt {
d setpagedevice
} if
} bd
%%EndResource
%%BeginResource: procset (Apache XML Graphics EPS ProcSet) 1.0 0
%%Version: 1.0 0
%%Copyright: (Copyright 2002-2003 The Apache Software Foundation. License terms: http://www.apache.org/licenses/LICENSE-2.0)
/BeginEPSF { %def
/b4_Inc_state save def         % Save state for cleanup
/dict_count countdictstack def % Count objects on dict stack
/op_count count 1 sub def      % Count objects on operand stack
userdict begin                 % Push userdict on dict stack
/showpage { } def              % Redefine showpage, { } = null proc
0 setgray 0 setlinecap         % Prepare graphics state
1 setlinewidth 0 setlinejoin
10 setmiterlimit [ ] 0 setdash newpath
/languagelevel where           % If level not equal to 1 then
{pop languagelevel             % set strokeadjust and
1 ne                           % overprint to their defaults.
{false setstrokeadjust false setoverprint
} if
} if
} bd
/EndEPSF { %def
count op_count sub {pop} repeat            % Clean up stacks
countdictstack dict_count sub {end} repeat
b4_Inc_state restore
} bd
%%EndResource
%FOPBeginFontDict
%%IncludeResource: font Courier-Bold
%%IncludeResource: font Helvetica
%%IncludeResource: font Courier-BoldOblique
%%IncludeResource: font Courier-Oblique
%%IncludeResource: font Times-Roman
%%IncludeResource: font Helvetica-BoldOblique
%%IncludeResource: font Helvetica-Bold
%%IncludeResource: font Helvetica-Oblique
%%IncludeResource: font Times-BoldItalic
%%IncludeResource: font Courier
%%IncludeResource: font Times-Italic
%%IncludeResource: font Times-Bold
%%IncludeResource: font Symbol
%%IncludeResource: font ZapfDingbats
%FOPEndFontDict
%%BeginResource: encoding WinAnsiEncoding
/WinAnsiEncoding [
/.notdef /.notdef /.notdef /.notdef /.notdef
/.notdef /.notdef /.notdef /.notdef /.notdef
/.notdef /.notdef /.notdef /.notdef /.notdef
/.notdef /.notdef /.notdef /.notdef /.notdef
/.notdef /.notdef /.notdef /.notdef /.notdef
/.notdef /.notdef /.notdef /.notdef /.notdef
/.notdef /.notdef /space /exclam /quotedbl
/numbersign /dollar /percent /ampersand /quotesingle
/parenleft /parenright /asterisk /plus /comma
/hyphen /period /slash /zero /one
/two /three /four /five /six
/seven /eight /nine /colon /semicolon
/less /equal /greater /question /at
/A /B /C /D /E
/F /G /H /I /J
/K /L /M /N /O
/P /Q /R /S /T
/U /V /W /X /Y
/Z /bracketleft /backslash /bracketright /asciicircum
/underscore /quoteleft /a /b /c
/d /e /f /g /h
/i /j /k /l /m
/n /o /p /q /r
/s /t /u /v /w
/x /y /z /braceleft /bar
/braceright /asciitilde /bullet /Euro /bullet
/quotesinglbase /florin /quotedblbase /ellipsis /dagger
/daggerdbl /circumflex /perthousand /Scaron /guilsinglleft
/OE /bullet /Zcaron /bullet /bullet
/quoteleft /quoteright /quotedblleft /quotedblright /bullet
/endash /emdash /asciitilde /trademark /scaron
/guilsinglright /oe /bullet /zcaron /Ydieresis
/space /exclamdown /cent /sterling /currency
/yen /brokenbar /section /dieresis /copyright
/ordfeminine /guillemotleft /logicalnot /sfthyphen /registered
/macron /degree /plusminus /twosuperior /threesuperior
/acute /mu /paragraph /middot /cedilla
/onesuperior /ordmasculine /guillemotright /onequarter /onehalf
/threequarters /questiondown /Agrave /Aacute /Acircumflex
/Atilde /Adieresis /Aring /AE /Ccedilla
/Egrave /Eacute /Ecircumflex /Edieresis /Igrave
/Iacute /Icircumflex /Idieresis /Eth /Ntilde
/Ograve /Oacute /Ocircumflex /Otilde /Odieresis
/multiply /Oslash /Ugrave /Uacute /Ucircumflex
/Udieresis /Yacute /Thorn /germandbls /agrave
/aacute /acircumflex /atilde /adieresis /aring
/ae /ccedilla /egrave /eacute /ecircumflex
/edieresis /igrave /iacute /icircumflex /idieresis
/eth /ntilde /ograve /oacute /ocircumflex
/otilde /odieresis /divide /oslash /ugrave
/uacute /ucircumflex /udieresis /yacute /thorn
/ydieresis
] def
%%EndResource
%FOPBeginFontReencode
/Courier-Bold findfont
dup length dict begin
  {1 index /FID ne {def} {pop pop} ifelse} forall
  /Encoding WinAnsiEncoding def
  currentdict
end
/Courier-Bold exch definefont pop
/Helvetica findfont
dup length dict begin
  {1 index /FID ne {def} {pop pop} ifelse} forall
  /Encoding WinAnsiEncoding def
  currentdict
end
/Helvetica exch definefont pop
/Courier-BoldOblique findfont
dup length dict begin
  {1 index /FID ne {def} {pop pop} ifelse} forall
  /Encoding WinAnsiEncoding def
  currentdict
end
/Courier-BoldOblique exch definefont pop
/Courier-Oblique findfont
dup length dict begin
  {1 index /FID ne {def} {pop pop} ifelse} forall
  /Encoding WinAnsiEncoding def
  currentdict
end
/Courier-Oblique exch definefont pop
/Times-Roman findfont
dup length dict begin
  {1 index /FID ne {def} {pop pop} ifelse} forall
  /Encoding WinAnsiEncoding def
  currentdict
end
/Times-Roman exch definefont pop
/Helvetica-BoldOblique findfont
dup length dict begin
  {1 index /FID ne {def} {pop pop} ifelse} forall
  /Encoding WinAnsiEncoding def
  currentdict
end
/Helvetica-BoldOblique exch definefont pop
/Helvetica-Bold findfont
dup length dict begin
  {1 index /FID ne {def} {pop pop} ifelse} forall
  /Encoding WinAnsiEncoding def
  currentdict
end
/Helvetica-Bold exch definefont pop
/Helvetica-Oblique findfont
dup length dict begin
  {1 index /FID ne {def} {pop pop} ifelse} forall
  /Encoding WinAnsiEncoding def
  currentdict
end
/Helvetica-Oblique exch definefont pop
/Times-BoldItalic findfont
dup length dict begin
  {1 index /FID ne {def} {pop pop} ifelse} forall
  /Encoding WinAnsiEncoding def
  currentdict
end
/Times-BoldItalic exch definefont pop
/Courier findfont
dup length dict begin
  {1 index /FID ne {def} {pop pop} ifelse} forall
  /Encoding WinAnsiEncoding def
  currentdict
end
/Courier exch definefont pop
/Times-Italic findfont
dup length dict begin
  {1 index /FID ne {def} {pop pop} ifelse} forall
  /Encoding WinAnsiEncoding def
  currentdict
end
/Times-Italic exch definefont pop
/Times-Bold findfont
dup length dict begin
  {1 index /FID ne {def} {pop pop} ifelse} forall
  /Encoding WinAnsiEncoding def
  currentdict
end
/Times-Bold exch definefont pop
%FOPEndFontReencode
%%EndProlog
%%Page: 1 1
%%PageBoundingBox: 0 0 576 432
%%BeginPageSetup
[1 0 0 -1 0 432] CT
%%EndPageSetup
GS
1 GC
N
0 0 576 432 re
f
GR
GS
1 GC
N
0 0 576 432 re
f
GR
GS
1 GC
N
75 384 M
521.5 384 L
521.5 32.5 L
75 32.5 L
cp
f
GR
GS
0.149 GC
2 setlinecap
1 LJ
0.5 LW
N
75 384 M
521.5 384 L
S
GR
GS
0.149 GC
2 setlinecap
1 LJ
0.5 LW
N
75 384 M
75 379.535 L
S
GR
GS
0.149 GC
2 setlinecap
1 LJ
0.5 LW
N
186.625 384 M
186.625 379.535 L
S
GR
GS
0.149 GC
2 setlinecap
1 LJ
0.5 LW
N
298.25 384 M
298.25 379.535 L
S
GR
GS
0.149 GC
2 setlinecap
1 LJ
0.5 LW
N
409.875 384 M
409.875 379.535 L
S
GR
GS
0.149 GC
2 setlinecap
1 LJ
0.5 LW
N
521.5 384 M
521.5 379.535 L
S
GR
GS
[1 0 0 1 75 390] CT
0.149 GC
/Helvetica 20 F
GS
[1 0 0 1 0 0] CT
-6 16 moveto 
1 -1 scale
(0) t 
GR
GR
GS
[1 0 0 1 186.625 390] CT
0.149 GC
/Helvetica 20 F
GS
[1 0 0 1 0 0] CT
-6 16 moveto 
1 -1 scale
(5) t 
GR
GR
GS
[1 0 0 1 298.25 390] CT
0.149 GC
/Helvetica 20 F
GS
[1 0 0 1 0 0] CT
-11.5 16 moveto 
1 -1 scale
(10) t 
GR
GR
GS
[1 0 0 1 409.875 390] CT
0.149 GC
/Helvetica 20 F
GS
[1 0 0 1 0 0] CT
-11.5 16 moveto 
1 -1 scale
(15) t 
GR
GR
GS
[1 0 0 1 521.5 390] CT
0.149 GC
/Helvetica 20 F
GS
[1 0 0 1 0 0] CT
-11.5 16 moveto 
1 -1 scale
(20) t 
GR
GR
GS
[1 0 0 1 298.25021 411.5] CT
0.149 GC
/Helvetica 20 F
GS
[1 0 0 1 0 0] CT
-41.5 16 moveto 
1 -1 scale
(Iterations) t 
GR
GR
GS
0.149 GC
2 setlinecap
1 LJ
0.5 LW
N
75 384 M
75 32.5 L
S
GR
GS
0.149 GC
2 setlinecap
1 LJ
0.5 LW
N
75 384 M
79.465 384 L
S
GR
GS
0.149 GC
2 setlinecap
1 LJ
0.5 LW
N
75 266.833 M
79.465 266.833 L
S
GR
GS
0.149 GC
2 setlinecap
1 LJ
0.5 LW
N
75 149.667 M
79.465 149.667 L
S
GR
GS
0.149 GC
2 setlinecap
1 LJ
0.5 LW
N
75 32.5 M
79.465 32.5 L
S
GR
GS
0.149 GC
2 setlinecap
1 LJ
0.5 LW
N
75 348.729 M
77.232 348.729 L
S
GR
GS
0.149 GC
2 setlinecap
1 LJ
0.5 LW
N
75 328.097 M
77.232 328.097 L
S
GR
GS
0.149 GC
2 setlinecap
1 LJ
0.5 LW
N
75 313.459 M
77.232 313.459 L
S
GR
GS
0.149 GC
2 setlinecap
1 LJ
0.5 LW
N
75 302.104 M
77.232 302.104 L
S
GR
GS
0.149 GC
2 setlinecap
1 LJ
0.5 LW
N
75 292.827 M
77.232 292.827 L
S
GR
GS
0.149 GC
2 setlinecap
1 LJ
0.5 LW
N
75 284.983 M
77.232 284.983 L
S
GR
GS
0.149 GC
2 setlinecap
1 LJ
0.5 LW
N
75 278.188 M
77.232 278.188 L
S
GR
GS
0.149 GC
2 setlinecap
1 LJ
0.5 LW
N
75 272.195 M
77.232 272.195 L
S
GR
GS
0.149 GC
2 setlinecap
1 LJ
0.5 LW
N
75 231.563 M
77.232 231.563 L
S
GR
GS
0.149 GC
2 setlinecap
1 LJ
0.5 LW
N
75 210.931 M
77.232 210.931 L
S
GR
GS
0.149 GC
2 setlinecap
1 LJ
0.5 LW
N
75 196.292 M
77.232 196.292 L
S
GR
GS
0.149 GC
2 setlinecap
1 LJ
0.5 LW
N
75 184.937 M
77.232 184.937 L
S
GR
GS
0.149 GC
2 setlinecap
1 LJ
0.5 LW
N
75 175.66 M
77.232 175.66 L
S
GR
GS
0.149 GC
2 setlinecap
1 LJ
0.5 LW
N
75 167.816 M
77.232 167.816 L
S
GR
GS
0.149 GC
2 setlinecap
1 LJ
0.5 LW
N
75 161.021 M
77.232 161.021 L
S
GR
GS
0.149 GC
2 setlinecap
1 LJ
0.5 LW
N
75 155.028 M
77.232 155.028 L
S
GR
GS
0.149 GC
2 setlinecap
1 LJ
0.5 LW
N
75 114.396 M
77.232 114.396 L
S
GR
GS
0.149 GC
2 setlinecap
1 LJ
0.5 LW
N
75 93.764 M
77.232 93.764 L
S
GR
GS
0.149 GC
2 setlinecap
1 LJ
0.5 LW
N
75 79.125 M
77.232 79.125 L
S
GR
GS
0.149 GC
2 setlinecap
1 LJ
0.5 LW
N
75 67.771 M
77.232 67.771 L
S
GR
GS
0.149 GC
2 setlinecap
1 LJ
0.5 LW
N
75 58.493 M
77.232 58.493 L
S
GR
GS
0.149 GC
2 setlinecap
1 LJ
0.5 LW
N
75 50.649 M
77.232 50.649 L
S
GR
GS
0.149 GC
2 setlinecap
1 LJ
0.5 LW
N
75 43.855 M
77.232 43.855 L
S
GR
GS
0.149 GC
2 setlinecap
1 LJ
0.5 LW
N
75 37.861 M
77.232 37.861 L
S
GR
GS
[1 0 0 1 31 393] CT
0.149 GC
/Helvetica 20 F
GS
[1 0 0 1 0 0] CT
0 0 moveto 
1 -1 scale
(10) t 
GR
GR
GS
[1 0 0 1 54 383] CT
0.149 GC
/Helvetica 16 F
GS
[1 0 0 1 0 0] CT
0 0 moveto 
1 -1 scale
(-2) t 
GR
GR
GS
[1 0 0 1 31 276] CT
0.149 GC
/Helvetica 20 F
GS
[1 0 0 1 0 0] CT
0 0 moveto 
1 -1 scale
(10) t 
GR
GR
GS
[1 0 0 1 54 266] CT
0.149 GC
/Helvetica 16 F
GS
[1 0 0 1 0 0] CT
0 0 moveto 
1 -1 scale
(-1) t 
GR
GR
GS
[1 0 0 1 37 159] CT
0.149 GC
/Helvetica 20 F
GS
[1 0 0 1 0 0] CT
0 0 moveto 
1 -1 scale
(10) t 
GR
GR
GS
[1 0 0 1 60 149] CT
0.149 GC
/Helvetica 16 F
GS
[1 0 0 1 0 0] CT
0 0 moveto 
1 -1 scale
(0) t 
GR
GR
GS
[1 0 0 1 37 42] CT
0.149 GC
/Helvetica 20 F
GS
[1 0 0 1 0 0] CT
0 0 moveto 
1 -1 scale
(10) t 
GR
GR
GS
[1 0 0 1 60 32] CT
0.149 GC
/Helvetica 16 F
GS
[1 0 0 1 0 0] CT
0 0 moveto 
1 -1 scale
(1) t 
GR
GR
GS
[0 -1 1 0 29 208.24983] CT
0.149 GC
/Helvetica 20 F
GS
[1 0 0 1 0 0] CT
-54.5 -5 moveto 
1 -1 scale
(Train RMSE) t 
GR
GR
GS
[1 0 0 1 298.25031 29.75001] CT
/Helvetica-Bold 22 F
GS
[1 0 0 1 0 0] CT
-72.5 -6 moveto 
1 -1 scale
(Training error) t 
GR
GR
GS
0 0.447 0.741 RC
1 LJ
N
97.325 100.116 M
119.65 128.298 L
141.975 162.974 L
164.3 209.136 L
186.625 248.622 L
208.95 268.63 L
231.275 273.954 L
253.6 274.173 L
275.925 275.164 L
298.25 277.615 L
320.575 277.815 L
342.9 278.08 L
365.225 278.768 L
387.55 278.936 L
409.875 278.922 L
432.2 278.978 L
454.525 279.201 L
476.85 279.287 L
499.175 279.306 L
521.5 279.329 L
S
GR
GS
0 0.447 0.741 RC
1 LJ
N
100.5 100.5 M
99.621 98.379 L
97.5 97.5 L
95.379 98.379 L
94.5 100.5 L
95.379 102.621 L
97.5 103.5 L
99.621 102.621 L
cp
S
GR
GS
0 0.447 0.741 RC
1 LJ
N
122.5 128.5 M
121.621 126.379 L
119.5 125.5 L
117.379 126.379 L
116.5 128.5 L
117.379 130.621 L
119.5 131.5 L
121.621 130.621 L
cp
S
GR
GS
0 0.447 0.741 RC
1 LJ
N
144.5 162.5 M
143.621 160.379 L
141.5 159.5 L
139.379 160.379 L
138.5 162.5 L
139.379 164.621 L
141.5 165.5 L
143.621 164.621 L
cp
S
GR
GS
0 0.447 0.741 RC
1 LJ
N
167.5 209.5 M
166.621 207.379 L
164.5 206.5 L
162.379 207.379 L
161.5 209.5 L
162.379 211.621 L
164.5 212.5 L
166.621 211.621 L
cp
S
GR
GS
0 0.447 0.741 RC
1 LJ
N
189.5 248.5 M
188.621 246.379 L
186.5 245.5 L
184.379 246.379 L
183.5 248.5 L
184.379 250.621 L
186.5 251.5 L
188.621 250.621 L
cp
S
GR
GS
0 0.447 0.741 RC
1 LJ
N
211.5 268.5 M
210.621 266.379 L
208.5 265.5 L
206.379 266.379 L
205.5 268.5 L
206.379 270.621 L
208.5 271.5 L
210.621 270.621 L
cp
S
GR
GS
0 0.447 0.741 RC
1 LJ
N
234.5 273.5 M
233.621 271.379 L
231.5 270.5 L
229.379 271.379 L
228.5 273.5 L
229.379 275.621 L
231.5 276.5 L
233.621 275.621 L
cp
S
GR
GS
0 0.447 0.741 RC
1 LJ
N
256.5 274.5 M
255.621 272.379 L
253.5 271.5 L
251.379 272.379 L
250.5 274.5 L
251.379 276.621 L
253.5 277.5 L
255.621 276.621 L
cp
S
GR
GS
0 0.447 0.741 RC
1 LJ
N
278.5 275.5 M
277.621 273.379 L
275.5 272.5 L
273.379 273.379 L
272.5 275.5 L
273.379 277.621 L
275.5 278.5 L
277.621 277.621 L
cp
S
GR
GS
0 0.447 0.741 RC
1 LJ
N
301.5 277.5 M
300.621 275.379 L
298.5 274.5 L
296.379 275.379 L
295.5 277.5 L
296.379 279.621 L
298.5 280.5 L
300.621 279.621 L
cp
S
GR
GS
0 0.447 0.741 RC
1 LJ
N
323.5 277.5 M
322.621 275.379 L
320.5 274.5 L
318.379 275.379 L
317.5 277.5 L
318.379 279.621 L
320.5 280.5 L
322.621 279.621 L
cp
S
GR
GS
0 0.447 0.741 RC
1 LJ
N
345.5 278.5 M
344.621 276.379 L
342.5 275.5 L
340.379 276.379 L
339.5 278.5 L
340.379 280.621 L
342.5 281.5 L
344.621 280.621 L
cp
S
GR
GS
0 0.447 0.741 RC
1 LJ
N
368.5 278.5 M
367.621 276.379 L
365.5 275.5 L
363.379 276.379 L
362.5 278.5 L
363.379 280.621 L
365.5 281.5 L
367.621 280.621 L
cp
S
GR
GS
0 0.447 0.741 RC
1 LJ
N
390.5 278.5 M
389.621 276.379 L
387.5 275.5 L
385.379 276.379 L
384.5 278.5 L
385.379 280.621 L
387.5 281.5 L
389.621 280.621 L
cp
S
GR
GS
0 0.447 0.741 RC
1 LJ
N
412.5 278.5 M
411.621 276.379 L
409.5 275.5 L
407.379 276.379 L
406.5 278.5 L
407.379 280.621 L
409.5 281.5 L
411.621 280.621 L
cp
S
GR
GS
0 0.447 0.741 RC
1 LJ
N
435.5 278.5 M
434.621 276.379 L
432.5 275.5 L
430.379 276.379 L
429.5 278.5 L
430.379 280.621 L
432.5 281.5 L
434.621 280.621 L
cp
S
GR
GS
0 0.447 0.741 RC
1 LJ
N
457.5 279.5 M
456.621 277.379 L
454.5 276.5 L
452.379 277.379 L
451.5 279.5 L
452.379 281.621 L
454.5 282.5 L
456.621 281.621 L
cp
S
GR
GS
0 0.447 0.741 RC
1 LJ
N
479.5 279.5 M
478.621 277.379 L
476.5 276.5 L
474.379 277.379 L
473.5 279.5 L
474.379 281.621 L
476.5 282.5 L
478.621 281.621 L
cp
S
GR
GS
0 0.447 0.741 RC
1 LJ
N
502.5 279.5 M
501.621 277.379 L
499.5 276.5 L
497.379 277.379 L
496.5 279.5 L
497.379 281.621 L
499.5 282.5 L
501.621 281.621 L
cp
S
GR
GS
0 0.447 0.741 RC
1 LJ
N
524.5 279.5 M
523.621 277.379 L
521.5 276.5 L
519.379 277.379 L
518.5 279.5 L
519.379 281.621 L
521.5 282.5 L
523.621 281.621 L
cp
S
GR
GS
0.851 0.325 0.098 RC
1 LJ
N
97.325 100.116 M
119.65 129.551 L
141.975 161.093 L
164.3 208.658 L
186.625 247.16 L
208.95 267.954 L
231.275 273.935 L
253.6 274.176 L
275.925 272.643 L
298.25 278.441 L
320.575 278.27 L
342.9 279.273 L
365.225 279.419 L
387.55 279.309 L
409.875 279.484 L
432.2 279.529 L
454.525 279.521 L
476.85 279.541 L
499.175 279.549 L
521.5 279.527 L
S
GR
GS
0.851 0.325 0.098 RC
1 LJ
N
100.5 100.5 M
99.621 98.379 L
97.5 97.5 L
95.379 98.379 L
94.5 100.5 L
95.379 102.621 L
97.5 103.5 L
99.621 102.621 L
cp
S
GR
GS
0.851 0.325 0.098 RC
1 LJ
N
122.5 129.5 M
121.621 127.379 L
119.5 126.5 L
117.379 127.379 L
116.5 129.5 L
117.379 131.621 L
119.5 132.5 L
121.621 131.621 L
cp
S
GR
GS
0.851 0.325 0.098 RC
1 LJ
N
144.5 161.5 M
143.621 159.379 L
141.5 158.5 L
139.379 159.379 L
138.5 161.5 L
139.379 163.621 L
141.5 164.5 L
143.621 163.621 L
cp
S
GR
GS
0.851 0.325 0.098 RC
1 LJ
N
167.5 208.5 M
166.621 206.379 L
164.5 205.5 L
162.379 206.379 L
161.5 208.5 L
162.379 210.621 L
164.5 211.5 L
166.621 210.621 L
cp
S
GR
GS
0.851 0.325 0.098 RC
1 LJ
N
189.5 247.5 M
188.621 245.379 L
186.5 244.5 L
184.379 245.379 L
183.5 247.5 L
184.379 249.621 L
186.5 250.5 L
188.621 249.621 L
cp
S
GR
GS
0.851 0.325 0.098 RC
1 LJ
N
211.5 267.5 M
210.621 265.379 L
208.5 264.5 L
206.379 265.379 L
205.5 267.5 L
206.379 269.621 L
208.5 270.5 L
210.621 269.621 L
cp
S
GR
GS
0.851 0.325 0.098 RC
1 LJ
N
234.5 273.5 M
233.621 271.379 L
231.5 270.5 L
229.379 271.379 L
228.5 273.5 L
229.379 275.621 L
231.5 276.5 L
233.621 275.621 L
cp
S
GR
GS
0.851 0.325 0.098 RC
1 LJ
N
256.5 274.5 M
255.621 272.379 L
253.5 271.5 L
251.379 272.379 L
250.5 274.5 L
251.379 276.621 L
253.5 277.5 L
255.621 276.621 L
cp
S
GR
GS
0.851 0.325 0.098 RC
1 LJ
N
278.5 272.5 M
277.621 270.379 L
275.5 269.5 L
273.379 270.379 L
272.5 272.5 L
273.379 274.621 L
275.5 275.5 L
277.621 274.621 L
cp
S
GR
GS
0.851 0.325 0.098 RC
1 LJ
N
301.5 278.5 M
300.621 276.379 L
298.5 275.5 L
296.379 276.379 L
295.5 278.5 L
296.379 280.621 L
298.5 281.5 L
300.621 280.621 L
cp
S
GR
GS
0.851 0.325 0.098 RC
1 LJ
N
323.5 278.5 M
322.621 276.379 L
320.5 275.5 L
318.379 276.379 L
317.5 278.5 L
318.379 280.621 L
320.5 281.5 L
322.621 280.621 L
cp
S
GR
GS
0.851 0.325 0.098 RC
1 LJ
N
345.5 279.5 M
344.621 277.379 L
342.5 276.5 L
340.379 277.379 L
339.5 279.5 L
340.379 281.621 L
342.5 282.5 L
344.621 281.621 L
cp
S
GR
GS
0.851 0.325 0.098 RC
1 LJ
N
368.5 279.5 M
367.621 277.379 L
365.5 276.5 L
363.379 277.379 L
362.5 279.5 L
363.379 281.621 L
365.5 282.5 L
367.621 281.621 L
cp
S
GR
GS
0.851 0.325 0.098 RC
1 LJ
N
390.5 279.5 M
389.621 277.379 L
387.5 276.5 L
385.379 277.379 L
384.5 279.5 L
385.379 281.621 L
387.5 282.5 L
389.621 281.621 L
cp
S
GR
GS
0.851 0.325 0.098 RC
1 LJ
N
412.5 279.5 M
411.621 277.379 L
409.5 276.5 L
407.379 277.379 L
406.5 279.5 L
407.379 281.621 L
409.5 282.5 L
411.621 281.621 L
cp
S
GR
GS
0.851 0.325 0.098 RC
1 LJ
N
435.5 279.5 M
434.621 277.379 L
432.5 276.5 L
430.379 277.379 L
429.5 279.5 L
430.379 281.621 L
432.5 282.5 L
434.621 281.621 L
cp
S
GR
GS
0.851 0.325 0.098 RC
1 LJ
N
457.5 279.5 M
456.621 277.379 L
454.5 276.5 L
452.379 277.379 L
451.5 279.5 L
452.379 281.621 L
454.5 282.5 L
456.621 281.621 L
cp
S
GR
GS
0.851 0.325 0.098 RC
1 LJ
N
479.5 279.5 M
478.621 277.379 L
476.5 276.5 L
474.379 277.379 L
473.5 279.5 L
474.379 281.621 L
476.5 282.5 L
478.621 281.621 L
cp
S
GR
GS
0.851 0.325 0.098 RC
1 LJ
N
502.5 279.5 M
501.621 277.379 L
499.5 276.5 L
497.379 277.379 L
496.5 279.5 L
497.379 281.621 L
499.5 282.5 L
501.621 281.621 L
cp
S
GR
GS
0.851 0.325 0.098 RC
1 LJ
N
524.5 279.5 M
523.621 277.379 L
521.5 276.5 L
519.379 277.379 L
518.5 279.5 L
519.379 281.621 L
521.5 282.5 L
523.621 281.621 L
cp
S
GR
GS
0.929 0.694 0.125 RC
1 LJ
N
97.325 100.116 M
119.65 123.466 L
141.975 144.286 L
164.3 172.584 L
186.625 207.325 L
208.95 240.09 L
231.275 260.388 L
253.6 267.855 L
275.925 269.051 L
298.25 267.448 L
320.575 273.599 L
342.9 273.525 L
365.225 274.564 L
387.55 276.159 L
409.875 276.218 L
432.2 276.498 L
454.525 277.401 L
476.85 277.493 L
499.175 277.708 L
521.5 277.865 L
S
GR
GS
0.929 0.694 0.125 RC
1 LJ
N
100.5 100.5 M
99.621 98.379 L
97.5 97.5 L
95.379 98.379 L
94.5 100.5 L
95.379 102.621 L
97.5 103.5 L
99.621 102.621 L
cp
S
GR
GS
0.929 0.694 0.125 RC
1 LJ
N
122.5 123.5 M
121.621 121.379 L
119.5 120.5 L
117.379 121.379 L
116.5 123.5 L
117.379 125.621 L
119.5 126.5 L
121.621 125.621 L
cp
S
GR
GS
0.929 0.694 0.125 RC
1 LJ
N
144.5 144.5 M
143.621 142.379 L
141.5 141.5 L
139.379 142.379 L
138.5 144.5 L
139.379 146.621 L
141.5 147.5 L
143.621 146.621 L
cp
S
GR
GS
0.929 0.694 0.125 RC
1 LJ
N
167.5 172.5 M
166.621 170.379 L
164.5 169.5 L
162.379 170.379 L
161.5 172.5 L
162.379 174.621 L
164.5 175.5 L
166.621 174.621 L
cp
S
GR
GS
0.929 0.694 0.125 RC
1 LJ
N
189.5 207.5 M
188.621 205.379 L
186.5 204.5 L
184.379 205.379 L
183.5 207.5 L
184.379 209.621 L
186.5 210.5 L
188.621 209.621 L
cp
S
GR
GS
0.929 0.694 0.125 RC
1 LJ
N
211.5 240.5 M
210.621 238.379 L
208.5 237.5 L
206.379 238.379 L
205.5 240.5 L
206.379 242.621 L
208.5 243.5 L
210.621 242.621 L
cp
S
GR
GS
0.929 0.694 0.125 RC
1 LJ
N
234.5 260.5 M
233.621 258.379 L
231.5 257.5 L
229.379 258.379 L
228.5 260.5 L
229.379 262.621 L
231.5 263.5 L
233.621 262.621 L
cp
S
GR
GS
0.929 0.694 0.125 RC
1 LJ
N
256.5 267.5 M
255.621 265.379 L
253.5 264.5 L
251.379 265.379 L
250.5 267.5 L
251.379 269.621 L
253.5 270.5 L
255.621 269.621 L
cp
S
GR
GS
0.929 0.694 0.125 RC
1 LJ
N
278.5 269.5 M
277.621 267.379 L
275.5 266.5 L
273.379 267.379 L
272.5 269.5 L
273.379 271.621 L
275.5 272.5 L
277.621 271.621 L
cp
S
GR
GS
0.929 0.694 0.125 RC
1 LJ
N
301.5 267.5 M
300.621 265.379 L
298.5 264.5 L
296.379 265.379 L
295.5 267.5 L
296.379 269.621 L
298.5 270.5 L
300.621 269.621 L
cp
S
GR
GS
0.929 0.694 0.125 RC
1 LJ
N
323.5 273.5 M
322.621 271.379 L
320.5 270.5 L
318.379 271.379 L
317.5 273.5 L
318.379 275.621 L
320.5 276.5 L
322.621 275.621 L
cp
S
GR
GS
0.929 0.694 0.125 RC
1 LJ
N
345.5 273.5 M
344.621 271.379 L
342.5 270.5 L
340.379 271.379 L
339.5 273.5 L
340.379 275.621 L
342.5 276.5 L
344.621 275.621 L
cp
S
GR
GS
0.929 0.694 0.125 RC
1 LJ
N
368.5 274.5 M
367.621 272.379 L
365.5 271.5 L
363.379 272.379 L
362.5 274.5 L
363.379 276.621 L
365.5 277.5 L
367.621 276.621 L
cp
S
GR
GS
0.929 0.694 0.125 RC
1 LJ
N
390.5 276.5 M
389.621 274.379 L
387.5 273.5 L
385.379 274.379 L
384.5 276.5 L
385.379 278.621 L
387.5 279.5 L
389.621 278.621 L
cp
S
GR
GS
0.929 0.694 0.125 RC
1 LJ
N
412.5 276.5 M
411.621 274.379 L
409.5 273.5 L
407.379 274.379 L
406.5 276.5 L
407.379 278.621 L
409.5 279.5 L
411.621 278.621 L
cp
S
GR
GS
0.929 0.694 0.125 RC
1 LJ
N
435.5 276.5 M
434.621 274.379 L
432.5 273.5 L
430.379 274.379 L
429.5 276.5 L
430.379 278.621 L
432.5 279.5 L
434.621 278.621 L
cp
S
GR
GS
0.929 0.694 0.125 RC
1 LJ
N
457.5 277.5 M
456.621 275.379 L
454.5 274.5 L
452.379 275.379 L
451.5 277.5 L
452.379 279.621 L
454.5 280.5 L
456.621 279.621 L
cp
S
GR
GS
0.929 0.694 0.125 RC
1 LJ
N
479.5 277.5 M
478.621 275.379 L
476.5 274.5 L
474.379 275.379 L
473.5 277.5 L
474.379 279.621 L
476.5 280.5 L
478.621 279.621 L
cp
S
GR
GS
0.929 0.694 0.125 RC
1 LJ
N
502.5 277.5 M
501.621 275.379 L
499.5 274.5 L
497.379 275.379 L
496.5 277.5 L
497.379 279.621 L
499.5 280.5 L
501.621 279.621 L
cp
S
GR
GS
0.929 0.694 0.125 RC
1 LJ
N
524.5 277.5 M
523.621 275.379 L
521.5 274.5 L
519.379 275.379 L
518.5 277.5 L
519.379 279.621 L
521.5 280.5 L
523.621 279.621 L
cp
S
GR
GS
0.494 0.184 0.557 RC
1 LJ
N
97.325 100.116 M
119.65 128.298 L
141.975 155.158 L
164.3 195.614 L
186.625 229.34 L
208.95 256.187 L
231.275 268.194 L
253.6 272.53 L
275.925 272.624 L
298.25 274.678 L
320.575 278.363 L
342.9 278.542 L
365.225 279.444 L
387.55 279.429 L
409.875 279.583 L
432.2 279.582 L
454.525 279.607 L
476.85 279.571 L
499.175 279.608 L
521.5 279.601 L
S
GR
GS
0.494 0.184 0.557 RC
1 LJ
N
100.5 100.5 M
99.621 98.379 L
97.5 97.5 L
95.379 98.379 L
94.5 100.5 L
95.379 102.621 L
97.5 103.5 L
99.621 102.621 L
cp
S
GR
GS
0.494 0.184 0.557 RC
1 LJ
N
122.5 128.5 M
121.621 126.379 L
119.5 125.5 L
117.379 126.379 L
116.5 128.5 L
117.379 130.621 L
119.5 131.5 L
121.621 130.621 L
cp
S
GR
GS
0.494 0.184 0.557 RC
1 LJ
N
144.5 155.5 M
143.621 153.379 L
141.5 152.5 L
139.379 153.379 L
138.5 155.5 L
139.379 157.621 L
141.5 158.5 L
143.621 157.621 L
cp
S
GR
GS
0.494 0.184 0.557 RC
1 LJ
N
167.5 195.5 M
166.621 193.379 L
164.5 192.5 L
162.379 193.379 L
161.5 195.5 L
162.379 197.621 L
164.5 198.5 L
166.621 197.621 L
cp
S
GR
GS
0.494 0.184 0.557 RC
1 LJ
N
189.5 229.5 M
188.621 227.379 L
186.5 226.5 L
184.379 227.379 L
183.5 229.5 L
184.379 231.621 L
186.5 232.5 L
188.621 231.621 L
cp
S
GR
GS
0.494 0.184 0.557 RC
1 LJ
N
211.5 256.5 M
210.621 254.379 L
208.5 253.5 L
206.379 254.379 L
205.5 256.5 L
206.379 258.621 L
208.5 259.5 L
210.621 258.621 L
cp
S
GR
GS
0.494 0.184 0.557 RC
1 LJ
N
234.5 268.5 M
233.621 266.379 L
231.5 265.5 L
229.379 266.379 L
228.5 268.5 L
229.379 270.621 L
231.5 271.5 L
233.621 270.621 L
cp
S
GR
GS
0.494 0.184 0.557 RC
1 LJ
N
256.5 272.5 M
255.621 270.379 L
253.5 269.5 L
251.379 270.379 L
250.5 272.5 L
251.379 274.621 L
253.5 275.5 L
255.621 274.621 L
cp
S
GR
GS
0.494 0.184 0.557 RC
1 LJ
N
278.5 272.5 M
277.621 270.379 L
275.5 269.5 L
273.379 270.379 L
272.5 272.5 L
273.379 274.621 L
275.5 275.5 L
277.621 274.621 L
cp
S
GR
GS
0.494 0.184 0.557 RC
1 LJ
N
301.5 274.5 M
300.621 272.379 L
298.5 271.5 L
296.379 272.379 L
295.5 274.5 L
296.379 276.621 L
298.5 277.5 L
300.621 276.621 L
cp
S
GR
GS
0.494 0.184 0.557 RC
1 LJ
N
323.5 278.5 M
322.621 276.379 L
320.5 275.5 L
318.379 276.379 L
317.5 278.5 L
318.379 280.621 L
320.5 281.5 L
322.621 280.621 L
cp
S
GR
GS
0.494 0.184 0.557 RC
1 LJ
N
345.5 278.5 M
344.621 276.379 L
342.5 275.5 L
340.379 276.379 L
339.5 278.5 L
340.379 280.621 L
342.5 281.5 L
344.621 280.621 L
cp
S
GR
GS
0.494 0.184 0.557 RC
1 LJ
N
368.5 279.5 M
367.621 277.379 L
365.5 276.5 L
363.379 277.379 L
362.5 279.5 L
363.379 281.621 L
365.5 282.5 L
367.621 281.621 L
cp
S
GR
GS
0.494 0.184 0.557 RC
1 LJ
N
390.5 279.5 M
389.621 277.379 L
387.5 276.5 L
385.379 277.379 L
384.5 279.5 L
385.379 281.621 L
387.5 282.5 L
389.621 281.621 L
cp
S
GR
GS
0.494 0.184 0.557 RC
1 LJ
N
412.5 279.5 M
411.621 277.379 L
409.5 276.5 L
407.379 277.379 L
406.5 279.5 L
407.379 281.621 L
409.5 282.5 L
411.621 281.621 L
cp
S
GR
GS
0.494 0.184 0.557 RC
1 LJ
N
435.5 279.5 M
434.621 277.379 L
432.5 276.5 L
430.379 277.379 L
429.5 279.5 L
430.379 281.621 L
432.5 282.5 L
434.621 281.621 L
cp
S
GR
GS
0.494 0.184 0.557 RC
1 LJ
N
457.5 279.5 M
456.621 277.379 L
454.5 276.5 L
452.379 277.379 L
451.5 279.5 L
452.379 281.621 L
454.5 282.5 L
456.621 281.621 L
cp
S
GR
GS
0.494 0.184 0.557 RC
1 LJ
N
479.5 279.5 M
478.621 277.379 L
476.5 276.5 L
474.379 277.379 L
473.5 279.5 L
474.379 281.621 L
476.5 282.5 L
478.621 281.621 L
cp
S
GR
GS
0.494 0.184 0.557 RC
1 LJ
N
502.5 279.5 M
501.621 277.379 L
499.5 276.5 L
497.379 277.379 L
496.5 279.5 L
497.379 281.621 L
499.5 282.5 L
501.621 281.621 L
cp
S
GR
GS
0.494 0.184 0.557 RC
1 LJ
N
524.5 279.5 M
523.621 277.379 L
521.5 276.5 L
519.379 277.379 L
518.5 279.5 L
519.379 281.621 L
521.5 282.5 L
523.621 281.621 L
cp
S
GR
GS
[1 0 0 1 227 53.75] CT
/Helvetica 18 F
GS
[1 0 0 1 0 0] CT
0 4.5 moveto 
1 -1 scale
(No shuffling) t 
GR
GR
GS
0 0.447 0.741 RC
1 LJ
N
194 53.75 M
224 53.75 L
S
GR
GS
0 0.447 0.741 RC
1 LJ
N
212.5 53.5 M
211.621 51.379 L
209.5 50.5 L
207.379 51.379 L
206.5 53.5 L
207.379 55.621 L
209.5 56.5 L
211.621 55.621 L
cp
S
GR
GS
[1 0 0 1 227 72.75] CT
/Helvetica 18 F
GS
[1 0 0 1 0 0] CT
0 4.5 moveto 
1 -1 scale
(Random shuffling) t 
GR
GR
GS
0.851 0.325 0.098 RC
1 LJ
N
194 72.75 M
224 72.75 L
S
GR
GS
0.851 0.325 0.098 RC
1 LJ
N
212.5 72.5 M
211.621 70.379 L
209.5 69.5 L
207.379 70.379 L
206.5 72.5 L
207.379 74.621 L
209.5 75.5 L
211.621 74.621 L
cp
S
GR
GS
[1 0 0 1 227 91.75] CT
/Helvetica 18 F
GS
[1 0 0 1 0 0] CT
0 4.5 moveto 
1 -1 scale
(Random shuffling with replacement) t 
GR
GR
GS
0.929 0.694 0.125 RC
1 LJ
N
194 91.75 M
224 91.75 L
S
GR
GS
0.929 0.694 0.125 RC
1 LJ
N
212.5 91.5 M
211.621 89.379 L
209.5 88.5 L
207.379 89.379 L
206.5 91.5 L
207.379 93.621 L
209.5 94.5 L
211.621 93.621 L
cp
S
GR
GS
[1 0 0 1 227 110.75] CT
/Helvetica 18 F
GS
[1 0 0 1 0 0] CT
0 4.5 moveto 
1 -1 scale
(Smart shuffling) t 
GR
GR
GS
0.494 0.184 0.557 RC
1 LJ
N
194 110.75 M
224 110.75 L
S
GR
GS
0.494 0.184 0.557 RC
1 LJ
N
212.5 110.5 M
211.621 108.379 L
209.5 107.5 L
207.379 108.379 L
206.5 110.5 L
207.379 112.621 L
209.5 113.5 L
211.621 112.621 L
cp
S
GR
%%Trailer
%%Pages: 1
%%EOF
