%!PS-Adobe-3.0 EPSF-3.0
%%Creator: (MATLAB, The Mathworks, Inc. Version 8.6.0.267246 \(R2015b\). Operating System: Mac OS X)
%%Title: /Users/gauthiermuguerza/Desktop/rsgd/report/images/fourNoiseTest.eps
%%CreationDate: 2018-05-31T18:09:50
%%Pages: (atend)
%%BoundingBox:     8     0   533   426
%%LanguageLevel: 3
%%EndComments
%%BeginProlog
%%BeginResource: procset (Apache XML Graphics Std ProcSet) 1.2 0
%%Version: 1.2 0
%%Copyright: (Copyright 2001-2003,2010 The Apache Software Foundation. License terms: http://www.apache.org/licenses/LICENSE-2.0)
/bd{bind def}bind def
/ld{load def}bd
/GR/grestore ld
/M/moveto ld
/LJ/setlinejoin ld
/C/curveto ld
/f/fill ld
/LW/setlinewidth ld
/GC/setgray ld
/t/show ld
/N/newpath ld
/CT/concat ld
/cp/closepath ld
/S/stroke ld
/L/lineto ld
/CC/setcmykcolor ld
/A/ashow ld
/GS/gsave ld
/RC/setrgbcolor ld
/RM/rmoveto ld
/ML/setmiterlimit ld
/re {4 2 roll M
1 index 0 rlineto
0 exch rlineto
neg 0 rlineto
cp } bd
/_ctm matrix def
/_tm matrix def
/BT { _ctm currentmatrix pop matrix _tm copy pop 0 0 moveto } bd
/ET { _ctm setmatrix } bd
/iTm { _ctm setmatrix _tm concat } bd
/Tm { _tm astore pop iTm 0 0 moveto } bd
/ux 0.0 def
/uy 0.0 def
/F {
  /Tp exch def
  /Tf exch def
  Tf findfont Tp scalefont setfont
  /cf Tf def  /cs Tp def
} bd
/ULS {currentpoint /uy exch def /ux exch def} bd
/ULE {
  /Tcx currentpoint pop def
  gsave
  newpath
  cf findfont cs scalefont dup
  /FontMatrix get 0 get /Ts exch def /FontInfo get dup
  /UnderlinePosition get Ts mul /To exch def
  /UnderlineThickness get Ts mul /Tt exch def
  ux uy To add moveto  Tcx uy To add lineto
  Tt setlinewidth stroke
  grestore
} bd
/OLE {
  /Tcx currentpoint pop def
  gsave
  newpath
  cf findfont cs scalefont dup
  /FontMatrix get 0 get /Ts exch def /FontInfo get dup
  /UnderlinePosition get Ts mul /To exch def
  /UnderlineThickness get Ts mul /Tt exch def
  ux uy To add cs add moveto Tcx uy To add cs add lineto
  Tt setlinewidth stroke
  grestore
} bd
/SOE {
  /Tcx currentpoint pop def
  gsave
  newpath
  cf findfont cs scalefont dup
  /FontMatrix get 0 get /Ts exch def /FontInfo get dup
  /UnderlinePosition get Ts mul /To exch def
  /UnderlineThickness get Ts mul /Tt exch def
  ux uy To add cs 10 mul 26 idiv add moveto Tcx uy To add cs 10 mul 26 idiv add lineto
  Tt setlinewidth stroke
  grestore
} bd
/QT {
/Y22 exch store
/X22 exch store
/Y21 exch store
/X21 exch store
currentpoint
/Y21 load 2 mul add 3 div exch
/X21 load 2 mul add 3 div exch
/X21 load 2 mul /X22 load add 3 div
/Y21 load 2 mul /Y22 load add 3 div
/X22 load /Y22 load curveto
} bd
/SSPD {
dup length /d exch dict def
{
/v exch def
/k exch def
currentpagedevice k known {
/cpdv currentpagedevice k get def
v cpdv ne {
/upd false def
/nullv v type /nulltype eq def
/nullcpdv cpdv type /nulltype eq def
nullv nullcpdv or
{
/upd true def
} {
/sametype v type cpdv type eq def
sametype {
v type /arraytype eq {
/vlen v length def
/cpdvlen cpdv length def
vlen cpdvlen eq {
0 1 vlen 1 sub {
/i exch def
/obj v i get def
/cpdobj cpdv i get def
obj cpdobj ne {
/upd true def
exit
} if
} for
} {
/upd true def
} ifelse
} {
v type /dicttype eq {
v {
/dv exch def
/dk exch def
/cpddv cpdv dk get def
dv cpddv ne {
/upd true def
exit
} if
} forall
} {
/upd true def
} ifelse
} ifelse
} if
} ifelse
upd true eq {
d k v put
} if
} if
} if
} forall
d length 0 gt {
d setpagedevice
} if
} bd
%%EndResource
%%BeginResource: procset (Apache XML Graphics EPS ProcSet) 1.0 0
%%Version: 1.0 0
%%Copyright: (Copyright 2002-2003 The Apache Software Foundation. License terms: http://www.apache.org/licenses/LICENSE-2.0)
/BeginEPSF { %def
/b4_Inc_state save def         % Save state for cleanup
/dict_count countdictstack def % Count objects on dict stack
/op_count count 1 sub def      % Count objects on operand stack
userdict begin                 % Push userdict on dict stack
/showpage { } def              % Redefine showpage, { } = null proc
0 setgray 0 setlinecap         % Prepare graphics state
1 setlinewidth 0 setlinejoin
10 setmiterlimit [ ] 0 setdash newpath
/languagelevel where           % If level not equal to 1 then
{pop languagelevel             % set strokeadjust and
1 ne                           % overprint to their defaults.
{false setstrokeadjust false setoverprint
} if
} if
} bd
/EndEPSF { %def
count op_count sub {pop} repeat            % Clean up stacks
countdictstack dict_count sub {end} repeat
b4_Inc_state restore
} bd
%%EndResource
%FOPBeginFontDict
%%IncludeResource: font Courier-Bold
%%IncludeResource: font Helvetica
%%IncludeResource: font Courier-BoldOblique
%%IncludeResource: font Courier-Oblique
%%IncludeResource: font Times-Roman
%%IncludeResource: font Helvetica-BoldOblique
%%IncludeResource: font Helvetica-Bold
%%IncludeResource: font Helvetica-Oblique
%%IncludeResource: font Times-BoldItalic
%%IncludeResource: font Courier
%%IncludeResource: font Times-Italic
%%IncludeResource: font Times-Bold
%%IncludeResource: font Symbol
%%IncludeResource: font ZapfDingbats
%FOPEndFontDict
%%BeginResource: encoding WinAnsiEncoding
/WinAnsiEncoding [
/.notdef /.notdef /.notdef /.notdef /.notdef
/.notdef /.notdef /.notdef /.notdef /.notdef
/.notdef /.notdef /.notdef /.notdef /.notdef
/.notdef /.notdef /.notdef /.notdef /.notdef
/.notdef /.notdef /.notdef /.notdef /.notdef
/.notdef /.notdef /.notdef /.notdef /.notdef
/.notdef /.notdef /space /exclam /quotedbl
/numbersign /dollar /percent /ampersand /quotesingle
/parenleft /parenright /asterisk /plus /comma
/hyphen /period /slash /zero /one
/two /three /four /five /six
/seven /eight /nine /colon /semicolon
/less /equal /greater /question /at
/A /B /C /D /E
/F /G /H /I /J
/K /L /M /N /O
/P /Q /R /S /T
/U /V /W /X /Y
/Z /bracketleft /backslash /bracketright /asciicircum
/underscore /quoteleft /a /b /c
/d /e /f /g /h
/i /j /k /l /m
/n /o /p /q /r
/s /t /u /v /w
/x /y /z /braceleft /bar
/braceright /asciitilde /bullet /Euro /bullet
/quotesinglbase /florin /quotedblbase /ellipsis /dagger
/daggerdbl /circumflex /perthousand /Scaron /guilsinglleft
/OE /bullet /Zcaron /bullet /bullet
/quoteleft /quoteright /quotedblleft /quotedblright /bullet
/endash /emdash /asciitilde /trademark /scaron
/guilsinglright /oe /bullet /zcaron /Ydieresis
/space /exclamdown /cent /sterling /currency
/yen /brokenbar /section /dieresis /copyright
/ordfeminine /guillemotleft /logicalnot /sfthyphen /registered
/macron /degree /plusminus /twosuperior /threesuperior
/acute /mu /paragraph /middot /cedilla
/onesuperior /ordmasculine /guillemotright /onequarter /onehalf
/threequarters /questiondown /Agrave /Aacute /Acircumflex
/Atilde /Adieresis /Aring /AE /Ccedilla
/Egrave /Eacute /Ecircumflex /Edieresis /Igrave
/Iacute /Icircumflex /Idieresis /Eth /Ntilde
/Ograve /Oacute /Ocircumflex /Otilde /Odieresis
/multiply /Oslash /Ugrave /Uacute /Ucircumflex
/Udieresis /Yacute /Thorn /germandbls /agrave
/aacute /acircumflex /atilde /adieresis /aring
/ae /ccedilla /egrave /eacute /ecircumflex
/edieresis /igrave /iacute /icircumflex /idieresis
/eth /ntilde /ograve /oacute /ocircumflex
/otilde /odieresis /divide /oslash /ugrave
/uacute /ucircumflex /udieresis /yacute /thorn
/ydieresis
] def
%%EndResource
%FOPBeginFontReencode
/Courier-Bold findfont
dup length dict begin
  {1 index /FID ne {def} {pop pop} ifelse} forall
  /Encoding WinAnsiEncoding def
  currentdict
end
/Courier-Bold exch definefont pop
/Helvetica findfont
dup length dict begin
  {1 index /FID ne {def} {pop pop} ifelse} forall
  /Encoding WinAnsiEncoding def
  currentdict
end
/Helvetica exch definefont pop
/Courier-BoldOblique findfont
dup length dict begin
  {1 index /FID ne {def} {pop pop} ifelse} forall
  /Encoding WinAnsiEncoding def
  currentdict
end
/Courier-BoldOblique exch definefont pop
/Courier-Oblique findfont
dup length dict begin
  {1 index /FID ne {def} {pop pop} ifelse} forall
  /Encoding WinAnsiEncoding def
  currentdict
end
/Courier-Oblique exch definefont pop
/Times-Roman findfont
dup length dict begin
  {1 index /FID ne {def} {pop pop} ifelse} forall
  /Encoding WinAnsiEncoding def
  currentdict
end
/Times-Roman exch definefont pop
/Helvetica-BoldOblique findfont
dup length dict begin
  {1 index /FID ne {def} {pop pop} ifelse} forall
  /Encoding WinAnsiEncoding def
  currentdict
end
/Helvetica-BoldOblique exch definefont pop
/Helvetica-Bold findfont
dup length dict begin
  {1 index /FID ne {def} {pop pop} ifelse} forall
  /Encoding WinAnsiEncoding def
  currentdict
end
/Helvetica-Bold exch definefont pop
/Helvetica-Oblique findfont
dup length dict begin
  {1 index /FID ne {def} {pop pop} ifelse} forall
  /Encoding WinAnsiEncoding def
  currentdict
end
/Helvetica-Oblique exch definefont pop
/Times-BoldItalic findfont
dup length dict begin
  {1 index /FID ne {def} {pop pop} ifelse} forall
  /Encoding WinAnsiEncoding def
  currentdict
end
/Times-BoldItalic exch definefont pop
/Courier findfont
dup length dict begin
  {1 index /FID ne {def} {pop pop} ifelse} forall
  /Encoding WinAnsiEncoding def
  currentdict
end
/Courier exch definefont pop
/Times-Italic findfont
dup length dict begin
  {1 index /FID ne {def} {pop pop} ifelse} forall
  /Encoding WinAnsiEncoding def
  currentdict
end
/Times-Italic exch definefont pop
/Times-Bold findfont
dup length dict begin
  {1 index /FID ne {def} {pop pop} ifelse} forall
  /Encoding WinAnsiEncoding def
  currentdict
end
/Times-Bold exch definefont pop
%FOPEndFontReencode
%%EndProlog
%%Page: 1 1
%%PageBoundingBox: 0 0 576 432
%%BeginPageSetup
[1 0 0 -1 0 432] CT
%%EndPageSetup
GS
1 GC
N
0 0 576 432 re
f
GR
GS
1 GC
N
0 0 576 432 re
f
GR
GS
1 GC
N
75 384 M
521.5 384 L
521.5 32.5 L
75 32.5 L
cp
f
GR
GS
0.149 GC
2 setlinecap
1 LJ
0.5 LW
N
75 384 M
521.5 384 L
S
GR
GS
0.149 GC
2 setlinecap
1 LJ
0.5 LW
N
75 384 M
75 379.535 L
S
GR
GS
0.149 GC
2 setlinecap
1 LJ
0.5 LW
N
186.625 384 M
186.625 379.535 L
S
GR
GS
0.149 GC
2 setlinecap
1 LJ
0.5 LW
N
298.25 384 M
298.25 379.535 L
S
GR
GS
0.149 GC
2 setlinecap
1 LJ
0.5 LW
N
409.875 384 M
409.875 379.535 L
S
GR
GS
0.149 GC
2 setlinecap
1 LJ
0.5 LW
N
521.5 384 M
521.5 379.535 L
S
GR
GS
[1 0 0 1 75 390] CT
0.149 GC
/Helvetica 20 F
GS
[1 0 0 1 0 0] CT
-6 16 moveto 
1 -1 scale
(0) t 
GR
GR
GS
[1 0 0 1 186.625 390] CT
0.149 GC
/Helvetica 20 F
GS
[1 0 0 1 0 0] CT
-6 16 moveto 
1 -1 scale
(5) t 
GR
GR
GS
[1 0 0 1 298.25 390] CT
0.149 GC
/Helvetica 20 F
GS
[1 0 0 1 0 0] CT
-11.5 16 moveto 
1 -1 scale
(10) t 
GR
GR
GS
[1 0 0 1 409.875 390] CT
0.149 GC
/Helvetica 20 F
GS
[1 0 0 1 0 0] CT
-11.5 16 moveto 
1 -1 scale
(15) t 
GR
GR
GS
[1 0 0 1 521.5 390] CT
0.149 GC
/Helvetica 20 F
GS
[1 0 0 1 0 0] CT
-11.5 16 moveto 
1 -1 scale
(20) t 
GR
GR
GS
[1 0 0 1 298.25021 411.5] CT
0.149 GC
/Helvetica 20 F
GS
[1 0 0 1 0 0] CT
-41.5 16 moveto 
1 -1 scale
(Iterations) t 
GR
GR
GS
0.149 GC
2 setlinecap
1 LJ
0.5 LW
N
75 384 M
75 32.5 L
S
GR
GS
0.149 GC
2 setlinecap
1 LJ
0.5 LW
N
75 384 M
79.465 384 L
S
GR
GS
0.149 GC
2 setlinecap
1 LJ
0.5 LW
N
75 266.833 M
79.465 266.833 L
S
GR
GS
0.149 GC
2 setlinecap
1 LJ
0.5 LW
N
75 149.667 M
79.465 149.667 L
S
GR
GS
0.149 GC
2 setlinecap
1 LJ
0.5 LW
N
75 32.5 M
79.465 32.5 L
S
GR
GS
0.149 GC
2 setlinecap
1 LJ
0.5 LW
N
75 348.729 M
77.232 348.729 L
S
GR
GS
0.149 GC
2 setlinecap
1 LJ
0.5 LW
N
75 328.097 M
77.232 328.097 L
S
GR
GS
0.149 GC
2 setlinecap
1 LJ
0.5 LW
N
75 313.459 M
77.232 313.459 L
S
GR
GS
0.149 GC
2 setlinecap
1 LJ
0.5 LW
N
75 302.104 M
77.232 302.104 L
S
GR
GS
0.149 GC
2 setlinecap
1 LJ
0.5 LW
N
75 292.827 M
77.232 292.827 L
S
GR
GS
0.149 GC
2 setlinecap
1 LJ
0.5 LW
N
75 284.983 M
77.232 284.983 L
S
GR
GS
0.149 GC
2 setlinecap
1 LJ
0.5 LW
N
75 278.188 M
77.232 278.188 L
S
GR
GS
0.149 GC
2 setlinecap
1 LJ
0.5 LW
N
75 272.195 M
77.232 272.195 L
S
GR
GS
0.149 GC
2 setlinecap
1 LJ
0.5 LW
N
75 231.563 M
77.232 231.563 L
S
GR
GS
0.149 GC
2 setlinecap
1 LJ
0.5 LW
N
75 210.931 M
77.232 210.931 L
S
GR
GS
0.149 GC
2 setlinecap
1 LJ
0.5 LW
N
75 196.292 M
77.232 196.292 L
S
GR
GS
0.149 GC
2 setlinecap
1 LJ
0.5 LW
N
75 184.937 M
77.232 184.937 L
S
GR
GS
0.149 GC
2 setlinecap
1 LJ
0.5 LW
N
75 175.66 M
77.232 175.66 L
S
GR
GS
0.149 GC
2 setlinecap
1 LJ
0.5 LW
N
75 167.816 M
77.232 167.816 L
S
GR
GS
0.149 GC
2 setlinecap
1 LJ
0.5 LW
N
75 161.021 M
77.232 161.021 L
S
GR
GS
0.149 GC
2 setlinecap
1 LJ
0.5 LW
N
75 155.028 M
77.232 155.028 L
S
GR
GS
0.149 GC
2 setlinecap
1 LJ
0.5 LW
N
75 114.396 M
77.232 114.396 L
S
GR
GS
0.149 GC
2 setlinecap
1 LJ
0.5 LW
N
75 93.764 M
77.232 93.764 L
S
GR
GS
0.149 GC
2 setlinecap
1 LJ
0.5 LW
N
75 79.125 M
77.232 79.125 L
S
GR
GS
0.149 GC
2 setlinecap
1 LJ
0.5 LW
N
75 67.771 M
77.232 67.771 L
S
GR
GS
0.149 GC
2 setlinecap
1 LJ
0.5 LW
N
75 58.493 M
77.232 58.493 L
S
GR
GS
0.149 GC
2 setlinecap
1 LJ
0.5 LW
N
75 50.649 M
77.232 50.649 L
S
GR
GS
0.149 GC
2 setlinecap
1 LJ
0.5 LW
N
75 43.855 M
77.232 43.855 L
S
GR
GS
0.149 GC
2 setlinecap
1 LJ
0.5 LW
N
75 37.861 M
77.232 37.861 L
S
GR
GS
[1 0 0 1 31 393] CT
0.149 GC
/Helvetica 20 F
GS
[1 0 0 1 0 0] CT
0 0 moveto 
1 -1 scale
(10) t 
GR
GR
GS
[1 0 0 1 54 383] CT
0.149 GC
/Helvetica 16 F
GS
[1 0 0 1 0 0] CT
0 0 moveto 
1 -1 scale
(-2) t 
GR
GR
GS
[1 0 0 1 31 276] CT
0.149 GC
/Helvetica 20 F
GS
[1 0 0 1 0 0] CT
0 0 moveto 
1 -1 scale
(10) t 
GR
GR
GS
[1 0 0 1 54 266] CT
0.149 GC
/Helvetica 16 F
GS
[1 0 0 1 0 0] CT
0 0 moveto 
1 -1 scale
(-1) t 
GR
GR
GS
[1 0 0 1 37 159] CT
0.149 GC
/Helvetica 20 F
GS
[1 0 0 1 0 0] CT
0 0 moveto 
1 -1 scale
(10) t 
GR
GR
GS
[1 0 0 1 60 149] CT
0.149 GC
/Helvetica 16 F
GS
[1 0 0 1 0 0] CT
0 0 moveto 
1 -1 scale
(0) t 
GR
GR
GS
[1 0 0 1 37 42] CT
0.149 GC
/Helvetica 20 F
GS
[1 0 0 1 0 0] CT
0 0 moveto 
1 -1 scale
(10) t 
GR
GR
GS
[1 0 0 1 60 32] CT
0.149 GC
/Helvetica 16 F
GS
[1 0 0 1 0 0] CT
0 0 moveto 
1 -1 scale
(1) t 
GR
GR
GS
[0 -1 1 0 29 208.24983] CT
0.149 GC
/Helvetica 20 F
GS
[1 0 0 1 0 0] CT
-51.5 -5 moveto 
1 -1 scale
(Test RMSE) t 
GR
GR
GS
[1 0 0 1 298.25031 29.75001] CT
/Helvetica-Bold 22 F
GS
[1 0 0 1 0 0] CT
-68 -6 moveto 
1 -1 scale
(Testing error) t 
GR
GR
GS
0 0.447 0.741 RC
1 LJ
N
97.325 99.581 M
119.65 122.966 L
141.975 151.744 L
164.3 192.128 L
186.625 233.43 L
208.95 267.009 L
231.275 284.57 L
253.6 288.024 L
275.925 289.974 L
298.25 293.878 L
320.575 294.449 L
342.9 295.032 L
365.225 296.164 L
387.55 296.522 L
409.875 296.562 L
432.2 296.713 L
454.525 297.075 L
476.85 297.238 L
499.175 297.295 L
521.5 297.363 L
S
GR
GS
0 0.447 0.741 RC
1 LJ
N
100.5 99.5 M
99.621 97.379 L
97.5 96.5 L
95.379 97.379 L
94.5 99.5 L
95.379 101.621 L
97.5 102.5 L
99.621 101.621 L
cp
S
GR
GS
0 0.447 0.741 RC
1 LJ
N
122.5 122.5 M
121.621 120.379 L
119.5 119.5 L
117.379 120.379 L
116.5 122.5 L
117.379 124.621 L
119.5 125.5 L
121.621 124.621 L
cp
S
GR
GS
0 0.447 0.741 RC
1 LJ
N
144.5 151.5 M
143.621 149.379 L
141.5 148.5 L
139.379 149.379 L
138.5 151.5 L
139.379 153.621 L
141.5 154.5 L
143.621 153.621 L
cp
S
GR
GS
0 0.447 0.741 RC
1 LJ
N
167.5 192.5 M
166.621 190.379 L
164.5 189.5 L
162.379 190.379 L
161.5 192.5 L
162.379 194.621 L
164.5 195.5 L
166.621 194.621 L
cp
S
GR
GS
0 0.447 0.741 RC
1 LJ
N
189.5 233.5 M
188.621 231.379 L
186.5 230.5 L
184.379 231.379 L
183.5 233.5 L
184.379 235.621 L
186.5 236.5 L
188.621 235.621 L
cp
S
GR
GS
0 0.447 0.741 RC
1 LJ
N
211.5 267.5 M
210.621 265.379 L
208.5 264.5 L
206.379 265.379 L
205.5 267.5 L
206.379 269.621 L
208.5 270.5 L
210.621 269.621 L
cp
S
GR
GS
0 0.447 0.741 RC
1 LJ
N
234.5 284.5 M
233.621 282.379 L
231.5 281.5 L
229.379 282.379 L
228.5 284.5 L
229.379 286.621 L
231.5 287.5 L
233.621 286.621 L
cp
S
GR
GS
0 0.447 0.741 RC
1 LJ
N
256.5 288.5 M
255.621 286.379 L
253.5 285.5 L
251.379 286.379 L
250.5 288.5 L
251.379 290.621 L
253.5 291.5 L
255.621 290.621 L
cp
S
GR
GS
0 0.447 0.741 RC
1 LJ
N
278.5 289.5 M
277.621 287.379 L
275.5 286.5 L
273.379 287.379 L
272.5 289.5 L
273.379 291.621 L
275.5 292.5 L
277.621 291.621 L
cp
S
GR
GS
0 0.447 0.741 RC
1 LJ
N
301.5 293.5 M
300.621 291.379 L
298.5 290.5 L
296.379 291.379 L
295.5 293.5 L
296.379 295.621 L
298.5 296.5 L
300.621 295.621 L
cp
S
GR
GS
0 0.447 0.741 RC
1 LJ
N
323.5 294.5 M
322.621 292.379 L
320.5 291.5 L
318.379 292.379 L
317.5 294.5 L
318.379 296.621 L
320.5 297.5 L
322.621 296.621 L
cp
S
GR
GS
0 0.447 0.741 RC
1 LJ
N
345.5 295.5 M
344.621 293.379 L
342.5 292.5 L
340.379 293.379 L
339.5 295.5 L
340.379 297.621 L
342.5 298.5 L
344.621 297.621 L
cp
S
GR
GS
0 0.447 0.741 RC
1 LJ
N
368.5 296.5 M
367.621 294.379 L
365.5 293.5 L
363.379 294.379 L
362.5 296.5 L
363.379 298.621 L
365.5 299.5 L
367.621 298.621 L
cp
S
GR
GS
0 0.447 0.741 RC
1 LJ
N
390.5 296.5 M
389.621 294.379 L
387.5 293.5 L
385.379 294.379 L
384.5 296.5 L
385.379 298.621 L
387.5 299.5 L
389.621 298.621 L
cp
S
GR
GS
0 0.447 0.741 RC
1 LJ
N
412.5 296.5 M
411.621 294.379 L
409.5 293.5 L
407.379 294.379 L
406.5 296.5 L
407.379 298.621 L
409.5 299.5 L
411.621 298.621 L
cp
S
GR
GS
0 0.447 0.741 RC
1 LJ
N
435.5 296.5 M
434.621 294.379 L
432.5 293.5 L
430.379 294.379 L
429.5 296.5 L
430.379 298.621 L
432.5 299.5 L
434.621 298.621 L
cp
S
GR
GS
0 0.447 0.741 RC
1 LJ
N
457.5 297.5 M
456.621 295.379 L
454.5 294.5 L
452.379 295.379 L
451.5 297.5 L
452.379 299.621 L
454.5 300.5 L
456.621 299.621 L
cp
S
GR
GS
0 0.447 0.741 RC
1 LJ
N
479.5 297.5 M
478.621 295.379 L
476.5 294.5 L
474.379 295.379 L
473.5 297.5 L
474.379 299.621 L
476.5 300.5 L
478.621 299.621 L
cp
S
GR
GS
0 0.447 0.741 RC
1 LJ
N
502.5 297.5 M
501.621 295.379 L
499.5 294.5 L
497.379 295.379 L
496.5 297.5 L
497.379 299.621 L
499.5 300.5 L
501.621 299.621 L
cp
S
GR
GS
0 0.447 0.741 RC
1 LJ
N
524.5 297.5 M
523.621 295.379 L
521.5 294.5 L
519.379 295.379 L
518.5 297.5 L
519.379 299.621 L
521.5 300.5 L
523.621 299.621 L
cp
S
GR
GS
0.851 0.325 0.098 RC
1 LJ
N
97.325 99.581 M
119.65 124.215 L
141.975 149.435 L
164.3 192.474 L
186.625 233.054 L
208.95 266.456 L
231.275 284.528 L
253.6 288.098 L
275.925 285.204 L
298.25 296.499 L
320.575 295.457 L
342.9 297.244 L
365.225 297.707 L
387.55 297.224 L
409.875 297.659 L
432.2 297.818 L
454.525 297.846 L
476.85 297.938 L
499.175 298.058 L
521.5 298.092 L
S
GR
GS
0.851 0.325 0.098 RC
1 LJ
N
100.5 99.5 M
99.621 97.379 L
97.5 96.5 L
95.379 97.379 L
94.5 99.5 L
95.379 101.621 L
97.5 102.5 L
99.621 101.621 L
cp
S
GR
GS
0.851 0.325 0.098 RC
1 LJ
N
122.5 124.5 M
121.621 122.379 L
119.5 121.5 L
117.379 122.379 L
116.5 124.5 L
117.379 126.621 L
119.5 127.5 L
121.621 126.621 L
cp
S
GR
GS
0.851 0.325 0.098 RC
1 LJ
N
144.5 149.5 M
143.621 147.379 L
141.5 146.5 L
139.379 147.379 L
138.5 149.5 L
139.379 151.621 L
141.5 152.5 L
143.621 151.621 L
cp
S
GR
GS
0.851 0.325 0.098 RC
1 LJ
N
167.5 192.5 M
166.621 190.379 L
164.5 189.5 L
162.379 190.379 L
161.5 192.5 L
162.379 194.621 L
164.5 195.5 L
166.621 194.621 L
cp
S
GR
GS
0.851 0.325 0.098 RC
1 LJ
N
189.5 233.5 M
188.621 231.379 L
186.5 230.5 L
184.379 231.379 L
183.5 233.5 L
184.379 235.621 L
186.5 236.5 L
188.621 235.621 L
cp
S
GR
GS
0.851 0.325 0.098 RC
1 LJ
N
211.5 266.5 M
210.621 264.379 L
208.5 263.5 L
206.379 264.379 L
205.5 266.5 L
206.379 268.621 L
208.5 269.5 L
210.621 268.621 L
cp
S
GR
GS
0.851 0.325 0.098 RC
1 LJ
N
234.5 284.5 M
233.621 282.379 L
231.5 281.5 L
229.379 282.379 L
228.5 284.5 L
229.379 286.621 L
231.5 287.5 L
233.621 286.621 L
cp
S
GR
GS
0.851 0.325 0.098 RC
1 LJ
N
256.5 288.5 M
255.621 286.379 L
253.5 285.5 L
251.379 286.379 L
250.5 288.5 L
251.379 290.621 L
253.5 291.5 L
255.621 290.621 L
cp
S
GR
GS
0.851 0.325 0.098 RC
1 LJ
N
278.5 285.5 M
277.621 283.379 L
275.5 282.5 L
273.379 283.379 L
272.5 285.5 L
273.379 287.621 L
275.5 288.5 L
277.621 287.621 L
cp
S
GR
GS
0.851 0.325 0.098 RC
1 LJ
N
301.5 296.5 M
300.621 294.379 L
298.5 293.5 L
296.379 294.379 L
295.5 296.5 L
296.379 298.621 L
298.5 299.5 L
300.621 298.621 L
cp
S
GR
GS
0.851 0.325 0.098 RC
1 LJ
N
323.5 295.5 M
322.621 293.379 L
320.5 292.5 L
318.379 293.379 L
317.5 295.5 L
318.379 297.621 L
320.5 298.5 L
322.621 297.621 L
cp
S
GR
GS
0.851 0.325 0.098 RC
1 LJ
N
345.5 297.5 M
344.621 295.379 L
342.5 294.5 L
340.379 295.379 L
339.5 297.5 L
340.379 299.621 L
342.5 300.5 L
344.621 299.621 L
cp
S
GR
GS
0.851 0.325 0.098 RC
1 LJ
N
368.5 297.5 M
367.621 295.379 L
365.5 294.5 L
363.379 295.379 L
362.5 297.5 L
363.379 299.621 L
365.5 300.5 L
367.621 299.621 L
cp
S
GR
GS
0.851 0.325 0.098 RC
1 LJ
N
390.5 297.5 M
389.621 295.379 L
387.5 294.5 L
385.379 295.379 L
384.5 297.5 L
385.379 299.621 L
387.5 300.5 L
389.621 299.621 L
cp
S
GR
GS
0.851 0.325 0.098 RC
1 LJ
N
412.5 297.5 M
411.621 295.379 L
409.5 294.5 L
407.379 295.379 L
406.5 297.5 L
407.379 299.621 L
409.5 300.5 L
411.621 299.621 L
cp
S
GR
GS
0.851 0.325 0.098 RC
1 LJ
N
435.5 297.5 M
434.621 295.379 L
432.5 294.5 L
430.379 295.379 L
429.5 297.5 L
430.379 299.621 L
432.5 300.5 L
434.621 299.621 L
cp
S
GR
GS
0.851 0.325 0.098 RC
1 LJ
N
457.5 297.5 M
456.621 295.379 L
454.5 294.5 L
452.379 295.379 L
451.5 297.5 L
452.379 299.621 L
454.5 300.5 L
456.621 299.621 L
cp
S
GR
GS
0.851 0.325 0.098 RC
1 LJ
N
479.5 297.5 M
478.621 295.379 L
476.5 294.5 L
474.379 295.379 L
473.5 297.5 L
474.379 299.621 L
476.5 300.5 L
478.621 299.621 L
cp
S
GR
GS
0.851 0.325 0.098 RC
1 LJ
N
502.5 298.5 M
501.621 296.379 L
499.5 295.5 L
497.379 296.379 L
496.5 298.5 L
497.379 300.621 L
499.5 301.5 L
501.621 300.621 L
cp
S
GR
GS
0.851 0.325 0.098 RC
1 LJ
N
524.5 298.5 M
523.621 296.379 L
521.5 295.5 L
519.379 296.379 L
518.5 298.5 L
519.379 300.621 L
521.5 301.5 L
523.621 300.621 L
cp
S
GR
GS
0.929 0.694 0.125 RC
1 LJ
N
97.325 99.581 M
119.65 117.289 L
141.975 133.886 L
164.3 159.516 L
186.625 194.069 L
208.95 228.66 L
231.275 257.736 L
253.6 272.729 L
275.925 277.871 L
298.25 277.402 L
320.575 286.033 L
342.9 286.386 L
365.225 287.932 L
387.55 290.457 L
409.875 292.086 L
432.2 292.326 L
454.525 294.048 L
476.85 293.86 L
499.175 293.682 L
521.5 294.483 L
S
GR
GS
0.929 0.694 0.125 RC
1 LJ
N
100.5 99.5 M
99.621 97.379 L
97.5 96.5 L
95.379 97.379 L
94.5 99.5 L
95.379 101.621 L
97.5 102.5 L
99.621 101.621 L
cp
S
GR
GS
0.929 0.694 0.125 RC
1 LJ
N
122.5 117.5 M
121.621 115.379 L
119.5 114.5 L
117.379 115.379 L
116.5 117.5 L
117.379 119.621 L
119.5 120.5 L
121.621 119.621 L
cp
S
GR
GS
0.929 0.694 0.125 RC
1 LJ
N
144.5 133.5 M
143.621 131.379 L
141.5 130.5 L
139.379 131.379 L
138.5 133.5 L
139.379 135.621 L
141.5 136.5 L
143.621 135.621 L
cp
S
GR
GS
0.929 0.694 0.125 RC
1 LJ
N
167.5 159.5 M
166.621 157.379 L
164.5 156.5 L
162.379 157.379 L
161.5 159.5 L
162.379 161.621 L
164.5 162.5 L
166.621 161.621 L
cp
S
GR
GS
0.929 0.694 0.125 RC
1 LJ
N
189.5 194.5 M
188.621 192.379 L
186.5 191.5 L
184.379 192.379 L
183.5 194.5 L
184.379 196.621 L
186.5 197.5 L
188.621 196.621 L
cp
S
GR
GS
0.929 0.694 0.125 RC
1 LJ
N
211.5 228.5 M
210.621 226.379 L
208.5 225.5 L
206.379 226.379 L
205.5 228.5 L
206.379 230.621 L
208.5 231.5 L
210.621 230.621 L
cp
S
GR
GS
0.929 0.694 0.125 RC
1 LJ
N
234.5 257.5 M
233.621 255.379 L
231.5 254.5 L
229.379 255.379 L
228.5 257.5 L
229.379 259.621 L
231.5 260.5 L
233.621 259.621 L
cp
S
GR
GS
0.929 0.694 0.125 RC
1 LJ
N
256.5 272.5 M
255.621 270.379 L
253.5 269.5 L
251.379 270.379 L
250.5 272.5 L
251.379 274.621 L
253.5 275.5 L
255.621 274.621 L
cp
S
GR
GS
0.929 0.694 0.125 RC
1 LJ
N
278.5 277.5 M
277.621 275.379 L
275.5 274.5 L
273.379 275.379 L
272.5 277.5 L
273.379 279.621 L
275.5 280.5 L
277.621 279.621 L
cp
S
GR
GS
0.929 0.694 0.125 RC
1 LJ
N
301.5 277.5 M
300.621 275.379 L
298.5 274.5 L
296.379 275.379 L
295.5 277.5 L
296.379 279.621 L
298.5 280.5 L
300.621 279.621 L
cp
S
GR
GS
0.929 0.694 0.125 RC
1 LJ
N
323.5 286.5 M
322.621 284.379 L
320.5 283.5 L
318.379 284.379 L
317.5 286.5 L
318.379 288.621 L
320.5 289.5 L
322.621 288.621 L
cp
S
GR
GS
0.929 0.694 0.125 RC
1 LJ
N
345.5 286.5 M
344.621 284.379 L
342.5 283.5 L
340.379 284.379 L
339.5 286.5 L
340.379 288.621 L
342.5 289.5 L
344.621 288.621 L
cp
S
GR
GS
0.929 0.694 0.125 RC
1 LJ
N
368.5 287.5 M
367.621 285.379 L
365.5 284.5 L
363.379 285.379 L
362.5 287.5 L
363.379 289.621 L
365.5 290.5 L
367.621 289.621 L
cp
S
GR
GS
0.929 0.694 0.125 RC
1 LJ
N
390.5 290.5 M
389.621 288.379 L
387.5 287.5 L
385.379 288.379 L
384.5 290.5 L
385.379 292.621 L
387.5 293.5 L
389.621 292.621 L
cp
S
GR
GS
0.929 0.694 0.125 RC
1 LJ
N
412.5 292.5 M
411.621 290.379 L
409.5 289.5 L
407.379 290.379 L
406.5 292.5 L
407.379 294.621 L
409.5 295.5 L
411.621 294.621 L
cp
S
GR
GS
0.929 0.694 0.125 RC
1 LJ
N
435.5 292.5 M
434.621 290.379 L
432.5 289.5 L
430.379 290.379 L
429.5 292.5 L
430.379 294.621 L
432.5 295.5 L
434.621 294.621 L
cp
S
GR
GS
0.929 0.694 0.125 RC
1 LJ
N
457.5 294.5 M
456.621 292.379 L
454.5 291.5 L
452.379 292.379 L
451.5 294.5 L
452.379 296.621 L
454.5 297.5 L
456.621 296.621 L
cp
S
GR
GS
0.929 0.694 0.125 RC
1 LJ
N
479.5 293.5 M
478.621 291.379 L
476.5 290.5 L
474.379 291.379 L
473.5 293.5 L
474.379 295.621 L
476.5 296.5 L
478.621 295.621 L
cp
S
GR
GS
0.929 0.694 0.125 RC
1 LJ
N
502.5 293.5 M
501.621 291.379 L
499.5 290.5 L
497.379 291.379 L
496.5 293.5 L
497.379 295.621 L
499.5 296.5 L
501.621 295.621 L
cp
S
GR
GS
0.929 0.694 0.125 RC
1 LJ
N
524.5 294.5 M
523.621 292.379 L
521.5 291.5 L
519.379 292.379 L
518.5 294.5 L
519.379 296.621 L
521.5 297.5 L
523.621 296.621 L
cp
S
GR
GS
0.494 0.184 0.557 RC
1 LJ
N
97.325 99.581 M
119.65 122.966 L
141.975 145.442 L
164.3 181.603 L
186.625 218.692 L
208.95 249.394 L
231.275 273.354 L
253.6 284.424 L
275.925 285.977 L
298.25 290.074 L
320.575 296.152 L
342.9 296.547 L
365.225 297.873 L
387.55 298.087 L
409.875 298.128 L
432.2 298.181 L
454.525 298.092 L
476.85 298.101 L
499.175 298.13 L
521.5 298.103 L
S
GR
GS
0.494 0.184 0.557 RC
1 LJ
N
100.5 99.5 M
99.621 97.379 L
97.5 96.5 L
95.379 97.379 L
94.5 99.5 L
95.379 101.621 L
97.5 102.5 L
99.621 101.621 L
cp
S
GR
GS
0.494 0.184 0.557 RC
1 LJ
N
122.5 122.5 M
121.621 120.379 L
119.5 119.5 L
117.379 120.379 L
116.5 122.5 L
117.379 124.621 L
119.5 125.5 L
121.621 124.621 L
cp
S
GR
GS
0.494 0.184 0.557 RC
1 LJ
N
144.5 145.5 M
143.621 143.379 L
141.5 142.5 L
139.379 143.379 L
138.5 145.5 L
139.379 147.621 L
141.5 148.5 L
143.621 147.621 L
cp
S
GR
GS
0.494 0.184 0.557 RC
1 LJ
N
167.5 181.5 M
166.621 179.379 L
164.5 178.5 L
162.379 179.379 L
161.5 181.5 L
162.379 183.621 L
164.5 184.5 L
166.621 183.621 L
cp
S
GR
GS
0.494 0.184 0.557 RC
1 LJ
N
189.5 218.5 M
188.621 216.379 L
186.5 215.5 L
184.379 216.379 L
183.5 218.5 L
184.379 220.621 L
186.5 221.5 L
188.621 220.621 L
cp
S
GR
GS
0.494 0.184 0.557 RC
1 LJ
N
211.5 249.5 M
210.621 247.379 L
208.5 246.5 L
206.379 247.379 L
205.5 249.5 L
206.379 251.621 L
208.5 252.5 L
210.621 251.621 L
cp
S
GR
GS
0.494 0.184 0.557 RC
1 LJ
N
234.5 273.5 M
233.621 271.379 L
231.5 270.5 L
229.379 271.379 L
228.5 273.5 L
229.379 275.621 L
231.5 276.5 L
233.621 275.621 L
cp
S
GR
GS
0.494 0.184 0.557 RC
1 LJ
N
256.5 284.5 M
255.621 282.379 L
253.5 281.5 L
251.379 282.379 L
250.5 284.5 L
251.379 286.621 L
253.5 287.5 L
255.621 286.621 L
cp
S
GR
GS
0.494 0.184 0.557 RC
1 LJ
N
278.5 285.5 M
277.621 283.379 L
275.5 282.5 L
273.379 283.379 L
272.5 285.5 L
273.379 287.621 L
275.5 288.5 L
277.621 287.621 L
cp
S
GR
GS
0.494 0.184 0.557 RC
1 LJ
N
301.5 290.5 M
300.621 288.379 L
298.5 287.5 L
296.379 288.379 L
295.5 290.5 L
296.379 292.621 L
298.5 293.5 L
300.621 292.621 L
cp
S
GR
GS
0.494 0.184 0.557 RC
1 LJ
N
323.5 296.5 M
322.621 294.379 L
320.5 293.5 L
318.379 294.379 L
317.5 296.5 L
318.379 298.621 L
320.5 299.5 L
322.621 298.621 L
cp
S
GR
GS
0.494 0.184 0.557 RC
1 LJ
N
345.5 296.5 M
344.621 294.379 L
342.5 293.5 L
340.379 294.379 L
339.5 296.5 L
340.379 298.621 L
342.5 299.5 L
344.621 298.621 L
cp
S
GR
GS
0.494 0.184 0.557 RC
1 LJ
N
368.5 297.5 M
367.621 295.379 L
365.5 294.5 L
363.379 295.379 L
362.5 297.5 L
363.379 299.621 L
365.5 300.5 L
367.621 299.621 L
cp
S
GR
GS
0.494 0.184 0.557 RC
1 LJ
N
390.5 298.5 M
389.621 296.379 L
387.5 295.5 L
385.379 296.379 L
384.5 298.5 L
385.379 300.621 L
387.5 301.5 L
389.621 300.621 L
cp
S
GR
GS
0.494 0.184 0.557 RC
1 LJ
N
412.5 298.5 M
411.621 296.379 L
409.5 295.5 L
407.379 296.379 L
406.5 298.5 L
407.379 300.621 L
409.5 301.5 L
411.621 300.621 L
cp
S
GR
GS
0.494 0.184 0.557 RC
1 LJ
N
435.5 298.5 M
434.621 296.379 L
432.5 295.5 L
430.379 296.379 L
429.5 298.5 L
430.379 300.621 L
432.5 301.5 L
434.621 300.621 L
cp
S
GR
GS
0.494 0.184 0.557 RC
1 LJ
N
457.5 298.5 M
456.621 296.379 L
454.5 295.5 L
452.379 296.379 L
451.5 298.5 L
452.379 300.621 L
454.5 301.5 L
456.621 300.621 L
cp
S
GR
GS
0.494 0.184 0.557 RC
1 LJ
N
479.5 298.5 M
478.621 296.379 L
476.5 295.5 L
474.379 296.379 L
473.5 298.5 L
474.379 300.621 L
476.5 301.5 L
478.621 300.621 L
cp
S
GR
GS
0.494 0.184 0.557 RC
1 LJ
N
502.5 298.5 M
501.621 296.379 L
499.5 295.5 L
497.379 296.379 L
496.5 298.5 L
497.379 300.621 L
499.5 301.5 L
501.621 300.621 L
cp
S
GR
GS
0.494 0.184 0.557 RC
1 LJ
N
524.5 298.5 M
523.621 296.379 L
521.5 295.5 L
519.379 296.379 L
518.5 298.5 L
519.379 300.621 L
521.5 301.5 L
523.621 300.621 L
cp
S
GR
GS
[1 0 0 1 227 53.75] CT
/Helvetica 18 F
GS
[1 0 0 1 0 0] CT
0 4.5 moveto 
1 -1 scale
(No shuffling) t 
GR
GR
GS
0 0.447 0.741 RC
1 LJ
N
194 53.75 M
224 53.75 L
S
GR
GS
0 0.447 0.741 RC
1 LJ
N
212.5 53.5 M
211.621 51.379 L
209.5 50.5 L
207.379 51.379 L
206.5 53.5 L
207.379 55.621 L
209.5 56.5 L
211.621 55.621 L
cp
S
GR
GS
[1 0 0 1 227 72.75] CT
/Helvetica 18 F
GS
[1 0 0 1 0 0] CT
0 4.5 moveto 
1 -1 scale
(Random shuffling) t 
GR
GR
GS
0.851 0.325 0.098 RC
1 LJ
N
194 72.75 M
224 72.75 L
S
GR
GS
0.851 0.325 0.098 RC
1 LJ
N
212.5 72.5 M
211.621 70.379 L
209.5 69.5 L
207.379 70.379 L
206.5 72.5 L
207.379 74.621 L
209.5 75.5 L
211.621 74.621 L
cp
S
GR
GS
[1 0 0 1 227 91.75] CT
/Helvetica 18 F
GS
[1 0 0 1 0 0] CT
0 4.5 moveto 
1 -1 scale
(Random shuffling with replacement) t 
GR
GR
GS
0.929 0.694 0.125 RC
1 LJ
N
194 91.75 M
224 91.75 L
S
GR
GS
0.929 0.694 0.125 RC
1 LJ
N
212.5 91.5 M
211.621 89.379 L
209.5 88.5 L
207.379 89.379 L
206.5 91.5 L
207.379 93.621 L
209.5 94.5 L
211.621 93.621 L
cp
S
GR
GS
[1 0 0 1 227 110.75] CT
/Helvetica 18 F
GS
[1 0 0 1 0 0] CT
0 4.5 moveto 
1 -1 scale
(Smart shuffling) t 
GR
GR
GS
0.494 0.184 0.557 RC
1 LJ
N
194 110.75 M
224 110.75 L
S
GR
GS
0.494 0.184 0.557 RC
1 LJ
N
212.5 110.5 M
211.621 108.379 L
209.5 107.5 L
207.379 108.379 L
206.5 110.5 L
207.379 112.621 L
209.5 113.5 L
211.621 112.621 L
cp
S
GR
%%Trailer
%%Pages: 1
%%EOF
