%!PS-Adobe-3.0 EPSF-3.0
%%Creator: (MATLAB, The Mathworks, Inc. Version 8.6.0.267246 \(R2015b\). Operating System: Mac OS X)
%%Title: /Users/gauthiermuguerza/Desktop/rsgd/report/images/fourOSSmall.eps
%%CreationDate: 2018-06-07T19:01:36
%%Pages: (atend)
%%BoundingBox:     8     0   538   413
%%LanguageLevel: 3
%%EndComments
%%BeginProlog
%%BeginResource: procset (Apache XML Graphics Std ProcSet) 1.2 0
%%Version: 1.2 0
%%Copyright: (Copyright 2001-2003,2010 The Apache Software Foundation. License terms: http://www.apache.org/licenses/LICENSE-2.0)
/bd{bind def}bind def
/ld{load def}bd
/GR/grestore ld
/M/moveto ld
/LJ/setlinejoin ld
/C/curveto ld
/f/fill ld
/LW/setlinewidth ld
/GC/setgray ld
/t/show ld
/N/newpath ld
/CT/concat ld
/cp/closepath ld
/S/stroke ld
/L/lineto ld
/CC/setcmykcolor ld
/A/ashow ld
/GS/gsave ld
/RC/setrgbcolor ld
/RM/rmoveto ld
/ML/setmiterlimit ld
/re {4 2 roll M
1 index 0 rlineto
0 exch rlineto
neg 0 rlineto
cp } bd
/_ctm matrix def
/_tm matrix def
/BT { _ctm currentmatrix pop matrix _tm copy pop 0 0 moveto } bd
/ET { _ctm setmatrix } bd
/iTm { _ctm setmatrix _tm concat } bd
/Tm { _tm astore pop iTm 0 0 moveto } bd
/ux 0.0 def
/uy 0.0 def
/F {
  /Tp exch def
  /Tf exch def
  Tf findfont Tp scalefont setfont
  /cf Tf def  /cs Tp def
} bd
/ULS {currentpoint /uy exch def /ux exch def} bd
/ULE {
  /Tcx currentpoint pop def
  gsave
  newpath
  cf findfont cs scalefont dup
  /FontMatrix get 0 get /Ts exch def /FontInfo get dup
  /UnderlinePosition get Ts mul /To exch def
  /UnderlineThickness get Ts mul /Tt exch def
  ux uy To add moveto  Tcx uy To add lineto
  Tt setlinewidth stroke
  grestore
} bd
/OLE {
  /Tcx currentpoint pop def
  gsave
  newpath
  cf findfont cs scalefont dup
  /FontMatrix get 0 get /Ts exch def /FontInfo get dup
  /UnderlinePosition get Ts mul /To exch def
  /UnderlineThickness get Ts mul /Tt exch def
  ux uy To add cs add moveto Tcx uy To add cs add lineto
  Tt setlinewidth stroke
  grestore
} bd
/SOE {
  /Tcx currentpoint pop def
  gsave
  newpath
  cf findfont cs scalefont dup
  /FontMatrix get 0 get /Ts exch def /FontInfo get dup
  /UnderlinePosition get Ts mul /To exch def
  /UnderlineThickness get Ts mul /Tt exch def
  ux uy To add cs 10 mul 26 idiv add moveto Tcx uy To add cs 10 mul 26 idiv add lineto
  Tt setlinewidth stroke
  grestore
} bd
/QT {
/Y22 exch store
/X22 exch store
/Y21 exch store
/X21 exch store
currentpoint
/Y21 load 2 mul add 3 div exch
/X21 load 2 mul add 3 div exch
/X21 load 2 mul /X22 load add 3 div
/Y21 load 2 mul /Y22 load add 3 div
/X22 load /Y22 load curveto
} bd
/SSPD {
dup length /d exch dict def
{
/v exch def
/k exch def
currentpagedevice k known {
/cpdv currentpagedevice k get def
v cpdv ne {
/upd false def
/nullv v type /nulltype eq def
/nullcpdv cpdv type /nulltype eq def
nullv nullcpdv or
{
/upd true def
} {
/sametype v type cpdv type eq def
sametype {
v type /arraytype eq {
/vlen v length def
/cpdvlen cpdv length def
vlen cpdvlen eq {
0 1 vlen 1 sub {
/i exch def
/obj v i get def
/cpdobj cpdv i get def
obj cpdobj ne {
/upd true def
exit
} if
} for
} {
/upd true def
} ifelse
} {
v type /dicttype eq {
v {
/dv exch def
/dk exch def
/cpddv cpdv dk get def
dv cpddv ne {
/upd true def
exit
} if
} forall
} {
/upd true def
} ifelse
} ifelse
} if
} ifelse
upd true eq {
d k v put
} if
} if
} if
} forall
d length 0 gt {
d setpagedevice
} if
} bd
%%EndResource
%%BeginResource: procset (Apache XML Graphics EPS ProcSet) 1.0 0
%%Version: 1.0 0
%%Copyright: (Copyright 2002-2003 The Apache Software Foundation. License terms: http://www.apache.org/licenses/LICENSE-2.0)
/BeginEPSF { %def
/b4_Inc_state save def         % Save state for cleanup
/dict_count countdictstack def % Count objects on dict stack
/op_count count 1 sub def      % Count objects on operand stack
userdict begin                 % Push userdict on dict stack
/showpage { } def              % Redefine showpage, { } = null proc
0 setgray 0 setlinecap         % Prepare graphics state
1 setlinewidth 0 setlinejoin
10 setmiterlimit [ ] 0 setdash newpath
/languagelevel where           % If level not equal to 1 then
{pop languagelevel             % set strokeadjust and
1 ne                           % overprint to their defaults.
{false setstrokeadjust false setoverprint
} if
} if
} bd
/EndEPSF { %def
count op_count sub {pop} repeat            % Clean up stacks
countdictstack dict_count sub {end} repeat
b4_Inc_state restore
} bd
%%EndResource
%FOPBeginFontDict
%%IncludeResource: font Courier-Bold
%%IncludeResource: font Helvetica
%%IncludeResource: font Courier-BoldOblique
%%IncludeResource: font Courier-Oblique
%%IncludeResource: font Times-Roman
%%IncludeResource: font Helvetica-BoldOblique
%%IncludeResource: font Helvetica-Bold
%%IncludeResource: font Helvetica-Oblique
%%IncludeResource: font Times-BoldItalic
%%IncludeResource: font Courier
%%IncludeResource: font Times-Italic
%%IncludeResource: font Times-Bold
%%IncludeResource: font Symbol
%%IncludeResource: font ZapfDingbats
%FOPEndFontDict
%%BeginResource: encoding WinAnsiEncoding
/WinAnsiEncoding [
/.notdef /.notdef /.notdef /.notdef /.notdef
/.notdef /.notdef /.notdef /.notdef /.notdef
/.notdef /.notdef /.notdef /.notdef /.notdef
/.notdef /.notdef /.notdef /.notdef /.notdef
/.notdef /.notdef /.notdef /.notdef /.notdef
/.notdef /.notdef /.notdef /.notdef /.notdef
/.notdef /.notdef /space /exclam /quotedbl
/numbersign /dollar /percent /ampersand /quotesingle
/parenleft /parenright /asterisk /plus /comma
/hyphen /period /slash /zero /one
/two /three /four /five /six
/seven /eight /nine /colon /semicolon
/less /equal /greater /question /at
/A /B /C /D /E
/F /G /H /I /J
/K /L /M /N /O
/P /Q /R /S /T
/U /V /W /X /Y
/Z /bracketleft /backslash /bracketright /asciicircum
/underscore /quoteleft /a /b /c
/d /e /f /g /h
/i /j /k /l /m
/n /o /p /q /r
/s /t /u /v /w
/x /y /z /braceleft /bar
/braceright /asciitilde /bullet /Euro /bullet
/quotesinglbase /florin /quotedblbase /ellipsis /dagger
/daggerdbl /circumflex /perthousand /Scaron /guilsinglleft
/OE /bullet /Zcaron /bullet /bullet
/quoteleft /quoteright /quotedblleft /quotedblright /bullet
/endash /emdash /asciitilde /trademark /scaron
/guilsinglright /oe /bullet /zcaron /Ydieresis
/space /exclamdown /cent /sterling /currency
/yen /brokenbar /section /dieresis /copyright
/ordfeminine /guillemotleft /logicalnot /sfthyphen /registered
/macron /degree /plusminus /twosuperior /threesuperior
/acute /mu /paragraph /middot /cedilla
/onesuperior /ordmasculine /guillemotright /onequarter /onehalf
/threequarters /questiondown /Agrave /Aacute /Acircumflex
/Atilde /Adieresis /Aring /AE /Ccedilla
/Egrave /Eacute /Ecircumflex /Edieresis /Igrave
/Iacute /Icircumflex /Idieresis /Eth /Ntilde
/Ograve /Oacute /Ocircumflex /Otilde /Odieresis
/multiply /Oslash /Ugrave /Uacute /Ucircumflex
/Udieresis /Yacute /Thorn /germandbls /agrave
/aacute /acircumflex /atilde /adieresis /aring
/ae /ccedilla /egrave /eacute /ecircumflex
/edieresis /igrave /iacute /icircumflex /idieresis
/eth /ntilde /ograve /oacute /ocircumflex
/otilde /odieresis /divide /oslash /ugrave
/uacute /ucircumflex /udieresis /yacute /thorn
/ydieresis
] def
%%EndResource
%FOPBeginFontReencode
/Courier-Bold findfont
dup length dict begin
  {1 index /FID ne {def} {pop pop} ifelse} forall
  /Encoding WinAnsiEncoding def
  currentdict
end
/Courier-Bold exch definefont pop
/Helvetica findfont
dup length dict begin
  {1 index /FID ne {def} {pop pop} ifelse} forall
  /Encoding WinAnsiEncoding def
  currentdict
end
/Helvetica exch definefont pop
/Courier-BoldOblique findfont
dup length dict begin
  {1 index /FID ne {def} {pop pop} ifelse} forall
  /Encoding WinAnsiEncoding def
  currentdict
end
/Courier-BoldOblique exch definefont pop
/Courier-Oblique findfont
dup length dict begin
  {1 index /FID ne {def} {pop pop} ifelse} forall
  /Encoding WinAnsiEncoding def
  currentdict
end
/Courier-Oblique exch definefont pop
/Times-Roman findfont
dup length dict begin
  {1 index /FID ne {def} {pop pop} ifelse} forall
  /Encoding WinAnsiEncoding def
  currentdict
end
/Times-Roman exch definefont pop
/Helvetica-BoldOblique findfont
dup length dict begin
  {1 index /FID ne {def} {pop pop} ifelse} forall
  /Encoding WinAnsiEncoding def
  currentdict
end
/Helvetica-BoldOblique exch definefont pop
/Helvetica-Bold findfont
dup length dict begin
  {1 index /FID ne {def} {pop pop} ifelse} forall
  /Encoding WinAnsiEncoding def
  currentdict
end
/Helvetica-Bold exch definefont pop
/Helvetica-Oblique findfont
dup length dict begin
  {1 index /FID ne {def} {pop pop} ifelse} forall
  /Encoding WinAnsiEncoding def
  currentdict
end
/Helvetica-Oblique exch definefont pop
/Times-BoldItalic findfont
dup length dict begin
  {1 index /FID ne {def} {pop pop} ifelse} forall
  /Encoding WinAnsiEncoding def
  currentdict
end
/Times-BoldItalic exch definefont pop
/Courier findfont
dup length dict begin
  {1 index /FID ne {def} {pop pop} ifelse} forall
  /Encoding WinAnsiEncoding def
  currentdict
end
/Courier exch definefont pop
/Times-Italic findfont
dup length dict begin
  {1 index /FID ne {def} {pop pop} ifelse} forall
  /Encoding WinAnsiEncoding def
  currentdict
end
/Times-Italic exch definefont pop
/Times-Bold findfont
dup length dict begin
  {1 index /FID ne {def} {pop pop} ifelse} forall
  /Encoding WinAnsiEncoding def
  currentdict
end
/Times-Bold exch definefont pop
%FOPEndFontReencode
%%EndProlog
%%Page: 1 1
%%PageBoundingBox: 0 0 576 432
%%BeginPageSetup
[1 0 0 -1 0 432] CT
%%EndPageSetup
GS
1 GC
N
0 0 576 432 re
f
GR
GS
1 GC
N
0 0 576 432 re
f
GR
GS
1 GC
N
75 384 M
521.5 384 L
521.5 32.5 L
75 32.5 L
cp
f
GR
GS
0.149 GC
2 setlinecap
1 LJ
0.5 LW
N
75 384 M
521.5 384 L
S
GR
GS
0.149 GC
2 setlinecap
1 LJ
0.5 LW
N
75 384 M
75 379.535 L
S
GR
GS
0.149 GC
2 setlinecap
1 LJ
0.5 LW
N
149.417 384 M
149.417 379.535 L
S
GR
GS
0.149 GC
2 setlinecap
1 LJ
0.5 LW
N
223.833 384 M
223.833 379.535 L
S
GR
GS
0.149 GC
2 setlinecap
1 LJ
0.5 LW
N
298.25 384 M
298.25 379.535 L
S
GR
GS
0.149 GC
2 setlinecap
1 LJ
0.5 LW
N
372.667 384 M
372.667 379.535 L
S
GR
GS
0.149 GC
2 setlinecap
1 LJ
0.5 LW
N
447.083 384 M
447.083 379.535 L
S
GR
GS
0.149 GC
2 setlinecap
1 LJ
0.5 LW
N
521.5 384 M
521.5 379.535 L
S
GR
GS
[1 0 0 1 75 390] CT
0.149 GC
/Helvetica 20 F
GS
[1 0 0 1 0 0] CT
-6 16 moveto 
1 -1 scale
(0) t 
GR
GR
GS
[1 0 0 1 149.41667 390] CT
0.149 GC
/Helvetica 20 F
GS
[1 0 0 1 0 0] CT
-11.5 16 moveto 
1 -1 scale
(20) t 
GR
GR
GS
[1 0 0 1 223.83334 390] CT
0.149 GC
/Helvetica 20 F
GS
[1 0 0 1 0 0] CT
-11.5 16 moveto 
1 -1 scale
(40) t 
GR
GR
GS
[1 0 0 1 298.25 390] CT
0.149 GC
/Helvetica 20 F
GS
[1 0 0 1 0 0] CT
-11.5 16 moveto 
1 -1 scale
(60) t 
GR
GR
GS
[1 0 0 1 372.66669 390] CT
0.149 GC
/Helvetica 20 F
GS
[1 0 0 1 0 0] CT
-11.5 16 moveto 
1 -1 scale
(80) t 
GR
GR
GS
[1 0 0 1 447.08331 390] CT
0.149 GC
/Helvetica 20 F
GS
[1 0 0 1 0 0] CT
-17 16 moveto 
1 -1 scale
(100) t 
GR
GR
GS
[1 0 0 1 521.5 390] CT
0.149 GC
/Helvetica 20 F
GS
[1 0 0 1 0 0] CT
-17 16 moveto 
1 -1 scale
(120) t 
GR
GR
GS
[1 0 0 1 298.25021 411.5] CT
0.149 GC
/Helvetica 20 F
GS
[1 0 0 1 0 0] CT
-41.5 16 moveto 
1 -1 scale
(Iterations) t 
GR
GR
GS
0.149 GC
2 setlinecap
1 LJ
0.5 LW
N
75 384 M
75 32.5 L
S
GR
GS
0.149 GC
2 setlinecap
1 LJ
0.5 LW
N
75 384 M
79.465 384 L
S
GR
GS
0.149 GC
2 setlinecap
1 LJ
0.5 LW
N
75 313.7 M
79.465 313.7 L
S
GR
GS
0.149 GC
2 setlinecap
1 LJ
0.5 LW
N
75 243.4 M
79.465 243.4 L
S
GR
GS
0.149 GC
2 setlinecap
1 LJ
0.5 LW
N
75 173.1 M
79.465 173.1 L
S
GR
GS
0.149 GC
2 setlinecap
1 LJ
0.5 LW
N
75 102.8 M
79.465 102.8 L
S
GR
GS
0.149 GC
2 setlinecap
1 LJ
0.5 LW
N
75 32.5 M
79.465 32.5 L
S
GR
GS
0.149 GC
2 setlinecap
1 LJ
0.5 LW
N
75 362.838 M
77.232 362.838 L
S
GR
GS
0.149 GC
2 setlinecap
1 LJ
0.5 LW
N
75 350.458 M
77.232 350.458 L
S
GR
GS
0.149 GC
2 setlinecap
1 LJ
0.5 LW
N
75 341.675 M
77.232 341.675 L
S
GR
GS
0.149 GC
2 setlinecap
1 LJ
0.5 LW
N
75 334.862 M
77.232 334.862 L
S
GR
GS
0.149 GC
2 setlinecap
1 LJ
0.5 LW
N
75 329.296 M
77.232 329.296 L
S
GR
GS
0.149 GC
2 setlinecap
1 LJ
0.5 LW
N
75 324.59 M
77.232 324.59 L
S
GR
GS
0.149 GC
2 setlinecap
1 LJ
0.5 LW
N
75 320.513 M
77.232 320.513 L
S
GR
GS
0.149 GC
2 setlinecap
1 LJ
0.5 LW
N
75 316.917 M
77.232 316.917 L
S
GR
GS
0.149 GC
2 setlinecap
1 LJ
0.5 LW
N
75 292.538 M
77.232 292.538 L
S
GR
GS
0.149 GC
2 setlinecap
1 LJ
0.5 LW
N
75 280.158 M
77.232 280.158 L
S
GR
GS
0.149 GC
2 setlinecap
1 LJ
0.5 LW
N
75 271.375 M
77.232 271.375 L
S
GR
GS
0.149 GC
2 setlinecap
1 LJ
0.5 LW
N
75 264.562 M
77.232 264.562 L
S
GR
GS
0.149 GC
2 setlinecap
1 LJ
0.5 LW
N
75 258.996 M
77.232 258.996 L
S
GR
GS
0.149 GC
2 setlinecap
1 LJ
0.5 LW
N
75 254.29 M
77.232 254.29 L
S
GR
GS
0.149 GC
2 setlinecap
1 LJ
0.5 LW
N
75 250.213 M
77.232 250.213 L
S
GR
GS
0.149 GC
2 setlinecap
1 LJ
0.5 LW
N
75 246.617 M
77.232 246.617 L
S
GR
GS
0.149 GC
2 setlinecap
1 LJ
0.5 LW
N
75 222.238 M
77.232 222.238 L
S
GR
GS
0.149 GC
2 setlinecap
1 LJ
0.5 LW
N
75 209.858 M
77.232 209.858 L
S
GR
GS
0.149 GC
2 setlinecap
1 LJ
0.5 LW
N
75 201.075 M
77.232 201.075 L
S
GR
GS
0.149 GC
2 setlinecap
1 LJ
0.5 LW
N
75 194.262 M
77.232 194.262 L
S
GR
GS
0.149 GC
2 setlinecap
1 LJ
0.5 LW
N
75 188.696 M
77.232 188.696 L
S
GR
GS
0.149 GC
2 setlinecap
1 LJ
0.5 LW
N
75 183.99 M
77.232 183.99 L
S
GR
GS
0.149 GC
2 setlinecap
1 LJ
0.5 LW
N
75 179.913 M
77.232 179.913 L
S
GR
GS
0.149 GC
2 setlinecap
1 LJ
0.5 LW
N
75 176.317 M
77.232 176.317 L
S
GR
GS
0.149 GC
2 setlinecap
1 LJ
0.5 LW
N
75 151.938 M
77.232 151.938 L
S
GR
GS
0.149 GC
2 setlinecap
1 LJ
0.5 LW
N
75 139.558 M
77.232 139.558 L
S
GR
GS
0.149 GC
2 setlinecap
1 LJ
0.5 LW
N
75 130.775 M
77.232 130.775 L
S
GR
GS
0.149 GC
2 setlinecap
1 LJ
0.5 LW
N
75 123.962 M
77.232 123.962 L
S
GR
GS
0.149 GC
2 setlinecap
1 LJ
0.5 LW
N
75 118.396 M
77.232 118.396 L
S
GR
GS
0.149 GC
2 setlinecap
1 LJ
0.5 LW
N
75 113.69 M
77.232 113.69 L
S
GR
GS
0.149 GC
2 setlinecap
1 LJ
0.5 LW
N
75 109.613 M
77.232 109.613 L
S
GR
GS
0.149 GC
2 setlinecap
1 LJ
0.5 LW
N
75 106.017 M
77.232 106.017 L
S
GR
GS
0.149 GC
2 setlinecap
1 LJ
0.5 LW
N
75 81.638 M
77.232 81.638 L
S
GR
GS
0.149 GC
2 setlinecap
1 LJ
0.5 LW
N
75 69.258 M
77.232 69.258 L
S
GR
GS
0.149 GC
2 setlinecap
1 LJ
0.5 LW
N
75 60.475 M
77.232 60.475 L
S
GR
GS
0.149 GC
2 setlinecap
1 LJ
0.5 LW
N
75 53.662 M
77.232 53.662 L
S
GR
GS
0.149 GC
2 setlinecap
1 LJ
0.5 LW
N
75 48.096 M
77.232 48.096 L
S
GR
GS
0.149 GC
2 setlinecap
1 LJ
0.5 LW
N
75 43.39 M
77.232 43.39 L
S
GR
GS
0.149 GC
2 setlinecap
1 LJ
0.5 LW
N
75 39.313 M
77.232 39.313 L
S
GR
GS
0.149 GC
2 setlinecap
1 LJ
0.5 LW
N
75 35.717 M
77.232 35.717 L
S
GR
GS
[1 0 0 1 31 393] CT
0.149 GC
/Helvetica 20 F
GS
[1 0 0 1 0 0] CT
0 0 moveto 
1 -1 scale
(10) t 
GR
GR
GS
[1 0 0 1 54 383] CT
0.149 GC
/Helvetica 16 F
GS
[1 0 0 1 0 0] CT
0 0 moveto 
1 -1 scale
(-4) t 
GR
GR
GS
[1 0 0 1 31 323] CT
0.149 GC
/Helvetica 20 F
GS
[1 0 0 1 0 0] CT
0 0 moveto 
1 -1 scale
(10) t 
GR
GR
GS
[1 0 0 1 54 313] CT
0.149 GC
/Helvetica 16 F
GS
[1 0 0 1 0 0] CT
0 0 moveto 
1 -1 scale
(-3) t 
GR
GR
GS
[1 0 0 1 31 252] CT
0.149 GC
/Helvetica 20 F
GS
[1 0 0 1 0 0] CT
0 0 moveto 
1 -1 scale
(10) t 
GR
GR
GS
[1 0 0 1 54 242] CT
0.149 GC
/Helvetica 16 F
GS
[1 0 0 1 0 0] CT
0 0 moveto 
1 -1 scale
(-2) t 
GR
GR
GS
[1 0 0 1 31 182] CT
0.149 GC
/Helvetica 20 F
GS
[1 0 0 1 0 0] CT
0 0 moveto 
1 -1 scale
(10) t 
GR
GR
GS
[1 0 0 1 54 172] CT
0.149 GC
/Helvetica 16 F
GS
[1 0 0 1 0 0] CT
0 0 moveto 
1 -1 scale
(-1) t 
GR
GR
GS
[1 0 0 1 37 112] CT
0.149 GC
/Helvetica 20 F
GS
[1 0 0 1 0 0] CT
0 0 moveto 
1 -1 scale
(10) t 
GR
GR
GS
[1 0 0 1 60 102] CT
0.149 GC
/Helvetica 16 F
GS
[1 0 0 1 0 0] CT
0 0 moveto 
1 -1 scale
(0) t 
GR
GR
GS
[1 0 0 1 37 42] CT
0.149 GC
/Helvetica 20 F
GS
[1 0 0 1 0 0] CT
0 0 moveto 
1 -1 scale
(10) t 
GR
GR
GS
[1 0 0 1 60 32] CT
0.149 GC
/Helvetica 16 F
GS
[1 0 0 1 0 0] CT
0 0 moveto 
1 -1 scale
(1) t 
GR
GR
GS
[0 -1 1 0 29 208.24983] CT
0.149 GC
/Helvetica 20 F
GS
[1 0 0 1 0 0] CT
-54.5 -5 moveto 
1 -1 scale
(Train RMSE) t 
GR
GR
GS
0 0.447 0.741 RC
1 LJ
N
78.721 56.963 M
82.442 59.997 L
86.162 62.695 L
89.883 65.017 L
93.604 66.973 L
97.325 68.625 L
101.046 70.06 L
104.767 71.362 L
108.488 72.591 L
112.208 73.773 L
115.929 74.918 L
119.65 76.02 L
123.371 77.076 L
127.092 78.085 L
130.813 79.05 L
134.533 79.976 L
138.254 80.871 L
141.975 81.742 L
145.696 82.596 L
149.417 83.442 L
153.137 84.289 L
156.858 85.147 L
160.579 86.025 L
164.3 86.934 L
168.021 87.888 L
171.742 88.905 L
175.462 90.014 L
179.183 91.269 L
182.904 92.748 L
186.625 94.562 L
190.346 96.854 L
194.067 99.815 L
197.788 103.688 L
201.508 108.575 L
205.229 115.091 L
208.95 125.908 L
212.671 139.626 L
216.392 152.413 L
220.112 164.128 L
223.833 174.91 L
227.554 184.496 L
231.275 192.186 L
234.996 196.539 L
238.717 194.757 L
242.438 223.491 L
246.158 245.377 L
249.879 258.234 L
253.6 267.406 L
257.321 274.351 L
261.042 279.267 L
S
GR
GS
0 0.447 0.741 RC
1 LJ
N
257.321 274.351 M
261.042 279.267 L
264.763 281.581 L
268.483 279.578 L
272.204 307.405 L
275.925 325.061 L
279.646 333.644 L
283.367 339.062 L
287.087 342.796 L
290.808 345.074 L
294.529 345.506 L
298.25 356.231 L
301.971 374.147 L
305.692 377.271 L
309.412 375.968 L
313.133 376.826 L
316.854 377.356 L
320.575 377.489 L
324.296 377.04 L
S
GR
GS
0 0.447 0.741 RC
1 LJ
N
81.5 56.5 M
80.621 54.379 L
78.5 53.5 L
76.379 54.379 L
75.5 56.5 L
76.379 58.621 L
78.5 59.5 L
80.621 58.621 L
cp
S
GR
GS
0 0.447 0.741 RC
1 LJ
N
85.5 59.5 M
84.621 57.379 L
82.5 56.5 L
80.379 57.379 L
79.5 59.5 L
80.379 61.621 L
82.5 62.5 L
84.621 61.621 L
cp
S
GR
GS
0 0.447 0.741 RC
1 LJ
N
89.5 62.5 M
88.621 60.379 L
86.5 59.5 L
84.379 60.379 L
83.5 62.5 L
84.379 64.621 L
86.5 65.5 L
88.621 64.621 L
cp
S
GR
GS
0 0.447 0.741 RC
1 LJ
N
92.5 65.5 M
91.621 63.379 L
89.5 62.5 L
87.379 63.379 L
86.5 65.5 L
87.379 67.621 L
89.5 68.5 L
91.621 67.621 L
cp
S
GR
GS
0 0.447 0.741 RC
1 LJ
N
96.5 66.5 M
95.621 64.379 L
93.5 63.5 L
91.379 64.379 L
90.5 66.5 L
91.379 68.621 L
93.5 69.5 L
95.621 68.621 L
cp
S
GR
GS
0 0.447 0.741 RC
1 LJ
N
100.5 68.5 M
99.621 66.379 L
97.5 65.5 L
95.379 66.379 L
94.5 68.5 L
95.379 70.621 L
97.5 71.5 L
99.621 70.621 L
cp
S
GR
GS
0 0.447 0.741 RC
1 LJ
N
104.5 70.5 M
103.621 68.379 L
101.5 67.5 L
99.379 68.379 L
98.5 70.5 L
99.379 72.621 L
101.5 73.5 L
103.621 72.621 L
cp
S
GR
GS
0 0.447 0.741 RC
1 LJ
N
107.5 71.5 M
106.621 69.379 L
104.5 68.5 L
102.379 69.379 L
101.5 71.5 L
102.379 73.621 L
104.5 74.5 L
106.621 73.621 L
cp
S
GR
GS
0 0.447 0.741 RC
1 LJ
N
111.5 72.5 M
110.621 70.379 L
108.5 69.5 L
106.379 70.379 L
105.5 72.5 L
106.379 74.621 L
108.5 75.5 L
110.621 74.621 L
cp
S
GR
GS
0 0.447 0.741 RC
1 LJ
N
115.5 73.5 M
114.621 71.379 L
112.5 70.5 L
110.379 71.379 L
109.5 73.5 L
110.379 75.621 L
112.5 76.5 L
114.621 75.621 L
cp
S
GR
GS
0 0.447 0.741 RC
1 LJ
N
118.5 74.5 M
117.621 72.379 L
115.5 71.5 L
113.379 72.379 L
112.5 74.5 L
113.379 76.621 L
115.5 77.5 L
117.621 76.621 L
cp
S
GR
GS
0 0.447 0.741 RC
1 LJ
N
122.5 76.5 M
121.621 74.379 L
119.5 73.5 L
117.379 74.379 L
116.5 76.5 L
117.379 78.621 L
119.5 79.5 L
121.621 78.621 L
cp
S
GR
GS
0 0.447 0.741 RC
1 LJ
N
126.5 77.5 M
125.621 75.379 L
123.5 74.5 L
121.379 75.379 L
120.5 77.5 L
121.379 79.621 L
123.5 80.5 L
125.621 79.621 L
cp
S
GR
GS
0 0.447 0.741 RC
1 LJ
N
130.5 78.5 M
129.621 76.379 L
127.5 75.5 L
125.379 76.379 L
124.5 78.5 L
125.379 80.621 L
127.5 81.5 L
129.621 80.621 L
cp
S
GR
GS
0 0.447 0.741 RC
1 LJ
N
133.5 79.5 M
132.621 77.379 L
130.5 76.5 L
128.379 77.379 L
127.5 79.5 L
128.379 81.621 L
130.5 82.5 L
132.621 81.621 L
cp
S
GR
GS
0 0.447 0.741 RC
1 LJ
N
137.5 79.5 M
136.621 77.379 L
134.5 76.5 L
132.379 77.379 L
131.5 79.5 L
132.379 81.621 L
134.5 82.5 L
136.621 81.621 L
cp
S
GR
GS
0 0.447 0.741 RC
1 LJ
N
141.5 80.5 M
140.621 78.379 L
138.5 77.5 L
136.379 78.379 L
135.5 80.5 L
136.379 82.621 L
138.5 83.5 L
140.621 82.621 L
cp
S
GR
GS
0 0.447 0.741 RC
1 LJ
N
144.5 81.5 M
143.621 79.379 L
141.5 78.5 L
139.379 79.379 L
138.5 81.5 L
139.379 83.621 L
141.5 84.5 L
143.621 83.621 L
cp
S
GR
GS
0 0.447 0.741 RC
1 LJ
N
148.5 82.5 M
147.621 80.379 L
145.5 79.5 L
143.379 80.379 L
142.5 82.5 L
143.379 84.621 L
145.5 85.5 L
147.621 84.621 L
cp
S
GR
GS
0 0.447 0.741 RC
1 LJ
N
152.5 83.5 M
151.621 81.379 L
149.5 80.5 L
147.379 81.379 L
146.5 83.5 L
147.379 85.621 L
149.5 86.5 L
151.621 85.621 L
cp
S
GR
GS
0 0.447 0.741 RC
1 LJ
N
156.5 84.5 M
155.621 82.379 L
153.5 81.5 L
151.379 82.379 L
150.5 84.5 L
151.379 86.621 L
153.5 87.5 L
155.621 86.621 L
cp
S
GR
GS
0 0.447 0.741 RC
1 LJ
N
159.5 85.5 M
158.621 83.379 L
156.5 82.5 L
154.379 83.379 L
153.5 85.5 L
154.379 87.621 L
156.5 88.5 L
158.621 87.621 L
cp
S
GR
GS
0 0.447 0.741 RC
1 LJ
N
163.5 86.5 M
162.621 84.379 L
160.5 83.5 L
158.379 84.379 L
157.5 86.5 L
158.379 88.621 L
160.5 89.5 L
162.621 88.621 L
cp
S
GR
GS
0 0.447 0.741 RC
1 LJ
N
167.5 86.5 M
166.621 84.379 L
164.5 83.5 L
162.379 84.379 L
161.5 86.5 L
162.379 88.621 L
164.5 89.5 L
166.621 88.621 L
cp
S
GR
GS
0 0.447 0.741 RC
1 LJ
N
171.5 87.5 M
170.621 85.379 L
168.5 84.5 L
166.379 85.379 L
165.5 87.5 L
166.379 89.621 L
168.5 90.5 L
170.621 89.621 L
cp
S
GR
GS
0 0.447 0.741 RC
1 LJ
N
174.5 88.5 M
173.621 86.379 L
171.5 85.5 L
169.379 86.379 L
168.5 88.5 L
169.379 90.621 L
171.5 91.5 L
173.621 90.621 L
cp
S
GR
GS
0 0.447 0.741 RC
1 LJ
N
178.5 90.5 M
177.621 88.379 L
175.5 87.5 L
173.379 88.379 L
172.5 90.5 L
173.379 92.621 L
175.5 93.5 L
177.621 92.621 L
cp
S
GR
GS
0 0.447 0.741 RC
1 LJ
N
182.5 91.5 M
181.621 89.379 L
179.5 88.5 L
177.379 89.379 L
176.5 91.5 L
177.379 93.621 L
179.5 94.5 L
181.621 93.621 L
cp
S
GR
GS
0 0.447 0.741 RC
1 LJ
N
185.5 92.5 M
184.621 90.379 L
182.5 89.5 L
180.379 90.379 L
179.5 92.5 L
180.379 94.621 L
182.5 95.5 L
184.621 94.621 L
cp
S
GR
GS
0 0.447 0.741 RC
1 LJ
N
189.5 94.5 M
188.621 92.379 L
186.5 91.5 L
184.379 92.379 L
183.5 94.5 L
184.379 96.621 L
186.5 97.5 L
188.621 96.621 L
cp
S
GR
GS
0 0.447 0.741 RC
1 LJ
N
193.5 96.5 M
192.621 94.379 L
190.5 93.5 L
188.379 94.379 L
187.5 96.5 L
188.379 98.621 L
190.5 99.5 L
192.621 98.621 L
cp
S
GR
GS
0 0.447 0.741 RC
1 LJ
N
197.5 99.5 M
196.621 97.379 L
194.5 96.5 L
192.379 97.379 L
191.5 99.5 L
192.379 101.621 L
194.5 102.5 L
196.621 101.621 L
cp
S
GR
GS
0 0.447 0.741 RC
1 LJ
N
200.5 103.5 M
199.621 101.379 L
197.5 100.5 L
195.379 101.379 L
194.5 103.5 L
195.379 105.621 L
197.5 106.5 L
199.621 105.621 L
cp
S
GR
GS
0 0.447 0.741 RC
1 LJ
N
204.5 108.5 M
203.621 106.379 L
201.5 105.5 L
199.379 106.379 L
198.5 108.5 L
199.379 110.621 L
201.5 111.5 L
203.621 110.621 L
cp
S
GR
GS
0 0.447 0.741 RC
1 LJ
N
208.5 115.5 M
207.621 113.379 L
205.5 112.5 L
203.379 113.379 L
202.5 115.5 L
203.379 117.621 L
205.5 118.5 L
207.621 117.621 L
cp
S
GR
GS
0 0.447 0.741 RC
1 LJ
N
211.5 125.5 M
210.621 123.379 L
208.5 122.5 L
206.379 123.379 L
205.5 125.5 L
206.379 127.621 L
208.5 128.5 L
210.621 127.621 L
cp
S
GR
GS
0 0.447 0.741 RC
1 LJ
N
215.5 139.5 M
214.621 137.379 L
212.5 136.5 L
210.379 137.379 L
209.5 139.5 L
210.379 141.621 L
212.5 142.5 L
214.621 141.621 L
cp
S
GR
GS
0 0.447 0.741 RC
1 LJ
N
219.5 152.5 M
218.621 150.379 L
216.5 149.5 L
214.379 150.379 L
213.5 152.5 L
214.379 154.621 L
216.5 155.5 L
218.621 154.621 L
cp
S
GR
GS
0 0.447 0.741 RC
1 LJ
N
223.5 164.5 M
222.621 162.379 L
220.5 161.5 L
218.379 162.379 L
217.5 164.5 L
218.379 166.621 L
220.5 167.5 L
222.621 166.621 L
cp
S
GR
GS
0 0.447 0.741 RC
1 LJ
N
226.5 174.5 M
225.621 172.379 L
223.5 171.5 L
221.379 172.379 L
220.5 174.5 L
221.379 176.621 L
223.5 177.5 L
225.621 176.621 L
cp
S
GR
GS
0 0.447 0.741 RC
1 LJ
N
230.5 184.5 M
229.621 182.379 L
227.5 181.5 L
225.379 182.379 L
224.5 184.5 L
225.379 186.621 L
227.5 187.5 L
229.621 186.621 L
cp
S
GR
GS
0 0.447 0.741 RC
1 LJ
N
234.5 192.5 M
233.621 190.379 L
231.5 189.5 L
229.379 190.379 L
228.5 192.5 L
229.379 194.621 L
231.5 195.5 L
233.621 194.621 L
cp
S
GR
GS
0 0.447 0.741 RC
1 LJ
N
237.5 196.5 M
236.621 194.379 L
234.5 193.5 L
232.379 194.379 L
231.5 196.5 L
232.379 198.621 L
234.5 199.5 L
236.621 198.621 L
cp
S
GR
GS
0 0.447 0.741 RC
1 LJ
N
241.5 194.5 M
240.621 192.379 L
238.5 191.5 L
236.379 192.379 L
235.5 194.5 L
236.379 196.621 L
238.5 197.5 L
240.621 196.621 L
cp
S
GR
GS
0 0.447 0.741 RC
1 LJ
N
245.5 223.5 M
244.621 221.379 L
242.5 220.5 L
240.379 221.379 L
239.5 223.5 L
240.379 225.621 L
242.5 226.5 L
244.621 225.621 L
cp
S
GR
GS
0 0.447 0.741 RC
1 LJ
N
249.5 245.5 M
248.621 243.379 L
246.5 242.5 L
244.379 243.379 L
243.5 245.5 L
244.379 247.621 L
246.5 248.5 L
248.621 247.621 L
cp
S
GR
GS
0 0.447 0.741 RC
1 LJ
N
252.5 258.5 M
251.621 256.379 L
249.5 255.5 L
247.379 256.379 L
246.5 258.5 L
247.379 260.621 L
249.5 261.5 L
251.621 260.621 L
cp
S
GR
GS
0 0.447 0.741 RC
1 LJ
N
256.5 267.5 M
255.621 265.379 L
253.5 264.5 L
251.379 265.379 L
250.5 267.5 L
251.379 269.621 L
253.5 270.5 L
255.621 269.621 L
cp
S
GR
GS
0 0.447 0.741 RC
1 LJ
N
260.5 274.5 M
259.621 272.379 L
257.5 271.5 L
255.379 272.379 L
254.5 274.5 L
255.379 276.621 L
257.5 277.5 L
259.621 276.621 L
cp
S
GR
GS
0 0.447 0.741 RC
1 LJ
N
264.5 279.5 M
263.621 277.379 L
261.5 276.5 L
259.379 277.379 L
258.5 279.5 L
259.379 281.621 L
261.5 282.5 L
263.621 281.621 L
cp
S
GR
GS
0 0.447 0.741 RC
1 LJ
N
267.5 281.5 M
266.621 279.379 L
264.5 278.5 L
262.379 279.379 L
261.5 281.5 L
262.379 283.621 L
264.5 284.5 L
266.621 283.621 L
cp
S
GR
GS
0 0.447 0.741 RC
1 LJ
N
271.5 279.5 M
270.621 277.379 L
268.5 276.5 L
266.379 277.379 L
265.5 279.5 L
266.379 281.621 L
268.5 282.5 L
270.621 281.621 L
cp
S
GR
GS
0 0.447 0.741 RC
1 LJ
N
275.5 307.5 M
274.621 305.379 L
272.5 304.5 L
270.379 305.379 L
269.5 307.5 L
270.379 309.621 L
272.5 310.5 L
274.621 309.621 L
cp
S
GR
GS
0 0.447 0.741 RC
1 LJ
N
278.5 325.5 M
277.621 323.379 L
275.5 322.5 L
273.379 323.379 L
272.5 325.5 L
273.379 327.621 L
275.5 328.5 L
277.621 327.621 L
cp
S
GR
GS
0 0.447 0.741 RC
1 LJ
N
282.5 333.5 M
281.621 331.379 L
279.5 330.5 L
277.379 331.379 L
276.5 333.5 L
277.379 335.621 L
279.5 336.5 L
281.621 335.621 L
cp
S
GR
GS
0 0.447 0.741 RC
1 LJ
N
286.5 339.5 M
285.621 337.379 L
283.5 336.5 L
281.379 337.379 L
280.5 339.5 L
281.379 341.621 L
283.5 342.5 L
285.621 341.621 L
cp
S
GR
GS
0 0.447 0.741 RC
1 LJ
N
290.5 342.5 M
289.621 340.379 L
287.5 339.5 L
285.379 340.379 L
284.5 342.5 L
285.379 344.621 L
287.5 345.5 L
289.621 344.621 L
cp
S
GR
GS
0 0.447 0.741 RC
1 LJ
N
293.5 345.5 M
292.621 343.379 L
290.5 342.5 L
288.379 343.379 L
287.5 345.5 L
288.379 347.621 L
290.5 348.5 L
292.621 347.621 L
cp
S
GR
GS
0 0.447 0.741 RC
1 LJ
N
297.5 345.5 M
296.621 343.379 L
294.5 342.5 L
292.379 343.379 L
291.5 345.5 L
292.379 347.621 L
294.5 348.5 L
296.621 347.621 L
cp
S
GR
GS
0 0.447 0.741 RC
1 LJ
N
301.5 356.5 M
300.621 354.379 L
298.5 353.5 L
296.379 354.379 L
295.5 356.5 L
296.379 358.621 L
298.5 359.5 L
300.621 358.621 L
cp
S
GR
GS
0 0.447 0.741 RC
1 LJ
N
304.5 374.5 M
303.621 372.379 L
301.5 371.5 L
299.379 372.379 L
298.5 374.5 L
299.379 376.621 L
301.5 377.5 L
303.621 376.621 L
cp
S
GR
GS
0 0.447 0.741 RC
1 LJ
N
308.5 377.5 M
307.621 375.379 L
305.5 374.5 L
303.379 375.379 L
302.5 377.5 L
303.379 379.621 L
305.5 380.5 L
307.621 379.621 L
cp
S
GR
GS
0 0.447 0.741 RC
1 LJ
N
312.5 375.5 M
311.621 373.379 L
309.5 372.5 L
307.379 373.379 L
306.5 375.5 L
307.379 377.621 L
309.5 378.5 L
311.621 377.621 L
cp
S
GR
GS
0 0.447 0.741 RC
1 LJ
N
316.5 376.5 M
315.621 374.379 L
313.5 373.5 L
311.379 374.379 L
310.5 376.5 L
311.379 378.621 L
313.5 379.5 L
315.621 378.621 L
cp
S
GR
GS
0 0.447 0.741 RC
1 LJ
N
319.5 377.5 M
318.621 375.379 L
316.5 374.5 L
314.379 375.379 L
313.5 377.5 L
314.379 379.621 L
316.5 380.5 L
318.621 379.621 L
cp
S
GR
GS
0 0.447 0.741 RC
1 LJ
N
323.5 377.5 M
322.621 375.379 L
320.5 374.5 L
318.379 375.379 L
317.5 377.5 L
318.379 379.621 L
320.5 380.5 L
322.621 379.621 L
cp
S
GR
GS
0 0.447 0.741 RC
1 LJ
N
327.5 377.5 M
326.621 375.379 L
324.5 374.5 L
322.379 375.379 L
321.5 377.5 L
322.379 379.621 L
324.5 380.5 L
326.621 379.621 L
cp
S
GR
GS
0.851 0.325 0.098 RC
1 LJ
N
78.721 56.963 M
82.442 59.997 L
86.162 62.695 L
89.883 65.018 L
93.604 66.976 L
97.325 68.628 L
101.046 70.065 L
104.767 71.369 L
108.488 72.598 L
112.208 73.783 L
115.929 74.929 L
119.65 76.031 L
123.371 77.093 L
127.092 78.109 L
130.813 79.083 L
134.533 80.018 L
138.254 80.925 L
141.975 81.804 L
145.696 82.675 L
149.417 83.542 L
153.137 84.401 L
156.858 85.282 L
160.579 86.169 L
164.3 87.093 L
168.021 88.031 L
171.742 89.073 L
175.462 90.142 L
179.183 91.316 L
182.904 92.663 L
186.625 94.262 L
190.346 96.227 L
194.067 98.528 L
197.788 101.455 L
201.508 105.288 L
205.229 109.848 L
208.95 115.739 L
212.671 123.464 L
216.392 135.775 L
220.112 148.828 L
223.833 159.886 L
227.554 168.661 L
231.275 176.052 L
234.996 180.16 L
238.717 178.399 L
242.438 216.194 L
246.158 233.662 L
249.879 243.049 L
253.6 248.928 L
257.321 253.631 L
261.042 256.696 L
S
GR
GS
0.851 0.325 0.098 RC
1 LJ
N
257.321 253.631 M
261.042 256.696 L
264.763 257.573 L
268.483 263.726 L
272.204 292.35 L
275.925 301.12 L
279.646 304.963 L
283.367 308.914 L
287.087 308.916 L
290.808 324.387 L
294.529 327.236 L
298.25 327.342 L
301.971 337.648 L
305.692 339.795 L
309.412 342.697 L
313.133 344.162 L
316.854 343.317 L
320.575 352.66 L
324.296 363.476 L
328.017 365.589 L
331.737 366.294 L
335.458 366.756 L
339.179 371.161 L
342.9 376.479 L
346.621 377.606 L
350.342 378.616 L
354.063 379.411 L
357.783 379.929 L
361.504 379.784 L
365.225 382.56 L
368.946 383.026 L
372.667 383.233 L
376.388 383.431 L
380.108 383.972 L
S
GR
GS
0.851 0.325 0.098 RC
1 LJ
N
81.5 56.5 M
80.621 54.379 L
78.5 53.5 L
76.379 54.379 L
75.5 56.5 L
76.379 58.621 L
78.5 59.5 L
80.621 58.621 L
cp
S
GR
GS
0.851 0.325 0.098 RC
1 LJ
N
85.5 59.5 M
84.621 57.379 L
82.5 56.5 L
80.379 57.379 L
79.5 59.5 L
80.379 61.621 L
82.5 62.5 L
84.621 61.621 L
cp
S
GR
GS
0.851 0.325 0.098 RC
1 LJ
N
89.5 62.5 M
88.621 60.379 L
86.5 59.5 L
84.379 60.379 L
83.5 62.5 L
84.379 64.621 L
86.5 65.5 L
88.621 64.621 L
cp
S
GR
GS
0.851 0.325 0.098 RC
1 LJ
N
92.5 65.5 M
91.621 63.379 L
89.5 62.5 L
87.379 63.379 L
86.5 65.5 L
87.379 67.621 L
89.5 68.5 L
91.621 67.621 L
cp
S
GR
GS
0.851 0.325 0.098 RC
1 LJ
N
96.5 66.5 M
95.621 64.379 L
93.5 63.5 L
91.379 64.379 L
90.5 66.5 L
91.379 68.621 L
93.5 69.5 L
95.621 68.621 L
cp
S
GR
GS
0.851 0.325 0.098 RC
1 LJ
N
100.5 68.5 M
99.621 66.379 L
97.5 65.5 L
95.379 66.379 L
94.5 68.5 L
95.379 70.621 L
97.5 71.5 L
99.621 70.621 L
cp
S
GR
GS
0.851 0.325 0.098 RC
1 LJ
N
104.5 70.5 M
103.621 68.379 L
101.5 67.5 L
99.379 68.379 L
98.5 70.5 L
99.379 72.621 L
101.5 73.5 L
103.621 72.621 L
cp
S
GR
GS
0.851 0.325 0.098 RC
1 LJ
N
107.5 71.5 M
106.621 69.379 L
104.5 68.5 L
102.379 69.379 L
101.5 71.5 L
102.379 73.621 L
104.5 74.5 L
106.621 73.621 L
cp
S
GR
GS
0.851 0.325 0.098 RC
1 LJ
N
111.5 72.5 M
110.621 70.379 L
108.5 69.5 L
106.379 70.379 L
105.5 72.5 L
106.379 74.621 L
108.5 75.5 L
110.621 74.621 L
cp
S
GR
GS
0.851 0.325 0.098 RC
1 LJ
N
115.5 73.5 M
114.621 71.379 L
112.5 70.5 L
110.379 71.379 L
109.5 73.5 L
110.379 75.621 L
112.5 76.5 L
114.621 75.621 L
cp
S
GR
GS
0.851 0.325 0.098 RC
1 LJ
N
118.5 74.5 M
117.621 72.379 L
115.5 71.5 L
113.379 72.379 L
112.5 74.5 L
113.379 76.621 L
115.5 77.5 L
117.621 76.621 L
cp
S
GR
GS
0.851 0.325 0.098 RC
1 LJ
N
122.5 76.5 M
121.621 74.379 L
119.5 73.5 L
117.379 74.379 L
116.5 76.5 L
117.379 78.621 L
119.5 79.5 L
121.621 78.621 L
cp
S
GR
GS
0.851 0.325 0.098 RC
1 LJ
N
126.5 77.5 M
125.621 75.379 L
123.5 74.5 L
121.379 75.379 L
120.5 77.5 L
121.379 79.621 L
123.5 80.5 L
125.621 79.621 L
cp
S
GR
GS
0.851 0.325 0.098 RC
1 LJ
N
130.5 78.5 M
129.621 76.379 L
127.5 75.5 L
125.379 76.379 L
124.5 78.5 L
125.379 80.621 L
127.5 81.5 L
129.621 80.621 L
cp
S
GR
GS
0.851 0.325 0.098 RC
1 LJ
N
133.5 79.5 M
132.621 77.379 L
130.5 76.5 L
128.379 77.379 L
127.5 79.5 L
128.379 81.621 L
130.5 82.5 L
132.621 81.621 L
cp
S
GR
GS
0.851 0.325 0.098 RC
1 LJ
N
137.5 80.5 M
136.621 78.379 L
134.5 77.5 L
132.379 78.379 L
131.5 80.5 L
132.379 82.621 L
134.5 83.5 L
136.621 82.621 L
cp
S
GR
GS
0.851 0.325 0.098 RC
1 LJ
N
141.5 80.5 M
140.621 78.379 L
138.5 77.5 L
136.379 78.379 L
135.5 80.5 L
136.379 82.621 L
138.5 83.5 L
140.621 82.621 L
cp
S
GR
GS
0.851 0.325 0.098 RC
1 LJ
N
144.5 81.5 M
143.621 79.379 L
141.5 78.5 L
139.379 79.379 L
138.5 81.5 L
139.379 83.621 L
141.5 84.5 L
143.621 83.621 L
cp
S
GR
GS
0.851 0.325 0.098 RC
1 LJ
N
148.5 82.5 M
147.621 80.379 L
145.5 79.5 L
143.379 80.379 L
142.5 82.5 L
143.379 84.621 L
145.5 85.5 L
147.621 84.621 L
cp
S
GR
GS
0.851 0.325 0.098 RC
1 LJ
N
152.5 83.5 M
151.621 81.379 L
149.5 80.5 L
147.379 81.379 L
146.5 83.5 L
147.379 85.621 L
149.5 86.5 L
151.621 85.621 L
cp
S
GR
GS
0.851 0.325 0.098 RC
1 LJ
N
156.5 84.5 M
155.621 82.379 L
153.5 81.5 L
151.379 82.379 L
150.5 84.5 L
151.379 86.621 L
153.5 87.5 L
155.621 86.621 L
cp
S
GR
GS
0.851 0.325 0.098 RC
1 LJ
N
159.5 85.5 M
158.621 83.379 L
156.5 82.5 L
154.379 83.379 L
153.5 85.5 L
154.379 87.621 L
156.5 88.5 L
158.621 87.621 L
cp
S
GR
GS
0.851 0.325 0.098 RC
1 LJ
N
163.5 86.5 M
162.621 84.379 L
160.5 83.5 L
158.379 84.379 L
157.5 86.5 L
158.379 88.621 L
160.5 89.5 L
162.621 88.621 L
cp
S
GR
GS
0.851 0.325 0.098 RC
1 LJ
N
167.5 87.5 M
166.621 85.379 L
164.5 84.5 L
162.379 85.379 L
161.5 87.5 L
162.379 89.621 L
164.5 90.5 L
166.621 89.621 L
cp
S
GR
GS
0.851 0.325 0.098 RC
1 LJ
N
171.5 88.5 M
170.621 86.379 L
168.5 85.5 L
166.379 86.379 L
165.5 88.5 L
166.379 90.621 L
168.5 91.5 L
170.621 90.621 L
cp
S
GR
GS
0.851 0.325 0.098 RC
1 LJ
N
174.5 89.5 M
173.621 87.379 L
171.5 86.5 L
169.379 87.379 L
168.5 89.5 L
169.379 91.621 L
171.5 92.5 L
173.621 91.621 L
cp
S
GR
GS
0.851 0.325 0.098 RC
1 LJ
N
178.5 90.5 M
177.621 88.379 L
175.5 87.5 L
173.379 88.379 L
172.5 90.5 L
173.379 92.621 L
175.5 93.5 L
177.621 92.621 L
cp
S
GR
GS
0.851 0.325 0.098 RC
1 LJ
N
182.5 91.5 M
181.621 89.379 L
179.5 88.5 L
177.379 89.379 L
176.5 91.5 L
177.379 93.621 L
179.5 94.5 L
181.621 93.621 L
cp
S
GR
GS
0.851 0.325 0.098 RC
1 LJ
N
185.5 92.5 M
184.621 90.379 L
182.5 89.5 L
180.379 90.379 L
179.5 92.5 L
180.379 94.621 L
182.5 95.5 L
184.621 94.621 L
cp
S
GR
GS
0.851 0.325 0.098 RC
1 LJ
N
189.5 94.5 M
188.621 92.379 L
186.5 91.5 L
184.379 92.379 L
183.5 94.5 L
184.379 96.621 L
186.5 97.5 L
188.621 96.621 L
cp
S
GR
GS
0.851 0.325 0.098 RC
1 LJ
N
193.5 96.5 M
192.621 94.379 L
190.5 93.5 L
188.379 94.379 L
187.5 96.5 L
188.379 98.621 L
190.5 99.5 L
192.621 98.621 L
cp
S
GR
GS
0.851 0.325 0.098 RC
1 LJ
N
197.5 98.5 M
196.621 96.379 L
194.5 95.5 L
192.379 96.379 L
191.5 98.5 L
192.379 100.621 L
194.5 101.5 L
196.621 100.621 L
cp
S
GR
GS
0.851 0.325 0.098 RC
1 LJ
N
200.5 101.5 M
199.621 99.379 L
197.5 98.5 L
195.379 99.379 L
194.5 101.5 L
195.379 103.621 L
197.5 104.5 L
199.621 103.621 L
cp
S
GR
GS
0.851 0.325 0.098 RC
1 LJ
N
204.5 105.5 M
203.621 103.379 L
201.5 102.5 L
199.379 103.379 L
198.5 105.5 L
199.379 107.621 L
201.5 108.5 L
203.621 107.621 L
cp
S
GR
GS
0.851 0.325 0.098 RC
1 LJ
N
208.5 109.5 M
207.621 107.379 L
205.5 106.5 L
203.379 107.379 L
202.5 109.5 L
203.379 111.621 L
205.5 112.5 L
207.621 111.621 L
cp
S
GR
GS
0.851 0.325 0.098 RC
1 LJ
N
211.5 115.5 M
210.621 113.379 L
208.5 112.5 L
206.379 113.379 L
205.5 115.5 L
206.379 117.621 L
208.5 118.5 L
210.621 117.621 L
cp
S
GR
GS
0.851 0.325 0.098 RC
1 LJ
N
215.5 123.5 M
214.621 121.379 L
212.5 120.5 L
210.379 121.379 L
209.5 123.5 L
210.379 125.621 L
212.5 126.5 L
214.621 125.621 L
cp
S
GR
GS
0.851 0.325 0.098 RC
1 LJ
N
219.5 135.5 M
218.621 133.379 L
216.5 132.5 L
214.379 133.379 L
213.5 135.5 L
214.379 137.621 L
216.5 138.5 L
218.621 137.621 L
cp
S
GR
GS
0.851 0.325 0.098 RC
1 LJ
N
223.5 148.5 M
222.621 146.379 L
220.5 145.5 L
218.379 146.379 L
217.5 148.5 L
218.379 150.621 L
220.5 151.5 L
222.621 150.621 L
cp
S
GR
GS
0.851 0.325 0.098 RC
1 LJ
N
226.5 159.5 M
225.621 157.379 L
223.5 156.5 L
221.379 157.379 L
220.5 159.5 L
221.379 161.621 L
223.5 162.5 L
225.621 161.621 L
cp
S
GR
GS
0.851 0.325 0.098 RC
1 LJ
N
230.5 168.5 M
229.621 166.379 L
227.5 165.5 L
225.379 166.379 L
224.5 168.5 L
225.379 170.621 L
227.5 171.5 L
229.621 170.621 L
cp
S
GR
GS
0.851 0.325 0.098 RC
1 LJ
N
234.5 176.5 M
233.621 174.379 L
231.5 173.5 L
229.379 174.379 L
228.5 176.5 L
229.379 178.621 L
231.5 179.5 L
233.621 178.621 L
cp
S
GR
GS
0.851 0.325 0.098 RC
1 LJ
N
237.5 180.5 M
236.621 178.379 L
234.5 177.5 L
232.379 178.379 L
231.5 180.5 L
232.379 182.621 L
234.5 183.5 L
236.621 182.621 L
cp
S
GR
GS
0.851 0.325 0.098 RC
1 LJ
N
241.5 178.5 M
240.621 176.379 L
238.5 175.5 L
236.379 176.379 L
235.5 178.5 L
236.379 180.621 L
238.5 181.5 L
240.621 180.621 L
cp
S
GR
GS
0.851 0.325 0.098 RC
1 LJ
N
245.5 216.5 M
244.621 214.379 L
242.5 213.5 L
240.379 214.379 L
239.5 216.5 L
240.379 218.621 L
242.5 219.5 L
244.621 218.621 L
cp
S
GR
GS
0.851 0.325 0.098 RC
1 LJ
N
249.5 233.5 M
248.621 231.379 L
246.5 230.5 L
244.379 231.379 L
243.5 233.5 L
244.379 235.621 L
246.5 236.5 L
248.621 235.621 L
cp
S
GR
GS
0.851 0.325 0.098 RC
1 LJ
N
252.5 243.5 M
251.621 241.379 L
249.5 240.5 L
247.379 241.379 L
246.5 243.5 L
247.379 245.621 L
249.5 246.5 L
251.621 245.621 L
cp
S
GR
GS
0.851 0.325 0.098 RC
1 LJ
N
256.5 248.5 M
255.621 246.379 L
253.5 245.5 L
251.379 246.379 L
250.5 248.5 L
251.379 250.621 L
253.5 251.5 L
255.621 250.621 L
cp
S
GR
GS
0.851 0.325 0.098 RC
1 LJ
N
260.5 253.5 M
259.621 251.379 L
257.5 250.5 L
255.379 251.379 L
254.5 253.5 L
255.379 255.621 L
257.5 256.5 L
259.621 255.621 L
cp
S
GR
GS
0.851 0.325 0.098 RC
1 LJ
N
264.5 256.5 M
263.621 254.379 L
261.5 253.5 L
259.379 254.379 L
258.5 256.5 L
259.379 258.621 L
261.5 259.5 L
263.621 258.621 L
cp
S
GR
GS
0.851 0.325 0.098 RC
1 LJ
N
267.5 257.5 M
266.621 255.379 L
264.5 254.5 L
262.379 255.379 L
261.5 257.5 L
262.379 259.621 L
264.5 260.5 L
266.621 259.621 L
cp
S
GR
GS
0.851 0.325 0.098 RC
1 LJ
N
271.5 263.5 M
270.621 261.379 L
268.5 260.5 L
266.379 261.379 L
265.5 263.5 L
266.379 265.621 L
268.5 266.5 L
270.621 265.621 L
cp
S
GR
GS
0.851 0.325 0.098 RC
1 LJ
N
275.5 292.5 M
274.621 290.379 L
272.5 289.5 L
270.379 290.379 L
269.5 292.5 L
270.379 294.621 L
272.5 295.5 L
274.621 294.621 L
cp
S
GR
GS
0.851 0.325 0.098 RC
1 LJ
N
278.5 301.5 M
277.621 299.379 L
275.5 298.5 L
273.379 299.379 L
272.5 301.5 L
273.379 303.621 L
275.5 304.5 L
277.621 303.621 L
cp
S
GR
GS
0.851 0.325 0.098 RC
1 LJ
N
282.5 304.5 M
281.621 302.379 L
279.5 301.5 L
277.379 302.379 L
276.5 304.5 L
277.379 306.621 L
279.5 307.5 L
281.621 306.621 L
cp
S
GR
GS
0.851 0.325 0.098 RC
1 LJ
N
286.5 308.5 M
285.621 306.379 L
283.5 305.5 L
281.379 306.379 L
280.5 308.5 L
281.379 310.621 L
283.5 311.5 L
285.621 310.621 L
cp
S
GR
GS
0.851 0.325 0.098 RC
1 LJ
N
290.5 308.5 M
289.621 306.379 L
287.5 305.5 L
285.379 306.379 L
284.5 308.5 L
285.379 310.621 L
287.5 311.5 L
289.621 310.621 L
cp
S
GR
GS
0.851 0.325 0.098 RC
1 LJ
N
293.5 324.5 M
292.621 322.379 L
290.5 321.5 L
288.379 322.379 L
287.5 324.5 L
288.379 326.621 L
290.5 327.5 L
292.621 326.621 L
cp
S
GR
GS
0.851 0.325 0.098 RC
1 LJ
N
297.5 327.5 M
296.621 325.379 L
294.5 324.5 L
292.379 325.379 L
291.5 327.5 L
292.379 329.621 L
294.5 330.5 L
296.621 329.621 L
cp
S
GR
GS
0.851 0.325 0.098 RC
1 LJ
N
301.5 327.5 M
300.621 325.379 L
298.5 324.5 L
296.379 325.379 L
295.5 327.5 L
296.379 329.621 L
298.5 330.5 L
300.621 329.621 L
cp
S
GR
GS
0.851 0.325 0.098 RC
1 LJ
N
304.5 337.5 M
303.621 335.379 L
301.5 334.5 L
299.379 335.379 L
298.5 337.5 L
299.379 339.621 L
301.5 340.5 L
303.621 339.621 L
cp
S
GR
GS
0.851 0.325 0.098 RC
1 LJ
N
308.5 339.5 M
307.621 337.379 L
305.5 336.5 L
303.379 337.379 L
302.5 339.5 L
303.379 341.621 L
305.5 342.5 L
307.621 341.621 L
cp
S
GR
GS
0.851 0.325 0.098 RC
1 LJ
N
312.5 342.5 M
311.621 340.379 L
309.5 339.5 L
307.379 340.379 L
306.5 342.5 L
307.379 344.621 L
309.5 345.5 L
311.621 344.621 L
cp
S
GR
GS
0.851 0.325 0.098 RC
1 LJ
N
316.5 344.5 M
315.621 342.379 L
313.5 341.5 L
311.379 342.379 L
310.5 344.5 L
311.379 346.621 L
313.5 347.5 L
315.621 346.621 L
cp
S
GR
GS
0.851 0.325 0.098 RC
1 LJ
N
319.5 343.5 M
318.621 341.379 L
316.5 340.5 L
314.379 341.379 L
313.5 343.5 L
314.379 345.621 L
316.5 346.5 L
318.621 345.621 L
cp
S
GR
GS
0.851 0.325 0.098 RC
1 LJ
N
323.5 352.5 M
322.621 350.379 L
320.5 349.5 L
318.379 350.379 L
317.5 352.5 L
318.379 354.621 L
320.5 355.5 L
322.621 354.621 L
cp
S
GR
GS
0.851 0.325 0.098 RC
1 LJ
N
327.5 363.5 M
326.621 361.379 L
324.5 360.5 L
322.379 361.379 L
321.5 363.5 L
322.379 365.621 L
324.5 366.5 L
326.621 365.621 L
cp
S
GR
GS
0.851 0.325 0.098 RC
1 LJ
N
331.5 365.5 M
330.621 363.379 L
328.5 362.5 L
326.379 363.379 L
325.5 365.5 L
326.379 367.621 L
328.5 368.5 L
330.621 367.621 L
cp
S
GR
GS
0.851 0.325 0.098 RC
1 LJ
N
334.5 366.5 M
333.621 364.379 L
331.5 363.5 L
329.379 364.379 L
328.5 366.5 L
329.379 368.621 L
331.5 369.5 L
333.621 368.621 L
cp
S
GR
GS
0.851 0.325 0.098 RC
1 LJ
N
338.5 366.5 M
337.621 364.379 L
335.5 363.5 L
333.379 364.379 L
332.5 366.5 L
333.379 368.621 L
335.5 369.5 L
337.621 368.621 L
cp
S
GR
GS
0.851 0.325 0.098 RC
1 LJ
N
342.5 371.5 M
341.621 369.379 L
339.5 368.5 L
337.379 369.379 L
336.5 371.5 L
337.379 373.621 L
339.5 374.5 L
341.621 373.621 L
cp
S
GR
GS
0.851 0.325 0.098 RC
1 LJ
N
345.5 376.5 M
344.621 374.379 L
342.5 373.5 L
340.379 374.379 L
339.5 376.5 L
340.379 378.621 L
342.5 379.5 L
344.621 378.621 L
cp
S
GR
GS
0.851 0.325 0.098 RC
1 LJ
N
349.5 377.5 M
348.621 375.379 L
346.5 374.5 L
344.379 375.379 L
343.5 377.5 L
344.379 379.621 L
346.5 380.5 L
348.621 379.621 L
cp
S
GR
GS
0.851 0.325 0.098 RC
1 LJ
N
353.5 378.5 M
352.621 376.379 L
350.5 375.5 L
348.379 376.379 L
347.5 378.5 L
348.379 380.621 L
350.5 381.5 L
352.621 380.621 L
cp
S
GR
GS
0.851 0.325 0.098 RC
1 LJ
N
357.5 379.5 M
356.621 377.379 L
354.5 376.5 L
352.379 377.379 L
351.5 379.5 L
352.379 381.621 L
354.5 382.5 L
356.621 381.621 L
cp
S
GR
GS
0.851 0.325 0.098 RC
1 LJ
N
360.5 379.5 M
359.621 377.379 L
357.5 376.5 L
355.379 377.379 L
354.5 379.5 L
355.379 381.621 L
357.5 382.5 L
359.621 381.621 L
cp
S
GR
GS
0.851 0.325 0.098 RC
1 LJ
N
364.5 379.5 M
363.621 377.379 L
361.5 376.5 L
359.379 377.379 L
358.5 379.5 L
359.379 381.621 L
361.5 382.5 L
363.621 381.621 L
cp
S
GR
GS
0.851 0.325 0.098 RC
1 LJ
N
368.5 382.5 M
367.621 380.379 L
365.5 379.5 L
363.379 380.379 L
362.5 382.5 L
363.379 384.621 L
365.5 385.5 L
367.621 384.621 L
cp
S
GR
GS
0.851 0.325 0.098 RC
1 LJ
N
371.5 383.5 M
370.621 381.379 L
368.5 380.5 L
366.379 381.379 L
365.5 383.5 L
366.379 385.621 L
368.5 386.5 L
370.621 385.621 L
cp
S
GR
GS
0.851 0.325 0.098 RC
1 LJ
N
375.5 383.5 M
374.621 381.379 L
372.5 380.5 L
370.379 381.379 L
369.5 383.5 L
370.379 385.621 L
372.5 386.5 L
374.621 385.621 L
cp
S
GR
GS
0.851 0.325 0.098 RC
1 LJ
N
379.5 383.5 M
378.621 381.379 L
376.5 380.5 L
374.379 381.379 L
373.5 383.5 L
374.379 385.621 L
376.5 386.5 L
378.621 385.621 L
cp
S
GR
GS
0.851 0.325 0.098 RC
1 LJ
N
383.5 383.5 M
382.621 381.379 L
380.5 380.5 L
378.379 381.379 L
377.5 383.5 L
378.379 385.621 L
380.5 386.5 L
382.621 385.621 L
cp
S
GR
GS
0.929 0.694 0.125 RC
1 LJ
N
78.721 56.963 M
82.442 59.857 L
86.162 62.429 L
89.883 64.647 L
93.604 66.546 L
97.325 68.14 L
101.046 69.518 L
104.767 70.745 L
108.488 71.882 L
112.208 72.969 L
115.929 74.002 L
119.65 74.965 L
123.371 75.911 L
127.092 76.792 L
130.813 77.637 L
134.533 78.411 L
138.254 79.178 L
141.975 79.915 L
145.696 80.65 L
149.417 81.338 L
153.137 81.969 L
156.858 82.597 L
160.579 83.273 L
164.3 83.88 L
168.021 84.5 L
171.742 85.263 L
175.462 85.905 L
179.183 86.673 L
182.904 87.355 L
186.625 88.347 L
190.346 89.479 L
194.067 90.803 L
197.788 92.449 L
201.508 94.609 L
205.229 97.483 L
208.95 101.136 L
212.671 106.352 L
216.392 113.95 L
220.112 123.399 L
223.833 132.525 L
227.554 140.446 L
231.275 146.361 L
234.996 149.403 L
238.717 146.333 L
242.438 174.425 L
246.158 188.998 L
249.879 198.064 L
253.6 204.802 L
257.321 209.728 L
261.042 213.794 L
S
GR
GS
0.929 0.694 0.125 RC
1 LJ
N
257.321 209.728 M
261.042 213.794 L
264.763 214.641 L
268.483 218.255 L
272.204 238.9 L
275.925 247.416 L
279.646 252.591 L
283.367 256.134 L
287.087 258.462 L
290.808 260.63 L
294.529 261.651 L
298.25 258.053 L
301.971 280.565 L
305.692 288.146 L
309.412 292.392 L
313.133 293.678 L
316.854 299.441 L
320.575 301.488 L
324.296 302.174 L
328.017 306.677 L
331.737 315.198 L
335.458 316.837 L
339.179 321.322 L
342.9 322.841 L
346.621 325.888 L
350.342 328.85 L
354.063 329.014 L
357.783 330.714 L
361.504 334.649 L
365.225 335.9 L
368.946 335.975 L
372.667 338.401 L
376.388 340.195 L
380.108 342.007 L
383.829 340.897 L
387.55 345.204 L
391.271 344.409 L
394.992 347.382 L
398.713 347.703 L
402.433 348.786 L
406.154 350.041 L
409.875 350.341 L
413.596 350.827 L
417.317 351.422 L
421.037 352.593 L
424.758 352.759 L
428.479 353.227 L
432.2 353.934 L
435.921 354.092 L
439.642 354.509 L
443.362 353.891 L
447.083 354.17 L
S
GR
GS
0.929 0.694 0.125 RC
1 LJ
N
443.362 353.891 M
447.083 354.17 L
450.804 354.366 L
S
GR
GS
0.929 0.694 0.125 RC
1 LJ
N
81.5 56.5 M
80.621 54.379 L
78.5 53.5 L
76.379 54.379 L
75.5 56.5 L
76.379 58.621 L
78.5 59.5 L
80.621 58.621 L
cp
S
GR
GS
0.929 0.694 0.125 RC
1 LJ
N
85.5 59.5 M
84.621 57.379 L
82.5 56.5 L
80.379 57.379 L
79.5 59.5 L
80.379 61.621 L
82.5 62.5 L
84.621 61.621 L
cp
S
GR
GS
0.929 0.694 0.125 RC
1 LJ
N
89.5 62.5 M
88.621 60.379 L
86.5 59.5 L
84.379 60.379 L
83.5 62.5 L
84.379 64.621 L
86.5 65.5 L
88.621 64.621 L
cp
S
GR
GS
0.929 0.694 0.125 RC
1 LJ
N
92.5 64.5 M
91.621 62.379 L
89.5 61.5 L
87.379 62.379 L
86.5 64.5 L
87.379 66.621 L
89.5 67.5 L
91.621 66.621 L
cp
S
GR
GS
0.929 0.694 0.125 RC
1 LJ
N
96.5 66.5 M
95.621 64.379 L
93.5 63.5 L
91.379 64.379 L
90.5 66.5 L
91.379 68.621 L
93.5 69.5 L
95.621 68.621 L
cp
S
GR
GS
0.929 0.694 0.125 RC
1 LJ
N
100.5 68.5 M
99.621 66.379 L
97.5 65.5 L
95.379 66.379 L
94.5 68.5 L
95.379 70.621 L
97.5 71.5 L
99.621 70.621 L
cp
S
GR
GS
0.929 0.694 0.125 RC
1 LJ
N
104.5 69.5 M
103.621 67.379 L
101.5 66.5 L
99.379 67.379 L
98.5 69.5 L
99.379 71.621 L
101.5 72.5 L
103.621 71.621 L
cp
S
GR
GS
0.929 0.694 0.125 RC
1 LJ
N
107.5 70.5 M
106.621 68.379 L
104.5 67.5 L
102.379 68.379 L
101.5 70.5 L
102.379 72.621 L
104.5 73.5 L
106.621 72.621 L
cp
S
GR
GS
0.929 0.694 0.125 RC
1 LJ
N
111.5 71.5 M
110.621 69.379 L
108.5 68.5 L
106.379 69.379 L
105.5 71.5 L
106.379 73.621 L
108.5 74.5 L
110.621 73.621 L
cp
S
GR
GS
0.929 0.694 0.125 RC
1 LJ
N
115.5 72.5 M
114.621 70.379 L
112.5 69.5 L
110.379 70.379 L
109.5 72.5 L
110.379 74.621 L
112.5 75.5 L
114.621 74.621 L
cp
S
GR
GS
0.929 0.694 0.125 RC
1 LJ
N
118.5 74.5 M
117.621 72.379 L
115.5 71.5 L
113.379 72.379 L
112.5 74.5 L
113.379 76.621 L
115.5 77.5 L
117.621 76.621 L
cp
S
GR
GS
0.929 0.694 0.125 RC
1 LJ
N
122.5 74.5 M
121.621 72.379 L
119.5 71.5 L
117.379 72.379 L
116.5 74.5 L
117.379 76.621 L
119.5 77.5 L
121.621 76.621 L
cp
S
GR
GS
0.929 0.694 0.125 RC
1 LJ
N
126.5 75.5 M
125.621 73.379 L
123.5 72.5 L
121.379 73.379 L
120.5 75.5 L
121.379 77.621 L
123.5 78.5 L
125.621 77.621 L
cp
S
GR
GS
0.929 0.694 0.125 RC
1 LJ
N
130.5 76.5 M
129.621 74.379 L
127.5 73.5 L
125.379 74.379 L
124.5 76.5 L
125.379 78.621 L
127.5 79.5 L
129.621 78.621 L
cp
S
GR
GS
0.929 0.694 0.125 RC
1 LJ
N
133.5 77.5 M
132.621 75.379 L
130.5 74.5 L
128.379 75.379 L
127.5 77.5 L
128.379 79.621 L
130.5 80.5 L
132.621 79.621 L
cp
S
GR
GS
0.929 0.694 0.125 RC
1 LJ
N
137.5 78.5 M
136.621 76.379 L
134.5 75.5 L
132.379 76.379 L
131.5 78.5 L
132.379 80.621 L
134.5 81.5 L
136.621 80.621 L
cp
S
GR
GS
0.929 0.694 0.125 RC
1 LJ
N
141.5 79.5 M
140.621 77.379 L
138.5 76.5 L
136.379 77.379 L
135.5 79.5 L
136.379 81.621 L
138.5 82.5 L
140.621 81.621 L
cp
S
GR
GS
0.929 0.694 0.125 RC
1 LJ
N
144.5 79.5 M
143.621 77.379 L
141.5 76.5 L
139.379 77.379 L
138.5 79.5 L
139.379 81.621 L
141.5 82.5 L
143.621 81.621 L
cp
S
GR
GS
0.929 0.694 0.125 RC
1 LJ
N
148.5 80.5 M
147.621 78.379 L
145.5 77.5 L
143.379 78.379 L
142.5 80.5 L
143.379 82.621 L
145.5 83.5 L
147.621 82.621 L
cp
S
GR
GS
0.929 0.694 0.125 RC
1 LJ
N
152.5 81.5 M
151.621 79.379 L
149.5 78.5 L
147.379 79.379 L
146.5 81.5 L
147.379 83.621 L
149.5 84.5 L
151.621 83.621 L
cp
S
GR
GS
0.929 0.694 0.125 RC
1 LJ
N
156.5 81.5 M
155.621 79.379 L
153.5 78.5 L
151.379 79.379 L
150.5 81.5 L
151.379 83.621 L
153.5 84.5 L
155.621 83.621 L
cp
S
GR
GS
0.929 0.694 0.125 RC
1 LJ
N
159.5 82.5 M
158.621 80.379 L
156.5 79.5 L
154.379 80.379 L
153.5 82.5 L
154.379 84.621 L
156.5 85.5 L
158.621 84.621 L
cp
S
GR
GS
0.929 0.694 0.125 RC
1 LJ
N
163.5 83.5 M
162.621 81.379 L
160.5 80.5 L
158.379 81.379 L
157.5 83.5 L
158.379 85.621 L
160.5 86.5 L
162.621 85.621 L
cp
S
GR
GS
0.929 0.694 0.125 RC
1 LJ
N
167.5 83.5 M
166.621 81.379 L
164.5 80.5 L
162.379 81.379 L
161.5 83.5 L
162.379 85.621 L
164.5 86.5 L
166.621 85.621 L
cp
S
GR
GS
0.929 0.694 0.125 RC
1 LJ
N
171.5 84.5 M
170.621 82.379 L
168.5 81.5 L
166.379 82.379 L
165.5 84.5 L
166.379 86.621 L
168.5 87.5 L
170.621 86.621 L
cp
S
GR
GS
0.929 0.694 0.125 RC
1 LJ
N
174.5 85.5 M
173.621 83.379 L
171.5 82.5 L
169.379 83.379 L
168.5 85.5 L
169.379 87.621 L
171.5 88.5 L
173.621 87.621 L
cp
S
GR
GS
0.929 0.694 0.125 RC
1 LJ
N
178.5 85.5 M
177.621 83.379 L
175.5 82.5 L
173.379 83.379 L
172.5 85.5 L
173.379 87.621 L
175.5 88.5 L
177.621 87.621 L
cp
S
GR
GS
0.929 0.694 0.125 RC
1 LJ
N
182.5 86.5 M
181.621 84.379 L
179.5 83.5 L
177.379 84.379 L
176.5 86.5 L
177.379 88.621 L
179.5 89.5 L
181.621 88.621 L
cp
S
GR
GS
0.929 0.694 0.125 RC
1 LJ
N
185.5 87.5 M
184.621 85.379 L
182.5 84.5 L
180.379 85.379 L
179.5 87.5 L
180.379 89.621 L
182.5 90.5 L
184.621 89.621 L
cp
S
GR
GS
0.929 0.694 0.125 RC
1 LJ
N
189.5 88.5 M
188.621 86.379 L
186.5 85.5 L
184.379 86.379 L
183.5 88.5 L
184.379 90.621 L
186.5 91.5 L
188.621 90.621 L
cp
S
GR
GS
0.929 0.694 0.125 RC
1 LJ
N
193.5 89.5 M
192.621 87.379 L
190.5 86.5 L
188.379 87.379 L
187.5 89.5 L
188.379 91.621 L
190.5 92.5 L
192.621 91.621 L
cp
S
GR
GS
0.929 0.694 0.125 RC
1 LJ
N
197.5 90.5 M
196.621 88.379 L
194.5 87.5 L
192.379 88.379 L
191.5 90.5 L
192.379 92.621 L
194.5 93.5 L
196.621 92.621 L
cp
S
GR
GS
0.929 0.694 0.125 RC
1 LJ
N
200.5 92.5 M
199.621 90.379 L
197.5 89.5 L
195.379 90.379 L
194.5 92.5 L
195.379 94.621 L
197.5 95.5 L
199.621 94.621 L
cp
S
GR
GS
0.929 0.694 0.125 RC
1 LJ
N
204.5 94.5 M
203.621 92.379 L
201.5 91.5 L
199.379 92.379 L
198.5 94.5 L
199.379 96.621 L
201.5 97.5 L
203.621 96.621 L
cp
S
GR
GS
0.929 0.694 0.125 RC
1 LJ
N
208.5 97.5 M
207.621 95.379 L
205.5 94.5 L
203.379 95.379 L
202.5 97.5 L
203.379 99.621 L
205.5 100.5 L
207.621 99.621 L
cp
S
GR
GS
0.929 0.694 0.125 RC
1 LJ
N
211.5 101.5 M
210.621 99.379 L
208.5 98.5 L
206.379 99.379 L
205.5 101.5 L
206.379 103.621 L
208.5 104.5 L
210.621 103.621 L
cp
S
GR
GS
0.929 0.694 0.125 RC
1 LJ
N
215.5 106.5 M
214.621 104.379 L
212.5 103.5 L
210.379 104.379 L
209.5 106.5 L
210.379 108.621 L
212.5 109.5 L
214.621 108.621 L
cp
S
GR
GS
0.929 0.694 0.125 RC
1 LJ
N
219.5 113.5 M
218.621 111.379 L
216.5 110.5 L
214.379 111.379 L
213.5 113.5 L
214.379 115.621 L
216.5 116.5 L
218.621 115.621 L
cp
S
GR
GS
0.929 0.694 0.125 RC
1 LJ
N
223.5 123.5 M
222.621 121.379 L
220.5 120.5 L
218.379 121.379 L
217.5 123.5 L
218.379 125.621 L
220.5 126.5 L
222.621 125.621 L
cp
S
GR
GS
0.929 0.694 0.125 RC
1 LJ
N
226.5 132.5 M
225.621 130.379 L
223.5 129.5 L
221.379 130.379 L
220.5 132.5 L
221.379 134.621 L
223.5 135.5 L
225.621 134.621 L
cp
S
GR
GS
0.929 0.694 0.125 RC
1 LJ
N
230.5 140.5 M
229.621 138.379 L
227.5 137.5 L
225.379 138.379 L
224.5 140.5 L
225.379 142.621 L
227.5 143.5 L
229.621 142.621 L
cp
S
GR
GS
0.929 0.694 0.125 RC
1 LJ
N
234.5 146.5 M
233.621 144.379 L
231.5 143.5 L
229.379 144.379 L
228.5 146.5 L
229.379 148.621 L
231.5 149.5 L
233.621 148.621 L
cp
S
GR
GS
0.929 0.694 0.125 RC
1 LJ
N
237.5 149.5 M
236.621 147.379 L
234.5 146.5 L
232.379 147.379 L
231.5 149.5 L
232.379 151.621 L
234.5 152.5 L
236.621 151.621 L
cp
S
GR
GS
0.929 0.694 0.125 RC
1 LJ
N
241.5 146.5 M
240.621 144.379 L
238.5 143.5 L
236.379 144.379 L
235.5 146.5 L
236.379 148.621 L
238.5 149.5 L
240.621 148.621 L
cp
S
GR
GS
0.929 0.694 0.125 RC
1 LJ
N
245.5 174.5 M
244.621 172.379 L
242.5 171.5 L
240.379 172.379 L
239.5 174.5 L
240.379 176.621 L
242.5 177.5 L
244.621 176.621 L
cp
S
GR
GS
0.929 0.694 0.125 RC
1 LJ
N
249.5 188.5 M
248.621 186.379 L
246.5 185.5 L
244.379 186.379 L
243.5 188.5 L
244.379 190.621 L
246.5 191.5 L
248.621 190.621 L
cp
S
GR
GS
0.929 0.694 0.125 RC
1 LJ
N
252.5 198.5 M
251.621 196.379 L
249.5 195.5 L
247.379 196.379 L
246.5 198.5 L
247.379 200.621 L
249.5 201.5 L
251.621 200.621 L
cp
S
GR
GS
0.929 0.694 0.125 RC
1 LJ
N
256.5 204.5 M
255.621 202.379 L
253.5 201.5 L
251.379 202.379 L
250.5 204.5 L
251.379 206.621 L
253.5 207.5 L
255.621 206.621 L
cp
S
GR
GS
0.929 0.694 0.125 RC
1 LJ
N
260.5 209.5 M
259.621 207.379 L
257.5 206.5 L
255.379 207.379 L
254.5 209.5 L
255.379 211.621 L
257.5 212.5 L
259.621 211.621 L
cp
S
GR
GS
0.929 0.694 0.125 RC
1 LJ
N
264.5 213.5 M
263.621 211.379 L
261.5 210.5 L
259.379 211.379 L
258.5 213.5 L
259.379 215.621 L
261.5 216.5 L
263.621 215.621 L
cp
S
GR
GS
0.929 0.694 0.125 RC
1 LJ
N
267.5 214.5 M
266.621 212.379 L
264.5 211.5 L
262.379 212.379 L
261.5 214.5 L
262.379 216.621 L
264.5 217.5 L
266.621 216.621 L
cp
S
GR
GS
0.929 0.694 0.125 RC
1 LJ
N
271.5 218.5 M
270.621 216.379 L
268.5 215.5 L
266.379 216.379 L
265.5 218.5 L
266.379 220.621 L
268.5 221.5 L
270.621 220.621 L
cp
S
GR
GS
0.929 0.694 0.125 RC
1 LJ
N
275.5 238.5 M
274.621 236.379 L
272.5 235.5 L
270.379 236.379 L
269.5 238.5 L
270.379 240.621 L
272.5 241.5 L
274.621 240.621 L
cp
S
GR
GS
0.929 0.694 0.125 RC
1 LJ
N
278.5 247.5 M
277.621 245.379 L
275.5 244.5 L
273.379 245.379 L
272.5 247.5 L
273.379 249.621 L
275.5 250.5 L
277.621 249.621 L
cp
S
GR
GS
0.929 0.694 0.125 RC
1 LJ
N
282.5 252.5 M
281.621 250.379 L
279.5 249.5 L
277.379 250.379 L
276.5 252.5 L
277.379 254.621 L
279.5 255.5 L
281.621 254.621 L
cp
S
GR
GS
0.929 0.694 0.125 RC
1 LJ
N
286.5 256.5 M
285.621 254.379 L
283.5 253.5 L
281.379 254.379 L
280.5 256.5 L
281.379 258.621 L
283.5 259.5 L
285.621 258.621 L
cp
S
GR
GS
0.929 0.694 0.125 RC
1 LJ
N
290.5 258.5 M
289.621 256.379 L
287.5 255.5 L
285.379 256.379 L
284.5 258.5 L
285.379 260.621 L
287.5 261.5 L
289.621 260.621 L
cp
S
GR
GS
0.929 0.694 0.125 RC
1 LJ
N
293.5 260.5 M
292.621 258.379 L
290.5 257.5 L
288.379 258.379 L
287.5 260.5 L
288.379 262.621 L
290.5 263.5 L
292.621 262.621 L
cp
S
GR
GS
0.929 0.694 0.125 RC
1 LJ
N
297.5 261.5 M
296.621 259.379 L
294.5 258.5 L
292.379 259.379 L
291.5 261.5 L
292.379 263.621 L
294.5 264.5 L
296.621 263.621 L
cp
S
GR
GS
0.929 0.694 0.125 RC
1 LJ
N
301.5 258.5 M
300.621 256.379 L
298.5 255.5 L
296.379 256.379 L
295.5 258.5 L
296.379 260.621 L
298.5 261.5 L
300.621 260.621 L
cp
S
GR
GS
0.929 0.694 0.125 RC
1 LJ
N
304.5 280.5 M
303.621 278.379 L
301.5 277.5 L
299.379 278.379 L
298.5 280.5 L
299.379 282.621 L
301.5 283.5 L
303.621 282.621 L
cp
S
GR
GS
0.929 0.694 0.125 RC
1 LJ
N
308.5 288.5 M
307.621 286.379 L
305.5 285.5 L
303.379 286.379 L
302.5 288.5 L
303.379 290.621 L
305.5 291.5 L
307.621 290.621 L
cp
S
GR
GS
0.929 0.694 0.125 RC
1 LJ
N
312.5 292.5 M
311.621 290.379 L
309.5 289.5 L
307.379 290.379 L
306.5 292.5 L
307.379 294.621 L
309.5 295.5 L
311.621 294.621 L
cp
S
GR
GS
0.929 0.694 0.125 RC
1 LJ
N
316.5 293.5 M
315.621 291.379 L
313.5 290.5 L
311.379 291.379 L
310.5 293.5 L
311.379 295.621 L
313.5 296.5 L
315.621 295.621 L
cp
S
GR
GS
0.929 0.694 0.125 RC
1 LJ
N
319.5 299.5 M
318.621 297.379 L
316.5 296.5 L
314.379 297.379 L
313.5 299.5 L
314.379 301.621 L
316.5 302.5 L
318.621 301.621 L
cp
S
GR
GS
0.929 0.694 0.125 RC
1 LJ
N
323.5 301.5 M
322.621 299.379 L
320.5 298.5 L
318.379 299.379 L
317.5 301.5 L
318.379 303.621 L
320.5 304.5 L
322.621 303.621 L
cp
S
GR
GS
0.929 0.694 0.125 RC
1 LJ
N
327.5 302.5 M
326.621 300.379 L
324.5 299.5 L
322.379 300.379 L
321.5 302.5 L
322.379 304.621 L
324.5 305.5 L
326.621 304.621 L
cp
S
GR
GS
0.929 0.694 0.125 RC
1 LJ
N
331.5 306.5 M
330.621 304.379 L
328.5 303.5 L
326.379 304.379 L
325.5 306.5 L
326.379 308.621 L
328.5 309.5 L
330.621 308.621 L
cp
S
GR
GS
0.929 0.694 0.125 RC
1 LJ
N
334.5 315.5 M
333.621 313.379 L
331.5 312.5 L
329.379 313.379 L
328.5 315.5 L
329.379 317.621 L
331.5 318.5 L
333.621 317.621 L
cp
S
GR
GS
0.929 0.694 0.125 RC
1 LJ
N
338.5 316.5 M
337.621 314.379 L
335.5 313.5 L
333.379 314.379 L
332.5 316.5 L
333.379 318.621 L
335.5 319.5 L
337.621 318.621 L
cp
S
GR
GS
0.929 0.694 0.125 RC
1 LJ
N
342.5 321.5 M
341.621 319.379 L
339.5 318.5 L
337.379 319.379 L
336.5 321.5 L
337.379 323.621 L
339.5 324.5 L
341.621 323.621 L
cp
S
GR
GS
0.929 0.694 0.125 RC
1 LJ
N
345.5 322.5 M
344.621 320.379 L
342.5 319.5 L
340.379 320.379 L
339.5 322.5 L
340.379 324.621 L
342.5 325.5 L
344.621 324.621 L
cp
S
GR
GS
0.929 0.694 0.125 RC
1 LJ
N
349.5 325.5 M
348.621 323.379 L
346.5 322.5 L
344.379 323.379 L
343.5 325.5 L
344.379 327.621 L
346.5 328.5 L
348.621 327.621 L
cp
S
GR
GS
0.929 0.694 0.125 RC
1 LJ
N
353.5 328.5 M
352.621 326.379 L
350.5 325.5 L
348.379 326.379 L
347.5 328.5 L
348.379 330.621 L
350.5 331.5 L
352.621 330.621 L
cp
S
GR
GS
0.929 0.694 0.125 RC
1 LJ
N
357.5 329.5 M
356.621 327.379 L
354.5 326.5 L
352.379 327.379 L
351.5 329.5 L
352.379 331.621 L
354.5 332.5 L
356.621 331.621 L
cp
S
GR
GS
0.929 0.694 0.125 RC
1 LJ
N
360.5 330.5 M
359.621 328.379 L
357.5 327.5 L
355.379 328.379 L
354.5 330.5 L
355.379 332.621 L
357.5 333.5 L
359.621 332.621 L
cp
S
GR
GS
0.929 0.694 0.125 RC
1 LJ
N
364.5 334.5 M
363.621 332.379 L
361.5 331.5 L
359.379 332.379 L
358.5 334.5 L
359.379 336.621 L
361.5 337.5 L
363.621 336.621 L
cp
S
GR
GS
0.929 0.694 0.125 RC
1 LJ
N
368.5 335.5 M
367.621 333.379 L
365.5 332.5 L
363.379 333.379 L
362.5 335.5 L
363.379 337.621 L
365.5 338.5 L
367.621 337.621 L
cp
S
GR
GS
0.929 0.694 0.125 RC
1 LJ
N
371.5 335.5 M
370.621 333.379 L
368.5 332.5 L
366.379 333.379 L
365.5 335.5 L
366.379 337.621 L
368.5 338.5 L
370.621 337.621 L
cp
S
GR
GS
0.929 0.694 0.125 RC
1 LJ
N
375.5 338.5 M
374.621 336.379 L
372.5 335.5 L
370.379 336.379 L
369.5 338.5 L
370.379 340.621 L
372.5 341.5 L
374.621 340.621 L
cp
S
GR
GS
0.929 0.694 0.125 RC
1 LJ
N
379.5 340.5 M
378.621 338.379 L
376.5 337.5 L
374.379 338.379 L
373.5 340.5 L
374.379 342.621 L
376.5 343.5 L
378.621 342.621 L
cp
S
GR
GS
0.929 0.694 0.125 RC
1 LJ
N
383.5 342.5 M
382.621 340.379 L
380.5 339.5 L
378.379 340.379 L
377.5 342.5 L
378.379 344.621 L
380.5 345.5 L
382.621 344.621 L
cp
S
GR
GS
0.929 0.694 0.125 RC
1 LJ
N
386.5 340.5 M
385.621 338.379 L
383.5 337.5 L
381.379 338.379 L
380.5 340.5 L
381.379 342.621 L
383.5 343.5 L
385.621 342.621 L
cp
S
GR
GS
0.929 0.694 0.125 RC
1 LJ
N
390.5 345.5 M
389.621 343.379 L
387.5 342.5 L
385.379 343.379 L
384.5 345.5 L
385.379 347.621 L
387.5 348.5 L
389.621 347.621 L
cp
S
GR
GS
0.929 0.694 0.125 RC
1 LJ
N
394.5 344.5 M
393.621 342.379 L
391.5 341.5 L
389.379 342.379 L
388.5 344.5 L
389.379 346.621 L
391.5 347.5 L
393.621 346.621 L
cp
S
GR
GS
0.929 0.694 0.125 RC
1 LJ
N
397.5 347.5 M
396.621 345.379 L
394.5 344.5 L
392.379 345.379 L
391.5 347.5 L
392.379 349.621 L
394.5 350.5 L
396.621 349.621 L
cp
S
GR
GS
0.929 0.694 0.125 RC
1 LJ
N
401.5 347.5 M
400.621 345.379 L
398.5 344.5 L
396.379 345.379 L
395.5 347.5 L
396.379 349.621 L
398.5 350.5 L
400.621 349.621 L
cp
S
GR
GS
0.929 0.694 0.125 RC
1 LJ
N
405.5 348.5 M
404.621 346.379 L
402.5 345.5 L
400.379 346.379 L
399.5 348.5 L
400.379 350.621 L
402.5 351.5 L
404.621 350.621 L
cp
S
GR
GS
0.929 0.694 0.125 RC
1 LJ
N
409.5 350.5 M
408.621 348.379 L
406.5 347.5 L
404.379 348.379 L
403.5 350.5 L
404.379 352.621 L
406.5 353.5 L
408.621 352.621 L
cp
S
GR
GS
0.929 0.694 0.125 RC
1 LJ
N
412.5 350.5 M
411.621 348.379 L
409.5 347.5 L
407.379 348.379 L
406.5 350.5 L
407.379 352.621 L
409.5 353.5 L
411.621 352.621 L
cp
S
GR
GS
0.929 0.694 0.125 RC
1 LJ
N
416.5 350.5 M
415.621 348.379 L
413.5 347.5 L
411.379 348.379 L
410.5 350.5 L
411.379 352.621 L
413.5 353.5 L
415.621 352.621 L
cp
S
GR
GS
0.929 0.694 0.125 RC
1 LJ
N
420.5 351.5 M
419.621 349.379 L
417.5 348.5 L
415.379 349.379 L
414.5 351.5 L
415.379 353.621 L
417.5 354.5 L
419.621 353.621 L
cp
S
GR
GS
0.929 0.694 0.125 RC
1 LJ
N
424.5 352.5 M
423.621 350.379 L
421.5 349.5 L
419.379 350.379 L
418.5 352.5 L
419.379 354.621 L
421.5 355.5 L
423.621 354.621 L
cp
S
GR
GS
0.929 0.694 0.125 RC
1 LJ
N
427.5 352.5 M
426.621 350.379 L
424.5 349.5 L
422.379 350.379 L
421.5 352.5 L
422.379 354.621 L
424.5 355.5 L
426.621 354.621 L
cp
S
GR
GS
0.929 0.694 0.125 RC
1 LJ
N
431.5 353.5 M
430.621 351.379 L
428.5 350.5 L
426.379 351.379 L
425.5 353.5 L
426.379 355.621 L
428.5 356.5 L
430.621 355.621 L
cp
S
GR
GS
0.929 0.694 0.125 RC
1 LJ
N
435.5 353.5 M
434.621 351.379 L
432.5 350.5 L
430.379 351.379 L
429.5 353.5 L
430.379 355.621 L
432.5 356.5 L
434.621 355.621 L
cp
S
GR
GS
0.929 0.694 0.125 RC
1 LJ
N
438.5 354.5 M
437.621 352.379 L
435.5 351.5 L
433.379 352.379 L
432.5 354.5 L
433.379 356.621 L
435.5 357.5 L
437.621 356.621 L
cp
S
GR
GS
0.929 0.694 0.125 RC
1 LJ
N
442.5 354.5 M
441.621 352.379 L
439.5 351.5 L
437.379 352.379 L
436.5 354.5 L
437.379 356.621 L
439.5 357.5 L
441.621 356.621 L
cp
S
GR
GS
0.929 0.694 0.125 RC
1 LJ
N
446.5 353.5 M
445.621 351.379 L
443.5 350.5 L
441.379 351.379 L
440.5 353.5 L
441.379 355.621 L
443.5 356.5 L
445.621 355.621 L
cp
S
GR
GS
0.929 0.694 0.125 RC
1 LJ
N
450.5 354.5 M
449.621 352.379 L
447.5 351.5 L
445.379 352.379 L
444.5 354.5 L
445.379 356.621 L
447.5 357.5 L
449.621 356.621 L
cp
S
GR
GS
0.929 0.694 0.125 RC
1 LJ
N
453.5 354.5 M
452.621 352.379 L
450.5 351.5 L
448.379 352.379 L
447.5 354.5 L
448.379 356.621 L
450.5 357.5 L
452.621 356.621 L
cp
S
GR
GS
0.494 0.184 0.557 RC
1 LJ
N
78.721 56.963 M
82.442 59.997 L
86.162 62.694 L
89.883 65.017 L
93.604 66.974 L
97.325 68.627 L
101.046 70.064 L
104.767 71.369 L
108.488 72.601 L
112.208 73.788 L
115.929 74.938 L
119.65 76.046 L
123.371 77.111 L
127.092 78.13 L
130.813 79.102 L
134.533 80.04 L
138.254 80.95 L
141.975 81.831 L
145.696 82.714 L
149.417 83.572 L
153.137 84.451 L
156.858 85.313 L
160.579 86.24 L
164.3 87.129 L
168.021 88.118 L
171.742 89.087 L
175.462 90.156 L
179.183 91.31 L
182.904 92.605 L
186.625 94.059 L
190.346 95.806 L
194.067 97.952 L
197.788 100.347 L
201.508 104.01 L
205.229 107.615 L
208.95 113.231 L
212.671 117.456 L
216.392 128.059 L
220.112 132.028 L
223.833 137.622 L
227.554 143.337 L
231.275 150.258 L
234.996 157.847 L
238.717 157.458 L
242.438 177.876 L
246.158 186.694 L
249.879 191.807 L
253.6 197.764 L
257.321 201.877 L
261.042 204.416 L
S
GR
GS
0.494 0.184 0.557 RC
1 LJ
N
257.321 201.877 M
261.042 204.416 L
264.763 209.239 L
268.483 202.273 L
272.204 232.201 L
275.925 240.941 L
279.646 244.186 L
283.367 248.342 L
287.087 250.887 L
290.808 251.981 L
294.529 259.739 L
298.25 254.973 L
301.971 277.994 L
305.692 284.228 L
309.412 286.146 L
313.133 289.108 L
316.854 290.641 L
320.575 290.395 L
324.296 298.456 L
328.017 295.528 L
331.737 314.099 L
335.458 318.218 L
339.179 319.585 L
342.9 325.861 L
346.621 327.291 L
350.342 328.285 L
354.063 330.356 L
357.783 326.933 L
361.504 345.145 L
365.225 347.892 L
368.946 350.349 L
372.667 350.327 L
376.388 356.574 L
380.108 357.556 L
383.829 361.409 L
387.55 361.176 L
391.271 362.018 L
394.992 362.474 L
398.713 363.349 L
402.433 363.697 L
406.154 364.336 L
409.875 362.489 L
413.596 376.059 L
417.317 376.486 L
421.037 376.525 L
424.758 377.682 L
428.479 376.867 L
432.2 381.441 L
435.921 381.425 L
439.642 382.444 L
443.362 382.814 L
447.083 383.204 L
S
GR
GS
0.494 0.184 0.557 RC
1 LJ
N
443.362 382.814 M
447.083 383.204 L
450.804 383.393 L
S
GR
GS
0.494 0.184 0.557 RC
1 LJ
N
81.5 56.5 M
80.621 54.379 L
78.5 53.5 L
76.379 54.379 L
75.5 56.5 L
76.379 58.621 L
78.5 59.5 L
80.621 58.621 L
cp
S
GR
GS
0.494 0.184 0.557 RC
1 LJ
N
85.5 59.5 M
84.621 57.379 L
82.5 56.5 L
80.379 57.379 L
79.5 59.5 L
80.379 61.621 L
82.5 62.5 L
84.621 61.621 L
cp
S
GR
GS
0.494 0.184 0.557 RC
1 LJ
N
89.5 62.5 M
88.621 60.379 L
86.5 59.5 L
84.379 60.379 L
83.5 62.5 L
84.379 64.621 L
86.5 65.5 L
88.621 64.621 L
cp
S
GR
GS
0.494 0.184 0.557 RC
1 LJ
N
92.5 65.5 M
91.621 63.379 L
89.5 62.5 L
87.379 63.379 L
86.5 65.5 L
87.379 67.621 L
89.5 68.5 L
91.621 67.621 L
cp
S
GR
GS
0.494 0.184 0.557 RC
1 LJ
N
96.5 66.5 M
95.621 64.379 L
93.5 63.5 L
91.379 64.379 L
90.5 66.5 L
91.379 68.621 L
93.5 69.5 L
95.621 68.621 L
cp
S
GR
GS
0.494 0.184 0.557 RC
1 LJ
N
100.5 68.5 M
99.621 66.379 L
97.5 65.5 L
95.379 66.379 L
94.5 68.5 L
95.379 70.621 L
97.5 71.5 L
99.621 70.621 L
cp
S
GR
GS
0.494 0.184 0.557 RC
1 LJ
N
104.5 70.5 M
103.621 68.379 L
101.5 67.5 L
99.379 68.379 L
98.5 70.5 L
99.379 72.621 L
101.5 73.5 L
103.621 72.621 L
cp
S
GR
GS
0.494 0.184 0.557 RC
1 LJ
N
107.5 71.5 M
106.621 69.379 L
104.5 68.5 L
102.379 69.379 L
101.5 71.5 L
102.379 73.621 L
104.5 74.5 L
106.621 73.621 L
cp
S
GR
GS
0.494 0.184 0.557 RC
1 LJ
N
111.5 72.5 M
110.621 70.379 L
108.5 69.5 L
106.379 70.379 L
105.5 72.5 L
106.379 74.621 L
108.5 75.5 L
110.621 74.621 L
cp
S
GR
GS
0.494 0.184 0.557 RC
1 LJ
N
115.5 73.5 M
114.621 71.379 L
112.5 70.5 L
110.379 71.379 L
109.5 73.5 L
110.379 75.621 L
112.5 76.5 L
114.621 75.621 L
cp
S
GR
GS
0.494 0.184 0.557 RC
1 LJ
N
118.5 74.5 M
117.621 72.379 L
115.5 71.5 L
113.379 72.379 L
112.5 74.5 L
113.379 76.621 L
115.5 77.5 L
117.621 76.621 L
cp
S
GR
GS
0.494 0.184 0.557 RC
1 LJ
N
122.5 76.5 M
121.621 74.379 L
119.5 73.5 L
117.379 74.379 L
116.5 76.5 L
117.379 78.621 L
119.5 79.5 L
121.621 78.621 L
cp
S
GR
GS
0.494 0.184 0.557 RC
1 LJ
N
126.5 77.5 M
125.621 75.379 L
123.5 74.5 L
121.379 75.379 L
120.5 77.5 L
121.379 79.621 L
123.5 80.5 L
125.621 79.621 L
cp
S
GR
GS
0.494 0.184 0.557 RC
1 LJ
N
130.5 78.5 M
129.621 76.379 L
127.5 75.5 L
125.379 76.379 L
124.5 78.5 L
125.379 80.621 L
127.5 81.5 L
129.621 80.621 L
cp
S
GR
GS
0.494 0.184 0.557 RC
1 LJ
N
133.5 79.5 M
132.621 77.379 L
130.5 76.5 L
128.379 77.379 L
127.5 79.5 L
128.379 81.621 L
130.5 82.5 L
132.621 81.621 L
cp
S
GR
GS
0.494 0.184 0.557 RC
1 LJ
N
137.5 80.5 M
136.621 78.379 L
134.5 77.5 L
132.379 78.379 L
131.5 80.5 L
132.379 82.621 L
134.5 83.5 L
136.621 82.621 L
cp
S
GR
GS
0.494 0.184 0.557 RC
1 LJ
N
141.5 80.5 M
140.621 78.379 L
138.5 77.5 L
136.379 78.379 L
135.5 80.5 L
136.379 82.621 L
138.5 83.5 L
140.621 82.621 L
cp
S
GR
GS
0.494 0.184 0.557 RC
1 LJ
N
144.5 81.5 M
143.621 79.379 L
141.5 78.5 L
139.379 79.379 L
138.5 81.5 L
139.379 83.621 L
141.5 84.5 L
143.621 83.621 L
cp
S
GR
GS
0.494 0.184 0.557 RC
1 LJ
N
148.5 82.5 M
147.621 80.379 L
145.5 79.5 L
143.379 80.379 L
142.5 82.5 L
143.379 84.621 L
145.5 85.5 L
147.621 84.621 L
cp
S
GR
GS
0.494 0.184 0.557 RC
1 LJ
N
152.5 83.5 M
151.621 81.379 L
149.5 80.5 L
147.379 81.379 L
146.5 83.5 L
147.379 85.621 L
149.5 86.5 L
151.621 85.621 L
cp
S
GR
GS
0.494 0.184 0.557 RC
1 LJ
N
156.5 84.5 M
155.621 82.379 L
153.5 81.5 L
151.379 82.379 L
150.5 84.5 L
151.379 86.621 L
153.5 87.5 L
155.621 86.621 L
cp
S
GR
GS
0.494 0.184 0.557 RC
1 LJ
N
159.5 85.5 M
158.621 83.379 L
156.5 82.5 L
154.379 83.379 L
153.5 85.5 L
154.379 87.621 L
156.5 88.5 L
158.621 87.621 L
cp
S
GR
GS
0.494 0.184 0.557 RC
1 LJ
N
163.5 86.5 M
162.621 84.379 L
160.5 83.5 L
158.379 84.379 L
157.5 86.5 L
158.379 88.621 L
160.5 89.5 L
162.621 88.621 L
cp
S
GR
GS
0.494 0.184 0.557 RC
1 LJ
N
167.5 87.5 M
166.621 85.379 L
164.5 84.5 L
162.379 85.379 L
161.5 87.5 L
162.379 89.621 L
164.5 90.5 L
166.621 89.621 L
cp
S
GR
GS
0.494 0.184 0.557 RC
1 LJ
N
171.5 88.5 M
170.621 86.379 L
168.5 85.5 L
166.379 86.379 L
165.5 88.5 L
166.379 90.621 L
168.5 91.5 L
170.621 90.621 L
cp
S
GR
GS
0.494 0.184 0.557 RC
1 LJ
N
174.5 89.5 M
173.621 87.379 L
171.5 86.5 L
169.379 87.379 L
168.5 89.5 L
169.379 91.621 L
171.5 92.5 L
173.621 91.621 L
cp
S
GR
GS
0.494 0.184 0.557 RC
1 LJ
N
178.5 90.5 M
177.621 88.379 L
175.5 87.5 L
173.379 88.379 L
172.5 90.5 L
173.379 92.621 L
175.5 93.5 L
177.621 92.621 L
cp
S
GR
GS
0.494 0.184 0.557 RC
1 LJ
N
182.5 91.5 M
181.621 89.379 L
179.5 88.5 L
177.379 89.379 L
176.5 91.5 L
177.379 93.621 L
179.5 94.5 L
181.621 93.621 L
cp
S
GR
GS
0.494 0.184 0.557 RC
1 LJ
N
185.5 92.5 M
184.621 90.379 L
182.5 89.5 L
180.379 90.379 L
179.5 92.5 L
180.379 94.621 L
182.5 95.5 L
184.621 94.621 L
cp
S
GR
GS
0.494 0.184 0.557 RC
1 LJ
N
189.5 94.5 M
188.621 92.379 L
186.5 91.5 L
184.379 92.379 L
183.5 94.5 L
184.379 96.621 L
186.5 97.5 L
188.621 96.621 L
cp
S
GR
GS
0.494 0.184 0.557 RC
1 LJ
N
193.5 95.5 M
192.621 93.379 L
190.5 92.5 L
188.379 93.379 L
187.5 95.5 L
188.379 97.621 L
190.5 98.5 L
192.621 97.621 L
cp
S
GR
GS
0.494 0.184 0.557 RC
1 LJ
N
197.5 97.5 M
196.621 95.379 L
194.5 94.5 L
192.379 95.379 L
191.5 97.5 L
192.379 99.621 L
194.5 100.5 L
196.621 99.621 L
cp
S
GR
GS
0.494 0.184 0.557 RC
1 LJ
N
200.5 100.5 M
199.621 98.379 L
197.5 97.5 L
195.379 98.379 L
194.5 100.5 L
195.379 102.621 L
197.5 103.5 L
199.621 102.621 L
cp
S
GR
GS
0.494 0.184 0.557 RC
1 LJ
N
204.5 104.5 M
203.621 102.379 L
201.5 101.5 L
199.379 102.379 L
198.5 104.5 L
199.379 106.621 L
201.5 107.5 L
203.621 106.621 L
cp
S
GR
GS
0.494 0.184 0.557 RC
1 LJ
N
208.5 107.5 M
207.621 105.379 L
205.5 104.5 L
203.379 105.379 L
202.5 107.5 L
203.379 109.621 L
205.5 110.5 L
207.621 109.621 L
cp
S
GR
GS
0.494 0.184 0.557 RC
1 LJ
N
211.5 113.5 M
210.621 111.379 L
208.5 110.5 L
206.379 111.379 L
205.5 113.5 L
206.379 115.621 L
208.5 116.5 L
210.621 115.621 L
cp
S
GR
GS
0.494 0.184 0.557 RC
1 LJ
N
215.5 117.5 M
214.621 115.379 L
212.5 114.5 L
210.379 115.379 L
209.5 117.5 L
210.379 119.621 L
212.5 120.5 L
214.621 119.621 L
cp
S
GR
GS
0.494 0.184 0.557 RC
1 LJ
N
219.5 128.5 M
218.621 126.379 L
216.5 125.5 L
214.379 126.379 L
213.5 128.5 L
214.379 130.621 L
216.5 131.5 L
218.621 130.621 L
cp
S
GR
GS
0.494 0.184 0.557 RC
1 LJ
N
223.5 132.5 M
222.621 130.379 L
220.5 129.5 L
218.379 130.379 L
217.5 132.5 L
218.379 134.621 L
220.5 135.5 L
222.621 134.621 L
cp
S
GR
GS
0.494 0.184 0.557 RC
1 LJ
N
226.5 137.5 M
225.621 135.379 L
223.5 134.5 L
221.379 135.379 L
220.5 137.5 L
221.379 139.621 L
223.5 140.5 L
225.621 139.621 L
cp
S
GR
GS
0.494 0.184 0.557 RC
1 LJ
N
230.5 143.5 M
229.621 141.379 L
227.5 140.5 L
225.379 141.379 L
224.5 143.5 L
225.379 145.621 L
227.5 146.5 L
229.621 145.621 L
cp
S
GR
GS
0.494 0.184 0.557 RC
1 LJ
N
234.5 150.5 M
233.621 148.379 L
231.5 147.5 L
229.379 148.379 L
228.5 150.5 L
229.379 152.621 L
231.5 153.5 L
233.621 152.621 L
cp
S
GR
GS
0.494 0.184 0.557 RC
1 LJ
N
237.5 157.5 M
236.621 155.379 L
234.5 154.5 L
232.379 155.379 L
231.5 157.5 L
232.379 159.621 L
234.5 160.5 L
236.621 159.621 L
cp
S
GR
GS
0.494 0.184 0.557 RC
1 LJ
N
241.5 157.5 M
240.621 155.379 L
238.5 154.5 L
236.379 155.379 L
235.5 157.5 L
236.379 159.621 L
238.5 160.5 L
240.621 159.621 L
cp
S
GR
GS
0.494 0.184 0.557 RC
1 LJ
N
245.5 177.5 M
244.621 175.379 L
242.5 174.5 L
240.379 175.379 L
239.5 177.5 L
240.379 179.621 L
242.5 180.5 L
244.621 179.621 L
cp
S
GR
GS
0.494 0.184 0.557 RC
1 LJ
N
249.5 186.5 M
248.621 184.379 L
246.5 183.5 L
244.379 184.379 L
243.5 186.5 L
244.379 188.621 L
246.5 189.5 L
248.621 188.621 L
cp
S
GR
GS
0.494 0.184 0.557 RC
1 LJ
N
252.5 191.5 M
251.621 189.379 L
249.5 188.5 L
247.379 189.379 L
246.5 191.5 L
247.379 193.621 L
249.5 194.5 L
251.621 193.621 L
cp
S
GR
GS
0.494 0.184 0.557 RC
1 LJ
N
256.5 197.5 M
255.621 195.379 L
253.5 194.5 L
251.379 195.379 L
250.5 197.5 L
251.379 199.621 L
253.5 200.5 L
255.621 199.621 L
cp
S
GR
GS
0.494 0.184 0.557 RC
1 LJ
N
260.5 201.5 M
259.621 199.379 L
257.5 198.5 L
255.379 199.379 L
254.5 201.5 L
255.379 203.621 L
257.5 204.5 L
259.621 203.621 L
cp
S
GR
GS
0.494 0.184 0.557 RC
1 LJ
N
264.5 204.5 M
263.621 202.379 L
261.5 201.5 L
259.379 202.379 L
258.5 204.5 L
259.379 206.621 L
261.5 207.5 L
263.621 206.621 L
cp
S
GR
GS
0.494 0.184 0.557 RC
1 LJ
N
267.5 209.5 M
266.621 207.379 L
264.5 206.5 L
262.379 207.379 L
261.5 209.5 L
262.379 211.621 L
264.5 212.5 L
266.621 211.621 L
cp
S
GR
GS
0.494 0.184 0.557 RC
1 LJ
N
271.5 202.5 M
270.621 200.379 L
268.5 199.5 L
266.379 200.379 L
265.5 202.5 L
266.379 204.621 L
268.5 205.5 L
270.621 204.621 L
cp
S
GR
GS
0.494 0.184 0.557 RC
1 LJ
N
275.5 232.5 M
274.621 230.379 L
272.5 229.5 L
270.379 230.379 L
269.5 232.5 L
270.379 234.621 L
272.5 235.5 L
274.621 234.621 L
cp
S
GR
GS
0.494 0.184 0.557 RC
1 LJ
N
278.5 240.5 M
277.621 238.379 L
275.5 237.5 L
273.379 238.379 L
272.5 240.5 L
273.379 242.621 L
275.5 243.5 L
277.621 242.621 L
cp
S
GR
GS
0.494 0.184 0.557 RC
1 LJ
N
282.5 244.5 M
281.621 242.379 L
279.5 241.5 L
277.379 242.379 L
276.5 244.5 L
277.379 246.621 L
279.5 247.5 L
281.621 246.621 L
cp
S
GR
GS
0.494 0.184 0.557 RC
1 LJ
N
286.5 248.5 M
285.621 246.379 L
283.5 245.5 L
281.379 246.379 L
280.5 248.5 L
281.379 250.621 L
283.5 251.5 L
285.621 250.621 L
cp
S
GR
GS
0.494 0.184 0.557 RC
1 LJ
N
290.5 250.5 M
289.621 248.379 L
287.5 247.5 L
285.379 248.379 L
284.5 250.5 L
285.379 252.621 L
287.5 253.5 L
289.621 252.621 L
cp
S
GR
GS
0.494 0.184 0.557 RC
1 LJ
N
293.5 251.5 M
292.621 249.379 L
290.5 248.5 L
288.379 249.379 L
287.5 251.5 L
288.379 253.621 L
290.5 254.5 L
292.621 253.621 L
cp
S
GR
GS
0.494 0.184 0.557 RC
1 LJ
N
297.5 259.5 M
296.621 257.379 L
294.5 256.5 L
292.379 257.379 L
291.5 259.5 L
292.379 261.621 L
294.5 262.5 L
296.621 261.621 L
cp
S
GR
GS
0.494 0.184 0.557 RC
1 LJ
N
301.5 254.5 M
300.621 252.379 L
298.5 251.5 L
296.379 252.379 L
295.5 254.5 L
296.379 256.621 L
298.5 257.5 L
300.621 256.621 L
cp
S
GR
GS
0.494 0.184 0.557 RC
1 LJ
N
304.5 277.5 M
303.621 275.379 L
301.5 274.5 L
299.379 275.379 L
298.5 277.5 L
299.379 279.621 L
301.5 280.5 L
303.621 279.621 L
cp
S
GR
GS
0.494 0.184 0.557 RC
1 LJ
N
308.5 284.5 M
307.621 282.379 L
305.5 281.5 L
303.379 282.379 L
302.5 284.5 L
303.379 286.621 L
305.5 287.5 L
307.621 286.621 L
cp
S
GR
GS
0.494 0.184 0.557 RC
1 LJ
N
312.5 286.5 M
311.621 284.379 L
309.5 283.5 L
307.379 284.379 L
306.5 286.5 L
307.379 288.621 L
309.5 289.5 L
311.621 288.621 L
cp
S
GR
GS
0.494 0.184 0.557 RC
1 LJ
N
316.5 289.5 M
315.621 287.379 L
313.5 286.5 L
311.379 287.379 L
310.5 289.5 L
311.379 291.621 L
313.5 292.5 L
315.621 291.621 L
cp
S
GR
GS
0.494 0.184 0.557 RC
1 LJ
N
319.5 290.5 M
318.621 288.379 L
316.5 287.5 L
314.379 288.379 L
313.5 290.5 L
314.379 292.621 L
316.5 293.5 L
318.621 292.621 L
cp
S
GR
GS
0.494 0.184 0.557 RC
1 LJ
N
323.5 290.5 M
322.621 288.379 L
320.5 287.5 L
318.379 288.379 L
317.5 290.5 L
318.379 292.621 L
320.5 293.5 L
322.621 292.621 L
cp
S
GR
GS
0.494 0.184 0.557 RC
1 LJ
N
327.5 298.5 M
326.621 296.379 L
324.5 295.5 L
322.379 296.379 L
321.5 298.5 L
322.379 300.621 L
324.5 301.5 L
326.621 300.621 L
cp
S
GR
GS
0.494 0.184 0.557 RC
1 LJ
N
331.5 295.5 M
330.621 293.379 L
328.5 292.5 L
326.379 293.379 L
325.5 295.5 L
326.379 297.621 L
328.5 298.5 L
330.621 297.621 L
cp
S
GR
GS
0.494 0.184 0.557 RC
1 LJ
N
334.5 314.5 M
333.621 312.379 L
331.5 311.5 L
329.379 312.379 L
328.5 314.5 L
329.379 316.621 L
331.5 317.5 L
333.621 316.621 L
cp
S
GR
GS
0.494 0.184 0.557 RC
1 LJ
N
338.5 318.5 M
337.621 316.379 L
335.5 315.5 L
333.379 316.379 L
332.5 318.5 L
333.379 320.621 L
335.5 321.5 L
337.621 320.621 L
cp
S
GR
GS
0.494 0.184 0.557 RC
1 LJ
N
342.5 319.5 M
341.621 317.379 L
339.5 316.5 L
337.379 317.379 L
336.5 319.5 L
337.379 321.621 L
339.5 322.5 L
341.621 321.621 L
cp
S
GR
GS
0.494 0.184 0.557 RC
1 LJ
N
345.5 325.5 M
344.621 323.379 L
342.5 322.5 L
340.379 323.379 L
339.5 325.5 L
340.379 327.621 L
342.5 328.5 L
344.621 327.621 L
cp
S
GR
GS
0.494 0.184 0.557 RC
1 LJ
N
349.5 327.5 M
348.621 325.379 L
346.5 324.5 L
344.379 325.379 L
343.5 327.5 L
344.379 329.621 L
346.5 330.5 L
348.621 329.621 L
cp
S
GR
GS
0.494 0.184 0.557 RC
1 LJ
N
353.5 328.5 M
352.621 326.379 L
350.5 325.5 L
348.379 326.379 L
347.5 328.5 L
348.379 330.621 L
350.5 331.5 L
352.621 330.621 L
cp
S
GR
GS
0.494 0.184 0.557 RC
1 LJ
N
357.5 330.5 M
356.621 328.379 L
354.5 327.5 L
352.379 328.379 L
351.5 330.5 L
352.379 332.621 L
354.5 333.5 L
356.621 332.621 L
cp
S
GR
GS
0.494 0.184 0.557 RC
1 LJ
N
360.5 326.5 M
359.621 324.379 L
357.5 323.5 L
355.379 324.379 L
354.5 326.5 L
355.379 328.621 L
357.5 329.5 L
359.621 328.621 L
cp
S
GR
GS
0.494 0.184 0.557 RC
1 LJ
N
364.5 345.5 M
363.621 343.379 L
361.5 342.5 L
359.379 343.379 L
358.5 345.5 L
359.379 347.621 L
361.5 348.5 L
363.621 347.621 L
cp
S
GR
GS
0.494 0.184 0.557 RC
1 LJ
N
368.5 347.5 M
367.621 345.379 L
365.5 344.5 L
363.379 345.379 L
362.5 347.5 L
363.379 349.621 L
365.5 350.5 L
367.621 349.621 L
cp
S
GR
GS
0.494 0.184 0.557 RC
1 LJ
N
371.5 350.5 M
370.621 348.379 L
368.5 347.5 L
366.379 348.379 L
365.5 350.5 L
366.379 352.621 L
368.5 353.5 L
370.621 352.621 L
cp
S
GR
GS
0.494 0.184 0.557 RC
1 LJ
N
375.5 350.5 M
374.621 348.379 L
372.5 347.5 L
370.379 348.379 L
369.5 350.5 L
370.379 352.621 L
372.5 353.5 L
374.621 352.621 L
cp
S
GR
GS
0.494 0.184 0.557 RC
1 LJ
N
379.5 356.5 M
378.621 354.379 L
376.5 353.5 L
374.379 354.379 L
373.5 356.5 L
374.379 358.621 L
376.5 359.5 L
378.621 358.621 L
cp
S
GR
GS
0.494 0.184 0.557 RC
1 LJ
N
383.5 357.5 M
382.621 355.379 L
380.5 354.5 L
378.379 355.379 L
377.5 357.5 L
378.379 359.621 L
380.5 360.5 L
382.621 359.621 L
cp
S
GR
GS
0.494 0.184 0.557 RC
1 LJ
N
386.5 361.5 M
385.621 359.379 L
383.5 358.5 L
381.379 359.379 L
380.5 361.5 L
381.379 363.621 L
383.5 364.5 L
385.621 363.621 L
cp
S
GR
GS
0.494 0.184 0.557 RC
1 LJ
N
390.5 361.5 M
389.621 359.379 L
387.5 358.5 L
385.379 359.379 L
384.5 361.5 L
385.379 363.621 L
387.5 364.5 L
389.621 363.621 L
cp
S
GR
GS
0.494 0.184 0.557 RC
1 LJ
N
394.5 362.5 M
393.621 360.379 L
391.5 359.5 L
389.379 360.379 L
388.5 362.5 L
389.379 364.621 L
391.5 365.5 L
393.621 364.621 L
cp
S
GR
GS
0.494 0.184 0.557 RC
1 LJ
N
397.5 362.5 M
396.621 360.379 L
394.5 359.5 L
392.379 360.379 L
391.5 362.5 L
392.379 364.621 L
394.5 365.5 L
396.621 364.621 L
cp
S
GR
GS
0.494 0.184 0.557 RC
1 LJ
N
401.5 363.5 M
400.621 361.379 L
398.5 360.5 L
396.379 361.379 L
395.5 363.5 L
396.379 365.621 L
398.5 366.5 L
400.621 365.621 L
cp
S
GR
GS
0.494 0.184 0.557 RC
1 LJ
N
405.5 363.5 M
404.621 361.379 L
402.5 360.5 L
400.379 361.379 L
399.5 363.5 L
400.379 365.621 L
402.5 366.5 L
404.621 365.621 L
cp
S
GR
GS
0.494 0.184 0.557 RC
1 LJ
N
409.5 364.5 M
408.621 362.379 L
406.5 361.5 L
404.379 362.379 L
403.5 364.5 L
404.379 366.621 L
406.5 367.5 L
408.621 366.621 L
cp
S
GR
GS
0.494 0.184 0.557 RC
1 LJ
N
412.5 362.5 M
411.621 360.379 L
409.5 359.5 L
407.379 360.379 L
406.5 362.5 L
407.379 364.621 L
409.5 365.5 L
411.621 364.621 L
cp
S
GR
GS
0.494 0.184 0.557 RC
1 LJ
N
416.5 376.5 M
415.621 374.379 L
413.5 373.5 L
411.379 374.379 L
410.5 376.5 L
411.379 378.621 L
413.5 379.5 L
415.621 378.621 L
cp
S
GR
GS
0.494 0.184 0.557 RC
1 LJ
N
420.5 376.5 M
419.621 374.379 L
417.5 373.5 L
415.379 374.379 L
414.5 376.5 L
415.379 378.621 L
417.5 379.5 L
419.621 378.621 L
cp
S
GR
GS
0.494 0.184 0.557 RC
1 LJ
N
424.5 376.5 M
423.621 374.379 L
421.5 373.5 L
419.379 374.379 L
418.5 376.5 L
419.379 378.621 L
421.5 379.5 L
423.621 378.621 L
cp
S
GR
GS
0.494 0.184 0.557 RC
1 LJ
N
427.5 377.5 M
426.621 375.379 L
424.5 374.5 L
422.379 375.379 L
421.5 377.5 L
422.379 379.621 L
424.5 380.5 L
426.621 379.621 L
cp
S
GR
GS
0.494 0.184 0.557 RC
1 LJ
N
431.5 376.5 M
430.621 374.379 L
428.5 373.5 L
426.379 374.379 L
425.5 376.5 L
426.379 378.621 L
428.5 379.5 L
430.621 378.621 L
cp
S
GR
GS
0.494 0.184 0.557 RC
1 LJ
N
435.5 381.5 M
434.621 379.379 L
432.5 378.5 L
430.379 379.379 L
429.5 381.5 L
430.379 383.621 L
432.5 384.5 L
434.621 383.621 L
cp
S
GR
GS
0.494 0.184 0.557 RC
1 LJ
N
438.5 381.5 M
437.621 379.379 L
435.5 378.5 L
433.379 379.379 L
432.5 381.5 L
433.379 383.621 L
435.5 384.5 L
437.621 383.621 L
cp
S
GR
GS
0.494 0.184 0.557 RC
1 LJ
N
442.5 382.5 M
441.621 380.379 L
439.5 379.5 L
437.379 380.379 L
436.5 382.5 L
437.379 384.621 L
439.5 385.5 L
441.621 384.621 L
cp
S
GR
GS
0.494 0.184 0.557 RC
1 LJ
N
446.5 382.5 M
445.621 380.379 L
443.5 379.5 L
441.379 380.379 L
440.5 382.5 L
441.379 384.621 L
443.5 385.5 L
445.621 384.621 L
cp
S
GR
GS
0.494 0.184 0.557 RC
1 LJ
N
450.5 383.5 M
449.621 381.379 L
447.5 380.5 L
445.379 381.379 L
444.5 383.5 L
445.379 385.621 L
447.5 386.5 L
449.621 385.621 L
cp
S
GR
GS
0.494 0.184 0.557 RC
1 LJ
N
453.5 383.5 M
452.621 381.379 L
450.5 380.5 L
448.379 381.379 L
447.5 383.5 L
448.379 385.621 L
450.5 386.5 L
452.621 385.621 L
cp
S
GR
GS
[1 0 0 1 338 53.75] CT
/Helvetica 20 F
GS
[1 0 0 1 0 0] CT
0 4.5 moveto 
1 -1 scale
(No shuffling) t 
GR
GR
GS
0 0.447 0.741 RC
1 LJ
N
305 53.75 M
335 53.75 L
S
GR
GS
0 0.447 0.741 RC
1 LJ
N
323.5 53.5 M
322.621 51.379 L
320.5 50.5 L
318.379 51.379 L
317.5 53.5 L
318.379 55.621 L
320.5 56.5 L
322.621 55.621 L
cp
S
GR
GS
[1 0 0 1 338 72.75] CT
/Helvetica 20 F
GS
[1 0 0 1 0 0] CT
0 4.5 moveto 
1 -1 scale
(Random without repl.) t 
GR
GR
GS
0.851 0.325 0.098 RC
1 LJ
N
305 72.75 M
335 72.75 L
S
GR
GS
0.851 0.325 0.098 RC
1 LJ
N
323.5 72.5 M
322.621 70.379 L
320.5 69.5 L
318.379 70.379 L
317.5 72.5 L
318.379 74.621 L
320.5 75.5 L
322.621 74.621 L
cp
S
GR
GS
[1 0 0 1 338 91.75] CT
/Helvetica 20 F
GS
[1 0 0 1 0 0] CT
0 4.5 moveto 
1 -1 scale
(Random with repl.) t 
GR
GR
GS
0.929 0.694 0.125 RC
1 LJ
N
305 91.75 M
335 91.75 L
S
GR
GS
0.929 0.694 0.125 RC
1 LJ
N
323.5 91.5 M
322.621 89.379 L
320.5 88.5 L
318.379 89.379 L
317.5 91.5 L
318.379 93.621 L
320.5 94.5 L
322.621 93.621 L
cp
S
GR
GS
[1 0 0 1 338 110.75] CT
/Helvetica 20 F
GS
[1 0 0 1 0 0] CT
0 4.5 moveto 
1 -1 scale
(Smart shuffling) t 
GR
GR
GS
0.494 0.184 0.557 RC
1 LJ
N
305 110.75 M
335 110.75 L
S
GR
GS
0.494 0.184 0.557 RC
1 LJ
N
323.5 110.5 M
322.621 108.379 L
320.5 107.5 L
318.379 108.379 L
317.5 110.5 L
318.379 112.621 L
320.5 113.5 L
322.621 112.621 L
cp
S
GR
%%Trailer
%%Pages: 1
%%EOF
