%!PS-Adobe-3.0 EPSF-3.0
%%Creator: (MATLAB, The Mathworks, Inc. Version 8.6.0.267246 \(R2015b\). Operating System: Mac OS X)
%%Title: /Users/gauthiermuguerza/Desktop/rsgd/report/images/fourOSLarge.eps
%%CreationDate: 2018-06-07T17:02:42
%%Pages: (atend)
%%BoundingBox:     8     0   533   413
%%LanguageLevel: 3
%%EndComments
%%BeginProlog
%%BeginResource: procset (Apache XML Graphics Std ProcSet) 1.2 0
%%Version: 1.2 0
%%Copyright: (Copyright 2001-2003,2010 The Apache Software Foundation. License terms: http://www.apache.org/licenses/LICENSE-2.0)
/bd{bind def}bind def
/ld{load def}bd
/GR/grestore ld
/M/moveto ld
/LJ/setlinejoin ld
/C/curveto ld
/f/fill ld
/LW/setlinewidth ld
/GC/setgray ld
/t/show ld
/N/newpath ld
/CT/concat ld
/cp/closepath ld
/S/stroke ld
/L/lineto ld
/CC/setcmykcolor ld
/A/ashow ld
/GS/gsave ld
/RC/setrgbcolor ld
/RM/rmoveto ld
/ML/setmiterlimit ld
/re {4 2 roll M
1 index 0 rlineto
0 exch rlineto
neg 0 rlineto
cp } bd
/_ctm matrix def
/_tm matrix def
/BT { _ctm currentmatrix pop matrix _tm copy pop 0 0 moveto } bd
/ET { _ctm setmatrix } bd
/iTm { _ctm setmatrix _tm concat } bd
/Tm { _tm astore pop iTm 0 0 moveto } bd
/ux 0.0 def
/uy 0.0 def
/F {
  /Tp exch def
  /Tf exch def
  Tf findfont Tp scalefont setfont
  /cf Tf def  /cs Tp def
} bd
/ULS {currentpoint /uy exch def /ux exch def} bd
/ULE {
  /Tcx currentpoint pop def
  gsave
  newpath
  cf findfont cs scalefont dup
  /FontMatrix get 0 get /Ts exch def /FontInfo get dup
  /UnderlinePosition get Ts mul /To exch def
  /UnderlineThickness get Ts mul /Tt exch def
  ux uy To add moveto  Tcx uy To add lineto
  Tt setlinewidth stroke
  grestore
} bd
/OLE {
  /Tcx currentpoint pop def
  gsave
  newpath
  cf findfont cs scalefont dup
  /FontMatrix get 0 get /Ts exch def /FontInfo get dup
  /UnderlinePosition get Ts mul /To exch def
  /UnderlineThickness get Ts mul /Tt exch def
  ux uy To add cs add moveto Tcx uy To add cs add lineto
  Tt setlinewidth stroke
  grestore
} bd
/SOE {
  /Tcx currentpoint pop def
  gsave
  newpath
  cf findfont cs scalefont dup
  /FontMatrix get 0 get /Ts exch def /FontInfo get dup
  /UnderlinePosition get Ts mul /To exch def
  /UnderlineThickness get Ts mul /Tt exch def
  ux uy To add cs 10 mul 26 idiv add moveto Tcx uy To add cs 10 mul 26 idiv add lineto
  Tt setlinewidth stroke
  grestore
} bd
/QT {
/Y22 exch store
/X22 exch store
/Y21 exch store
/X21 exch store
currentpoint
/Y21 load 2 mul add 3 div exch
/X21 load 2 mul add 3 div exch
/X21 load 2 mul /X22 load add 3 div
/Y21 load 2 mul /Y22 load add 3 div
/X22 load /Y22 load curveto
} bd
/SSPD {
dup length /d exch dict def
{
/v exch def
/k exch def
currentpagedevice k known {
/cpdv currentpagedevice k get def
v cpdv ne {
/upd false def
/nullv v type /nulltype eq def
/nullcpdv cpdv type /nulltype eq def
nullv nullcpdv or
{
/upd true def
} {
/sametype v type cpdv type eq def
sametype {
v type /arraytype eq {
/vlen v length def
/cpdvlen cpdv length def
vlen cpdvlen eq {
0 1 vlen 1 sub {
/i exch def
/obj v i get def
/cpdobj cpdv i get def
obj cpdobj ne {
/upd true def
exit
} if
} for
} {
/upd true def
} ifelse
} {
v type /dicttype eq {
v {
/dv exch def
/dk exch def
/cpddv cpdv dk get def
dv cpddv ne {
/upd true def
exit
} if
} forall
} {
/upd true def
} ifelse
} ifelse
} if
} ifelse
upd true eq {
d k v put
} if
} if
} if
} forall
d length 0 gt {
d setpagedevice
} if
} bd
%%EndResource
%%BeginResource: procset (Apache XML Graphics EPS ProcSet) 1.0 0
%%Version: 1.0 0
%%Copyright: (Copyright 2002-2003 The Apache Software Foundation. License terms: http://www.apache.org/licenses/LICENSE-2.0)
/BeginEPSF { %def
/b4_Inc_state save def         % Save state for cleanup
/dict_count countdictstack def % Count objects on dict stack
/op_count count 1 sub def      % Count objects on operand stack
userdict begin                 % Push userdict on dict stack
/showpage { } def              % Redefine showpage, { } = null proc
0 setgray 0 setlinecap         % Prepare graphics state
1 setlinewidth 0 setlinejoin
10 setmiterlimit [ ] 0 setdash newpath
/languagelevel where           % If level not equal to 1 then
{pop languagelevel             % set strokeadjust and
1 ne                           % overprint to their defaults.
{false setstrokeadjust false setoverprint
} if
} if
} bd
/EndEPSF { %def
count op_count sub {pop} repeat            % Clean up stacks
countdictstack dict_count sub {end} repeat
b4_Inc_state restore
} bd
%%EndResource
%FOPBeginFontDict
%%IncludeResource: font Courier-Bold
%%IncludeResource: font Helvetica
%%IncludeResource: font Courier-BoldOblique
%%IncludeResource: font Courier-Oblique
%%IncludeResource: font Times-Roman
%%IncludeResource: font Helvetica-BoldOblique
%%IncludeResource: font Helvetica-Bold
%%IncludeResource: font Helvetica-Oblique
%%IncludeResource: font Times-BoldItalic
%%IncludeResource: font Courier
%%IncludeResource: font Times-Italic
%%IncludeResource: font Times-Bold
%%IncludeResource: font Symbol
%%IncludeResource: font ZapfDingbats
%FOPEndFontDict
%%BeginResource: encoding WinAnsiEncoding
/WinAnsiEncoding [
/.notdef /.notdef /.notdef /.notdef /.notdef
/.notdef /.notdef /.notdef /.notdef /.notdef
/.notdef /.notdef /.notdef /.notdef /.notdef
/.notdef /.notdef /.notdef /.notdef /.notdef
/.notdef /.notdef /.notdef /.notdef /.notdef
/.notdef /.notdef /.notdef /.notdef /.notdef
/.notdef /.notdef /space /exclam /quotedbl
/numbersign /dollar /percent /ampersand /quotesingle
/parenleft /parenright /asterisk /plus /comma
/hyphen /period /slash /zero /one
/two /three /four /five /six
/seven /eight /nine /colon /semicolon
/less /equal /greater /question /at
/A /B /C /D /E
/F /G /H /I /J
/K /L /M /N /O
/P /Q /R /S /T
/U /V /W /X /Y
/Z /bracketleft /backslash /bracketright /asciicircum
/underscore /quoteleft /a /b /c
/d /e /f /g /h
/i /j /k /l /m
/n /o /p /q /r
/s /t /u /v /w
/x /y /z /braceleft /bar
/braceright /asciitilde /bullet /Euro /bullet
/quotesinglbase /florin /quotedblbase /ellipsis /dagger
/daggerdbl /circumflex /perthousand /Scaron /guilsinglleft
/OE /bullet /Zcaron /bullet /bullet
/quoteleft /quoteright /quotedblleft /quotedblright /bullet
/endash /emdash /asciitilde /trademark /scaron
/guilsinglright /oe /bullet /zcaron /Ydieresis
/space /exclamdown /cent /sterling /currency
/yen /brokenbar /section /dieresis /copyright
/ordfeminine /guillemotleft /logicalnot /sfthyphen /registered
/macron /degree /plusminus /twosuperior /threesuperior
/acute /mu /paragraph /middot /cedilla
/onesuperior /ordmasculine /guillemotright /onequarter /onehalf
/threequarters /questiondown /Agrave /Aacute /Acircumflex
/Atilde /Adieresis /Aring /AE /Ccedilla
/Egrave /Eacute /Ecircumflex /Edieresis /Igrave
/Iacute /Icircumflex /Idieresis /Eth /Ntilde
/Ograve /Oacute /Ocircumflex /Otilde /Odieresis
/multiply /Oslash /Ugrave /Uacute /Ucircumflex
/Udieresis /Yacute /Thorn /germandbls /agrave
/aacute /acircumflex /atilde /adieresis /aring
/ae /ccedilla /egrave /eacute /ecircumflex
/edieresis /igrave /iacute /icircumflex /idieresis
/eth /ntilde /ograve /oacute /ocircumflex
/otilde /odieresis /divide /oslash /ugrave
/uacute /ucircumflex /udieresis /yacute /thorn
/ydieresis
] def
%%EndResource
%FOPBeginFontReencode
/Courier-Bold findfont
dup length dict begin
  {1 index /FID ne {def} {pop pop} ifelse} forall
  /Encoding WinAnsiEncoding def
  currentdict
end
/Courier-Bold exch definefont pop
/Helvetica findfont
dup length dict begin
  {1 index /FID ne {def} {pop pop} ifelse} forall
  /Encoding WinAnsiEncoding def
  currentdict
end
/Helvetica exch definefont pop
/Courier-BoldOblique findfont
dup length dict begin
  {1 index /FID ne {def} {pop pop} ifelse} forall
  /Encoding WinAnsiEncoding def
  currentdict
end
/Courier-BoldOblique exch definefont pop
/Courier-Oblique findfont
dup length dict begin
  {1 index /FID ne {def} {pop pop} ifelse} forall
  /Encoding WinAnsiEncoding def
  currentdict
end
/Courier-Oblique exch definefont pop
/Times-Roman findfont
dup length dict begin
  {1 index /FID ne {def} {pop pop} ifelse} forall
  /Encoding WinAnsiEncoding def
  currentdict
end
/Times-Roman exch definefont pop
/Helvetica-BoldOblique findfont
dup length dict begin
  {1 index /FID ne {def} {pop pop} ifelse} forall
  /Encoding WinAnsiEncoding def
  currentdict
end
/Helvetica-BoldOblique exch definefont pop
/Helvetica-Bold findfont
dup length dict begin
  {1 index /FID ne {def} {pop pop} ifelse} forall
  /Encoding WinAnsiEncoding def
  currentdict
end
/Helvetica-Bold exch definefont pop
/Helvetica-Oblique findfont
dup length dict begin
  {1 index /FID ne {def} {pop pop} ifelse} forall
  /Encoding WinAnsiEncoding def
  currentdict
end
/Helvetica-Oblique exch definefont pop
/Times-BoldItalic findfont
dup length dict begin
  {1 index /FID ne {def} {pop pop} ifelse} forall
  /Encoding WinAnsiEncoding def
  currentdict
end
/Times-BoldItalic exch definefont pop
/Courier findfont
dup length dict begin
  {1 index /FID ne {def} {pop pop} ifelse} forall
  /Encoding WinAnsiEncoding def
  currentdict
end
/Courier exch definefont pop
/Times-Italic findfont
dup length dict begin
  {1 index /FID ne {def} {pop pop} ifelse} forall
  /Encoding WinAnsiEncoding def
  currentdict
end
/Times-Italic exch definefont pop
/Times-Bold findfont
dup length dict begin
  {1 index /FID ne {def} {pop pop} ifelse} forall
  /Encoding WinAnsiEncoding def
  currentdict
end
/Times-Bold exch definefont pop
%FOPEndFontReencode
%%EndProlog
%%Page: 1 1
%%PageBoundingBox: 0 0 576 432
%%BeginPageSetup
[1 0 0 -1 0 432] CT
%%EndPageSetup
GS
1 GC
N
0 0 576 432 re
f
GR
GS
1 GC
N
0 0 576 432 re
f
GR
GS
1 GC
N
75 384 M
521.5 384 L
521.5 32.5 L
75 32.5 L
cp
f
GR
GS
0.149 GC
2 setlinecap
1 LJ
0.5 LW
N
75 384 M
521.5 384 L
S
GR
GS
0.149 GC
2 setlinecap
1 LJ
0.5 LW
N
75 384 M
75 379.535 L
S
GR
GS
0.149 GC
2 setlinecap
1 LJ
0.5 LW
N
164.3 384 M
164.3 379.535 L
S
GR
GS
0.149 GC
2 setlinecap
1 LJ
0.5 LW
N
253.6 384 M
253.6 379.535 L
S
GR
GS
0.149 GC
2 setlinecap
1 LJ
0.5 LW
N
342.9 384 M
342.9 379.535 L
S
GR
GS
0.149 GC
2 setlinecap
1 LJ
0.5 LW
N
432.2 384 M
432.2 379.535 L
S
GR
GS
0.149 GC
2 setlinecap
1 LJ
0.5 LW
N
521.5 384 M
521.5 379.535 L
S
GR
GS
[1 0 0 1 75 390] CT
0.149 GC
/Helvetica 20 F
GS
[1 0 0 1 0 0] CT
-6 16 moveto 
1 -1 scale
(0) t 
GR
GR
GS
[1 0 0 1 164.3 390] CT
0.149 GC
/Helvetica 20 F
GS
[1 0 0 1 0 0] CT
-6 16 moveto 
1 -1 scale
(5) t 
GR
GR
GS
[1 0 0 1 253.60001 390] CT
0.149 GC
/Helvetica 20 F
GS
[1 0 0 1 0 0] CT
-11.5 16 moveto 
1 -1 scale
(10) t 
GR
GR
GS
[1 0 0 1 342.90002 390] CT
0.149 GC
/Helvetica 20 F
GS
[1 0 0 1 0 0] CT
-11.5 16 moveto 
1 -1 scale
(15) t 
GR
GR
GS
[1 0 0 1 432.20001 390] CT
0.149 GC
/Helvetica 20 F
GS
[1 0 0 1 0 0] CT
-11.5 16 moveto 
1 -1 scale
(20) t 
GR
GR
GS
[1 0 0 1 521.5 390] CT
0.149 GC
/Helvetica 20 F
GS
[1 0 0 1 0 0] CT
-11.5 16 moveto 
1 -1 scale
(25) t 
GR
GR
GS
[1 0 0 1 298.25021 411.5] CT
0.149 GC
/Helvetica 20 F
GS
[1 0 0 1 0 0] CT
-41.5 16 moveto 
1 -1 scale
(Iterations) t 
GR
GR
GS
0.149 GC
2 setlinecap
1 LJ
0.5 LW
N
75 384 M
75 32.5 L
S
GR
GS
0.149 GC
2 setlinecap
1 LJ
0.5 LW
N
75 384 M
79.465 384 L
S
GR
GS
0.149 GC
2 setlinecap
1 LJ
0.5 LW
N
75 325.417 M
79.465 325.417 L
S
GR
GS
0.149 GC
2 setlinecap
1 LJ
0.5 LW
N
75 266.833 M
79.465 266.833 L
S
GR
GS
0.149 GC
2 setlinecap
1 LJ
0.5 LW
N
75 208.25 M
79.465 208.25 L
S
GR
GS
0.149 GC
2 setlinecap
1 LJ
0.5 LW
N
75 149.667 M
79.465 149.667 L
S
GR
GS
0.149 GC
2 setlinecap
1 LJ
0.5 LW
N
75 91.083 M
79.465 91.083 L
S
GR
GS
0.149 GC
2 setlinecap
1 LJ
0.5 LW
N
75 32.5 M
79.465 32.5 L
S
GR
GS
0.149 GC
2 setlinecap
1 LJ
0.5 LW
N
75 366.365 M
77.232 366.365 L
S
GR
GS
0.149 GC
2 setlinecap
1 LJ
0.5 LW
N
75 356.049 M
77.232 356.049 L
S
GR
GS
0.149 GC
2 setlinecap
1 LJ
0.5 LW
N
75 348.729 M
77.232 348.729 L
S
GR
GS
0.149 GC
2 setlinecap
1 LJ
0.5 LW
N
75 343.052 M
77.232 343.052 L
S
GR
GS
0.149 GC
2 setlinecap
1 LJ
0.5 LW
N
75 338.413 M
77.232 338.413 L
S
GR
GS
0.149 GC
2 setlinecap
1 LJ
0.5 LW
N
75 334.491 M
77.232 334.491 L
S
GR
GS
0.149 GC
2 setlinecap
1 LJ
0.5 LW
N
75 331.094 M
77.232 331.094 L
S
GR
GS
0.149 GC
2 setlinecap
1 LJ
0.5 LW
N
75 328.097 M
77.232 328.097 L
S
GR
GS
0.149 GC
2 setlinecap
1 LJ
0.5 LW
N
75 307.781 M
77.232 307.781 L
S
GR
GS
0.149 GC
2 setlinecap
1 LJ
0.5 LW
N
75 297.465 M
77.232 297.465 L
S
GR
GS
0.149 GC
2 setlinecap
1 LJ
0.5 LW
N
75 290.146 M
77.232 290.146 L
S
GR
GS
0.149 GC
2 setlinecap
1 LJ
0.5 LW
N
75 284.469 M
77.232 284.469 L
S
GR
GS
0.149 GC
2 setlinecap
1 LJ
0.5 LW
N
75 279.83 M
77.232 279.83 L
S
GR
GS
0.149 GC
2 setlinecap
1 LJ
0.5 LW
N
75 275.908 M
77.232 275.908 L
S
GR
GS
0.149 GC
2 setlinecap
1 LJ
0.5 LW
N
75 272.511 M
77.232 272.511 L
S
GR
GS
0.149 GC
2 setlinecap
1 LJ
0.5 LW
N
75 269.514 M
77.232 269.514 L
S
GR
GS
0.149 GC
2 setlinecap
1 LJ
0.5 LW
N
75 249.198 M
77.232 249.198 L
S
GR
GS
0.149 GC
2 setlinecap
1 LJ
0.5 LW
N
75 238.882 M
77.232 238.882 L
S
GR
GS
0.149 GC
2 setlinecap
1 LJ
0.5 LW
N
75 231.563 M
77.232 231.563 L
S
GR
GS
0.149 GC
2 setlinecap
1 LJ
0.5 LW
N
75 225.885 M
77.232 225.885 L
S
GR
GS
0.149 GC
2 setlinecap
1 LJ
0.5 LW
N
75 221.247 M
77.232 221.247 L
S
GR
GS
0.149 GC
2 setlinecap
1 LJ
0.5 LW
N
75 217.325 M
77.232 217.325 L
S
GR
GS
0.149 GC
2 setlinecap
1 LJ
0.5 LW
N
75 213.927 M
77.232 213.927 L
S
GR
GS
0.149 GC
2 setlinecap
1 LJ
0.5 LW
N
75 210.931 M
77.232 210.931 L
S
GR
GS
0.149 GC
2 setlinecap
1 LJ
0.5 LW
N
75 190.615 M
77.232 190.615 L
S
GR
GS
0.149 GC
2 setlinecap
1 LJ
0.5 LW
N
75 180.299 M
77.232 180.299 L
S
GR
GS
0.149 GC
2 setlinecap
1 LJ
0.5 LW
N
75 172.979 M
77.232 172.979 L
S
GR
GS
0.149 GC
2 setlinecap
1 LJ
0.5 LW
N
75 167.302 M
77.232 167.302 L
S
GR
GS
0.149 GC
2 setlinecap
1 LJ
0.5 LW
N
75 162.663 M
77.232 162.663 L
S
GR
GS
0.149 GC
2 setlinecap
1 LJ
0.5 LW
N
75 158.741 M
77.232 158.741 L
S
GR
GS
0.149 GC
2 setlinecap
1 LJ
0.5 LW
N
75 155.344 M
77.232 155.344 L
S
GR
GS
0.149 GC
2 setlinecap
1 LJ
0.5 LW
N
75 152.347 M
77.232 152.347 L
S
GR
GS
0.149 GC
2 setlinecap
1 LJ
0.5 LW
N
75 132.031 M
77.232 132.031 L
S
GR
GS
0.149 GC
2 setlinecap
1 LJ
0.5 LW
N
75 121.715 M
77.232 121.715 L
S
GR
GS
0.149 GC
2 setlinecap
1 LJ
0.5 LW
N
75 114.396 M
77.232 114.396 L
S
GR
GS
0.149 GC
2 setlinecap
1 LJ
0.5 LW
N
75 108.719 M
77.232 108.719 L
S
GR
GS
0.149 GC
2 setlinecap
1 LJ
0.5 LW
N
75 104.08 M
77.232 104.08 L
S
GR
GS
0.149 GC
2 setlinecap
1 LJ
0.5 LW
N
75 100.158 M
77.232 100.158 L
S
GR
GS
0.149 GC
2 setlinecap
1 LJ
0.5 LW
N
75 96.761 M
77.232 96.761 L
S
GR
GS
0.149 GC
2 setlinecap
1 LJ
0.5 LW
N
75 93.764 M
77.232 93.764 L
S
GR
GS
0.149 GC
2 setlinecap
1 LJ
0.5 LW
N
75 73.448 M
77.232 73.448 L
S
GR
GS
0.149 GC
2 setlinecap
1 LJ
0.5 LW
N
75 63.132 M
77.232 63.132 L
S
GR
GS
0.149 GC
2 setlinecap
1 LJ
0.5 LW
N
75 55.813 M
77.232 55.813 L
S
GR
GS
0.149 GC
2 setlinecap
1 LJ
0.5 LW
N
75 50.135 M
77.232 50.135 L
S
GR
GS
0.149 GC
2 setlinecap
1 LJ
0.5 LW
N
75 45.497 M
77.232 45.497 L
S
GR
GS
0.149 GC
2 setlinecap
1 LJ
0.5 LW
N
75 41.575 M
77.232 41.575 L
S
GR
GS
0.149 GC
2 setlinecap
1 LJ
0.5 LW
N
75 38.177 M
77.232 38.177 L
S
GR
GS
0.149 GC
2 setlinecap
1 LJ
0.5 LW
N
75 35.181 M
77.232 35.181 L
S
GR
GS
[1 0 0 1 31 393] CT
0.149 GC
/Helvetica 20 F
GS
[1 0 0 1 0 0] CT
0 0 moveto 
1 -1 scale
(10) t 
GR
GR
GS
[1 0 0 1 54 383] CT
0.149 GC
/Helvetica 16 F
GS
[1 0 0 1 0 0] CT
0 0 moveto 
1 -1 scale
(-5) t 
GR
GR
GS
[1 0 0 1 31 334] CT
0.149 GC
/Helvetica 20 F
GS
[1 0 0 1 0 0] CT
0 0 moveto 
1 -1 scale
(10) t 
GR
GR
GS
[1 0 0 1 54 324] CT
0.149 GC
/Helvetica 16 F
GS
[1 0 0 1 0 0] CT
0 0 moveto 
1 -1 scale
(-4) t 
GR
GR
GS
[1 0 0 1 31 276] CT
0.149 GC
/Helvetica 20 F
GS
[1 0 0 1 0 0] CT
0 0 moveto 
1 -1 scale
(10) t 
GR
GR
GS
[1 0 0 1 54 266] CT
0.149 GC
/Helvetica 16 F
GS
[1 0 0 1 0 0] CT
0 0 moveto 
1 -1 scale
(-3) t 
GR
GR
GS
[1 0 0 1 31 217] CT
0.149 GC
/Helvetica 20 F
GS
[1 0 0 1 0 0] CT
0 0 moveto 
1 -1 scale
(10) t 
GR
GR
GS
[1 0 0 1 54 207] CT
0.149 GC
/Helvetica 16 F
GS
[1 0 0 1 0 0] CT
0 0 moveto 
1 -1 scale
(-2) t 
GR
GR
GS
[1 0 0 1 31 159] CT
0.149 GC
/Helvetica 20 F
GS
[1 0 0 1 0 0] CT
0 0 moveto 
1 -1 scale
(10) t 
GR
GR
GS
[1 0 0 1 54 149] CT
0.149 GC
/Helvetica 16 F
GS
[1 0 0 1 0 0] CT
0 0 moveto 
1 -1 scale
(-1) t 
GR
GR
GS
[1 0 0 1 37 100] CT
0.149 GC
/Helvetica 20 F
GS
[1 0 0 1 0 0] CT
0 0 moveto 
1 -1 scale
(10) t 
GR
GR
GS
[1 0 0 1 60 90] CT
0.149 GC
/Helvetica 16 F
GS
[1 0 0 1 0 0] CT
0 0 moveto 
1 -1 scale
(0) t 
GR
GR
GS
[1 0 0 1 37 42] CT
0.149 GC
/Helvetica 20 F
GS
[1 0 0 1 0 0] CT
0 0 moveto 
1 -1 scale
(10) t 
GR
GR
GS
[1 0 0 1 60 32] CT
0.149 GC
/Helvetica 16 F
GS
[1 0 0 1 0 0] CT
0 0 moveto 
1 -1 scale
(1) t 
GR
GR
GS
[0 -1 1 0 29 208.24983] CT
0.149 GC
/Helvetica 20 F
GS
[1 0 0 1 0 0] CT
-54.5 -5 moveto 
1 -1 scale
(Train RMSE) t 
GR
GR
GS
0 0.447 0.741 RC
1 LJ
N
92.86 53.049 M
110.72 59.033 L
128.58 61.823 L
146.44 63.771 L
164.3 67.331 L
182.16 73.426 L
200.02 82.02 L
217.88 92.639 L
235.74 104.15 L
253.6 116.015 L
271.46 128.19 L
289.32 140.757 L
307.18 153.826 L
325.04 167.523 L
342.9 181.985 L
360.76 197.354 L
378.62 213.781 L
396.48 231.418 L
414.34 250.427 L
432.2 270.973 L
450.06 293.218 L
467.92 317.229 L
485.78 342.24 L
S
GR
GS
0 0.447 0.741 RC
1 LJ
N
95.5 53.5 M
94.621 51.379 L
92.5 50.5 L
90.379 51.379 L
89.5 53.5 L
90.379 55.621 L
92.5 56.5 L
94.621 55.621 L
cp
S
GR
GS
0 0.447 0.741 RC
1 LJ
N
113.5 59.5 M
112.621 57.379 L
110.5 56.5 L
108.379 57.379 L
107.5 59.5 L
108.379 61.621 L
110.5 62.5 L
112.621 61.621 L
cp
S
GR
GS
0 0.447 0.741 RC
1 LJ
N
131.5 61.5 M
130.621 59.379 L
128.5 58.5 L
126.379 59.379 L
125.5 61.5 L
126.379 63.621 L
128.5 64.5 L
130.621 63.621 L
cp
S
GR
GS
0 0.447 0.741 RC
1 LJ
N
149.5 63.5 M
148.621 61.379 L
146.5 60.5 L
144.379 61.379 L
143.5 63.5 L
144.379 65.621 L
146.5 66.5 L
148.621 65.621 L
cp
S
GR
GS
0 0.447 0.741 RC
1 LJ
N
167.5 67.5 M
166.621 65.379 L
164.5 64.5 L
162.379 65.379 L
161.5 67.5 L
162.379 69.621 L
164.5 70.5 L
166.621 69.621 L
cp
S
GR
GS
0 0.447 0.741 RC
1 LJ
N
185.5 73.5 M
184.621 71.379 L
182.5 70.5 L
180.379 71.379 L
179.5 73.5 L
180.379 75.621 L
182.5 76.5 L
184.621 75.621 L
cp
S
GR
GS
0 0.447 0.741 RC
1 LJ
N
203.5 82.5 M
202.621 80.379 L
200.5 79.5 L
198.379 80.379 L
197.5 82.5 L
198.379 84.621 L
200.5 85.5 L
202.621 84.621 L
cp
S
GR
GS
0 0.447 0.741 RC
1 LJ
N
220.5 92.5 M
219.621 90.379 L
217.5 89.5 L
215.379 90.379 L
214.5 92.5 L
215.379 94.621 L
217.5 95.5 L
219.621 94.621 L
cp
S
GR
GS
0 0.447 0.741 RC
1 LJ
N
238.5 104.5 M
237.621 102.379 L
235.5 101.5 L
233.379 102.379 L
232.5 104.5 L
233.379 106.621 L
235.5 107.5 L
237.621 106.621 L
cp
S
GR
GS
0 0.447 0.741 RC
1 LJ
N
256.5 116.5 M
255.621 114.379 L
253.5 113.5 L
251.379 114.379 L
250.5 116.5 L
251.379 118.621 L
253.5 119.5 L
255.621 118.621 L
cp
S
GR
GS
0 0.447 0.741 RC
1 LJ
N
274.5 128.5 M
273.621 126.379 L
271.5 125.5 L
269.379 126.379 L
268.5 128.5 L
269.379 130.621 L
271.5 131.5 L
273.621 130.621 L
cp
S
GR
GS
0 0.447 0.741 RC
1 LJ
N
292.5 140.5 M
291.621 138.379 L
289.5 137.5 L
287.379 138.379 L
286.5 140.5 L
287.379 142.621 L
289.5 143.5 L
291.621 142.621 L
cp
S
GR
GS
0 0.447 0.741 RC
1 LJ
N
310.5 153.5 M
309.621 151.379 L
307.5 150.5 L
305.379 151.379 L
304.5 153.5 L
305.379 155.621 L
307.5 156.5 L
309.621 155.621 L
cp
S
GR
GS
0 0.447 0.741 RC
1 LJ
N
328.5 167.5 M
327.621 165.379 L
325.5 164.5 L
323.379 165.379 L
322.5 167.5 L
323.379 169.621 L
325.5 170.5 L
327.621 169.621 L
cp
S
GR
GS
0 0.447 0.741 RC
1 LJ
N
345.5 181.5 M
344.621 179.379 L
342.5 178.5 L
340.379 179.379 L
339.5 181.5 L
340.379 183.621 L
342.5 184.5 L
344.621 183.621 L
cp
S
GR
GS
0 0.447 0.741 RC
1 LJ
N
363.5 197.5 M
362.621 195.379 L
360.5 194.5 L
358.379 195.379 L
357.5 197.5 L
358.379 199.621 L
360.5 200.5 L
362.621 199.621 L
cp
S
GR
GS
0 0.447 0.741 RC
1 LJ
N
381.5 213.5 M
380.621 211.379 L
378.5 210.5 L
376.379 211.379 L
375.5 213.5 L
376.379 215.621 L
378.5 216.5 L
380.621 215.621 L
cp
S
GR
GS
0 0.447 0.741 RC
1 LJ
N
399.5 231.5 M
398.621 229.379 L
396.5 228.5 L
394.379 229.379 L
393.5 231.5 L
394.379 233.621 L
396.5 234.5 L
398.621 233.621 L
cp
S
GR
GS
0 0.447 0.741 RC
1 LJ
N
417.5 250.5 M
416.621 248.379 L
414.5 247.5 L
412.379 248.379 L
411.5 250.5 L
412.379 252.621 L
414.5 253.5 L
416.621 252.621 L
cp
S
GR
GS
0 0.447 0.741 RC
1 LJ
N
435.5 270.5 M
434.621 268.379 L
432.5 267.5 L
430.379 268.379 L
429.5 270.5 L
430.379 272.621 L
432.5 273.5 L
434.621 272.621 L
cp
S
GR
GS
0 0.447 0.741 RC
1 LJ
N
453.5 293.5 M
452.621 291.379 L
450.5 290.5 L
448.379 291.379 L
447.5 293.5 L
448.379 295.621 L
450.5 296.5 L
452.621 295.621 L
cp
S
GR
GS
0 0.447 0.741 RC
1 LJ
N
470.5 317.5 M
469.621 315.379 L
467.5 314.5 L
465.379 315.379 L
464.5 317.5 L
465.379 319.621 L
467.5 320.5 L
469.621 319.621 L
cp
S
GR
GS
0 0.447 0.741 RC
1 LJ
N
488.5 342.5 M
487.621 340.379 L
485.5 339.5 L
483.379 340.379 L
482.5 342.5 L
483.379 344.621 L
485.5 345.5 L
487.621 344.621 L
cp
S
GR
GS
0.851 0.325 0.098 RC
1 LJ
N
92.86 53.049 M
110.72 59.042 L
128.58 61.833 L
146.44 63.772 L
164.3 67.344 L
182.16 73.349 L
200.02 81.804 L
217.88 92.538 L
235.74 104.134 L
253.6 116.042 L
271.46 128.25 L
289.32 140.855 L
307.18 153.957 L
325.04 167.697 L
342.9 182.194 L
360.76 197.605 L
378.62 214.069 L
396.48 231.739 L
414.34 250.785 L
432.2 271.347 L
450.06 293.584 L
467.92 317.532 L
485.78 342.417 L
S
GR
GS
0.851 0.325 0.098 RC
1 LJ
N
95.5 53.5 M
94.621 51.379 L
92.5 50.5 L
90.379 51.379 L
89.5 53.5 L
90.379 55.621 L
92.5 56.5 L
94.621 55.621 L
cp
S
GR
GS
0.851 0.325 0.098 RC
1 LJ
N
113.5 59.5 M
112.621 57.379 L
110.5 56.5 L
108.379 57.379 L
107.5 59.5 L
108.379 61.621 L
110.5 62.5 L
112.621 61.621 L
cp
S
GR
GS
0.851 0.325 0.098 RC
1 LJ
N
131.5 61.5 M
130.621 59.379 L
128.5 58.5 L
126.379 59.379 L
125.5 61.5 L
126.379 63.621 L
128.5 64.5 L
130.621 63.621 L
cp
S
GR
GS
0.851 0.325 0.098 RC
1 LJ
N
149.5 63.5 M
148.621 61.379 L
146.5 60.5 L
144.379 61.379 L
143.5 63.5 L
144.379 65.621 L
146.5 66.5 L
148.621 65.621 L
cp
S
GR
GS
0.851 0.325 0.098 RC
1 LJ
N
167.5 67.5 M
166.621 65.379 L
164.5 64.5 L
162.379 65.379 L
161.5 67.5 L
162.379 69.621 L
164.5 70.5 L
166.621 69.621 L
cp
S
GR
GS
0.851 0.325 0.098 RC
1 LJ
N
185.5 73.5 M
184.621 71.379 L
182.5 70.5 L
180.379 71.379 L
179.5 73.5 L
180.379 75.621 L
182.5 76.5 L
184.621 75.621 L
cp
S
GR
GS
0.851 0.325 0.098 RC
1 LJ
N
203.5 81.5 M
202.621 79.379 L
200.5 78.5 L
198.379 79.379 L
197.5 81.5 L
198.379 83.621 L
200.5 84.5 L
202.621 83.621 L
cp
S
GR
GS
0.851 0.325 0.098 RC
1 LJ
N
220.5 92.5 M
219.621 90.379 L
217.5 89.5 L
215.379 90.379 L
214.5 92.5 L
215.379 94.621 L
217.5 95.5 L
219.621 94.621 L
cp
S
GR
GS
0.851 0.325 0.098 RC
1 LJ
N
238.5 104.5 M
237.621 102.379 L
235.5 101.5 L
233.379 102.379 L
232.5 104.5 L
233.379 106.621 L
235.5 107.5 L
237.621 106.621 L
cp
S
GR
GS
0.851 0.325 0.098 RC
1 LJ
N
256.5 116.5 M
255.621 114.379 L
253.5 113.5 L
251.379 114.379 L
250.5 116.5 L
251.379 118.621 L
253.5 119.5 L
255.621 118.621 L
cp
S
GR
GS
0.851 0.325 0.098 RC
1 LJ
N
274.5 128.5 M
273.621 126.379 L
271.5 125.5 L
269.379 126.379 L
268.5 128.5 L
269.379 130.621 L
271.5 131.5 L
273.621 130.621 L
cp
S
GR
GS
0.851 0.325 0.098 RC
1 LJ
N
292.5 140.5 M
291.621 138.379 L
289.5 137.5 L
287.379 138.379 L
286.5 140.5 L
287.379 142.621 L
289.5 143.5 L
291.621 142.621 L
cp
S
GR
GS
0.851 0.325 0.098 RC
1 LJ
N
310.5 153.5 M
309.621 151.379 L
307.5 150.5 L
305.379 151.379 L
304.5 153.5 L
305.379 155.621 L
307.5 156.5 L
309.621 155.621 L
cp
S
GR
GS
0.851 0.325 0.098 RC
1 LJ
N
328.5 167.5 M
327.621 165.379 L
325.5 164.5 L
323.379 165.379 L
322.5 167.5 L
323.379 169.621 L
325.5 170.5 L
327.621 169.621 L
cp
S
GR
GS
0.851 0.325 0.098 RC
1 LJ
N
345.5 182.5 M
344.621 180.379 L
342.5 179.5 L
340.379 180.379 L
339.5 182.5 L
340.379 184.621 L
342.5 185.5 L
344.621 184.621 L
cp
S
GR
GS
0.851 0.325 0.098 RC
1 LJ
N
363.5 197.5 M
362.621 195.379 L
360.5 194.5 L
358.379 195.379 L
357.5 197.5 L
358.379 199.621 L
360.5 200.5 L
362.621 199.621 L
cp
S
GR
GS
0.851 0.325 0.098 RC
1 LJ
N
381.5 214.5 M
380.621 212.379 L
378.5 211.5 L
376.379 212.379 L
375.5 214.5 L
376.379 216.621 L
378.5 217.5 L
380.621 216.621 L
cp
S
GR
GS
0.851 0.325 0.098 RC
1 LJ
N
399.5 231.5 M
398.621 229.379 L
396.5 228.5 L
394.379 229.379 L
393.5 231.5 L
394.379 233.621 L
396.5 234.5 L
398.621 233.621 L
cp
S
GR
GS
0.851 0.325 0.098 RC
1 LJ
N
417.5 250.5 M
416.621 248.379 L
414.5 247.5 L
412.379 248.379 L
411.5 250.5 L
412.379 252.621 L
414.5 253.5 L
416.621 252.621 L
cp
S
GR
GS
0.851 0.325 0.098 RC
1 LJ
N
435.5 271.5 M
434.621 269.379 L
432.5 268.5 L
430.379 269.379 L
429.5 271.5 L
430.379 273.621 L
432.5 274.5 L
434.621 273.621 L
cp
S
GR
GS
0.851 0.325 0.098 RC
1 LJ
N
453.5 293.5 M
452.621 291.379 L
450.5 290.5 L
448.379 291.379 L
447.5 293.5 L
448.379 295.621 L
450.5 296.5 L
452.621 295.621 L
cp
S
GR
GS
0.851 0.325 0.098 RC
1 LJ
N
470.5 317.5 M
469.621 315.379 L
467.5 314.5 L
465.379 315.379 L
464.5 317.5 L
465.379 319.621 L
467.5 320.5 L
469.621 319.621 L
cp
S
GR
GS
0.851 0.325 0.098 RC
1 LJ
N
488.5 342.5 M
487.621 340.379 L
485.5 339.5 L
483.379 340.379 L
482.5 342.5 L
483.379 344.621 L
485.5 345.5 L
487.621 344.621 L
cp
S
GR
GS
0.929 0.694 0.125 RC
1 LJ
N
92.86 53.049 M
110.72 58.789 L
128.58 61.524 L
146.44 63.258 L
164.3 65.981 L
182.16 70.565 L
200.02 77.24 L
217.88 86.367 L
235.74 97.173 L
253.6 108.59 L
271.46 120.453 L
289.32 132.665 L
307.18 145.3 L
325.04 158.429 L
342.9 172.213 L
360.76 186.763 L
378.62 202.275 L
396.48 218.753 L
414.34 236.496 L
432.2 255.34 L
450.06 275.663 L
467.92 297.565 L
485.78 320.919 L
503.64 344.636 L
S
GR
GS
0.929 0.694 0.125 RC
1 LJ
N
95.5 53.5 M
94.621 51.379 L
92.5 50.5 L
90.379 51.379 L
89.5 53.5 L
90.379 55.621 L
92.5 56.5 L
94.621 55.621 L
cp
S
GR
GS
0.929 0.694 0.125 RC
1 LJ
N
113.5 58.5 M
112.621 56.379 L
110.5 55.5 L
108.379 56.379 L
107.5 58.5 L
108.379 60.621 L
110.5 61.5 L
112.621 60.621 L
cp
S
GR
GS
0.929 0.694 0.125 RC
1 LJ
N
131.5 61.5 M
130.621 59.379 L
128.5 58.5 L
126.379 59.379 L
125.5 61.5 L
126.379 63.621 L
128.5 64.5 L
130.621 63.621 L
cp
S
GR
GS
0.929 0.694 0.125 RC
1 LJ
N
149.5 63.5 M
148.621 61.379 L
146.5 60.5 L
144.379 61.379 L
143.5 63.5 L
144.379 65.621 L
146.5 66.5 L
148.621 65.621 L
cp
S
GR
GS
0.929 0.694 0.125 RC
1 LJ
N
167.5 65.5 M
166.621 63.379 L
164.5 62.5 L
162.379 63.379 L
161.5 65.5 L
162.379 67.621 L
164.5 68.5 L
166.621 67.621 L
cp
S
GR
GS
0.929 0.694 0.125 RC
1 LJ
N
185.5 70.5 M
184.621 68.379 L
182.5 67.5 L
180.379 68.379 L
179.5 70.5 L
180.379 72.621 L
182.5 73.5 L
184.621 72.621 L
cp
S
GR
GS
0.929 0.694 0.125 RC
1 LJ
N
203.5 77.5 M
202.621 75.379 L
200.5 74.5 L
198.379 75.379 L
197.5 77.5 L
198.379 79.621 L
200.5 80.5 L
202.621 79.621 L
cp
S
GR
GS
0.929 0.694 0.125 RC
1 LJ
N
220.5 86.5 M
219.621 84.379 L
217.5 83.5 L
215.379 84.379 L
214.5 86.5 L
215.379 88.621 L
217.5 89.5 L
219.621 88.621 L
cp
S
GR
GS
0.929 0.694 0.125 RC
1 LJ
N
238.5 97.5 M
237.621 95.379 L
235.5 94.5 L
233.379 95.379 L
232.5 97.5 L
233.379 99.621 L
235.5 100.5 L
237.621 99.621 L
cp
S
GR
GS
0.929 0.694 0.125 RC
1 LJ
N
256.5 108.5 M
255.621 106.379 L
253.5 105.5 L
251.379 106.379 L
250.5 108.5 L
251.379 110.621 L
253.5 111.5 L
255.621 110.621 L
cp
S
GR
GS
0.929 0.694 0.125 RC
1 LJ
N
274.5 120.5 M
273.621 118.379 L
271.5 117.5 L
269.379 118.379 L
268.5 120.5 L
269.379 122.621 L
271.5 123.5 L
273.621 122.621 L
cp
S
GR
GS
0.929 0.694 0.125 RC
1 LJ
N
292.5 132.5 M
291.621 130.379 L
289.5 129.5 L
287.379 130.379 L
286.5 132.5 L
287.379 134.621 L
289.5 135.5 L
291.621 134.621 L
cp
S
GR
GS
0.929 0.694 0.125 RC
1 LJ
N
310.5 145.5 M
309.621 143.379 L
307.5 142.5 L
305.379 143.379 L
304.5 145.5 L
305.379 147.621 L
307.5 148.5 L
309.621 147.621 L
cp
S
GR
GS
0.929 0.694 0.125 RC
1 LJ
N
328.5 158.5 M
327.621 156.379 L
325.5 155.5 L
323.379 156.379 L
322.5 158.5 L
323.379 160.621 L
325.5 161.5 L
327.621 160.621 L
cp
S
GR
GS
0.929 0.694 0.125 RC
1 LJ
N
345.5 172.5 M
344.621 170.379 L
342.5 169.5 L
340.379 170.379 L
339.5 172.5 L
340.379 174.621 L
342.5 175.5 L
344.621 174.621 L
cp
S
GR
GS
0.929 0.694 0.125 RC
1 LJ
N
363.5 186.5 M
362.621 184.379 L
360.5 183.5 L
358.379 184.379 L
357.5 186.5 L
358.379 188.621 L
360.5 189.5 L
362.621 188.621 L
cp
S
GR
GS
0.929 0.694 0.125 RC
1 LJ
N
381.5 202.5 M
380.621 200.379 L
378.5 199.5 L
376.379 200.379 L
375.5 202.5 L
376.379 204.621 L
378.5 205.5 L
380.621 204.621 L
cp
S
GR
GS
0.929 0.694 0.125 RC
1 LJ
N
399.5 218.5 M
398.621 216.379 L
396.5 215.5 L
394.379 216.379 L
393.5 218.5 L
394.379 220.621 L
396.5 221.5 L
398.621 220.621 L
cp
S
GR
GS
0.929 0.694 0.125 RC
1 LJ
N
417.5 236.5 M
416.621 234.379 L
414.5 233.5 L
412.379 234.379 L
411.5 236.5 L
412.379 238.621 L
414.5 239.5 L
416.621 238.621 L
cp
S
GR
GS
0.929 0.694 0.125 RC
1 LJ
N
435.5 255.5 M
434.621 253.379 L
432.5 252.5 L
430.379 253.379 L
429.5 255.5 L
430.379 257.621 L
432.5 258.5 L
434.621 257.621 L
cp
S
GR
GS
0.929 0.694 0.125 RC
1 LJ
N
453.5 275.5 M
452.621 273.379 L
450.5 272.5 L
448.379 273.379 L
447.5 275.5 L
448.379 277.621 L
450.5 278.5 L
452.621 277.621 L
cp
S
GR
GS
0.929 0.694 0.125 RC
1 LJ
N
470.5 297.5 M
469.621 295.379 L
467.5 294.5 L
465.379 295.379 L
464.5 297.5 L
465.379 299.621 L
467.5 300.5 L
469.621 299.621 L
cp
S
GR
GS
0.929 0.694 0.125 RC
1 LJ
N
488.5 320.5 M
487.621 318.379 L
485.5 317.5 L
483.379 318.379 L
482.5 320.5 L
483.379 322.621 L
485.5 323.5 L
487.621 322.621 L
cp
S
GR
GS
0.929 0.694 0.125 RC
1 LJ
N
506.5 344.5 M
505.621 342.379 L
503.5 341.5 L
501.379 342.379 L
500.5 344.5 L
501.379 346.621 L
503.5 347.5 L
505.621 346.621 L
cp
S
GR
GS
0.494 0.184 0.557 RC
1 LJ
N
92.86 53.049 M
110.72 59.033 L
128.58 61.834 L
146.44 63.834 L
164.3 67.638 L
182.16 73.991 L
200.02 82.915 L
217.88 93.721 L
235.74 105.132 L
253.6 116.84 L
271.46 128.86 L
289.32 141.268 L
307.18 154.195 L
325.04 167.711 L
342.9 181.98 L
360.76 197.109 L
378.62 213.221 L
396.48 230.571 L
414.34 249.154 L
432.2 269.514 L
450.06 291.327 L
467.92 315.408 L
485.78 340.181 L
S
GR
GS
0.494 0.184 0.557 RC
1 LJ
N
95.5 53.5 M
94.621 51.379 L
92.5 50.5 L
90.379 51.379 L
89.5 53.5 L
90.379 55.621 L
92.5 56.5 L
94.621 55.621 L
cp
S
GR
GS
0.494 0.184 0.557 RC
1 LJ
N
113.5 59.5 M
112.621 57.379 L
110.5 56.5 L
108.379 57.379 L
107.5 59.5 L
108.379 61.621 L
110.5 62.5 L
112.621 61.621 L
cp
S
GR
GS
0.494 0.184 0.557 RC
1 LJ
N
131.5 61.5 M
130.621 59.379 L
128.5 58.5 L
126.379 59.379 L
125.5 61.5 L
126.379 63.621 L
128.5 64.5 L
130.621 63.621 L
cp
S
GR
GS
0.494 0.184 0.557 RC
1 LJ
N
149.5 63.5 M
148.621 61.379 L
146.5 60.5 L
144.379 61.379 L
143.5 63.5 L
144.379 65.621 L
146.5 66.5 L
148.621 65.621 L
cp
S
GR
GS
0.494 0.184 0.557 RC
1 LJ
N
167.5 67.5 M
166.621 65.379 L
164.5 64.5 L
162.379 65.379 L
161.5 67.5 L
162.379 69.621 L
164.5 70.5 L
166.621 69.621 L
cp
S
GR
GS
0.494 0.184 0.557 RC
1 LJ
N
185.5 73.5 M
184.621 71.379 L
182.5 70.5 L
180.379 71.379 L
179.5 73.5 L
180.379 75.621 L
182.5 76.5 L
184.621 75.621 L
cp
S
GR
GS
0.494 0.184 0.557 RC
1 LJ
N
203.5 82.5 M
202.621 80.379 L
200.5 79.5 L
198.379 80.379 L
197.5 82.5 L
198.379 84.621 L
200.5 85.5 L
202.621 84.621 L
cp
S
GR
GS
0.494 0.184 0.557 RC
1 LJ
N
220.5 93.5 M
219.621 91.379 L
217.5 90.5 L
215.379 91.379 L
214.5 93.5 L
215.379 95.621 L
217.5 96.5 L
219.621 95.621 L
cp
S
GR
GS
0.494 0.184 0.557 RC
1 LJ
N
238.5 105.5 M
237.621 103.379 L
235.5 102.5 L
233.379 103.379 L
232.5 105.5 L
233.379 107.621 L
235.5 108.5 L
237.621 107.621 L
cp
S
GR
GS
0.494 0.184 0.557 RC
1 LJ
N
256.5 116.5 M
255.621 114.379 L
253.5 113.5 L
251.379 114.379 L
250.5 116.5 L
251.379 118.621 L
253.5 119.5 L
255.621 118.621 L
cp
S
GR
GS
0.494 0.184 0.557 RC
1 LJ
N
274.5 128.5 M
273.621 126.379 L
271.5 125.5 L
269.379 126.379 L
268.5 128.5 L
269.379 130.621 L
271.5 131.5 L
273.621 130.621 L
cp
S
GR
GS
0.494 0.184 0.557 RC
1 LJ
N
292.5 141.5 M
291.621 139.379 L
289.5 138.5 L
287.379 139.379 L
286.5 141.5 L
287.379 143.621 L
289.5 144.5 L
291.621 143.621 L
cp
S
GR
GS
0.494 0.184 0.557 RC
1 LJ
N
310.5 154.5 M
309.621 152.379 L
307.5 151.5 L
305.379 152.379 L
304.5 154.5 L
305.379 156.621 L
307.5 157.5 L
309.621 156.621 L
cp
S
GR
GS
0.494 0.184 0.557 RC
1 LJ
N
328.5 167.5 M
327.621 165.379 L
325.5 164.5 L
323.379 165.379 L
322.5 167.5 L
323.379 169.621 L
325.5 170.5 L
327.621 169.621 L
cp
S
GR
GS
0.494 0.184 0.557 RC
1 LJ
N
345.5 181.5 M
344.621 179.379 L
342.5 178.5 L
340.379 179.379 L
339.5 181.5 L
340.379 183.621 L
342.5 184.5 L
344.621 183.621 L
cp
S
GR
GS
0.494 0.184 0.557 RC
1 LJ
N
363.5 197.5 M
362.621 195.379 L
360.5 194.5 L
358.379 195.379 L
357.5 197.5 L
358.379 199.621 L
360.5 200.5 L
362.621 199.621 L
cp
S
GR
GS
0.494 0.184 0.557 RC
1 LJ
N
381.5 213.5 M
380.621 211.379 L
378.5 210.5 L
376.379 211.379 L
375.5 213.5 L
376.379 215.621 L
378.5 216.5 L
380.621 215.621 L
cp
S
GR
GS
0.494 0.184 0.557 RC
1 LJ
N
399.5 230.5 M
398.621 228.379 L
396.5 227.5 L
394.379 228.379 L
393.5 230.5 L
394.379 232.621 L
396.5 233.5 L
398.621 232.621 L
cp
S
GR
GS
0.494 0.184 0.557 RC
1 LJ
N
417.5 249.5 M
416.621 247.379 L
414.5 246.5 L
412.379 247.379 L
411.5 249.5 L
412.379 251.621 L
414.5 252.5 L
416.621 251.621 L
cp
S
GR
GS
0.494 0.184 0.557 RC
1 LJ
N
435.5 269.5 M
434.621 267.379 L
432.5 266.5 L
430.379 267.379 L
429.5 269.5 L
430.379 271.621 L
432.5 272.5 L
434.621 271.621 L
cp
S
GR
GS
0.494 0.184 0.557 RC
1 LJ
N
453.5 291.5 M
452.621 289.379 L
450.5 288.5 L
448.379 289.379 L
447.5 291.5 L
448.379 293.621 L
450.5 294.5 L
452.621 293.621 L
cp
S
GR
GS
0.494 0.184 0.557 RC
1 LJ
N
470.5 315.5 M
469.621 313.379 L
467.5 312.5 L
465.379 313.379 L
464.5 315.5 L
465.379 317.621 L
467.5 318.5 L
469.621 317.621 L
cp
S
GR
GS
0.494 0.184 0.557 RC
1 LJ
N
488.5 340.5 M
487.621 338.379 L
485.5 337.5 L
483.379 338.379 L
482.5 340.5 L
483.379 342.621 L
485.5 343.5 L
487.621 342.621 L
cp
S
GR
GS
[1 0 0 1 338 53.75] CT
/Helvetica 20 F
GS
[1 0 0 1 0 0] CT
0 4.5 moveto 
1 -1 scale
(No shuffling) t 
GR
GR
GS
0 0.447 0.741 RC
1 LJ
N
305 53.75 M
335 53.75 L
S
GR
GS
0 0.447 0.741 RC
1 LJ
N
323.5 53.5 M
322.621 51.379 L
320.5 50.5 L
318.379 51.379 L
317.5 53.5 L
318.379 55.621 L
320.5 56.5 L
322.621 55.621 L
cp
S
GR
GS
[1 0 0 1 338 72.75] CT
/Helvetica 20 F
GS
[1 0 0 1 0 0] CT
0 4.5 moveto 
1 -1 scale
(Random without repl.) t 
GR
GR
GS
0.851 0.325 0.098 RC
1 LJ
N
305 72.75 M
335 72.75 L
S
GR
GS
0.851 0.325 0.098 RC
1 LJ
N
323.5 72.5 M
322.621 70.379 L
320.5 69.5 L
318.379 70.379 L
317.5 72.5 L
318.379 74.621 L
320.5 75.5 L
322.621 74.621 L
cp
S
GR
GS
[1 0 0 1 338 91.75] CT
/Helvetica 20 F
GS
[1 0 0 1 0 0] CT
0 4.5 moveto 
1 -1 scale
(Random with repl.) t 
GR
GR
GS
0.929 0.694 0.125 RC
1 LJ
N
305 91.75 M
335 91.75 L
S
GR
GS
0.929 0.694 0.125 RC
1 LJ
N
323.5 91.5 M
322.621 89.379 L
320.5 88.5 L
318.379 89.379 L
317.5 91.5 L
318.379 93.621 L
320.5 94.5 L
322.621 93.621 L
cp
S
GR
GS
[1 0 0 1 338 110.75] CT
/Helvetica 20 F
GS
[1 0 0 1 0 0] CT
0 4.5 moveto 
1 -1 scale
(Smart shuffling) t 
GR
GR
GS
0.494 0.184 0.557 RC
1 LJ
N
305 110.75 M
335 110.75 L
S
GR
GS
0.494 0.184 0.557 RC
1 LJ
N
323.5 110.5 M
322.621 108.379 L
320.5 107.5 L
318.379 108.379 L
317.5 110.5 L
318.379 112.621 L
320.5 113.5 L
322.621 112.621 L
cp
S
GR
%%Trailer
%%Pages: 1
%%EOF
