%!PS-Adobe-3.0 EPSF-3.0
%%Creator: (MATLAB, The Mathworks, Inc. Version 8.6.0.267246 \(R2015b\). Operating System: Mac OS X)
%%Title: /Users/gauthiermuguerza/Desktop/rsgd/report/images/fourStandard.eps
%%CreationDate: 2018-06-02T08:27:46
%%Pages: (atend)
%%BoundingBox:    23    10   530   409
%%LanguageLevel: 3
%%EndComments
%%BeginProlog
%%BeginResource: procset (Apache XML Graphics Std ProcSet) 1.2 0
%%Version: 1.2 0
%%Copyright: (Copyright 2001-2003,2010 The Apache Software Foundation. License terms: http://www.apache.org/licenses/LICENSE-2.0)
/bd{bind def}bind def
/ld{load def}bd
/GR/grestore ld
/M/moveto ld
/LJ/setlinejoin ld
/C/curveto ld
/f/fill ld
/LW/setlinewidth ld
/GC/setgray ld
/t/show ld
/N/newpath ld
/CT/concat ld
/cp/closepath ld
/S/stroke ld
/L/lineto ld
/CC/setcmykcolor ld
/A/ashow ld
/GS/gsave ld
/RC/setrgbcolor ld
/RM/rmoveto ld
/ML/setmiterlimit ld
/re {4 2 roll M
1 index 0 rlineto
0 exch rlineto
neg 0 rlineto
cp } bd
/_ctm matrix def
/_tm matrix def
/BT { _ctm currentmatrix pop matrix _tm copy pop 0 0 moveto } bd
/ET { _ctm setmatrix } bd
/iTm { _ctm setmatrix _tm concat } bd
/Tm { _tm astore pop iTm 0 0 moveto } bd
/ux 0.0 def
/uy 0.0 def
/F {
  /Tp exch def
  /Tf exch def
  Tf findfont Tp scalefont setfont
  /cf Tf def  /cs Tp def
} bd
/ULS {currentpoint /uy exch def /ux exch def} bd
/ULE {
  /Tcx currentpoint pop def
  gsave
  newpath
  cf findfont cs scalefont dup
  /FontMatrix get 0 get /Ts exch def /FontInfo get dup
  /UnderlinePosition get Ts mul /To exch def
  /UnderlineThickness get Ts mul /Tt exch def
  ux uy To add moveto  Tcx uy To add lineto
  Tt setlinewidth stroke
  grestore
} bd
/OLE {
  /Tcx currentpoint pop def
  gsave
  newpath
  cf findfont cs scalefont dup
  /FontMatrix get 0 get /Ts exch def /FontInfo get dup
  /UnderlinePosition get Ts mul /To exch def
  /UnderlineThickness get Ts mul /Tt exch def
  ux uy To add cs add moveto Tcx uy To add cs add lineto
  Tt setlinewidth stroke
  grestore
} bd
/SOE {
  /Tcx currentpoint pop def
  gsave
  newpath
  cf findfont cs scalefont dup
  /FontMatrix get 0 get /Ts exch def /FontInfo get dup
  /UnderlinePosition get Ts mul /To exch def
  /UnderlineThickness get Ts mul /Tt exch def
  ux uy To add cs 10 mul 26 idiv add moveto Tcx uy To add cs 10 mul 26 idiv add lineto
  Tt setlinewidth stroke
  grestore
} bd
/QT {
/Y22 exch store
/X22 exch store
/Y21 exch store
/X21 exch store
currentpoint
/Y21 load 2 mul add 3 div exch
/X21 load 2 mul add 3 div exch
/X21 load 2 mul /X22 load add 3 div
/Y21 load 2 mul /Y22 load add 3 div
/X22 load /Y22 load curveto
} bd
/SSPD {
dup length /d exch dict def
{
/v exch def
/k exch def
currentpagedevice k known {
/cpdv currentpagedevice k get def
v cpdv ne {
/upd false def
/nullv v type /nulltype eq def
/nullcpdv cpdv type /nulltype eq def
nullv nullcpdv or
{
/upd true def
} {
/sametype v type cpdv type eq def
sametype {
v type /arraytype eq {
/vlen v length def
/cpdvlen cpdv length def
vlen cpdvlen eq {
0 1 vlen 1 sub {
/i exch def
/obj v i get def
/cpdobj cpdv i get def
obj cpdobj ne {
/upd true def
exit
} if
} for
} {
/upd true def
} ifelse
} {
v type /dicttype eq {
v {
/dv exch def
/dk exch def
/cpddv cpdv dk get def
dv cpddv ne {
/upd true def
exit
} if
} forall
} {
/upd true def
} ifelse
} ifelse
} if
} ifelse
upd true eq {
d k v put
} if
} if
} if
} forall
d length 0 gt {
d setpagedevice
} if
} bd
%%EndResource
%%BeginResource: procset (Apache XML Graphics EPS ProcSet) 1.0 0
%%Version: 1.0 0
%%Copyright: (Copyright 2002-2003 The Apache Software Foundation. License terms: http://www.apache.org/licenses/LICENSE-2.0)
/BeginEPSF { %def
/b4_Inc_state save def         % Save state for cleanup
/dict_count countdictstack def % Count objects on dict stack
/op_count count 1 sub def      % Count objects on operand stack
userdict begin                 % Push userdict on dict stack
/showpage { } def              % Redefine showpage, { } = null proc
0 setgray 0 setlinecap         % Prepare graphics state
1 setlinewidth 0 setlinejoin
10 setmiterlimit [ ] 0 setdash newpath
/languagelevel where           % If level not equal to 1 then
{pop languagelevel             % set strokeadjust and
1 ne                           % overprint to their defaults.
{false setstrokeadjust false setoverprint
} if
} if
} bd
/EndEPSF { %def
count op_count sub {pop} repeat            % Clean up stacks
countdictstack dict_count sub {end} repeat
b4_Inc_state restore
} bd
%%EndResource
%FOPBeginFontDict
%%IncludeResource: font Courier-Bold
%%IncludeResource: font Helvetica
%%IncludeResource: font Courier-BoldOblique
%%IncludeResource: font Courier-Oblique
%%IncludeResource: font Times-Roman
%%IncludeResource: font Helvetica-BoldOblique
%%IncludeResource: font Helvetica-Bold
%%IncludeResource: font Helvetica-Oblique
%%IncludeResource: font Times-BoldItalic
%%IncludeResource: font Courier
%%IncludeResource: font Times-Italic
%%IncludeResource: font Times-Bold
%%IncludeResource: font Symbol
%%IncludeResource: font ZapfDingbats
%FOPEndFontDict
%%BeginResource: encoding WinAnsiEncoding
/WinAnsiEncoding [
/.notdef /.notdef /.notdef /.notdef /.notdef
/.notdef /.notdef /.notdef /.notdef /.notdef
/.notdef /.notdef /.notdef /.notdef /.notdef
/.notdef /.notdef /.notdef /.notdef /.notdef
/.notdef /.notdef /.notdef /.notdef /.notdef
/.notdef /.notdef /.notdef /.notdef /.notdef
/.notdef /.notdef /space /exclam /quotedbl
/numbersign /dollar /percent /ampersand /quotesingle
/parenleft /parenright /asterisk /plus /comma
/hyphen /period /slash /zero /one
/two /three /four /five /six
/seven /eight /nine /colon /semicolon
/less /equal /greater /question /at
/A /B /C /D /E
/F /G /H /I /J
/K /L /M /N /O
/P /Q /R /S /T
/U /V /W /X /Y
/Z /bracketleft /backslash /bracketright /asciicircum
/underscore /quoteleft /a /b /c
/d /e /f /g /h
/i /j /k /l /m
/n /o /p /q /r
/s /t /u /v /w
/x /y /z /braceleft /bar
/braceright /asciitilde /bullet /Euro /bullet
/quotesinglbase /florin /quotedblbase /ellipsis /dagger
/daggerdbl /circumflex /perthousand /Scaron /guilsinglleft
/OE /bullet /Zcaron /bullet /bullet
/quoteleft /quoteright /quotedblleft /quotedblright /bullet
/endash /emdash /asciitilde /trademark /scaron
/guilsinglright /oe /bullet /zcaron /Ydieresis
/space /exclamdown /cent /sterling /currency
/yen /brokenbar /section /dieresis /copyright
/ordfeminine /guillemotleft /logicalnot /sfthyphen /registered
/macron /degree /plusminus /twosuperior /threesuperior
/acute /mu /paragraph /middot /cedilla
/onesuperior /ordmasculine /guillemotright /onequarter /onehalf
/threequarters /questiondown /Agrave /Aacute /Acircumflex
/Atilde /Adieresis /Aring /AE /Ccedilla
/Egrave /Eacute /Ecircumflex /Edieresis /Igrave
/Iacute /Icircumflex /Idieresis /Eth /Ntilde
/Ograve /Oacute /Ocircumflex /Otilde /Odieresis
/multiply /Oslash /Ugrave /Uacute /Ucircumflex
/Udieresis /Yacute /Thorn /germandbls /agrave
/aacute /acircumflex /atilde /adieresis /aring
/ae /ccedilla /egrave /eacute /ecircumflex
/edieresis /igrave /iacute /icircumflex /idieresis
/eth /ntilde /ograve /oacute /ocircumflex
/otilde /odieresis /divide /oslash /ugrave
/uacute /ucircumflex /udieresis /yacute /thorn
/ydieresis
] def
%%EndResource
%FOPBeginFontReencode
/Courier-Bold findfont
dup length dict begin
  {1 index /FID ne {def} {pop pop} ifelse} forall
  /Encoding WinAnsiEncoding def
  currentdict
end
/Courier-Bold exch definefont pop
/Helvetica findfont
dup length dict begin
  {1 index /FID ne {def} {pop pop} ifelse} forall
  /Encoding WinAnsiEncoding def
  currentdict
end
/Helvetica exch definefont pop
/Courier-BoldOblique findfont
dup length dict begin
  {1 index /FID ne {def} {pop pop} ifelse} forall
  /Encoding WinAnsiEncoding def
  currentdict
end
/Courier-BoldOblique exch definefont pop
/Courier-Oblique findfont
dup length dict begin
  {1 index /FID ne {def} {pop pop} ifelse} forall
  /Encoding WinAnsiEncoding def
  currentdict
end
/Courier-Oblique exch definefont pop
/Times-Roman findfont
dup length dict begin
  {1 index /FID ne {def} {pop pop} ifelse} forall
  /Encoding WinAnsiEncoding def
  currentdict
end
/Times-Roman exch definefont pop
/Helvetica-BoldOblique findfont
dup length dict begin
  {1 index /FID ne {def} {pop pop} ifelse} forall
  /Encoding WinAnsiEncoding def
  currentdict
end
/Helvetica-BoldOblique exch definefont pop
/Helvetica-Bold findfont
dup length dict begin
  {1 index /FID ne {def} {pop pop} ifelse} forall
  /Encoding WinAnsiEncoding def
  currentdict
end
/Helvetica-Bold exch definefont pop
/Helvetica-Oblique findfont
dup length dict begin
  {1 index /FID ne {def} {pop pop} ifelse} forall
  /Encoding WinAnsiEncoding def
  currentdict
end
/Helvetica-Oblique exch definefont pop
/Times-BoldItalic findfont
dup length dict begin
  {1 index /FID ne {def} {pop pop} ifelse} forall
  /Encoding WinAnsiEncoding def
  currentdict
end
/Times-BoldItalic exch definefont pop
/Courier findfont
dup length dict begin
  {1 index /FID ne {def} {pop pop} ifelse} forall
  /Encoding WinAnsiEncoding def
  currentdict
end
/Courier exch definefont pop
/Times-Italic findfont
dup length dict begin
  {1 index /FID ne {def} {pop pop} ifelse} forall
  /Encoding WinAnsiEncoding def
  currentdict
end
/Times-Italic exch definefont pop
/Times-Bold findfont
dup length dict begin
  {1 index /FID ne {def} {pop pop} ifelse} forall
  /Encoding WinAnsiEncoding def
  currentdict
end
/Times-Bold exch definefont pop
%FOPEndFontReencode
%%EndProlog
%%Page: 1 1
%%PageBoundingBox: 0 0 576 432
%%BeginPageSetup
[1 0 0 -1 0 432] CT
%%EndPageSetup
GS
1 GC
N
0 0 576 432 re
f
GR
GS
1 GC
N
0 0 576 432 re
f
GR
GS
1 GC
N
75 384.5 M
521.5 384.5 L
521.5 32.5 L
75 32.5 L
cp
f
GR
GS
0.149 GC
2 setlinecap
1 LJ
0.5 LW
N
75 384.5 M
521.5 384.5 L
S
GR
GS
0.149 GC
2 setlinecap
1 LJ
0.5 LW
N
75 384.5 M
75 380.035 L
S
GR
GS
0.149 GC
2 setlinecap
1 LJ
0.5 LW
N
164.3 384.5 M
164.3 380.035 L
S
GR
GS
0.149 GC
2 setlinecap
1 LJ
0.5 LW
N
253.6 384.5 M
253.6 380.035 L
S
GR
GS
0.149 GC
2 setlinecap
1 LJ
0.5 LW
N
342.9 384.5 M
342.9 380.035 L
S
GR
GS
0.149 GC
2 setlinecap
1 LJ
0.5 LW
N
432.2 384.5 M
432.2 380.035 L
S
GR
GS
0.149 GC
2 setlinecap
1 LJ
0.5 LW
N
521.5 384.5 M
521.5 380.035 L
S
GR
GS
[1 0 0 1 75 389.5] CT
0.149 GC
/Helvetica 15 F
GS
[1 0 0 1 0 0] CT
-4.5 12 moveto 
1 -1 scale
(0) t 
GR
GR
GS
[1 0 0 1 164.3 389.5] CT
0.149 GC
/Helvetica 15 F
GS
[1 0 0 1 0 0] CT
-4.5 12 moveto 
1 -1 scale
(5) t 
GR
GR
GS
[1 0 0 1 253.60001 389.5] CT
0.149 GC
/Helvetica 15 F
GS
[1 0 0 1 0 0] CT
-8.5 12 moveto 
1 -1 scale
(10) t 
GR
GR
GS
[1 0 0 1 342.90002 389.5] CT
0.149 GC
/Helvetica 15 F
GS
[1 0 0 1 0 0] CT
-8.5 12 moveto 
1 -1 scale
(15) t 
GR
GR
GS
[1 0 0 1 432.20001 389.5] CT
0.149 GC
/Helvetica 15 F
GS
[1 0 0 1 0 0] CT
-8.5 12 moveto 
1 -1 scale
(20) t 
GR
GR
GS
[1 0 0 1 521.5 389.5] CT
0.149 GC
/Helvetica 15 F
GS
[1 0 0 1 0 0] CT
-8.5 12 moveto 
1 -1 scale
(25) t 
GR
GR
GS
[1 0 0 1 298.25021 406] CT
0.149 GC
/Helvetica 15 F
GS
[1 0 0 1 0 0] CT
-31 12 moveto 
1 -1 scale
(Iterations) t 
GR
GR
GS
0.149 GC
2 setlinecap
1 LJ
0.5 LW
N
75 384.5 M
75 32.5 L
S
GR
GS
0.149 GC
2 setlinecap
1 LJ
0.5 LW
N
75 384.5 M
79.465 384.5 L
S
GR
GS
0.149 GC
2 setlinecap
1 LJ
0.5 LW
N
75 325.833 M
79.465 325.833 L
S
GR
GS
0.149 GC
2 setlinecap
1 LJ
0.5 LW
N
75 267.167 M
79.465 267.167 L
S
GR
GS
0.149 GC
2 setlinecap
1 LJ
0.5 LW
N
75 208.5 M
79.465 208.5 L
S
GR
GS
0.149 GC
2 setlinecap
1 LJ
0.5 LW
N
75 149.833 M
79.465 149.833 L
S
GR
GS
0.149 GC
2 setlinecap
1 LJ
0.5 LW
N
75 91.167 M
79.465 91.167 L
S
GR
GS
0.149 GC
2 setlinecap
1 LJ
0.5 LW
N
75 32.5 M
79.465 32.5 L
S
GR
GS
0.149 GC
2 setlinecap
1 LJ
0.5 LW
N
75 366.84 M
77.232 366.84 L
S
GR
GS
0.149 GC
2 setlinecap
1 LJ
0.5 LW
N
75 356.509 M
77.232 356.509 L
S
GR
GS
0.149 GC
2 setlinecap
1 LJ
0.5 LW
N
75 349.179 M
77.232 349.179 L
S
GR
GS
0.149 GC
2 setlinecap
1 LJ
0.5 LW
N
75 343.494 M
77.232 343.494 L
S
GR
GS
0.149 GC
2 setlinecap
1 LJ
0.5 LW
N
75 338.848 M
77.232 338.848 L
S
GR
GS
0.149 GC
2 setlinecap
1 LJ
0.5 LW
N
75 334.921 M
77.232 334.921 L
S
GR
GS
0.149 GC
2 setlinecap
1 LJ
0.5 LW
N
75 331.519 M
77.232 331.519 L
S
GR
GS
0.149 GC
2 setlinecap
1 LJ
0.5 LW
N
75 328.518 M
77.232 328.518 L
S
GR
GS
0.149 GC
2 setlinecap
1 LJ
0.5 LW
N
75 308.173 M
77.232 308.173 L
S
GR
GS
0.149 GC
2 setlinecap
1 LJ
0.5 LW
N
75 297.842 M
77.232 297.842 L
S
GR
GS
0.149 GC
2 setlinecap
1 LJ
0.5 LW
N
75 290.512 M
77.232 290.512 L
S
GR
GS
0.149 GC
2 setlinecap
1 LJ
0.5 LW
N
75 284.827 M
77.232 284.827 L
S
GR
GS
0.149 GC
2 setlinecap
1 LJ
0.5 LW
N
75 280.182 M
77.232 280.182 L
S
GR
GS
0.149 GC
2 setlinecap
1 LJ
0.5 LW
N
75 276.254 M
77.232 276.254 L
S
GR
GS
0.149 GC
2 setlinecap
1 LJ
0.5 LW
N
75 272.852 M
77.232 272.852 L
S
GR
GS
0.149 GC
2 setlinecap
1 LJ
0.5 LW
N
75 269.851 M
77.232 269.851 L
S
GR
GS
0.149 GC
2 setlinecap
1 LJ
0.5 LW
N
75 249.506 M
77.232 249.506 L
S
GR
GS
0.149 GC
2 setlinecap
1 LJ
0.5 LW
N
75 239.176 M
77.232 239.176 L
S
GR
GS
0.149 GC
2 setlinecap
1 LJ
0.5 LW
N
75 231.846 M
77.232 231.846 L
S
GR
GS
0.149 GC
2 setlinecap
1 LJ
0.5 LW
N
75 226.16 M
77.232 226.16 L
S
GR
GS
0.149 GC
2 setlinecap
1 LJ
0.5 LW
N
75 221.515 M
77.232 221.515 L
S
GR
GS
0.149 GC
2 setlinecap
1 LJ
0.5 LW
N
75 217.588 M
77.232 217.588 L
S
GR
GS
0.149 GC
2 setlinecap
1 LJ
0.5 LW
N
75 214.185 M
77.232 214.185 L
S
GR
GS
0.149 GC
2 setlinecap
1 LJ
0.5 LW
N
75 211.184 M
77.232 211.184 L
S
GR
GS
0.149 GC
2 setlinecap
1 LJ
0.5 LW
N
75 190.84 M
77.232 190.84 L
S
GR
GS
0.149 GC
2 setlinecap
1 LJ
0.5 LW
N
75 180.509 M
77.232 180.509 L
S
GR
GS
0.149 GC
2 setlinecap
1 LJ
0.5 LW
N
75 173.179 M
77.232 173.179 L
S
GR
GS
0.149 GC
2 setlinecap
1 LJ
0.5 LW
N
75 167.494 M
77.232 167.494 L
S
GR
GS
0.149 GC
2 setlinecap
1 LJ
0.5 LW
N
75 162.848 M
77.232 162.848 L
S
GR
GS
0.149 GC
2 setlinecap
1 LJ
0.5 LW
N
75 158.921 M
77.232 158.921 L
S
GR
GS
0.149 GC
2 setlinecap
1 LJ
0.5 LW
N
75 155.519 M
77.232 155.519 L
S
GR
GS
0.149 GC
2 setlinecap
1 LJ
0.5 LW
N
75 152.518 M
77.232 152.518 L
S
GR
GS
0.149 GC
2 setlinecap
1 LJ
0.5 LW
N
75 132.173 M
77.232 132.173 L
S
GR
GS
0.149 GC
2 setlinecap
1 LJ
0.5 LW
N
75 121.842 M
77.232 121.842 L
S
GR
GS
0.149 GC
2 setlinecap
1 LJ
0.5 LW
N
75 114.512 M
77.232 114.512 L
S
GR
GS
0.149 GC
2 setlinecap
1 LJ
0.5 LW
N
75 108.827 M
77.232 108.827 L
S
GR
GS
0.149 GC
2 setlinecap
1 LJ
0.5 LW
N
75 104.182 M
77.232 104.182 L
S
GR
GS
0.149 GC
2 setlinecap
1 LJ
0.5 LW
N
75 100.254 M
77.232 100.254 L
S
GR
GS
0.149 GC
2 setlinecap
1 LJ
0.5 LW
N
75 96.852 M
77.232 96.852 L
S
GR
GS
0.149 GC
2 setlinecap
1 LJ
0.5 LW
N
75 93.851 M
77.232 93.851 L
S
GR
GS
0.149 GC
2 setlinecap
1 LJ
0.5 LW
N
75 73.506 M
77.232 73.506 L
S
GR
GS
0.149 GC
2 setlinecap
1 LJ
0.5 LW
N
75 63.176 M
77.232 63.176 L
S
GR
GS
0.149 GC
2 setlinecap
1 LJ
0.5 LW
N
75 55.846 M
77.232 55.846 L
S
GR
GS
0.149 GC
2 setlinecap
1 LJ
0.5 LW
N
75 50.16 M
77.232 50.16 L
S
GR
GS
0.149 GC
2 setlinecap
1 LJ
0.5 LW
N
75 45.515 M
77.232 45.515 L
S
GR
GS
0.149 GC
2 setlinecap
1 LJ
0.5 LW
N
75 41.588 M
77.232 41.588 L
S
GR
GS
0.149 GC
2 setlinecap
1 LJ
0.5 LW
N
75 38.185 M
77.232 38.185 L
S
GR
GS
0.149 GC
2 setlinecap
1 LJ
0.5 LW
N
75 35.184 M
77.232 35.184 L
S
GR
GS
[1 0 0 1 42 392] CT
0.149 GC
/Helvetica 15 F
GS
[1 0 0 1 0 0] CT
0 0 moveto 
1 -1 scale
(10) t 
GR
GR
GS
[1 0 0 1 59 385] CT
0.149 GC
/Helvetica 12 F
GS
[1 0 0 1 0 0] CT
0 0 moveto 
1 -1 scale
(-5) t 
GR
GR
GS
[1 0 0 1 42 333] CT
0.149 GC
/Helvetica 15 F
GS
[1 0 0 1 0 0] CT
0 0 moveto 
1 -1 scale
(10) t 
GR
GR
GS
[1 0 0 1 59 326] CT
0.149 GC
/Helvetica 12 F
GS
[1 0 0 1 0 0] CT
0 0 moveto 
1 -1 scale
(-4) t 
GR
GR
GS
[1 0 0 1 42 274] CT
0.149 GC
/Helvetica 15 F
GS
[1 0 0 1 0 0] CT
0 0 moveto 
1 -1 scale
(10) t 
GR
GR
GS
[1 0 0 1 59 267] CT
0.149 GC
/Helvetica 12 F
GS
[1 0 0 1 0 0] CT
0 0 moveto 
1 -1 scale
(-3) t 
GR
GR
GS
[1 0 0 1 42 216] CT
0.149 GC
/Helvetica 15 F
GS
[1 0 0 1 0 0] CT
0 0 moveto 
1 -1 scale
(10) t 
GR
GR
GS
[1 0 0 1 59 209] CT
0.149 GC
/Helvetica 12 F
GS
[1 0 0 1 0 0] CT
0 0 moveto 
1 -1 scale
(-2) t 
GR
GR
GS
[1 0 0 1 42 157] CT
0.149 GC
/Helvetica 15 F
GS
[1 0 0 1 0 0] CT
0 0 moveto 
1 -1 scale
(10) t 
GR
GR
GS
[1 0 0 1 59 150] CT
0.149 GC
/Helvetica 12 F
GS
[1 0 0 1 0 0] CT
0 0 moveto 
1 -1 scale
(-1) t 
GR
GR
GS
[1 0 0 1 46 98] CT
0.149 GC
/Helvetica 15 F
GS
[1 0 0 1 0 0] CT
0 0 moveto 
1 -1 scale
(10) t 
GR
GR
GS
[1 0 0 1 63 91] CT
0.149 GC
/Helvetica 12 F
GS
[1 0 0 1 0 0] CT
0 0 moveto 
1 -1 scale
(0) t 
GR
GR
GS
[1 0 0 1 46 40] CT
0.149 GC
/Helvetica 15 F
GS
[1 0 0 1 0 0] CT
0 0 moveto 
1 -1 scale
(10) t 
GR
GR
GS
[1 0 0 1 63 33] CT
0.149 GC
/Helvetica 12 F
GS
[1 0 0 1 0 0] CT
0 0 moveto 
1 -1 scale
(1) t 
GR
GR
GS
[0 -1 1 0 39 208.49983] CT
0.149 GC
/Helvetica 15 F
GS
[1 0 0 1 0 0] CT
-22 -4 moveto 
1 -1 scale
(RMSE) t 
GR
GR
GS
0 0.447 0.741 RC
1 LJ
N
92.86 53.102 M
110.72 65.558 L
128.58 79.941 L
146.44 101.965 L
164.3 127.852 L
182.16 154.633 L
200.02 178.805 L
217.88 202.978 L
235.74 227.947 L
253.6 254.082 L
271.46 281.536 L
289.32 310.188 L
S
GR
GS
0 0.447 0.741 RC
1 LJ
N
95.5 53.5 M
94.621 51.379 L
92.5 50.5 L
90.379 51.379 L
89.5 53.5 L
90.379 55.621 L
92.5 56.5 L
94.621 55.621 L
cp
S
GR
GS
0 0.447 0.741 RC
1 LJ
N
113.5 65.5 M
112.621 63.379 L
110.5 62.5 L
108.379 63.379 L
107.5 65.5 L
108.379 67.621 L
110.5 68.5 L
112.621 67.621 L
cp
S
GR
GS
0 0.447 0.741 RC
1 LJ
N
131.5 79.5 M
130.621 77.379 L
128.5 76.5 L
126.379 77.379 L
125.5 79.5 L
126.379 81.621 L
128.5 82.5 L
130.621 81.621 L
cp
S
GR
GS
0 0.447 0.741 RC
1 LJ
N
149.5 101.5 M
148.621 99.379 L
146.5 98.5 L
144.379 99.379 L
143.5 101.5 L
144.379 103.621 L
146.5 104.5 L
148.621 103.621 L
cp
S
GR
GS
0 0.447 0.741 RC
1 LJ
N
167.5 127.5 M
166.621 125.379 L
164.5 124.5 L
162.379 125.379 L
161.5 127.5 L
162.379 129.621 L
164.5 130.5 L
166.621 129.621 L
cp
S
GR
GS
0 0.447 0.741 RC
1 LJ
N
185.5 154.5 M
184.621 152.379 L
182.5 151.5 L
180.379 152.379 L
179.5 154.5 L
180.379 156.621 L
182.5 157.5 L
184.621 156.621 L
cp
S
GR
GS
0 0.447 0.741 RC
1 LJ
N
203.5 178.5 M
202.621 176.379 L
200.5 175.5 L
198.379 176.379 L
197.5 178.5 L
198.379 180.621 L
200.5 181.5 L
202.621 180.621 L
cp
S
GR
GS
0 0.447 0.741 RC
1 LJ
N
220.5 202.5 M
219.621 200.379 L
217.5 199.5 L
215.379 200.379 L
214.5 202.5 L
215.379 204.621 L
217.5 205.5 L
219.621 204.621 L
cp
S
GR
GS
0 0.447 0.741 RC
1 LJ
N
238.5 227.5 M
237.621 225.379 L
235.5 224.5 L
233.379 225.379 L
232.5 227.5 L
233.379 229.621 L
235.5 230.5 L
237.621 229.621 L
cp
S
GR
GS
0 0.447 0.741 RC
1 LJ
N
256.5 254.5 M
255.621 252.379 L
253.5 251.5 L
251.379 252.379 L
250.5 254.5 L
251.379 256.621 L
253.5 257.5 L
255.621 256.621 L
cp
S
GR
GS
0 0.447 0.741 RC
1 LJ
N
274.5 281.5 M
273.621 279.379 L
271.5 278.5 L
269.379 279.379 L
268.5 281.5 L
269.379 283.621 L
271.5 284.5 L
273.621 283.621 L
cp
S
GR
GS
0 0.447 0.741 RC
1 LJ
N
292.5 310.5 M
291.621 308.379 L
289.5 307.5 L
287.379 308.379 L
286.5 310.5 L
287.379 312.621 L
289.5 313.5 L
291.621 312.621 L
cp
S
GR
GS
0.851 0.325 0.098 RC
1 LJ
N
92.86 53.102 M
110.72 65.948 L
128.58 83.197 L
146.44 109.619 L
164.3 134.273 L
182.16 157.119 L
200.02 179.442 L
217.88 202.014 L
235.74 225.234 L
253.6 249.276 L
271.46 273.831 L
289.32 298.204 L
S
GR
GS
0.851 0.325 0.098 RC
1 LJ
N
95.5 53.5 M
94.621 51.379 L
92.5 50.5 L
90.379 51.379 L
89.5 53.5 L
90.379 55.621 L
92.5 56.5 L
94.621 55.621 L
cp
S
GR
GS
0.851 0.325 0.098 RC
1 LJ
N
113.5 65.5 M
112.621 63.379 L
110.5 62.5 L
108.379 63.379 L
107.5 65.5 L
108.379 67.621 L
110.5 68.5 L
112.621 67.621 L
cp
S
GR
GS
0.851 0.325 0.098 RC
1 LJ
N
131.5 83.5 M
130.621 81.379 L
128.5 80.5 L
126.379 81.379 L
125.5 83.5 L
126.379 85.621 L
128.5 86.5 L
130.621 85.621 L
cp
S
GR
GS
0.851 0.325 0.098 RC
1 LJ
N
149.5 109.5 M
148.621 107.379 L
146.5 106.5 L
144.379 107.379 L
143.5 109.5 L
144.379 111.621 L
146.5 112.5 L
148.621 111.621 L
cp
S
GR
GS
0.851 0.325 0.098 RC
1 LJ
N
167.5 134.5 M
166.621 132.379 L
164.5 131.5 L
162.379 132.379 L
161.5 134.5 L
162.379 136.621 L
164.5 137.5 L
166.621 136.621 L
cp
S
GR
GS
0.851 0.325 0.098 RC
1 LJ
N
185.5 157.5 M
184.621 155.379 L
182.5 154.5 L
180.379 155.379 L
179.5 157.5 L
180.379 159.621 L
182.5 160.5 L
184.621 159.621 L
cp
S
GR
GS
0.851 0.325 0.098 RC
1 LJ
N
203.5 179.5 M
202.621 177.379 L
200.5 176.5 L
198.379 177.379 L
197.5 179.5 L
198.379 181.621 L
200.5 182.5 L
202.621 181.621 L
cp
S
GR
GS
0.851 0.325 0.098 RC
1 LJ
N
220.5 202.5 M
219.621 200.379 L
217.5 199.5 L
215.379 200.379 L
214.5 202.5 L
215.379 204.621 L
217.5 205.5 L
219.621 204.621 L
cp
S
GR
GS
0.851 0.325 0.098 RC
1 LJ
N
238.5 225.5 M
237.621 223.379 L
235.5 222.5 L
233.379 223.379 L
232.5 225.5 L
233.379 227.621 L
235.5 228.5 L
237.621 227.621 L
cp
S
GR
GS
0.851 0.325 0.098 RC
1 LJ
N
256.5 249.5 M
255.621 247.379 L
253.5 246.5 L
251.379 247.379 L
250.5 249.5 L
251.379 251.621 L
253.5 252.5 L
255.621 251.621 L
cp
S
GR
GS
0.851 0.325 0.098 RC
1 LJ
N
274.5 273.5 M
273.621 271.379 L
271.5 270.5 L
269.379 271.379 L
268.5 273.5 L
269.379 275.621 L
271.5 276.5 L
273.621 275.621 L
cp
S
GR
GS
0.851 0.325 0.098 RC
1 LJ
N
292.5 298.5 M
291.621 296.379 L
289.5 295.5 L
287.379 296.379 L
286.5 298.5 L
287.379 300.621 L
289.5 301.5 L
291.621 300.621 L
cp
S
GR
GS
0.929 0.694 0.125 RC
1 LJ
N
92.86 53.102 M
110.72 63.637 L
128.58 69.793 L
146.44 81.212 L
164.3 100.377 L
182.16 122.347 L
200.02 143.551 L
217.88 164.396 L
235.74 185.385 L
253.6 206.628 L
271.46 228.392 L
289.32 251.069 L
307.18 274.513 L
325.04 298.617 L
342.9 322.669 L
S
GR
GS
0.929 0.694 0.125 RC
1 LJ
N
95.5 53.5 M
94.621 51.379 L
92.5 50.5 L
90.379 51.379 L
89.5 53.5 L
90.379 55.621 L
92.5 56.5 L
94.621 55.621 L
cp
S
GR
GS
0.929 0.694 0.125 RC
1 LJ
N
113.5 63.5 M
112.621 61.379 L
110.5 60.5 L
108.379 61.379 L
107.5 63.5 L
108.379 65.621 L
110.5 66.5 L
112.621 65.621 L
cp
S
GR
GS
0.929 0.694 0.125 RC
1 LJ
N
131.5 69.5 M
130.621 67.379 L
128.5 66.5 L
126.379 67.379 L
125.5 69.5 L
126.379 71.621 L
128.5 72.5 L
130.621 71.621 L
cp
S
GR
GS
0.929 0.694 0.125 RC
1 LJ
N
149.5 81.5 M
148.621 79.379 L
146.5 78.5 L
144.379 79.379 L
143.5 81.5 L
144.379 83.621 L
146.5 84.5 L
148.621 83.621 L
cp
S
GR
GS
0.929 0.694 0.125 RC
1 LJ
N
167.5 100.5 M
166.621 98.379 L
164.5 97.5 L
162.379 98.379 L
161.5 100.5 L
162.379 102.621 L
164.5 103.5 L
166.621 102.621 L
cp
S
GR
GS
0.929 0.694 0.125 RC
1 LJ
N
185.5 122.5 M
184.621 120.379 L
182.5 119.5 L
180.379 120.379 L
179.5 122.5 L
180.379 124.621 L
182.5 125.5 L
184.621 124.621 L
cp
S
GR
GS
0.929 0.694 0.125 RC
1 LJ
N
203.5 143.5 M
202.621 141.379 L
200.5 140.5 L
198.379 141.379 L
197.5 143.5 L
198.379 145.621 L
200.5 146.5 L
202.621 145.621 L
cp
S
GR
GS
0.929 0.694 0.125 RC
1 LJ
N
220.5 164.5 M
219.621 162.379 L
217.5 161.5 L
215.379 162.379 L
214.5 164.5 L
215.379 166.621 L
217.5 167.5 L
219.621 166.621 L
cp
S
GR
GS
0.929 0.694 0.125 RC
1 LJ
N
238.5 185.5 M
237.621 183.379 L
235.5 182.5 L
233.379 183.379 L
232.5 185.5 L
233.379 187.621 L
235.5 188.5 L
237.621 187.621 L
cp
S
GR
GS
0.929 0.694 0.125 RC
1 LJ
N
256.5 206.5 M
255.621 204.379 L
253.5 203.5 L
251.379 204.379 L
250.5 206.5 L
251.379 208.621 L
253.5 209.5 L
255.621 208.621 L
cp
S
GR
GS
0.929 0.694 0.125 RC
1 LJ
N
274.5 228.5 M
273.621 226.379 L
271.5 225.5 L
269.379 226.379 L
268.5 228.5 L
269.379 230.621 L
271.5 231.5 L
273.621 230.621 L
cp
S
GR
GS
0.929 0.694 0.125 RC
1 LJ
N
292.5 251.5 M
291.621 249.379 L
289.5 248.5 L
287.379 249.379 L
286.5 251.5 L
287.379 253.621 L
289.5 254.5 L
291.621 253.621 L
cp
S
GR
GS
0.929 0.694 0.125 RC
1 LJ
N
310.5 274.5 M
309.621 272.379 L
307.5 271.5 L
305.379 272.379 L
304.5 274.5 L
305.379 276.621 L
307.5 277.5 L
309.621 276.621 L
cp
S
GR
GS
0.929 0.694 0.125 RC
1 LJ
N
328.5 298.5 M
327.621 296.379 L
325.5 295.5 L
323.379 296.379 L
322.5 298.5 L
323.379 300.621 L
325.5 301.5 L
327.621 300.621 L
cp
S
GR
GS
0.929 0.694 0.125 RC
1 LJ
N
345.5 322.5 M
344.621 320.379 L
342.5 319.5 L
340.379 320.379 L
339.5 322.5 L
340.379 324.621 L
342.5 325.5 L
344.621 324.621 L
cp
S
GR
GS
0.494 0.184 0.557 RC
1 LJ
N
92.86 53.102 M
110.72 65.558 L
128.58 72.334 L
146.44 93.974 L
164.3 108.234 L
182.16 126.297 L
200.02 136.698 L
217.88 150.879 L
235.74 159.388 L
253.6 171.014 L
271.46 178.26 L
289.32 188.551 L
307.18 194.749 L
325.04 204.566 L
342.9 209.99 L
360.76 220.309 L
378.62 224.567 L
396.48 235.803 L
414.34 237.308 L
432.2 241.402 L
450.06 221.585 L
467.92 274.434 L
485.78 293.969 L
503.64 334.056 L
521.5 325.833 L
S
GR
GS
0.494 0.184 0.557 RC
1 LJ
N
95.5 53.5 M
94.621 51.379 L
92.5 50.5 L
90.379 51.379 L
89.5 53.5 L
90.379 55.621 L
92.5 56.5 L
94.621 55.621 L
cp
S
GR
GS
0.494 0.184 0.557 RC
1 LJ
N
113.5 65.5 M
112.621 63.379 L
110.5 62.5 L
108.379 63.379 L
107.5 65.5 L
108.379 67.621 L
110.5 68.5 L
112.621 67.621 L
cp
S
GR
GS
0.494 0.184 0.557 RC
1 LJ
N
131.5 72.5 M
130.621 70.379 L
128.5 69.5 L
126.379 70.379 L
125.5 72.5 L
126.379 74.621 L
128.5 75.5 L
130.621 74.621 L
cp
S
GR
GS
0.494 0.184 0.557 RC
1 LJ
N
149.5 93.5 M
148.621 91.379 L
146.5 90.5 L
144.379 91.379 L
143.5 93.5 L
144.379 95.621 L
146.5 96.5 L
148.621 95.621 L
cp
S
GR
GS
0.494 0.184 0.557 RC
1 LJ
N
167.5 108.5 M
166.621 106.379 L
164.5 105.5 L
162.379 106.379 L
161.5 108.5 L
162.379 110.621 L
164.5 111.5 L
166.621 110.621 L
cp
S
GR
GS
0.494 0.184 0.557 RC
1 LJ
N
185.5 126.5 M
184.621 124.379 L
182.5 123.5 L
180.379 124.379 L
179.5 126.5 L
180.379 128.621 L
182.5 129.5 L
184.621 128.621 L
cp
S
GR
GS
0.494 0.184 0.557 RC
1 LJ
N
203.5 136.5 M
202.621 134.379 L
200.5 133.5 L
198.379 134.379 L
197.5 136.5 L
198.379 138.621 L
200.5 139.5 L
202.621 138.621 L
cp
S
GR
GS
0.494 0.184 0.557 RC
1 LJ
N
220.5 150.5 M
219.621 148.379 L
217.5 147.5 L
215.379 148.379 L
214.5 150.5 L
215.379 152.621 L
217.5 153.5 L
219.621 152.621 L
cp
S
GR
GS
0.494 0.184 0.557 RC
1 LJ
N
238.5 159.5 M
237.621 157.379 L
235.5 156.5 L
233.379 157.379 L
232.5 159.5 L
233.379 161.621 L
235.5 162.5 L
237.621 161.621 L
cp
S
GR
GS
0.494 0.184 0.557 RC
1 LJ
N
256.5 171.5 M
255.621 169.379 L
253.5 168.5 L
251.379 169.379 L
250.5 171.5 L
251.379 173.621 L
253.5 174.5 L
255.621 173.621 L
cp
S
GR
GS
0.494 0.184 0.557 RC
1 LJ
N
274.5 178.5 M
273.621 176.379 L
271.5 175.5 L
269.379 176.379 L
268.5 178.5 L
269.379 180.621 L
271.5 181.5 L
273.621 180.621 L
cp
S
GR
GS
0.494 0.184 0.557 RC
1 LJ
N
292.5 188.5 M
291.621 186.379 L
289.5 185.5 L
287.379 186.379 L
286.5 188.5 L
287.379 190.621 L
289.5 191.5 L
291.621 190.621 L
cp
S
GR
GS
0.494 0.184 0.557 RC
1 LJ
N
310.5 194.5 M
309.621 192.379 L
307.5 191.5 L
305.379 192.379 L
304.5 194.5 L
305.379 196.621 L
307.5 197.5 L
309.621 196.621 L
cp
S
GR
GS
0.494 0.184 0.557 RC
1 LJ
N
328.5 204.5 M
327.621 202.379 L
325.5 201.5 L
323.379 202.379 L
322.5 204.5 L
323.379 206.621 L
325.5 207.5 L
327.621 206.621 L
cp
S
GR
GS
0.494 0.184 0.557 RC
1 LJ
N
345.5 209.5 M
344.621 207.379 L
342.5 206.5 L
340.379 207.379 L
339.5 209.5 L
340.379 211.621 L
342.5 212.5 L
344.621 211.621 L
cp
S
GR
GS
0.494 0.184 0.557 RC
1 LJ
N
363.5 220.5 M
362.621 218.379 L
360.5 217.5 L
358.379 218.379 L
357.5 220.5 L
358.379 222.621 L
360.5 223.5 L
362.621 222.621 L
cp
S
GR
GS
0.494 0.184 0.557 RC
1 LJ
N
381.5 224.5 M
380.621 222.379 L
378.5 221.5 L
376.379 222.379 L
375.5 224.5 L
376.379 226.621 L
378.5 227.5 L
380.621 226.621 L
cp
S
GR
GS
0.494 0.184 0.557 RC
1 LJ
N
399.5 235.5 M
398.621 233.379 L
396.5 232.5 L
394.379 233.379 L
393.5 235.5 L
394.379 237.621 L
396.5 238.5 L
398.621 237.621 L
cp
S
GR
GS
0.494 0.184 0.557 RC
1 LJ
N
417.5 237.5 M
416.621 235.379 L
414.5 234.5 L
412.379 235.379 L
411.5 237.5 L
412.379 239.621 L
414.5 240.5 L
416.621 239.621 L
cp
S
GR
GS
0.494 0.184 0.557 RC
1 LJ
N
435.5 241.5 M
434.621 239.379 L
432.5 238.5 L
430.379 239.379 L
429.5 241.5 L
430.379 243.621 L
432.5 244.5 L
434.621 243.621 L
cp
S
GR
GS
0.494 0.184 0.557 RC
1 LJ
N
453.5 221.5 M
452.621 219.379 L
450.5 218.5 L
448.379 219.379 L
447.5 221.5 L
448.379 223.621 L
450.5 224.5 L
452.621 223.621 L
cp
S
GR
GS
0.494 0.184 0.557 RC
1 LJ
N
470.5 274.5 M
469.621 272.379 L
467.5 271.5 L
465.379 272.379 L
464.5 274.5 L
465.379 276.621 L
467.5 277.5 L
469.621 276.621 L
cp
S
GR
GS
0.494 0.184 0.557 RC
1 LJ
N
488.5 293.5 M
487.621 291.379 L
485.5 290.5 L
483.379 291.379 L
482.5 293.5 L
483.379 295.621 L
485.5 296.5 L
487.621 295.621 L
cp
S
GR
GS
0.494 0.184 0.557 RC
1 LJ
N
506.5 334.5 M
505.621 332.379 L
503.5 331.5 L
501.379 332.379 L
500.5 334.5 L
501.379 336.621 L
503.5 337.5 L
505.621 336.621 L
cp
S
GR
GS
0.494 0.184 0.557 RC
1 LJ
N
524.5 325.5 M
523.621 323.379 L
521.5 322.5 L
519.379 323.379 L
518.5 325.5 L
519.379 327.621 L
521.5 328.5 L
523.621 327.621 L
cp
S
GR
GS
[1 0 0 1 297.5 51.5] CT
/Helvetica 14 F
GS
[1 0 0 1 0 0] CT
0 3.5 moveto 
1 -1 scale
(No shuffling) t 
GR
GR
GS
0 0.447 0.741 RC
1 LJ
N
264.5 51.5 M
294.5 51.5 L
S
GR
GS
0 0.447 0.741 RC
1 LJ
N
282.5 51.5 M
281.621 49.379 L
279.5 48.5 L
277.379 49.379 L
276.5 51.5 L
277.379 53.621 L
279.5 54.5 L
281.621 53.621 L
cp
S
GR
GS
[1 0 0 1 297.5 66] CT
/Helvetica 14 F
GS
[1 0 0 1 0 0] CT
0 3.5 moveto 
1 -1 scale
(Random shuffling) t 
GR
GR
GS
0.851 0.325 0.098 RC
1 LJ
N
264.5 66 M
294.5 66 L
S
GR
GS
0.851 0.325 0.098 RC
1 LJ
N
282.5 65.5 M
281.621 63.379 L
279.5 62.5 L
277.379 63.379 L
276.5 65.5 L
277.379 67.621 L
279.5 68.5 L
281.621 67.621 L
cp
S
GR
GS
[1 0 0 1 297.5 80.5] CT
/Helvetica 14 F
GS
[1 0 0 1 0 0] CT
0 3.5 moveto 
1 -1 scale
(Random shuffling with replacement) t 
GR
GR
GS
0.929 0.694 0.125 RC
1 LJ
N
264.5 80.5 M
294.5 80.5 L
S
GR
GS
0.929 0.694 0.125 RC
1 LJ
N
282.5 80.5 M
281.621 78.379 L
279.5 77.5 L
277.379 78.379 L
276.5 80.5 L
277.379 82.621 L
279.5 83.5 L
281.621 82.621 L
cp
S
GR
GS
[1 0 0 1 297.5 95] CT
/Helvetica 14 F
GS
[1 0 0 1 0 0] CT
0 3.5 moveto 
1 -1 scale
(Smart shuffling) t 
GR
GR
GS
0.494 0.184 0.557 RC
1 LJ
N
264.5 95 M
294.5 95 L
S
GR
GS
0.494 0.184 0.557 RC
1 LJ
N
282.5 95.5 M
281.621 93.379 L
279.5 92.5 L
277.379 93.379 L
276.5 95.5 L
277.379 97.621 L
279.5 98.5 L
281.621 97.621 L
cp
S
GR
%%Trailer
%%Pages: 1
%%EOF
