%!PS-Adobe-3.0 EPSF-3.0
%%Creator: (MATLAB, The Mathworks, Inc. Version 8.6.0.267246 \(R2015b\). Operating System: Mac OS X)
%%Title: /Users/gauthiermuguerza/Desktop/rsgd/report/images/fourCN.eps
%%CreationDate: 2018-05-31T21:26:04
%%Pages: (atend)
%%BoundingBox:     8     0   533   426
%%LanguageLevel: 3
%%EndComments
%%BeginProlog
%%BeginResource: procset (Apache XML Graphics Std ProcSet) 1.2 0
%%Version: 1.2 0
%%Copyright: (Copyright 2001-2003,2010 The Apache Software Foundation. License terms: http://www.apache.org/licenses/LICENSE-2.0)
/bd{bind def}bind def
/ld{load def}bd
/GR/grestore ld
/M/moveto ld
/LJ/setlinejoin ld
/C/curveto ld
/f/fill ld
/LW/setlinewidth ld
/GC/setgray ld
/t/show ld
/N/newpath ld
/CT/concat ld
/cp/closepath ld
/S/stroke ld
/L/lineto ld
/CC/setcmykcolor ld
/A/ashow ld
/GS/gsave ld
/RC/setrgbcolor ld
/RM/rmoveto ld
/ML/setmiterlimit ld
/re {4 2 roll M
1 index 0 rlineto
0 exch rlineto
neg 0 rlineto
cp } bd
/_ctm matrix def
/_tm matrix def
/BT { _ctm currentmatrix pop matrix _tm copy pop 0 0 moveto } bd
/ET { _ctm setmatrix } bd
/iTm { _ctm setmatrix _tm concat } bd
/Tm { _tm astore pop iTm 0 0 moveto } bd
/ux 0.0 def
/uy 0.0 def
/F {
  /Tp exch def
  /Tf exch def
  Tf findfont Tp scalefont setfont
  /cf Tf def  /cs Tp def
} bd
/ULS {currentpoint /uy exch def /ux exch def} bd
/ULE {
  /Tcx currentpoint pop def
  gsave
  newpath
  cf findfont cs scalefont dup
  /FontMatrix get 0 get /Ts exch def /FontInfo get dup
  /UnderlinePosition get Ts mul /To exch def
  /UnderlineThickness get Ts mul /Tt exch def
  ux uy To add moveto  Tcx uy To add lineto
  Tt setlinewidth stroke
  grestore
} bd
/OLE {
  /Tcx currentpoint pop def
  gsave
  newpath
  cf findfont cs scalefont dup
  /FontMatrix get 0 get /Ts exch def /FontInfo get dup
  /UnderlinePosition get Ts mul /To exch def
  /UnderlineThickness get Ts mul /Tt exch def
  ux uy To add cs add moveto Tcx uy To add cs add lineto
  Tt setlinewidth stroke
  grestore
} bd
/SOE {
  /Tcx currentpoint pop def
  gsave
  newpath
  cf findfont cs scalefont dup
  /FontMatrix get 0 get /Ts exch def /FontInfo get dup
  /UnderlinePosition get Ts mul /To exch def
  /UnderlineThickness get Ts mul /Tt exch def
  ux uy To add cs 10 mul 26 idiv add moveto Tcx uy To add cs 10 mul 26 idiv add lineto
  Tt setlinewidth stroke
  grestore
} bd
/QT {
/Y22 exch store
/X22 exch store
/Y21 exch store
/X21 exch store
currentpoint
/Y21 load 2 mul add 3 div exch
/X21 load 2 mul add 3 div exch
/X21 load 2 mul /X22 load add 3 div
/Y21 load 2 mul /Y22 load add 3 div
/X22 load /Y22 load curveto
} bd
/SSPD {
dup length /d exch dict def
{
/v exch def
/k exch def
currentpagedevice k known {
/cpdv currentpagedevice k get def
v cpdv ne {
/upd false def
/nullv v type /nulltype eq def
/nullcpdv cpdv type /nulltype eq def
nullv nullcpdv or
{
/upd true def
} {
/sametype v type cpdv type eq def
sametype {
v type /arraytype eq {
/vlen v length def
/cpdvlen cpdv length def
vlen cpdvlen eq {
0 1 vlen 1 sub {
/i exch def
/obj v i get def
/cpdobj cpdv i get def
obj cpdobj ne {
/upd true def
exit
} if
} for
} {
/upd true def
} ifelse
} {
v type /dicttype eq {
v {
/dv exch def
/dk exch def
/cpddv cpdv dk get def
dv cpddv ne {
/upd true def
exit
} if
} forall
} {
/upd true def
} ifelse
} ifelse
} if
} ifelse
upd true eq {
d k v put
} if
} if
} if
} forall
d length 0 gt {
d setpagedevice
} if
} bd
%%EndResource
%%BeginResource: procset (Apache XML Graphics EPS ProcSet) 1.0 0
%%Version: 1.0 0
%%Copyright: (Copyright 2002-2003 The Apache Software Foundation. License terms: http://www.apache.org/licenses/LICENSE-2.0)
/BeginEPSF { %def
/b4_Inc_state save def         % Save state for cleanup
/dict_count countdictstack def % Count objects on dict stack
/op_count count 1 sub def      % Count objects on operand stack
userdict begin                 % Push userdict on dict stack
/showpage { } def              % Redefine showpage, { } = null proc
0 setgray 0 setlinecap         % Prepare graphics state
1 setlinewidth 0 setlinejoin
10 setmiterlimit [ ] 0 setdash newpath
/languagelevel where           % If level not equal to 1 then
{pop languagelevel             % set strokeadjust and
1 ne                           % overprint to their defaults.
{false setstrokeadjust false setoverprint
} if
} if
} bd
/EndEPSF { %def
count op_count sub {pop} repeat            % Clean up stacks
countdictstack dict_count sub {end} repeat
b4_Inc_state restore
} bd
%%EndResource
%FOPBeginFontDict
%%IncludeResource: font Courier-Bold
%%IncludeResource: font Helvetica
%%IncludeResource: font Courier-BoldOblique
%%IncludeResource: font Courier-Oblique
%%IncludeResource: font Times-Roman
%%IncludeResource: font Helvetica-BoldOblique
%%IncludeResource: font Helvetica-Bold
%%IncludeResource: font Helvetica-Oblique
%%IncludeResource: font Times-BoldItalic
%%IncludeResource: font Courier
%%IncludeResource: font Times-Italic
%%IncludeResource: font Times-Bold
%%IncludeResource: font Symbol
%%IncludeResource: font ZapfDingbats
%FOPEndFontDict
%%BeginResource: encoding WinAnsiEncoding
/WinAnsiEncoding [
/.notdef /.notdef /.notdef /.notdef /.notdef
/.notdef /.notdef /.notdef /.notdef /.notdef
/.notdef /.notdef /.notdef /.notdef /.notdef
/.notdef /.notdef /.notdef /.notdef /.notdef
/.notdef /.notdef /.notdef /.notdef /.notdef
/.notdef /.notdef /.notdef /.notdef /.notdef
/.notdef /.notdef /space /exclam /quotedbl
/numbersign /dollar /percent /ampersand /quotesingle
/parenleft /parenright /asterisk /plus /comma
/hyphen /period /slash /zero /one
/two /three /four /five /six
/seven /eight /nine /colon /semicolon
/less /equal /greater /question /at
/A /B /C /D /E
/F /G /H /I /J
/K /L /M /N /O
/P /Q /R /S /T
/U /V /W /X /Y
/Z /bracketleft /backslash /bracketright /asciicircum
/underscore /quoteleft /a /b /c
/d /e /f /g /h
/i /j /k /l /m
/n /o /p /q /r
/s /t /u /v /w
/x /y /z /braceleft /bar
/braceright /asciitilde /bullet /Euro /bullet
/quotesinglbase /florin /quotedblbase /ellipsis /dagger
/daggerdbl /circumflex /perthousand /Scaron /guilsinglleft
/OE /bullet /Zcaron /bullet /bullet
/quoteleft /quoteright /quotedblleft /quotedblright /bullet
/endash /emdash /asciitilde /trademark /scaron
/guilsinglright /oe /bullet /zcaron /Ydieresis
/space /exclamdown /cent /sterling /currency
/yen /brokenbar /section /dieresis /copyright
/ordfeminine /guillemotleft /logicalnot /sfthyphen /registered
/macron /degree /plusminus /twosuperior /threesuperior
/acute /mu /paragraph /middot /cedilla
/onesuperior /ordmasculine /guillemotright /onequarter /onehalf
/threequarters /questiondown /Agrave /Aacute /Acircumflex
/Atilde /Adieresis /Aring /AE /Ccedilla
/Egrave /Eacute /Ecircumflex /Edieresis /Igrave
/Iacute /Icircumflex /Idieresis /Eth /Ntilde
/Ograve /Oacute /Ocircumflex /Otilde /Odieresis
/multiply /Oslash /Ugrave /Uacute /Ucircumflex
/Udieresis /Yacute /Thorn /germandbls /agrave
/aacute /acircumflex /atilde /adieresis /aring
/ae /ccedilla /egrave /eacute /ecircumflex
/edieresis /igrave /iacute /icircumflex /idieresis
/eth /ntilde /ograve /oacute /ocircumflex
/otilde /odieresis /divide /oslash /ugrave
/uacute /ucircumflex /udieresis /yacute /thorn
/ydieresis
] def
%%EndResource
%FOPBeginFontReencode
/Courier-Bold findfont
dup length dict begin
  {1 index /FID ne {def} {pop pop} ifelse} forall
  /Encoding WinAnsiEncoding def
  currentdict
end
/Courier-Bold exch definefont pop
/Helvetica findfont
dup length dict begin
  {1 index /FID ne {def} {pop pop} ifelse} forall
  /Encoding WinAnsiEncoding def
  currentdict
end
/Helvetica exch definefont pop
/Courier-BoldOblique findfont
dup length dict begin
  {1 index /FID ne {def} {pop pop} ifelse} forall
  /Encoding WinAnsiEncoding def
  currentdict
end
/Courier-BoldOblique exch definefont pop
/Courier-Oblique findfont
dup length dict begin
  {1 index /FID ne {def} {pop pop} ifelse} forall
  /Encoding WinAnsiEncoding def
  currentdict
end
/Courier-Oblique exch definefont pop
/Times-Roman findfont
dup length dict begin
  {1 index /FID ne {def} {pop pop} ifelse} forall
  /Encoding WinAnsiEncoding def
  currentdict
end
/Times-Roman exch definefont pop
/Helvetica-BoldOblique findfont
dup length dict begin
  {1 index /FID ne {def} {pop pop} ifelse} forall
  /Encoding WinAnsiEncoding def
  currentdict
end
/Helvetica-BoldOblique exch definefont pop
/Helvetica-Bold findfont
dup length dict begin
  {1 index /FID ne {def} {pop pop} ifelse} forall
  /Encoding WinAnsiEncoding def
  currentdict
end
/Helvetica-Bold exch definefont pop
/Helvetica-Oblique findfont
dup length dict begin
  {1 index /FID ne {def} {pop pop} ifelse} forall
  /Encoding WinAnsiEncoding def
  currentdict
end
/Helvetica-Oblique exch definefont pop
/Times-BoldItalic findfont
dup length dict begin
  {1 index /FID ne {def} {pop pop} ifelse} forall
  /Encoding WinAnsiEncoding def
  currentdict
end
/Times-BoldItalic exch definefont pop
/Courier findfont
dup length dict begin
  {1 index /FID ne {def} {pop pop} ifelse} forall
  /Encoding WinAnsiEncoding def
  currentdict
end
/Courier exch definefont pop
/Times-Italic findfont
dup length dict begin
  {1 index /FID ne {def} {pop pop} ifelse} forall
  /Encoding WinAnsiEncoding def
  currentdict
end
/Times-Italic exch definefont pop
/Times-Bold findfont
dup length dict begin
  {1 index /FID ne {def} {pop pop} ifelse} forall
  /Encoding WinAnsiEncoding def
  currentdict
end
/Times-Bold exch definefont pop
%FOPEndFontReencode
%%EndProlog
%%Page: 1 1
%%PageBoundingBox: 0 0 576 432
%%BeginPageSetup
[1 0 0 -1 0 432] CT
%%EndPageSetup
GS
1 GC
N
0 0 576 432 re
f
GR
GS
1 GC
N
0 0 576 432 re
f
GR
GS
1 GC
N
75 384 M
521.5 384 L
521.5 32.5 L
75 32.5 L
cp
f
GR
GS
0.149 GC
2 setlinecap
1 LJ
0.5 LW
N
75 384 M
521.5 384 L
S
GR
GS
0.149 GC
2 setlinecap
1 LJ
0.5 LW
N
75 384 M
75 379.535 L
S
GR
GS
0.149 GC
2 setlinecap
1 LJ
0.5 LW
N
149.417 384 M
149.417 379.535 L
S
GR
GS
0.149 GC
2 setlinecap
1 LJ
0.5 LW
N
223.833 384 M
223.833 379.535 L
S
GR
GS
0.149 GC
2 setlinecap
1 LJ
0.5 LW
N
298.25 384 M
298.25 379.535 L
S
GR
GS
0.149 GC
2 setlinecap
1 LJ
0.5 LW
N
372.667 384 M
372.667 379.535 L
S
GR
GS
0.149 GC
2 setlinecap
1 LJ
0.5 LW
N
447.083 384 M
447.083 379.535 L
S
GR
GS
0.149 GC
2 setlinecap
1 LJ
0.5 LW
N
521.5 384 M
521.5 379.535 L
S
GR
GS
[1 0 0 1 75 390] CT
0.149 GC
/Helvetica 20 F
GS
[1 0 0 1 0 0] CT
-6 16 moveto 
1 -1 scale
(0) t 
GR
GR
GS
[1 0 0 1 149.41667 390] CT
0.149 GC
/Helvetica 20 F
GS
[1 0 0 1 0 0] CT
-6 16 moveto 
1 -1 scale
(5) t 
GR
GR
GS
[1 0 0 1 223.83334 390] CT
0.149 GC
/Helvetica 20 F
GS
[1 0 0 1 0 0] CT
-11.5 16 moveto 
1 -1 scale
(10) t 
GR
GR
GS
[1 0 0 1 298.25 390] CT
0.149 GC
/Helvetica 20 F
GS
[1 0 0 1 0 0] CT
-11.5 16 moveto 
1 -1 scale
(15) t 
GR
GR
GS
[1 0 0 1 372.66669 390] CT
0.149 GC
/Helvetica 20 F
GS
[1 0 0 1 0 0] CT
-11.5 16 moveto 
1 -1 scale
(20) t 
GR
GR
GS
[1 0 0 1 447.08331 390] CT
0.149 GC
/Helvetica 20 F
GS
[1 0 0 1 0 0] CT
-11.5 16 moveto 
1 -1 scale
(25) t 
GR
GR
GS
[1 0 0 1 521.5 390] CT
0.149 GC
/Helvetica 20 F
GS
[1 0 0 1 0 0] CT
-11.5 16 moveto 
1 -1 scale
(30) t 
GR
GR
GS
[1 0 0 1 298.25021 411.5] CT
0.149 GC
/Helvetica 20 F
GS
[1 0 0 1 0 0] CT
-41.5 16 moveto 
1 -1 scale
(Iterations) t 
GR
GR
GS
0.149 GC
2 setlinecap
1 LJ
0.5 LW
N
75 384 M
75 32.5 L
S
GR
GS
0.149 GC
2 setlinecap
1 LJ
0.5 LW
N
75 384 M
79.465 384 L
S
GR
GS
0.149 GC
2 setlinecap
1 LJ
0.5 LW
N
75 325.417 M
79.465 325.417 L
S
GR
GS
0.149 GC
2 setlinecap
1 LJ
0.5 LW
N
75 266.833 M
79.465 266.833 L
S
GR
GS
0.149 GC
2 setlinecap
1 LJ
0.5 LW
N
75 208.25 M
79.465 208.25 L
S
GR
GS
0.149 GC
2 setlinecap
1 LJ
0.5 LW
N
75 149.667 M
79.465 149.667 L
S
GR
GS
0.149 GC
2 setlinecap
1 LJ
0.5 LW
N
75 91.083 M
79.465 91.083 L
S
GR
GS
0.149 GC
2 setlinecap
1 LJ
0.5 LW
N
75 32.5 M
79.465 32.5 L
S
GR
GS
0.149 GC
2 setlinecap
1 LJ
0.5 LW
N
75 366.365 M
77.232 366.365 L
S
GR
GS
0.149 GC
2 setlinecap
1 LJ
0.5 LW
N
75 356.049 M
77.232 356.049 L
S
GR
GS
0.149 GC
2 setlinecap
1 LJ
0.5 LW
N
75 348.729 M
77.232 348.729 L
S
GR
GS
0.149 GC
2 setlinecap
1 LJ
0.5 LW
N
75 343.052 M
77.232 343.052 L
S
GR
GS
0.149 GC
2 setlinecap
1 LJ
0.5 LW
N
75 338.413 M
77.232 338.413 L
S
GR
GS
0.149 GC
2 setlinecap
1 LJ
0.5 LW
N
75 334.491 M
77.232 334.491 L
S
GR
GS
0.149 GC
2 setlinecap
1 LJ
0.5 LW
N
75 331.094 M
77.232 331.094 L
S
GR
GS
0.149 GC
2 setlinecap
1 LJ
0.5 LW
N
75 328.097 M
77.232 328.097 L
S
GR
GS
0.149 GC
2 setlinecap
1 LJ
0.5 LW
N
75 307.781 M
77.232 307.781 L
S
GR
GS
0.149 GC
2 setlinecap
1 LJ
0.5 LW
N
75 297.465 M
77.232 297.465 L
S
GR
GS
0.149 GC
2 setlinecap
1 LJ
0.5 LW
N
75 290.146 M
77.232 290.146 L
S
GR
GS
0.149 GC
2 setlinecap
1 LJ
0.5 LW
N
75 284.469 M
77.232 284.469 L
S
GR
GS
0.149 GC
2 setlinecap
1 LJ
0.5 LW
N
75 279.83 M
77.232 279.83 L
S
GR
GS
0.149 GC
2 setlinecap
1 LJ
0.5 LW
N
75 275.908 M
77.232 275.908 L
S
GR
GS
0.149 GC
2 setlinecap
1 LJ
0.5 LW
N
75 272.511 M
77.232 272.511 L
S
GR
GS
0.149 GC
2 setlinecap
1 LJ
0.5 LW
N
75 269.514 M
77.232 269.514 L
S
GR
GS
0.149 GC
2 setlinecap
1 LJ
0.5 LW
N
75 249.198 M
77.232 249.198 L
S
GR
GS
0.149 GC
2 setlinecap
1 LJ
0.5 LW
N
75 238.882 M
77.232 238.882 L
S
GR
GS
0.149 GC
2 setlinecap
1 LJ
0.5 LW
N
75 231.563 M
77.232 231.563 L
S
GR
GS
0.149 GC
2 setlinecap
1 LJ
0.5 LW
N
75 225.885 M
77.232 225.885 L
S
GR
GS
0.149 GC
2 setlinecap
1 LJ
0.5 LW
N
75 221.247 M
77.232 221.247 L
S
GR
GS
0.149 GC
2 setlinecap
1 LJ
0.5 LW
N
75 217.325 M
77.232 217.325 L
S
GR
GS
0.149 GC
2 setlinecap
1 LJ
0.5 LW
N
75 213.927 M
77.232 213.927 L
S
GR
GS
0.149 GC
2 setlinecap
1 LJ
0.5 LW
N
75 210.931 M
77.232 210.931 L
S
GR
GS
0.149 GC
2 setlinecap
1 LJ
0.5 LW
N
75 190.615 M
77.232 190.615 L
S
GR
GS
0.149 GC
2 setlinecap
1 LJ
0.5 LW
N
75 180.299 M
77.232 180.299 L
S
GR
GS
0.149 GC
2 setlinecap
1 LJ
0.5 LW
N
75 172.979 M
77.232 172.979 L
S
GR
GS
0.149 GC
2 setlinecap
1 LJ
0.5 LW
N
75 167.302 M
77.232 167.302 L
S
GR
GS
0.149 GC
2 setlinecap
1 LJ
0.5 LW
N
75 162.663 M
77.232 162.663 L
S
GR
GS
0.149 GC
2 setlinecap
1 LJ
0.5 LW
N
75 158.741 M
77.232 158.741 L
S
GR
GS
0.149 GC
2 setlinecap
1 LJ
0.5 LW
N
75 155.344 M
77.232 155.344 L
S
GR
GS
0.149 GC
2 setlinecap
1 LJ
0.5 LW
N
75 152.347 M
77.232 152.347 L
S
GR
GS
0.149 GC
2 setlinecap
1 LJ
0.5 LW
N
75 132.031 M
77.232 132.031 L
S
GR
GS
0.149 GC
2 setlinecap
1 LJ
0.5 LW
N
75 121.715 M
77.232 121.715 L
S
GR
GS
0.149 GC
2 setlinecap
1 LJ
0.5 LW
N
75 114.396 M
77.232 114.396 L
S
GR
GS
0.149 GC
2 setlinecap
1 LJ
0.5 LW
N
75 108.719 M
77.232 108.719 L
S
GR
GS
0.149 GC
2 setlinecap
1 LJ
0.5 LW
N
75 104.08 M
77.232 104.08 L
S
GR
GS
0.149 GC
2 setlinecap
1 LJ
0.5 LW
N
75 100.158 M
77.232 100.158 L
S
GR
GS
0.149 GC
2 setlinecap
1 LJ
0.5 LW
N
75 96.761 M
77.232 96.761 L
S
GR
GS
0.149 GC
2 setlinecap
1 LJ
0.5 LW
N
75 93.764 M
77.232 93.764 L
S
GR
GS
0.149 GC
2 setlinecap
1 LJ
0.5 LW
N
75 73.448 M
77.232 73.448 L
S
GR
GS
0.149 GC
2 setlinecap
1 LJ
0.5 LW
N
75 63.132 M
77.232 63.132 L
S
GR
GS
0.149 GC
2 setlinecap
1 LJ
0.5 LW
N
75 55.813 M
77.232 55.813 L
S
GR
GS
0.149 GC
2 setlinecap
1 LJ
0.5 LW
N
75 50.135 M
77.232 50.135 L
S
GR
GS
0.149 GC
2 setlinecap
1 LJ
0.5 LW
N
75 45.497 M
77.232 45.497 L
S
GR
GS
0.149 GC
2 setlinecap
1 LJ
0.5 LW
N
75 41.575 M
77.232 41.575 L
S
GR
GS
0.149 GC
2 setlinecap
1 LJ
0.5 LW
N
75 38.177 M
77.232 38.177 L
S
GR
GS
0.149 GC
2 setlinecap
1 LJ
0.5 LW
N
75 35.181 M
77.232 35.181 L
S
GR
GS
[1 0 0 1 31 393] CT
0.149 GC
/Helvetica 20 F
GS
[1 0 0 1 0 0] CT
0 0 moveto 
1 -1 scale
(10) t 
GR
GR
GS
[1 0 0 1 54 383] CT
0.149 GC
/Helvetica 16 F
GS
[1 0 0 1 0 0] CT
0 0 moveto 
1 -1 scale
(-5) t 
GR
GR
GS
[1 0 0 1 31 334] CT
0.149 GC
/Helvetica 20 F
GS
[1 0 0 1 0 0] CT
0 0 moveto 
1 -1 scale
(10) t 
GR
GR
GS
[1 0 0 1 54 324] CT
0.149 GC
/Helvetica 16 F
GS
[1 0 0 1 0 0] CT
0 0 moveto 
1 -1 scale
(-4) t 
GR
GR
GS
[1 0 0 1 31 276] CT
0.149 GC
/Helvetica 20 F
GS
[1 0 0 1 0 0] CT
0 0 moveto 
1 -1 scale
(10) t 
GR
GR
GS
[1 0 0 1 54 266] CT
0.149 GC
/Helvetica 16 F
GS
[1 0 0 1 0 0] CT
0 0 moveto 
1 -1 scale
(-3) t 
GR
GR
GS
[1 0 0 1 31 217] CT
0.149 GC
/Helvetica 20 F
GS
[1 0 0 1 0 0] CT
0 0 moveto 
1 -1 scale
(10) t 
GR
GR
GS
[1 0 0 1 54 207] CT
0.149 GC
/Helvetica 16 F
GS
[1 0 0 1 0 0] CT
0 0 moveto 
1 -1 scale
(-2) t 
GR
GR
GS
[1 0 0 1 31 159] CT
0.149 GC
/Helvetica 20 F
GS
[1 0 0 1 0 0] CT
0 0 moveto 
1 -1 scale
(10) t 
GR
GR
GS
[1 0 0 1 54 149] CT
0.149 GC
/Helvetica 16 F
GS
[1 0 0 1 0 0] CT
0 0 moveto 
1 -1 scale
(-1) t 
GR
GR
GS
[1 0 0 1 37 100] CT
0.149 GC
/Helvetica 20 F
GS
[1 0 0 1 0 0] CT
0 0 moveto 
1 -1 scale
(10) t 
GR
GR
GS
[1 0 0 1 60 90] CT
0.149 GC
/Helvetica 16 F
GS
[1 0 0 1 0 0] CT
0 0 moveto 
1 -1 scale
(0) t 
GR
GR
GS
[1 0 0 1 37 42] CT
0.149 GC
/Helvetica 20 F
GS
[1 0 0 1 0 0] CT
0 0 moveto 
1 -1 scale
(10) t 
GR
GR
GS
[1 0 0 1 60 32] CT
0.149 GC
/Helvetica 16 F
GS
[1 0 0 1 0 0] CT
0 0 moveto 
1 -1 scale
(1) t 
GR
GR
GS
[0 -1 1 0 29 208.24983] CT
0.149 GC
/Helvetica 20 F
GS
[1 0 0 1 0 0] CT
-54.5 -5 moveto 
1 -1 scale
(Train RMSE) t 
GR
GR
GS
[1 0 0 1 298.25031 29.75001] CT
/Helvetica-Bold 22 F
GS
[1 0 0 1 0 0] CT
-224.5 -6 moveto 
1 -1 scale
(Training error for a large condition number) t 
GR
GR
GS
0 0.447 0.741 RC
1 LJ
N
89.883 68.362 M
104.767 93.642 L
119.65 111.144 L
134.533 140.345 L
149.417 164.105 L
164.3 186.442 L
179.183 204.425 L
194.067 222.212 L
208.95 241.021 L
223.833 249.846 L
238.717 265.881 L
253.6 279.022 L
268.483 284.485 L
283.367 293.851 L
298.25 310.987 L
313.133 323.254 L
328.017 328.834 L
342.9 325.417 L
357.783 325.417 L
372.667 325.417 L
387.55 325.417 L
402.433 325.417 L
417.317 325.417 L
432.2 325.417 L
447.083 325.417 L
461.967 325.417 L
476.85 325.417 L
491.733 325.417 L
506.617 325.417 L
521.5 325.417 L
S
GR
GS
0 0.447 0.741 RC
1 LJ
N
92.5 68.5 M
91.621 66.379 L
89.5 65.5 L
87.379 66.379 L
86.5 68.5 L
87.379 70.621 L
89.5 71.5 L
91.621 70.621 L
cp
S
GR
GS
0 0.447 0.741 RC
1 LJ
N
107.5 93.5 M
106.621 91.379 L
104.5 90.5 L
102.379 91.379 L
101.5 93.5 L
102.379 95.621 L
104.5 96.5 L
106.621 95.621 L
cp
S
GR
GS
0 0.447 0.741 RC
1 LJ
N
122.5 111.5 M
121.621 109.379 L
119.5 108.5 L
117.379 109.379 L
116.5 111.5 L
117.379 113.621 L
119.5 114.5 L
121.621 113.621 L
cp
S
GR
GS
0 0.447 0.741 RC
1 LJ
N
137.5 140.5 M
136.621 138.379 L
134.5 137.5 L
132.379 138.379 L
131.5 140.5 L
132.379 142.621 L
134.5 143.5 L
136.621 142.621 L
cp
S
GR
GS
0 0.447 0.741 RC
1 LJ
N
152.5 164.5 M
151.621 162.379 L
149.5 161.5 L
147.379 162.379 L
146.5 164.5 L
147.379 166.621 L
149.5 167.5 L
151.621 166.621 L
cp
S
GR
GS
0 0.447 0.741 RC
1 LJ
N
167.5 186.5 M
166.621 184.379 L
164.5 183.5 L
162.379 184.379 L
161.5 186.5 L
162.379 188.621 L
164.5 189.5 L
166.621 188.621 L
cp
S
GR
GS
0 0.447 0.741 RC
1 LJ
N
182.5 204.5 M
181.621 202.379 L
179.5 201.5 L
177.379 202.379 L
176.5 204.5 L
177.379 206.621 L
179.5 207.5 L
181.621 206.621 L
cp
S
GR
GS
0 0.447 0.741 RC
1 LJ
N
197.5 222.5 M
196.621 220.379 L
194.5 219.5 L
192.379 220.379 L
191.5 222.5 L
192.379 224.621 L
194.5 225.5 L
196.621 224.621 L
cp
S
GR
GS
0 0.447 0.741 RC
1 LJ
N
211.5 241.5 M
210.621 239.379 L
208.5 238.5 L
206.379 239.379 L
205.5 241.5 L
206.379 243.621 L
208.5 244.5 L
210.621 243.621 L
cp
S
GR
GS
0 0.447 0.741 RC
1 LJ
N
226.5 249.5 M
225.621 247.379 L
223.5 246.5 L
221.379 247.379 L
220.5 249.5 L
221.379 251.621 L
223.5 252.5 L
225.621 251.621 L
cp
S
GR
GS
0 0.447 0.741 RC
1 LJ
N
241.5 265.5 M
240.621 263.379 L
238.5 262.5 L
236.379 263.379 L
235.5 265.5 L
236.379 267.621 L
238.5 268.5 L
240.621 267.621 L
cp
S
GR
GS
0 0.447 0.741 RC
1 LJ
N
256.5 279.5 M
255.621 277.379 L
253.5 276.5 L
251.379 277.379 L
250.5 279.5 L
251.379 281.621 L
253.5 282.5 L
255.621 281.621 L
cp
S
GR
GS
0 0.447 0.741 RC
1 LJ
N
271.5 284.5 M
270.621 282.379 L
268.5 281.5 L
266.379 282.379 L
265.5 284.5 L
266.379 286.621 L
268.5 287.5 L
270.621 286.621 L
cp
S
GR
GS
0 0.447 0.741 RC
1 LJ
N
286.5 293.5 M
285.621 291.379 L
283.5 290.5 L
281.379 291.379 L
280.5 293.5 L
281.379 295.621 L
283.5 296.5 L
285.621 295.621 L
cp
S
GR
GS
0 0.447 0.741 RC
1 LJ
N
301.5 310.5 M
300.621 308.379 L
298.5 307.5 L
296.379 308.379 L
295.5 310.5 L
296.379 312.621 L
298.5 313.5 L
300.621 312.621 L
cp
S
GR
GS
0 0.447 0.741 RC
1 LJ
N
316.5 323.5 M
315.621 321.379 L
313.5 320.5 L
311.379 321.379 L
310.5 323.5 L
311.379 325.621 L
313.5 326.5 L
315.621 325.621 L
cp
S
GR
GS
0 0.447 0.741 RC
1 LJ
N
331.5 328.5 M
330.621 326.379 L
328.5 325.5 L
326.379 326.379 L
325.5 328.5 L
326.379 330.621 L
328.5 331.5 L
330.621 330.621 L
cp
S
GR
GS
0 0.447 0.741 RC
1 LJ
N
345.5 325.5 M
344.621 323.379 L
342.5 322.5 L
340.379 323.379 L
339.5 325.5 L
340.379 327.621 L
342.5 328.5 L
344.621 327.621 L
cp
S
GR
GS
0 0.447 0.741 RC
1 LJ
N
360.5 325.5 M
359.621 323.379 L
357.5 322.5 L
355.379 323.379 L
354.5 325.5 L
355.379 327.621 L
357.5 328.5 L
359.621 327.621 L
cp
S
GR
GS
0 0.447 0.741 RC
1 LJ
N
375.5 325.5 M
374.621 323.379 L
372.5 322.5 L
370.379 323.379 L
369.5 325.5 L
370.379 327.621 L
372.5 328.5 L
374.621 327.621 L
cp
S
GR
GS
0 0.447 0.741 RC
1 LJ
N
390.5 325.5 M
389.621 323.379 L
387.5 322.5 L
385.379 323.379 L
384.5 325.5 L
385.379 327.621 L
387.5 328.5 L
389.621 327.621 L
cp
S
GR
GS
0 0.447 0.741 RC
1 LJ
N
405.5 325.5 M
404.621 323.379 L
402.5 322.5 L
400.379 323.379 L
399.5 325.5 L
400.379 327.621 L
402.5 328.5 L
404.621 327.621 L
cp
S
GR
GS
0 0.447 0.741 RC
1 LJ
N
420.5 325.5 M
419.621 323.379 L
417.5 322.5 L
415.379 323.379 L
414.5 325.5 L
415.379 327.621 L
417.5 328.5 L
419.621 327.621 L
cp
S
GR
GS
0 0.447 0.741 RC
1 LJ
N
435.5 325.5 M
434.621 323.379 L
432.5 322.5 L
430.379 323.379 L
429.5 325.5 L
430.379 327.621 L
432.5 328.5 L
434.621 327.621 L
cp
S
GR
GS
0 0.447 0.741 RC
1 LJ
N
450.5 325.5 M
449.621 323.379 L
447.5 322.5 L
445.379 323.379 L
444.5 325.5 L
445.379 327.621 L
447.5 328.5 L
449.621 327.621 L
cp
S
GR
GS
0 0.447 0.741 RC
1 LJ
N
464.5 325.5 M
463.621 323.379 L
461.5 322.5 L
459.379 323.379 L
458.5 325.5 L
459.379 327.621 L
461.5 328.5 L
463.621 327.621 L
cp
S
GR
GS
0 0.447 0.741 RC
1 LJ
N
479.5 325.5 M
478.621 323.379 L
476.5 322.5 L
474.379 323.379 L
473.5 325.5 L
474.379 327.621 L
476.5 328.5 L
478.621 327.621 L
cp
S
GR
GS
0 0.447 0.741 RC
1 LJ
N
494.5 325.5 M
493.621 323.379 L
491.5 322.5 L
489.379 323.379 L
488.5 325.5 L
489.379 327.621 L
491.5 328.5 L
493.621 327.621 L
cp
S
GR
GS
0 0.447 0.741 RC
1 LJ
N
509.5 325.5 M
508.621 323.379 L
506.5 322.5 L
504.379 323.379 L
503.5 325.5 L
504.379 327.621 L
506.5 328.5 L
508.621 327.621 L
cp
S
GR
GS
0 0.447 0.741 RC
1 LJ
N
524.5 325.5 M
523.621 323.379 L
521.5 322.5 L
519.379 323.379 L
518.5 325.5 L
519.379 327.621 L
521.5 328.5 L
523.621 327.621 L
cp
S
GR
GS
0.851 0.325 0.098 RC
1 LJ
N
89.883 68.362 M
104.767 94.122 L
119.65 121.201 L
134.533 145.88 L
149.417 165.829 L
164.3 187.74 L
179.183 204.271 L
194.067 222.842 L
208.95 240.999 L
223.833 251.669 L
238.717 265.157 L
253.6 281.367 L
268.483 306.9 L
283.367 322.636 L
298.25 326.396 L
313.133 325.417 L
328.017 325.417 L
342.9 325.417 L
357.783 325.417 L
372.667 325.417 L
387.55 325.417 L
402.433 325.417 L
417.317 325.417 L
432.2 325.417 L
447.083 325.417 L
461.967 325.417 L
476.85 325.417 L
491.733 325.417 L
506.617 325.417 L
521.5 325.417 L
S
GR
GS
0.851 0.325 0.098 RC
1 LJ
N
92.5 68.5 M
91.621 66.379 L
89.5 65.5 L
87.379 66.379 L
86.5 68.5 L
87.379 70.621 L
89.5 71.5 L
91.621 70.621 L
cp
S
GR
GS
0.851 0.325 0.098 RC
1 LJ
N
107.5 94.5 M
106.621 92.379 L
104.5 91.5 L
102.379 92.379 L
101.5 94.5 L
102.379 96.621 L
104.5 97.5 L
106.621 96.621 L
cp
S
GR
GS
0.851 0.325 0.098 RC
1 LJ
N
122.5 121.5 M
121.621 119.379 L
119.5 118.5 L
117.379 119.379 L
116.5 121.5 L
117.379 123.621 L
119.5 124.5 L
121.621 123.621 L
cp
S
GR
GS
0.851 0.325 0.098 RC
1 LJ
N
137.5 145.5 M
136.621 143.379 L
134.5 142.5 L
132.379 143.379 L
131.5 145.5 L
132.379 147.621 L
134.5 148.5 L
136.621 147.621 L
cp
S
GR
GS
0.851 0.325 0.098 RC
1 LJ
N
152.5 165.5 M
151.621 163.379 L
149.5 162.5 L
147.379 163.379 L
146.5 165.5 L
147.379 167.621 L
149.5 168.5 L
151.621 167.621 L
cp
S
GR
GS
0.851 0.325 0.098 RC
1 LJ
N
167.5 187.5 M
166.621 185.379 L
164.5 184.5 L
162.379 185.379 L
161.5 187.5 L
162.379 189.621 L
164.5 190.5 L
166.621 189.621 L
cp
S
GR
GS
0.851 0.325 0.098 RC
1 LJ
N
182.5 204.5 M
181.621 202.379 L
179.5 201.5 L
177.379 202.379 L
176.5 204.5 L
177.379 206.621 L
179.5 207.5 L
181.621 206.621 L
cp
S
GR
GS
0.851 0.325 0.098 RC
1 LJ
N
197.5 222.5 M
196.621 220.379 L
194.5 219.5 L
192.379 220.379 L
191.5 222.5 L
192.379 224.621 L
194.5 225.5 L
196.621 224.621 L
cp
S
GR
GS
0.851 0.325 0.098 RC
1 LJ
N
211.5 240.5 M
210.621 238.379 L
208.5 237.5 L
206.379 238.379 L
205.5 240.5 L
206.379 242.621 L
208.5 243.5 L
210.621 242.621 L
cp
S
GR
GS
0.851 0.325 0.098 RC
1 LJ
N
226.5 251.5 M
225.621 249.379 L
223.5 248.5 L
221.379 249.379 L
220.5 251.5 L
221.379 253.621 L
223.5 254.5 L
225.621 253.621 L
cp
S
GR
GS
0.851 0.325 0.098 RC
1 LJ
N
241.5 265.5 M
240.621 263.379 L
238.5 262.5 L
236.379 263.379 L
235.5 265.5 L
236.379 267.621 L
238.5 268.5 L
240.621 267.621 L
cp
S
GR
GS
0.851 0.325 0.098 RC
1 LJ
N
256.5 281.5 M
255.621 279.379 L
253.5 278.5 L
251.379 279.379 L
250.5 281.5 L
251.379 283.621 L
253.5 284.5 L
255.621 283.621 L
cp
S
GR
GS
0.851 0.325 0.098 RC
1 LJ
N
271.5 306.5 M
270.621 304.379 L
268.5 303.5 L
266.379 304.379 L
265.5 306.5 L
266.379 308.621 L
268.5 309.5 L
270.621 308.621 L
cp
S
GR
GS
0.851 0.325 0.098 RC
1 LJ
N
286.5 322.5 M
285.621 320.379 L
283.5 319.5 L
281.379 320.379 L
280.5 322.5 L
281.379 324.621 L
283.5 325.5 L
285.621 324.621 L
cp
S
GR
GS
0.851 0.325 0.098 RC
1 LJ
N
301.5 326.5 M
300.621 324.379 L
298.5 323.5 L
296.379 324.379 L
295.5 326.5 L
296.379 328.621 L
298.5 329.5 L
300.621 328.621 L
cp
S
GR
GS
0.851 0.325 0.098 RC
1 LJ
N
316.5 325.5 M
315.621 323.379 L
313.5 322.5 L
311.379 323.379 L
310.5 325.5 L
311.379 327.621 L
313.5 328.5 L
315.621 327.621 L
cp
S
GR
GS
0.851 0.325 0.098 RC
1 LJ
N
331.5 325.5 M
330.621 323.379 L
328.5 322.5 L
326.379 323.379 L
325.5 325.5 L
326.379 327.621 L
328.5 328.5 L
330.621 327.621 L
cp
S
GR
GS
0.851 0.325 0.098 RC
1 LJ
N
345.5 325.5 M
344.621 323.379 L
342.5 322.5 L
340.379 323.379 L
339.5 325.5 L
340.379 327.621 L
342.5 328.5 L
344.621 327.621 L
cp
S
GR
GS
0.851 0.325 0.098 RC
1 LJ
N
360.5 325.5 M
359.621 323.379 L
357.5 322.5 L
355.379 323.379 L
354.5 325.5 L
355.379 327.621 L
357.5 328.5 L
359.621 327.621 L
cp
S
GR
GS
0.851 0.325 0.098 RC
1 LJ
N
375.5 325.5 M
374.621 323.379 L
372.5 322.5 L
370.379 323.379 L
369.5 325.5 L
370.379 327.621 L
372.5 328.5 L
374.621 327.621 L
cp
S
GR
GS
0.851 0.325 0.098 RC
1 LJ
N
390.5 325.5 M
389.621 323.379 L
387.5 322.5 L
385.379 323.379 L
384.5 325.5 L
385.379 327.621 L
387.5 328.5 L
389.621 327.621 L
cp
S
GR
GS
0.851 0.325 0.098 RC
1 LJ
N
405.5 325.5 M
404.621 323.379 L
402.5 322.5 L
400.379 323.379 L
399.5 325.5 L
400.379 327.621 L
402.5 328.5 L
404.621 327.621 L
cp
S
GR
GS
0.851 0.325 0.098 RC
1 LJ
N
420.5 325.5 M
419.621 323.379 L
417.5 322.5 L
415.379 323.379 L
414.5 325.5 L
415.379 327.621 L
417.5 328.5 L
419.621 327.621 L
cp
S
GR
GS
0.851 0.325 0.098 RC
1 LJ
N
435.5 325.5 M
434.621 323.379 L
432.5 322.5 L
430.379 323.379 L
429.5 325.5 L
430.379 327.621 L
432.5 328.5 L
434.621 327.621 L
cp
S
GR
GS
0.851 0.325 0.098 RC
1 LJ
N
450.5 325.5 M
449.621 323.379 L
447.5 322.5 L
445.379 323.379 L
444.5 325.5 L
445.379 327.621 L
447.5 328.5 L
449.621 327.621 L
cp
S
GR
GS
0.851 0.325 0.098 RC
1 LJ
N
464.5 325.5 M
463.621 323.379 L
461.5 322.5 L
459.379 323.379 L
458.5 325.5 L
459.379 327.621 L
461.5 328.5 L
463.621 327.621 L
cp
S
GR
GS
0.851 0.325 0.098 RC
1 LJ
N
479.5 325.5 M
478.621 323.379 L
476.5 322.5 L
474.379 323.379 L
473.5 325.5 L
474.379 327.621 L
476.5 328.5 L
478.621 327.621 L
cp
S
GR
GS
0.851 0.325 0.098 RC
1 LJ
N
494.5 325.5 M
493.621 323.379 L
491.5 322.5 L
489.379 323.379 L
488.5 325.5 L
489.379 327.621 L
491.5 328.5 L
493.621 327.621 L
cp
S
GR
GS
0.851 0.325 0.098 RC
1 LJ
N
509.5 325.5 M
508.621 323.379 L
506.5 322.5 L
504.379 323.379 L
503.5 325.5 L
504.379 327.621 L
506.5 328.5 L
508.621 327.621 L
cp
S
GR
GS
0.851 0.325 0.098 RC
1 LJ
N
524.5 325.5 M
523.621 323.379 L
521.5 322.5 L
519.379 323.379 L
518.5 325.5 L
519.379 327.621 L
521.5 328.5 L
523.621 327.621 L
cp
S
GR
GS
0.929 0.694 0.125 RC
1 LJ
N
89.883 68.362 M
104.767 91.189 L
119.65 107.825 L
134.533 126.768 L
149.417 146.771 L
164.3 162.337 L
179.183 177.534 L
194.067 195.424 L
208.95 207.693 L
223.833 226.01 L
238.717 239.501 L
253.6 247.879 L
268.483 261.34 L
283.367 279.922 L
298.25 302.381 L
313.133 317.419 L
328.017 330.324 L
342.9 325.417 L
357.783 325.417 L
372.667 325.417 L
387.55 325.417 L
402.433 325.417 L
417.317 325.417 L
432.2 325.417 L
447.083 325.417 L
461.967 325.417 L
476.85 325.417 L
491.733 325.417 L
506.617 325.417 L
521.5 325.417 L
S
GR
GS
0.929 0.694 0.125 RC
1 LJ
N
92.5 68.5 M
91.621 66.379 L
89.5 65.5 L
87.379 66.379 L
86.5 68.5 L
87.379 70.621 L
89.5 71.5 L
91.621 70.621 L
cp
S
GR
GS
0.929 0.694 0.125 RC
1 LJ
N
107.5 91.5 M
106.621 89.379 L
104.5 88.5 L
102.379 89.379 L
101.5 91.5 L
102.379 93.621 L
104.5 94.5 L
106.621 93.621 L
cp
S
GR
GS
0.929 0.694 0.125 RC
1 LJ
N
122.5 107.5 M
121.621 105.379 L
119.5 104.5 L
117.379 105.379 L
116.5 107.5 L
117.379 109.621 L
119.5 110.5 L
121.621 109.621 L
cp
S
GR
GS
0.929 0.694 0.125 RC
1 LJ
N
137.5 126.5 M
136.621 124.379 L
134.5 123.5 L
132.379 124.379 L
131.5 126.5 L
132.379 128.621 L
134.5 129.5 L
136.621 128.621 L
cp
S
GR
GS
0.929 0.694 0.125 RC
1 LJ
N
152.5 146.5 M
151.621 144.379 L
149.5 143.5 L
147.379 144.379 L
146.5 146.5 L
147.379 148.621 L
149.5 149.5 L
151.621 148.621 L
cp
S
GR
GS
0.929 0.694 0.125 RC
1 LJ
N
167.5 162.5 M
166.621 160.379 L
164.5 159.5 L
162.379 160.379 L
161.5 162.5 L
162.379 164.621 L
164.5 165.5 L
166.621 164.621 L
cp
S
GR
GS
0.929 0.694 0.125 RC
1 LJ
N
182.5 177.5 M
181.621 175.379 L
179.5 174.5 L
177.379 175.379 L
176.5 177.5 L
177.379 179.621 L
179.5 180.5 L
181.621 179.621 L
cp
S
GR
GS
0.929 0.694 0.125 RC
1 LJ
N
197.5 195.5 M
196.621 193.379 L
194.5 192.5 L
192.379 193.379 L
191.5 195.5 L
192.379 197.621 L
194.5 198.5 L
196.621 197.621 L
cp
S
GR
GS
0.929 0.694 0.125 RC
1 LJ
N
211.5 207.5 M
210.621 205.379 L
208.5 204.5 L
206.379 205.379 L
205.5 207.5 L
206.379 209.621 L
208.5 210.5 L
210.621 209.621 L
cp
S
GR
GS
0.929 0.694 0.125 RC
1 LJ
N
226.5 226.5 M
225.621 224.379 L
223.5 223.5 L
221.379 224.379 L
220.5 226.5 L
221.379 228.621 L
223.5 229.5 L
225.621 228.621 L
cp
S
GR
GS
0.929 0.694 0.125 RC
1 LJ
N
241.5 239.5 M
240.621 237.379 L
238.5 236.5 L
236.379 237.379 L
235.5 239.5 L
236.379 241.621 L
238.5 242.5 L
240.621 241.621 L
cp
S
GR
GS
0.929 0.694 0.125 RC
1 LJ
N
256.5 247.5 M
255.621 245.379 L
253.5 244.5 L
251.379 245.379 L
250.5 247.5 L
251.379 249.621 L
253.5 250.5 L
255.621 249.621 L
cp
S
GR
GS
0.929 0.694 0.125 RC
1 LJ
N
271.5 261.5 M
270.621 259.379 L
268.5 258.5 L
266.379 259.379 L
265.5 261.5 L
266.379 263.621 L
268.5 264.5 L
270.621 263.621 L
cp
S
GR
GS
0.929 0.694 0.125 RC
1 LJ
N
286.5 279.5 M
285.621 277.379 L
283.5 276.5 L
281.379 277.379 L
280.5 279.5 L
281.379 281.621 L
283.5 282.5 L
285.621 281.621 L
cp
S
GR
GS
0.929 0.694 0.125 RC
1 LJ
N
301.5 302.5 M
300.621 300.379 L
298.5 299.5 L
296.379 300.379 L
295.5 302.5 L
296.379 304.621 L
298.5 305.5 L
300.621 304.621 L
cp
S
GR
GS
0.929 0.694 0.125 RC
1 LJ
N
316.5 317.5 M
315.621 315.379 L
313.5 314.5 L
311.379 315.379 L
310.5 317.5 L
311.379 319.621 L
313.5 320.5 L
315.621 319.621 L
cp
S
GR
GS
0.929 0.694 0.125 RC
1 LJ
N
331.5 330.5 M
330.621 328.379 L
328.5 327.5 L
326.379 328.379 L
325.5 330.5 L
326.379 332.621 L
328.5 333.5 L
330.621 332.621 L
cp
S
GR
GS
0.929 0.694 0.125 RC
1 LJ
N
345.5 325.5 M
344.621 323.379 L
342.5 322.5 L
340.379 323.379 L
339.5 325.5 L
340.379 327.621 L
342.5 328.5 L
344.621 327.621 L
cp
S
GR
GS
0.929 0.694 0.125 RC
1 LJ
N
360.5 325.5 M
359.621 323.379 L
357.5 322.5 L
355.379 323.379 L
354.5 325.5 L
355.379 327.621 L
357.5 328.5 L
359.621 327.621 L
cp
S
GR
GS
0.929 0.694 0.125 RC
1 LJ
N
375.5 325.5 M
374.621 323.379 L
372.5 322.5 L
370.379 323.379 L
369.5 325.5 L
370.379 327.621 L
372.5 328.5 L
374.621 327.621 L
cp
S
GR
GS
0.929 0.694 0.125 RC
1 LJ
N
390.5 325.5 M
389.621 323.379 L
387.5 322.5 L
385.379 323.379 L
384.5 325.5 L
385.379 327.621 L
387.5 328.5 L
389.621 327.621 L
cp
S
GR
GS
0.929 0.694 0.125 RC
1 LJ
N
405.5 325.5 M
404.621 323.379 L
402.5 322.5 L
400.379 323.379 L
399.5 325.5 L
400.379 327.621 L
402.5 328.5 L
404.621 327.621 L
cp
S
GR
GS
0.929 0.694 0.125 RC
1 LJ
N
420.5 325.5 M
419.621 323.379 L
417.5 322.5 L
415.379 323.379 L
414.5 325.5 L
415.379 327.621 L
417.5 328.5 L
419.621 327.621 L
cp
S
GR
GS
0.929 0.694 0.125 RC
1 LJ
N
435.5 325.5 M
434.621 323.379 L
432.5 322.5 L
430.379 323.379 L
429.5 325.5 L
430.379 327.621 L
432.5 328.5 L
434.621 327.621 L
cp
S
GR
GS
0.929 0.694 0.125 RC
1 LJ
N
450.5 325.5 M
449.621 323.379 L
447.5 322.5 L
445.379 323.379 L
444.5 325.5 L
445.379 327.621 L
447.5 328.5 L
449.621 327.621 L
cp
S
GR
GS
0.929 0.694 0.125 RC
1 LJ
N
464.5 325.5 M
463.621 323.379 L
461.5 322.5 L
459.379 323.379 L
458.5 325.5 L
459.379 327.621 L
461.5 328.5 L
463.621 327.621 L
cp
S
GR
GS
0.929 0.694 0.125 RC
1 LJ
N
479.5 325.5 M
478.621 323.379 L
476.5 322.5 L
474.379 323.379 L
473.5 325.5 L
474.379 327.621 L
476.5 328.5 L
478.621 327.621 L
cp
S
GR
GS
0.929 0.694 0.125 RC
1 LJ
N
494.5 325.5 M
493.621 323.379 L
491.5 322.5 L
489.379 323.379 L
488.5 325.5 L
489.379 327.621 L
491.5 328.5 L
493.621 327.621 L
cp
S
GR
GS
0.929 0.694 0.125 RC
1 LJ
N
509.5 325.5 M
508.621 323.379 L
506.5 322.5 L
504.379 323.379 L
503.5 325.5 L
504.379 327.621 L
506.5 328.5 L
508.621 327.621 L
cp
S
GR
GS
0.929 0.694 0.125 RC
1 LJ
N
524.5 325.5 M
523.621 323.379 L
521.5 322.5 L
519.379 323.379 L
518.5 325.5 L
519.379 327.621 L
521.5 328.5 L
523.621 327.621 L
cp
S
GR
GS
0.494 0.184 0.557 RC
1 LJ
N
89.883 68.362 M
104.767 93.642 L
119.65 113 L
134.533 139.204 L
149.417 157.964 L
164.3 175.979 L
179.183 191.991 L
194.067 206.699 L
208.95 219.409 L
223.833 232.401 L
238.717 240.678 L
253.6 254.575 L
268.483 263.081 L
283.367 274.494 L
298.25 280.986 L
313.133 292.747 L
328.017 298.188 L
342.9 312.199 L
357.783 316.372 L
372.667 328.129 L
387.55 324.338 L
402.433 329.53 L
417.317 325.417 L
432.2 325.417 L
447.083 325.417 L
461.967 325.417 L
476.85 325.417 L
491.733 325.417 L
506.617 325.417 L
521.5 325.417 L
S
GR
GS
0.494 0.184 0.557 RC
1 LJ
N
92.5 68.5 M
91.621 66.379 L
89.5 65.5 L
87.379 66.379 L
86.5 68.5 L
87.379 70.621 L
89.5 71.5 L
91.621 70.621 L
cp
S
GR
GS
0.494 0.184 0.557 RC
1 LJ
N
107.5 93.5 M
106.621 91.379 L
104.5 90.5 L
102.379 91.379 L
101.5 93.5 L
102.379 95.621 L
104.5 96.5 L
106.621 95.621 L
cp
S
GR
GS
0.494 0.184 0.557 RC
1 LJ
N
122.5 112.5 M
121.621 110.379 L
119.5 109.5 L
117.379 110.379 L
116.5 112.5 L
117.379 114.621 L
119.5 115.5 L
121.621 114.621 L
cp
S
GR
GS
0.494 0.184 0.557 RC
1 LJ
N
137.5 139.5 M
136.621 137.379 L
134.5 136.5 L
132.379 137.379 L
131.5 139.5 L
132.379 141.621 L
134.5 142.5 L
136.621 141.621 L
cp
S
GR
GS
0.494 0.184 0.557 RC
1 LJ
N
152.5 157.5 M
151.621 155.379 L
149.5 154.5 L
147.379 155.379 L
146.5 157.5 L
147.379 159.621 L
149.5 160.5 L
151.621 159.621 L
cp
S
GR
GS
0.494 0.184 0.557 RC
1 LJ
N
167.5 175.5 M
166.621 173.379 L
164.5 172.5 L
162.379 173.379 L
161.5 175.5 L
162.379 177.621 L
164.5 178.5 L
166.621 177.621 L
cp
S
GR
GS
0.494 0.184 0.557 RC
1 LJ
N
182.5 191.5 M
181.621 189.379 L
179.5 188.5 L
177.379 189.379 L
176.5 191.5 L
177.379 193.621 L
179.5 194.5 L
181.621 193.621 L
cp
S
GR
GS
0.494 0.184 0.557 RC
1 LJ
N
197.5 206.5 M
196.621 204.379 L
194.5 203.5 L
192.379 204.379 L
191.5 206.5 L
192.379 208.621 L
194.5 209.5 L
196.621 208.621 L
cp
S
GR
GS
0.494 0.184 0.557 RC
1 LJ
N
211.5 219.5 M
210.621 217.379 L
208.5 216.5 L
206.379 217.379 L
205.5 219.5 L
206.379 221.621 L
208.5 222.5 L
210.621 221.621 L
cp
S
GR
GS
0.494 0.184 0.557 RC
1 LJ
N
226.5 232.5 M
225.621 230.379 L
223.5 229.5 L
221.379 230.379 L
220.5 232.5 L
221.379 234.621 L
223.5 235.5 L
225.621 234.621 L
cp
S
GR
GS
0.494 0.184 0.557 RC
1 LJ
N
241.5 240.5 M
240.621 238.379 L
238.5 237.5 L
236.379 238.379 L
235.5 240.5 L
236.379 242.621 L
238.5 243.5 L
240.621 242.621 L
cp
S
GR
GS
0.494 0.184 0.557 RC
1 LJ
N
256.5 254.5 M
255.621 252.379 L
253.5 251.5 L
251.379 252.379 L
250.5 254.5 L
251.379 256.621 L
253.5 257.5 L
255.621 256.621 L
cp
S
GR
GS
0.494 0.184 0.557 RC
1 LJ
N
271.5 263.5 M
270.621 261.379 L
268.5 260.5 L
266.379 261.379 L
265.5 263.5 L
266.379 265.621 L
268.5 266.5 L
270.621 265.621 L
cp
S
GR
GS
0.494 0.184 0.557 RC
1 LJ
N
286.5 274.5 M
285.621 272.379 L
283.5 271.5 L
281.379 272.379 L
280.5 274.5 L
281.379 276.621 L
283.5 277.5 L
285.621 276.621 L
cp
S
GR
GS
0.494 0.184 0.557 RC
1 LJ
N
301.5 280.5 M
300.621 278.379 L
298.5 277.5 L
296.379 278.379 L
295.5 280.5 L
296.379 282.621 L
298.5 283.5 L
300.621 282.621 L
cp
S
GR
GS
0.494 0.184 0.557 RC
1 LJ
N
316.5 292.5 M
315.621 290.379 L
313.5 289.5 L
311.379 290.379 L
310.5 292.5 L
311.379 294.621 L
313.5 295.5 L
315.621 294.621 L
cp
S
GR
GS
0.494 0.184 0.557 RC
1 LJ
N
331.5 298.5 M
330.621 296.379 L
328.5 295.5 L
326.379 296.379 L
325.5 298.5 L
326.379 300.621 L
328.5 301.5 L
330.621 300.621 L
cp
S
GR
GS
0.494 0.184 0.557 RC
1 LJ
N
345.5 312.5 M
344.621 310.379 L
342.5 309.5 L
340.379 310.379 L
339.5 312.5 L
340.379 314.621 L
342.5 315.5 L
344.621 314.621 L
cp
S
GR
GS
0.494 0.184 0.557 RC
1 LJ
N
360.5 316.5 M
359.621 314.379 L
357.5 313.5 L
355.379 314.379 L
354.5 316.5 L
355.379 318.621 L
357.5 319.5 L
359.621 318.621 L
cp
S
GR
GS
0.494 0.184 0.557 RC
1 LJ
N
375.5 328.5 M
374.621 326.379 L
372.5 325.5 L
370.379 326.379 L
369.5 328.5 L
370.379 330.621 L
372.5 331.5 L
374.621 330.621 L
cp
S
GR
GS
0.494 0.184 0.557 RC
1 LJ
N
390.5 324.5 M
389.621 322.379 L
387.5 321.5 L
385.379 322.379 L
384.5 324.5 L
385.379 326.621 L
387.5 327.5 L
389.621 326.621 L
cp
S
GR
GS
0.494 0.184 0.557 RC
1 LJ
N
405.5 329.5 M
404.621 327.379 L
402.5 326.5 L
400.379 327.379 L
399.5 329.5 L
400.379 331.621 L
402.5 332.5 L
404.621 331.621 L
cp
S
GR
GS
0.494 0.184 0.557 RC
1 LJ
N
420.5 325.5 M
419.621 323.379 L
417.5 322.5 L
415.379 323.379 L
414.5 325.5 L
415.379 327.621 L
417.5 328.5 L
419.621 327.621 L
cp
S
GR
GS
0.494 0.184 0.557 RC
1 LJ
N
435.5 325.5 M
434.621 323.379 L
432.5 322.5 L
430.379 323.379 L
429.5 325.5 L
430.379 327.621 L
432.5 328.5 L
434.621 327.621 L
cp
S
GR
GS
0.494 0.184 0.557 RC
1 LJ
N
450.5 325.5 M
449.621 323.379 L
447.5 322.5 L
445.379 323.379 L
444.5 325.5 L
445.379 327.621 L
447.5 328.5 L
449.621 327.621 L
cp
S
GR
GS
0.494 0.184 0.557 RC
1 LJ
N
464.5 325.5 M
463.621 323.379 L
461.5 322.5 L
459.379 323.379 L
458.5 325.5 L
459.379 327.621 L
461.5 328.5 L
463.621 327.621 L
cp
S
GR
GS
0.494 0.184 0.557 RC
1 LJ
N
479.5 325.5 M
478.621 323.379 L
476.5 322.5 L
474.379 323.379 L
473.5 325.5 L
474.379 327.621 L
476.5 328.5 L
478.621 327.621 L
cp
S
GR
GS
0.494 0.184 0.557 RC
1 LJ
N
494.5 325.5 M
493.621 323.379 L
491.5 322.5 L
489.379 323.379 L
488.5 325.5 L
489.379 327.621 L
491.5 328.5 L
493.621 327.621 L
cp
S
GR
GS
0.494 0.184 0.557 RC
1 LJ
N
509.5 325.5 M
508.621 323.379 L
506.5 322.5 L
504.379 323.379 L
503.5 325.5 L
504.379 327.621 L
506.5 328.5 L
508.621 327.621 L
cp
S
GR
GS
0.494 0.184 0.557 RC
1 LJ
N
524.5 325.5 M
523.621 323.379 L
521.5 322.5 L
519.379 323.379 L
518.5 325.5 L
519.379 327.621 L
521.5 328.5 L
523.621 327.621 L
cp
S
GR
GS
[1 0 0 1 227 53.75] CT
/Helvetica 18 F
GS
[1 0 0 1 0 0] CT
0 4.5 moveto 
1 -1 scale
(No shuffling) t 
GR
GR
GS
0 0.447 0.741 RC
1 LJ
N
194 53.75 M
224 53.75 L
S
GR
GS
0 0.447 0.741 RC
1 LJ
N
212.5 53.5 M
211.621 51.379 L
209.5 50.5 L
207.379 51.379 L
206.5 53.5 L
207.379 55.621 L
209.5 56.5 L
211.621 55.621 L
cp
S
GR
GS
[1 0 0 1 227 72.75] CT
/Helvetica 18 F
GS
[1 0 0 1 0 0] CT
0 4.5 moveto 
1 -1 scale
(Random shuffling) t 
GR
GR
GS
0.851 0.325 0.098 RC
1 LJ
N
194 72.75 M
224 72.75 L
S
GR
GS
0.851 0.325 0.098 RC
1 LJ
N
212.5 72.5 M
211.621 70.379 L
209.5 69.5 L
207.379 70.379 L
206.5 72.5 L
207.379 74.621 L
209.5 75.5 L
211.621 74.621 L
cp
S
GR
GS
[1 0 0 1 227 91.75] CT
/Helvetica 18 F
GS
[1 0 0 1 0 0] CT
0 4.5 moveto 
1 -1 scale
(Random shuffling with replacement) t 
GR
GR
GS
0.929 0.694 0.125 RC
1 LJ
N
194 91.75 M
224 91.75 L
S
GR
GS
0.929 0.694 0.125 RC
1 LJ
N
212.5 91.5 M
211.621 89.379 L
209.5 88.5 L
207.379 89.379 L
206.5 91.5 L
207.379 93.621 L
209.5 94.5 L
211.621 93.621 L
cp
S
GR
GS
[1 0 0 1 227 110.75] CT
/Helvetica 18 F
GS
[1 0 0 1 0 0] CT
0 4.5 moveto 
1 -1 scale
(Smart shuffling) t 
GR
GR
GS
0.494 0.184 0.557 RC
1 LJ
N
194 110.75 M
224 110.75 L
S
GR
GS
0.494 0.184 0.557 RC
1 LJ
N
212.5 110.5 M
211.621 108.379 L
209.5 107.5 L
207.379 108.379 L
206.5 110.5 L
207.379 112.621 L
209.5 113.5 L
211.621 112.621 L
cp
S
GR
%%Trailer
%%Pages: 1
%%EOF
