%!PS-Adobe-3.0 EPSF-3.0
%%Creator: (MATLAB, The Mathworks, Inc. Version 8.6.0.267246 \(R2015b\). Operating System: Mac OS X)
%%Title: /Users/gauthiermuguerza/Desktop/rsgd/report/images/fourFinal.eps
%%CreationDate: 2018-05-23T17:31:34
%%Pages: (atend)
%%BoundingBox: 0 0 560 420
%%LanguageLevel: 2
%%EndComments
%%BeginProlog
%%BeginResource: procset (Apache XML Graphics Std ProcSet) 1.2 0
%%Version: 1.2 0
%%Copyright: (Copyright 2001-2003,2010 The Apache Software Foundation. License terms: http://www.apache.org/licenses/LICENSE-2.0)
/bd{bind def}bind def
/ld{load def}bd
/GR/grestore ld
/M/moveto ld
/LJ/setlinejoin ld
/C/curveto ld
/f/fill ld
/LW/setlinewidth ld
/GC/setgray ld
/t/show ld
/N/newpath ld
/CT/concat ld
/cp/closepath ld
/S/stroke ld
/L/lineto ld
/CC/setcmykcolor ld
/A/ashow ld
/GS/gsave ld
/RC/setrgbcolor ld
/RM/rmoveto ld
/ML/setmiterlimit ld
/re {4 2 roll M
1 index 0 rlineto
0 exch rlineto
neg 0 rlineto
cp } bd
/_ctm matrix def
/_tm matrix def
/BT { _ctm currentmatrix pop matrix _tm copy pop 0 0 moveto } bd
/ET { _ctm setmatrix } bd
/iTm { _ctm setmatrix _tm concat } bd
/Tm { _tm astore pop iTm 0 0 moveto } bd
/ux 0.0 def
/uy 0.0 def
/F {
  /Tp exch def
  /Tf exch def
  Tf findfont Tp scalefont setfont
  /cf Tf def  /cs Tp def
} bd
/ULS {currentpoint /uy exch def /ux exch def} bd
/ULE {
  /Tcx currentpoint pop def
  gsave
  newpath
  cf findfont cs scalefont dup
  /FontMatrix get 0 get /Ts exch def /FontInfo get dup
  /UnderlinePosition get Ts mul /To exch def
  /UnderlineThickness get Ts mul /Tt exch def
  ux uy To add moveto  Tcx uy To add lineto
  Tt setlinewidth stroke
  grestore
} bd
/OLE {
  /Tcx currentpoint pop def
  gsave
  newpath
  cf findfont cs scalefont dup
  /FontMatrix get 0 get /Ts exch def /FontInfo get dup
  /UnderlinePosition get Ts mul /To exch def
  /UnderlineThickness get Ts mul /Tt exch def
  ux uy To add cs add moveto Tcx uy To add cs add lineto
  Tt setlinewidth stroke
  grestore
} bd
/SOE {
  /Tcx currentpoint pop def
  gsave
  newpath
  cf findfont cs scalefont dup
  /FontMatrix get 0 get /Ts exch def /FontInfo get dup
  /UnderlinePosition get Ts mul /To exch def
  /UnderlineThickness get Ts mul /Tt exch def
  ux uy To add cs 10 mul 26 idiv add moveto Tcx uy To add cs 10 mul 26 idiv add lineto
  Tt setlinewidth stroke
  grestore
} bd
/QT {
/Y22 exch store
/X22 exch store
/Y21 exch store
/X21 exch store
currentpoint
/Y21 load 2 mul add 3 div exch
/X21 load 2 mul add 3 div exch
/X21 load 2 mul /X22 load add 3 div
/Y21 load 2 mul /Y22 load add 3 div
/X22 load /Y22 load curveto
} bd
/SSPD {
dup length /d exch dict def
{
/v exch def
/k exch def
currentpagedevice k known {
/cpdv currentpagedevice k get def
v cpdv ne {
/upd false def
/nullv v type /nulltype eq def
/nullcpdv cpdv type /nulltype eq def
nullv nullcpdv or
{
/upd true def
} {
/sametype v type cpdv type eq def
sametype {
v type /arraytype eq {
/vlen v length def
/cpdvlen cpdv length def
vlen cpdvlen eq {
0 1 vlen 1 sub {
/i exch def
/obj v i get def
/cpdobj cpdv i get def
obj cpdobj ne {
/upd true def
exit
} if
} for
} {
/upd true def
} ifelse
} {
v type /dicttype eq {
v {
/dv exch def
/dk exch def
/cpddv cpdv dk get def
dv cpddv ne {
/upd true def
exit
} if
} forall
} {
/upd true def
} ifelse
} ifelse
} if
} ifelse
upd true eq {
d k v put
} if
} if
} if
} forall
d length 0 gt {
d setpagedevice
} if
} bd
%%EndResource
%%BeginResource: procset (Apache XML Graphics EPS ProcSet) 1.0 0
%%Version: 1.0 0
%%Copyright: (Copyright 2002-2003 The Apache Software Foundation. License terms: http://www.apache.org/licenses/LICENSE-2.0)
/BeginEPSF { %def
/b4_Inc_state save def         % Save state for cleanup
/dict_count countdictstack def % Count objects on dict stack
/op_count count 1 sub def      % Count objects on operand stack
userdict begin                 % Push userdict on dict stack
/showpage { } def              % Redefine showpage, { } = null proc
0 setgray 0 setlinecap         % Prepare graphics state
1 setlinewidth 0 setlinejoin
10 setmiterlimit [ ] 0 setdash newpath
/languagelevel where           % If level not equal to 1 then
{pop languagelevel             % set strokeadjust and
1 ne                           % overprint to their defaults.
{false setstrokeadjust false setoverprint
} if
} if
} bd
/EndEPSF { %def
count op_count sub {pop} repeat            % Clean up stacks
countdictstack dict_count sub {end} repeat
b4_Inc_state restore
} bd
%%EndResource
%FOPBeginFontDict
%%IncludeResource: font Courier-Bold
%%IncludeResource: font Helvetica
%%IncludeResource: font Courier-BoldOblique
%%IncludeResource: font Courier-Oblique
%%IncludeResource: font Times-Roman
%%IncludeResource: font Helvetica-BoldOblique
%%IncludeResource: font Helvetica-Bold
%%IncludeResource: font Helvetica-Oblique
%%IncludeResource: font Times-BoldItalic
%%IncludeResource: font Courier
%%IncludeResource: font Times-Italic
%%IncludeResource: font Times-Bold
%%IncludeResource: font Symbol
%%IncludeResource: font ZapfDingbats
%FOPEndFontDict
%%BeginResource: encoding WinAnsiEncoding
/WinAnsiEncoding [
/.notdef /.notdef /.notdef /.notdef /.notdef
/.notdef /.notdef /.notdef /.notdef /.notdef
/.notdef /.notdef /.notdef /.notdef /.notdef
/.notdef /.notdef /.notdef /.notdef /.notdef
/.notdef /.notdef /.notdef /.notdef /.notdef
/.notdef /.notdef /.notdef /.notdef /.notdef
/.notdef /.notdef /space /exclam /quotedbl
/numbersign /dollar /percent /ampersand /quotesingle
/parenleft /parenright /asterisk /plus /comma
/hyphen /period /slash /zero /one
/two /three /four /five /six
/seven /eight /nine /colon /semicolon
/less /equal /greater /question /at
/A /B /C /D /E
/F /G /H /I /J
/K /L /M /N /O
/P /Q /R /S /T
/U /V /W /X /Y
/Z /bracketleft /backslash /bracketright /asciicircum
/underscore /quoteleft /a /b /c
/d /e /f /g /h
/i /j /k /l /m
/n /o /p /q /r
/s /t /u /v /w
/x /y /z /braceleft /bar
/braceright /asciitilde /bullet /Euro /bullet
/quotesinglbase /florin /quotedblbase /ellipsis /dagger
/daggerdbl /circumflex /perthousand /Scaron /guilsinglleft
/OE /bullet /Zcaron /bullet /bullet
/quoteleft /quoteright /quotedblleft /quotedblright /bullet
/endash /emdash /asciitilde /trademark /scaron
/guilsinglright /oe /bullet /zcaron /Ydieresis
/space /exclamdown /cent /sterling /currency
/yen /brokenbar /section /dieresis /copyright
/ordfeminine /guillemotleft /logicalnot /sfthyphen /registered
/macron /degree /plusminus /twosuperior /threesuperior
/acute /mu /paragraph /middot /cedilla
/onesuperior /ordmasculine /guillemotright /onequarter /onehalf
/threequarters /questiondown /Agrave /Aacute /Acircumflex
/Atilde /Adieresis /Aring /AE /Ccedilla
/Egrave /Eacute /Ecircumflex /Edieresis /Igrave
/Iacute /Icircumflex /Idieresis /Eth /Ntilde
/Ograve /Oacute /Ocircumflex /Otilde /Odieresis
/multiply /Oslash /Ugrave /Uacute /Ucircumflex
/Udieresis /Yacute /Thorn /germandbls /agrave
/aacute /acircumflex /atilde /adieresis /aring
/ae /ccedilla /egrave /eacute /ecircumflex
/edieresis /igrave /iacute /icircumflex /idieresis
/eth /ntilde /ograve /oacute /ocircumflex
/otilde /odieresis /divide /oslash /ugrave
/uacute /ucircumflex /udieresis /yacute /thorn
/ydieresis
] def
%%EndResource
%FOPBeginFontReencode
/Courier-Bold findfont
dup length dict begin
  {1 index /FID ne {def} {pop pop} ifelse} forall
  /Encoding WinAnsiEncoding def
  currentdict
end
/Courier-Bold exch definefont pop
/Helvetica findfont
dup length dict begin
  {1 index /FID ne {def} {pop pop} ifelse} forall
  /Encoding WinAnsiEncoding def
  currentdict
end
/Helvetica exch definefont pop
/Courier-BoldOblique findfont
dup length dict begin
  {1 index /FID ne {def} {pop pop} ifelse} forall
  /Encoding WinAnsiEncoding def
  currentdict
end
/Courier-BoldOblique exch definefont pop
/Courier-Oblique findfont
dup length dict begin
  {1 index /FID ne {def} {pop pop} ifelse} forall
  /Encoding WinAnsiEncoding def
  currentdict
end
/Courier-Oblique exch definefont pop
/Times-Roman findfont
dup length dict begin
  {1 index /FID ne {def} {pop pop} ifelse} forall
  /Encoding WinAnsiEncoding def
  currentdict
end
/Times-Roman exch definefont pop
/Helvetica-BoldOblique findfont
dup length dict begin
  {1 index /FID ne {def} {pop pop} ifelse} forall
  /Encoding WinAnsiEncoding def
  currentdict
end
/Helvetica-BoldOblique exch definefont pop
/Helvetica-Bold findfont
dup length dict begin
  {1 index /FID ne {def} {pop pop} ifelse} forall
  /Encoding WinAnsiEncoding def
  currentdict
end
/Helvetica-Bold exch definefont pop
/Helvetica-Oblique findfont
dup length dict begin
  {1 index /FID ne {def} {pop pop} ifelse} forall
  /Encoding WinAnsiEncoding def
  currentdict
end
/Helvetica-Oblique exch definefont pop
/Times-BoldItalic findfont
dup length dict begin
  {1 index /FID ne {def} {pop pop} ifelse} forall
  /Encoding WinAnsiEncoding def
  currentdict
end
/Times-BoldItalic exch definefont pop
/Courier findfont
dup length dict begin
  {1 index /FID ne {def} {pop pop} ifelse} forall
  /Encoding WinAnsiEncoding def
  currentdict
end
/Courier exch definefont pop
/Times-Italic findfont
dup length dict begin
  {1 index /FID ne {def} {pop pop} ifelse} forall
  /Encoding WinAnsiEncoding def
  currentdict
end
/Times-Italic exch definefont pop
/Times-Bold findfont
dup length dict begin
  {1 index /FID ne {def} {pop pop} ifelse} forall
  /Encoding WinAnsiEncoding def
  currentdict
end
/Times-Bold exch definefont pop
%FOPEndFontReencode
%%EndProlog
%%Page: 1 1
%%PageBoundingBox: 0 0 560 420
%%BeginPageSetup
[1 0 0 -1 0 420] CT
%%EndPageSetup
GS
1 GC
N
0 0 560 420 re
f
GR
GS
1 GC
N
0 0 560 420 re
f
GR
GS
1 GC
N
73 374 M
507 374 L
507 31.5 L
73 31.5 L
cp
f
GR
GS
0.149 GC
2 setlinecap
1 LJ
0.5 LW
N
73 374 M
507 374 L
S
GR
GS
0.149 GC
2 setlinecap
1 LJ
0.5 LW
N
73 31.5 M
507 31.5 L
S
GR
GS
0.149 GC
2 setlinecap
1 LJ
0.5 LW
N
73 374 M
73 369.66 L
S
GR
GS
0.149 GC
2 setlinecap
1 LJ
0.5 LW
N
159.8 374 M
159.8 369.66 L
S
GR
GS
0.149 GC
2 setlinecap
1 LJ
0.5 LW
N
246.6 374 M
246.6 369.66 L
S
GR
GS
0.149 GC
2 setlinecap
1 LJ
0.5 LW
N
333.4 374 M
333.4 369.66 L
S
GR
GS
0.149 GC
2 setlinecap
1 LJ
0.5 LW
N
420.2 374 M
420.2 369.66 L
S
GR
GS
0.149 GC
2 setlinecap
1 LJ
0.5 LW
N
507 374 M
507 369.66 L
S
GR
GS
0.149 GC
2 setlinecap
1 LJ
0.5 LW
N
73 31.5 M
73 35.84 L
S
GR
GS
0.149 GC
2 setlinecap
1 LJ
0.5 LW
N
159.8 31.5 M
159.8 35.84 L
S
GR
GS
0.149 GC
2 setlinecap
1 LJ
0.5 LW
N
246.6 31.5 M
246.6 35.84 L
S
GR
GS
0.149 GC
2 setlinecap
1 LJ
0.5 LW
N
333.4 31.5 M
333.4 35.84 L
S
GR
GS
0.149 GC
2 setlinecap
1 LJ
0.5 LW
N
420.2 31.5 M
420.2 35.84 L
S
GR
GS
0.149 GC
2 setlinecap
1 LJ
0.5 LW
N
507 31.5 M
507 35.84 L
S
GR
GS
[1 0 0 1 73 378] CT
0.149 GC
/Helvetica 10 F
GS
[1 0 0 1 0 0] CT
-3 8 moveto 
1 -1 scale
(0) t 
GR
GR
GS
[1 0 0 1 159.8 378] CT
0.149 GC
/Helvetica 10 F
GS
[1 0 0 1 0 0] CT
-3 8 moveto 
1 -1 scale
(5) t 
GR
GR
GS
[1 0 0 1 246.60001 378] CT
0.149 GC
/Helvetica 10 F
GS
[1 0 0 1 0 0] CT
-6 8 moveto 
1 -1 scale
(10) t 
GR
GR
GS
[1 0 0 1 333.40002 378] CT
0.149 GC
/Helvetica 10 F
GS
[1 0 0 1 0 0] CT
-6 8 moveto 
1 -1 scale
(15) t 
GR
GR
GS
[1 0 0 1 420.20001 378] CT
0.149 GC
/Helvetica 10 F
GS
[1 0 0 1 0 0] CT
-6 8 moveto 
1 -1 scale
(20) t 
GR
GR
GS
[1 0 0 1 507 378] CT
0.149 GC
/Helvetica 10 F
GS
[1 0 0 1 0 0] CT
-6 8 moveto 
1 -1 scale
(25) t 
GR
GR
GS
[1 0 0 1 290.00021 389.5] CT
0.149 GC
/Helvetica 11 F
GS
[1 0 0 1 0 0] CT
-23 9 moveto 
1 -1 scale
(Iterations) t 
GR
GR
GS
0.149 GC
2 setlinecap
1 LJ
0.5 LW
N
73 374 M
73 31.5 L
S
GR
GS
0.149 GC
2 setlinecap
1 LJ
0.5 LW
N
507 374 M
507 31.5 L
S
GR
GS
0.149 GC
2 setlinecap
1 LJ
0.5 LW
N
73 374 M
77.34 374 L
S
GR
GS
0.149 GC
2 setlinecap
1 LJ
0.5 LW
N
73 325.071 M
77.34 325.071 L
S
GR
GS
0.149 GC
2 setlinecap
1 LJ
0.5 LW
N
73 276.143 M
77.34 276.143 L
S
GR
GS
0.149 GC
2 setlinecap
1 LJ
0.5 LW
N
73 227.214 M
77.34 227.214 L
S
GR
GS
0.149 GC
2 setlinecap
1 LJ
0.5 LW
N
73 178.286 M
77.34 178.286 L
S
GR
GS
0.149 GC
2 setlinecap
1 LJ
0.5 LW
N
73 129.357 M
77.34 129.357 L
S
GR
GS
0.149 GC
2 setlinecap
1 LJ
0.5 LW
N
73 80.429 M
77.34 80.429 L
S
GR
GS
0.149 GC
2 setlinecap
1 LJ
0.5 LW
N
73 31.5 M
77.34 31.5 L
S
GR
GS
0.149 GC
2 setlinecap
1 LJ
0.5 LW
N
507 374 M
502.66 374 L
S
GR
GS
0.149 GC
2 setlinecap
1 LJ
0.5 LW
N
507 325.071 M
502.66 325.071 L
S
GR
GS
0.149 GC
2 setlinecap
1 LJ
0.5 LW
N
507 276.143 M
502.66 276.143 L
S
GR
GS
0.149 GC
2 setlinecap
1 LJ
0.5 LW
N
507 227.214 M
502.66 227.214 L
S
GR
GS
0.149 GC
2 setlinecap
1 LJ
0.5 LW
N
507 178.286 M
502.66 178.286 L
S
GR
GS
0.149 GC
2 setlinecap
1 LJ
0.5 LW
N
507 129.357 M
502.66 129.357 L
S
GR
GS
0.149 GC
2 setlinecap
1 LJ
0.5 LW
N
507 80.429 M
502.66 80.429 L
S
GR
GS
0.149 GC
2 setlinecap
1 LJ
0.5 LW
N
507 31.5 M
502.66 31.5 L
S
GR
GS
0.149 GC
2 setlinecap
1 LJ
0.5 LW
N
73 359.271 M
75.17 359.271 L
S
GR
GS
0.149 GC
2 setlinecap
1 LJ
0.5 LW
N
73 350.655 M
75.17 350.655 L
S
GR
GS
0.149 GC
2 setlinecap
1 LJ
0.5 LW
N
73 344.542 M
75.17 344.542 L
S
GR
GS
0.149 GC
2 setlinecap
1 LJ
0.5 LW
N
73 339.8 M
75.17 339.8 L
S
GR
GS
0.149 GC
2 setlinecap
1 LJ
0.5 LW
N
73 335.926 M
75.17 335.926 L
S
GR
GS
0.149 GC
2 setlinecap
1 LJ
0.5 LW
N
73 332.651 M
75.17 332.651 L
S
GR
GS
0.149 GC
2 setlinecap
1 LJ
0.5 LW
N
73 329.813 M
75.17 329.813 L
S
GR
GS
0.149 GC
2 setlinecap
1 LJ
0.5 LW
N
73 327.31 M
75.17 327.31 L
S
GR
GS
0.149 GC
2 setlinecap
1 LJ
0.5 LW
N
73 310.342 M
75.17 310.342 L
S
GR
GS
0.149 GC
2 setlinecap
1 LJ
0.5 LW
N
73 301.727 M
75.17 301.727 L
S
GR
GS
0.149 GC
2 setlinecap
1 LJ
0.5 LW
N
73 295.613 M
75.17 295.613 L
S
GR
GS
0.149 GC
2 setlinecap
1 LJ
0.5 LW
N
73 290.872 M
75.17 290.872 L
S
GR
GS
0.149 GC
2 setlinecap
1 LJ
0.5 LW
N
73 286.998 M
75.17 286.998 L
S
GR
GS
0.149 GC
2 setlinecap
1 LJ
0.5 LW
N
73 283.722 M
75.17 283.722 L
S
GR
GS
0.149 GC
2 setlinecap
1 LJ
0.5 LW
N
73 280.885 M
75.17 280.885 L
S
GR
GS
0.149 GC
2 setlinecap
1 LJ
0.5 LW
N
73 278.382 M
75.17 278.382 L
S
GR
GS
0.149 GC
2 setlinecap
1 LJ
0.5 LW
N
73 261.414 M
75.17 261.414 L
S
GR
GS
0.149 GC
2 setlinecap
1 LJ
0.5 LW
N
73 252.798 M
75.17 252.798 L
S
GR
GS
0.149 GC
2 setlinecap
1 LJ
0.5 LW
N
73 246.685 M
75.17 246.685 L
S
GR
GS
0.149 GC
2 setlinecap
1 LJ
0.5 LW
N
73 241.943 M
75.17 241.943 L
S
GR
GS
0.149 GC
2 setlinecap
1 LJ
0.5 LW
N
73 238.069 M
75.17 238.069 L
S
GR
GS
0.149 GC
2 setlinecap
1 LJ
0.5 LW
N
73 234.793 M
75.17 234.793 L
S
GR
GS
0.149 GC
2 setlinecap
1 LJ
0.5 LW
N
73 231.956 M
75.17 231.956 L
S
GR
GS
0.149 GC
2 setlinecap
1 LJ
0.5 LW
N
73 229.453 M
75.17 229.453 L
S
GR
GS
0.149 GC
2 setlinecap
1 LJ
0.5 LW
N
73 212.485 M
75.17 212.485 L
S
GR
GS
0.149 GC
2 setlinecap
1 LJ
0.5 LW
N
73 203.869 M
75.17 203.869 L
S
GR
GS
0.149 GC
2 setlinecap
1 LJ
0.5 LW
N
73 197.756 M
75.17 197.756 L
S
GR
GS
0.149 GC
2 setlinecap
1 LJ
0.5 LW
N
73 193.015 M
75.17 193.015 L
S
GR
GS
0.149 GC
2 setlinecap
1 LJ
0.5 LW
N
73 189.14 M
75.17 189.14 L
S
GR
GS
0.149 GC
2 setlinecap
1 LJ
0.5 LW
N
73 185.865 M
75.17 185.865 L
S
GR
GS
0.149 GC
2 setlinecap
1 LJ
0.5 LW
N
73 183.027 M
75.17 183.027 L
S
GR
GS
0.149 GC
2 setlinecap
1 LJ
0.5 LW
N
73 180.525 M
75.17 180.525 L
S
GR
GS
0.149 GC
2 setlinecap
1 LJ
0.5 LW
N
73 163.557 M
75.17 163.557 L
S
GR
GS
0.149 GC
2 setlinecap
1 LJ
0.5 LW
N
73 154.941 M
75.17 154.941 L
S
GR
GS
0.149 GC
2 setlinecap
1 LJ
0.5 LW
N
73 148.828 M
75.17 148.828 L
S
GR
GS
0.149 GC
2 setlinecap
1 LJ
0.5 LW
N
73 144.086 M
75.17 144.086 L
S
GR
GS
0.149 GC
2 setlinecap
1 LJ
0.5 LW
N
73 140.212 M
75.17 140.212 L
S
GR
GS
0.149 GC
2 setlinecap
1 LJ
0.5 LW
N
73 136.936 M
75.17 136.936 L
S
GR
GS
0.149 GC
2 setlinecap
1 LJ
0.5 LW
N
73 134.099 M
75.17 134.099 L
S
GR
GS
0.149 GC
2 setlinecap
1 LJ
0.5 LW
N
73 131.596 M
75.17 131.596 L
S
GR
GS
0.149 GC
2 setlinecap
1 LJ
0.5 LW
N
73 114.628 M
75.17 114.628 L
S
GR
GS
0.149 GC
2 setlinecap
1 LJ
0.5 LW
N
73 106.012 M
75.17 106.012 L
S
GR
GS
0.149 GC
2 setlinecap
1 LJ
0.5 LW
N
73 99.899 M
75.17 99.899 L
S
GR
GS
0.149 GC
2 setlinecap
1 LJ
0.5 LW
N
73 95.158 M
75.17 95.158 L
S
GR
GS
0.149 GC
2 setlinecap
1 LJ
0.5 LW
N
73 91.283 M
75.17 91.283 L
S
GR
GS
0.149 GC
2 setlinecap
1 LJ
0.5 LW
N
73 88.008 M
75.17 88.008 L
S
GR
GS
0.149 GC
2 setlinecap
1 LJ
0.5 LW
N
73 85.17 M
75.17 85.17 L
S
GR
GS
0.149 GC
2 setlinecap
1 LJ
0.5 LW
N
73 82.667 M
75.17 82.667 L
S
GR
GS
0.149 GC
2 setlinecap
1 LJ
0.5 LW
N
73 65.7 M
75.17 65.7 L
S
GR
GS
0.149 GC
2 setlinecap
1 LJ
0.5 LW
N
73 57.084 M
75.17 57.084 L
S
GR
GS
0.149 GC
2 setlinecap
1 LJ
0.5 LW
N
73 50.971 M
75.17 50.971 L
S
GR
GS
0.149 GC
2 setlinecap
1 LJ
0.5 LW
N
73 46.229 M
75.17 46.229 L
S
GR
GS
0.149 GC
2 setlinecap
1 LJ
0.5 LW
N
73 42.355 M
75.17 42.355 L
S
GR
GS
0.149 GC
2 setlinecap
1 LJ
0.5 LW
N
73 39.079 M
75.17 39.079 L
S
GR
GS
0.149 GC
2 setlinecap
1 LJ
0.5 LW
N
73 36.242 M
75.17 36.242 L
S
GR
GS
0.149 GC
2 setlinecap
1 LJ
0.5 LW
N
73 33.739 M
75.17 33.739 L
S
GR
GS
0.149 GC
2 setlinecap
1 LJ
0.5 LW
N
507 359.271 M
504.83 359.271 L
S
GR
GS
0.149 GC
2 setlinecap
1 LJ
0.5 LW
N
507 350.655 M
504.83 350.655 L
S
GR
GS
0.149 GC
2 setlinecap
1 LJ
0.5 LW
N
507 344.542 M
504.83 344.542 L
S
GR
GS
0.149 GC
2 setlinecap
1 LJ
0.5 LW
N
507 339.8 M
504.83 339.8 L
S
GR
GS
0.149 GC
2 setlinecap
1 LJ
0.5 LW
N
507 335.926 M
504.83 335.926 L
S
GR
GS
0.149 GC
2 setlinecap
1 LJ
0.5 LW
N
507 332.651 M
504.83 332.651 L
S
GR
GS
0.149 GC
2 setlinecap
1 LJ
0.5 LW
N
507 329.813 M
504.83 329.813 L
S
GR
GS
0.149 GC
2 setlinecap
1 LJ
0.5 LW
N
507 327.31 M
504.83 327.31 L
S
GR
GS
0.149 GC
2 setlinecap
1 LJ
0.5 LW
N
507 310.342 M
504.83 310.342 L
S
GR
GS
0.149 GC
2 setlinecap
1 LJ
0.5 LW
N
507 301.727 M
504.83 301.727 L
S
GR
GS
0.149 GC
2 setlinecap
1 LJ
0.5 LW
N
507 295.613 M
504.83 295.613 L
S
GR
GS
0.149 GC
2 setlinecap
1 LJ
0.5 LW
N
507 290.872 M
504.83 290.872 L
S
GR
GS
0.149 GC
2 setlinecap
1 LJ
0.5 LW
N
507 286.998 M
504.83 286.998 L
S
GR
GS
0.149 GC
2 setlinecap
1 LJ
0.5 LW
N
507 283.722 M
504.83 283.722 L
S
GR
GS
0.149 GC
2 setlinecap
1 LJ
0.5 LW
N
507 280.885 M
504.83 280.885 L
S
GR
GS
0.149 GC
2 setlinecap
1 LJ
0.5 LW
N
507 278.382 M
504.83 278.382 L
S
GR
GS
0.149 GC
2 setlinecap
1 LJ
0.5 LW
N
507 261.414 M
504.83 261.414 L
S
GR
GS
0.149 GC
2 setlinecap
1 LJ
0.5 LW
N
507 252.798 M
504.83 252.798 L
S
GR
GS
0.149 GC
2 setlinecap
1 LJ
0.5 LW
N
507 246.685 M
504.83 246.685 L
S
GR
GS
0.149 GC
2 setlinecap
1 LJ
0.5 LW
N
507 241.943 M
504.83 241.943 L
S
GR
GS
0.149 GC
2 setlinecap
1 LJ
0.5 LW
N
507 238.069 M
504.83 238.069 L
S
GR
GS
0.149 GC
2 setlinecap
1 LJ
0.5 LW
N
507 234.793 M
504.83 234.793 L
S
GR
GS
0.149 GC
2 setlinecap
1 LJ
0.5 LW
N
507 231.956 M
504.83 231.956 L
S
GR
GS
0.149 GC
2 setlinecap
1 LJ
0.5 LW
N
507 229.453 M
504.83 229.453 L
S
GR
GS
0.149 GC
2 setlinecap
1 LJ
0.5 LW
N
507 212.485 M
504.83 212.485 L
S
GR
GS
0.149 GC
2 setlinecap
1 LJ
0.5 LW
N
507 203.869 M
504.83 203.869 L
S
GR
GS
0.149 GC
2 setlinecap
1 LJ
0.5 LW
N
507 197.756 M
504.83 197.756 L
S
GR
GS
0.149 GC
2 setlinecap
1 LJ
0.5 LW
N
507 193.015 M
504.83 193.015 L
S
GR
GS
0.149 GC
2 setlinecap
1 LJ
0.5 LW
N
507 189.14 M
504.83 189.14 L
S
GR
GS
0.149 GC
2 setlinecap
1 LJ
0.5 LW
N
507 185.865 M
504.83 185.865 L
S
GR
GS
0.149 GC
2 setlinecap
1 LJ
0.5 LW
N
507 183.027 M
504.83 183.027 L
S
GR
GS
0.149 GC
2 setlinecap
1 LJ
0.5 LW
N
507 180.525 M
504.83 180.525 L
S
GR
GS
0.149 GC
2 setlinecap
1 LJ
0.5 LW
N
507 163.557 M
504.83 163.557 L
S
GR
GS
0.149 GC
2 setlinecap
1 LJ
0.5 LW
N
507 154.941 M
504.83 154.941 L
S
GR
GS
0.149 GC
2 setlinecap
1 LJ
0.5 LW
N
507 148.828 M
504.83 148.828 L
S
GR
GS
0.149 GC
2 setlinecap
1 LJ
0.5 LW
N
507 144.086 M
504.83 144.086 L
S
GR
GS
0.149 GC
2 setlinecap
1 LJ
0.5 LW
N
507 140.212 M
504.83 140.212 L
S
GR
GS
0.149 GC
2 setlinecap
1 LJ
0.5 LW
N
507 136.936 M
504.83 136.936 L
S
GR
GS
0.149 GC
2 setlinecap
1 LJ
0.5 LW
N
507 134.099 M
504.83 134.099 L
S
GR
GS
0.149 GC
2 setlinecap
1 LJ
0.5 LW
N
507 131.596 M
504.83 131.596 L
S
GR
GS
0.149 GC
2 setlinecap
1 LJ
0.5 LW
N
507 114.628 M
504.83 114.628 L
S
GR
GS
0.149 GC
2 setlinecap
1 LJ
0.5 LW
N
507 106.012 M
504.83 106.012 L
S
GR
GS
0.149 GC
2 setlinecap
1 LJ
0.5 LW
N
507 99.899 M
504.83 99.899 L
S
GR
GS
0.149 GC
2 setlinecap
1 LJ
0.5 LW
N
507 95.158 M
504.83 95.158 L
S
GR
GS
0.149 GC
2 setlinecap
1 LJ
0.5 LW
N
507 91.283 M
504.83 91.283 L
S
GR
GS
0.149 GC
2 setlinecap
1 LJ
0.5 LW
N
507 88.008 M
504.83 88.008 L
S
GR
GS
0.149 GC
2 setlinecap
1 LJ
0.5 LW
N
507 85.17 M
504.83 85.17 L
S
GR
GS
0.149 GC
2 setlinecap
1 LJ
0.5 LW
N
507 82.667 M
504.83 82.667 L
S
GR
GS
0.149 GC
2 setlinecap
1 LJ
0.5 LW
N
507 65.7 M
504.83 65.7 L
S
GR
GS
0.149 GC
2 setlinecap
1 LJ
0.5 LW
N
507 57.084 M
504.83 57.084 L
S
GR
GS
0.149 GC
2 setlinecap
1 LJ
0.5 LW
N
507 50.971 M
504.83 50.971 L
S
GR
GS
0.149 GC
2 setlinecap
1 LJ
0.5 LW
N
507 46.229 M
504.83 46.229 L
S
GR
GS
0.149 GC
2 setlinecap
1 LJ
0.5 LW
N
507 42.355 M
504.83 42.355 L
S
GR
GS
0.149 GC
2 setlinecap
1 LJ
0.5 LW
N
507 39.079 M
504.83 39.079 L
S
GR
GS
0.149 GC
2 setlinecap
1 LJ
0.5 LW
N
507 36.242 M
504.83 36.242 L
S
GR
GS
0.149 GC
2 setlinecap
1 LJ
0.5 LW
N
507 33.739 M
504.83 33.739 L
S
GR
GS
[1 0 0 1 49 379] CT
0.149 GC
/Helvetica 10 F
GS
[1 0 0 1 0 0] CT
0 0 moveto 
1 -1 scale
(10) t 
GR
GR
GS
[1 0 0 1 61 374] CT
0.149 GC
/Helvetica 8 F
GS
[1 0 0 1 0 0] CT
0 0 moveto 
1 -1 scale
(-6) t 
GR
GR
GS
[1 0 0 1 49 330] CT
0.149 GC
/Helvetica 10 F
GS
[1 0 0 1 0 0] CT
0 0 moveto 
1 -1 scale
(10) t 
GR
GR
GS
[1 0 0 1 61 325] CT
0.149 GC
/Helvetica 8 F
GS
[1 0 0 1 0 0] CT
0 0 moveto 
1 -1 scale
(-5) t 
GR
GR
GS
[1 0 0 1 49 281] CT
0.149 GC
/Helvetica 10 F
GS
[1 0 0 1 0 0] CT
0 0 moveto 
1 -1 scale
(10) t 
GR
GR
GS
[1 0 0 1 61 276] CT
0.149 GC
/Helvetica 8 F
GS
[1 0 0 1 0 0] CT
0 0 moveto 
1 -1 scale
(-4) t 
GR
GR
GS
[1 0 0 1 49 232] CT
0.149 GC
/Helvetica 10 F
GS
[1 0 0 1 0 0] CT
0 0 moveto 
1 -1 scale
(10) t 
GR
GR
GS
[1 0 0 1 61 227] CT
0.149 GC
/Helvetica 8 F
GS
[1 0 0 1 0 0] CT
0 0 moveto 
1 -1 scale
(-3) t 
GR
GR
GS
[1 0 0 1 49 183] CT
0.149 GC
/Helvetica 10 F
GS
[1 0 0 1 0 0] CT
0 0 moveto 
1 -1 scale
(10) t 
GR
GR
GS
[1 0 0 1 61 178] CT
0.149 GC
/Helvetica 8 F
GS
[1 0 0 1 0 0] CT
0 0 moveto 
1 -1 scale
(-2) t 
GR
GR
GS
[1 0 0 1 49 134] CT
0.149 GC
/Helvetica 10 F
GS
[1 0 0 1 0 0] CT
0 0 moveto 
1 -1 scale
(10) t 
GR
GR
GS
[1 0 0 1 61 129] CT
0.149 GC
/Helvetica 8 F
GS
[1 0 0 1 0 0] CT
0 0 moveto 
1 -1 scale
(-1) t 
GR
GR
GS
[1 0 0 1 52 85] CT
0.149 GC
/Helvetica 10 F
GS
[1 0 0 1 0 0] CT
0 0 moveto 
1 -1 scale
(10) t 
GR
GR
GS
[1 0 0 1 64 80] CT
0.149 GC
/Helvetica 8 F
GS
[1 0 0 1 0 0] CT
0 0 moveto 
1 -1 scale
(0) t 
GR
GR
GS
[1 0 0 1 52 37] CT
0.149 GC
/Helvetica 10 F
GS
[1 0 0 1 0 0] CT
0 0 moveto 
1 -1 scale
(10) t 
GR
GR
GS
[1 0 0 1 64 32] CT
0.149 GC
/Helvetica 8 F
GS
[1 0 0 1 0 0] CT
0 0 moveto 
1 -1 scale
(1) t 
GR
GR
GS
[0 -1 1 0 47 202.74983] CT
0.149 GC
/Helvetica 11 F
GS
[1 0 0 1 0 0] CT
-58.5 -3 moveto 
1 -1 scale
(Root mean square error) t 
GR
GR
GS
0 0.447 0.741 RC
1 LJ
N
90.36 48.645 M
107.72 59.22 L
125.08 72.333 L
142.44 95.697 L
159.8 117.654 L
177.16 137.526 L
194.52 156.958 L
211.88 176.74 L
229.24 197.319 L
246.6 218.962 L
263.96 241.806 L
281.32 265.799 L
298.68 289.537 L
S
GR
GS
0 0.447 0.741 RC
1 LJ
N
93.5 48.5 M
92.621 46.379 L
90.5 45.5 L
88.379 46.379 L
87.5 48.5 L
88.379 50.621 L
90.5 51.5 L
92.621 50.621 L
cp
S
GR
GS
0 0.447 0.741 RC
1 LJ
N
110.5 59.5 M
109.621 57.379 L
107.5 56.5 L
105.379 57.379 L
104.5 59.5 L
105.379 61.621 L
107.5 62.5 L
109.621 61.621 L
cp
S
GR
GS
0 0.447 0.741 RC
1 LJ
N
128.5 72.5 M
127.621 70.379 L
125.5 69.5 L
123.379 70.379 L
122.5 72.5 L
123.379 74.621 L
125.5 75.5 L
127.621 74.621 L
cp
S
GR
GS
0 0.447 0.741 RC
1 LJ
N
145.5 95.5 M
144.621 93.379 L
142.5 92.5 L
140.379 93.379 L
139.5 95.5 L
140.379 97.621 L
142.5 98.5 L
144.621 97.621 L
cp
S
GR
GS
0 0.447 0.741 RC
1 LJ
N
162.5 117.5 M
161.621 115.379 L
159.5 114.5 L
157.379 115.379 L
156.5 117.5 L
157.379 119.621 L
159.5 120.5 L
161.621 119.621 L
cp
S
GR
GS
0 0.447 0.741 RC
1 LJ
N
180.5 137.5 M
179.621 135.379 L
177.5 134.5 L
175.379 135.379 L
174.5 137.5 L
175.379 139.621 L
177.5 140.5 L
179.621 139.621 L
cp
S
GR
GS
0 0.447 0.741 RC
1 LJ
N
197.5 156.5 M
196.621 154.379 L
194.5 153.5 L
192.379 154.379 L
191.5 156.5 L
192.379 158.621 L
194.5 159.5 L
196.621 158.621 L
cp
S
GR
GS
0 0.447 0.741 RC
1 LJ
N
214.5 176.5 M
213.621 174.379 L
211.5 173.5 L
209.379 174.379 L
208.5 176.5 L
209.379 178.621 L
211.5 179.5 L
213.621 178.621 L
cp
S
GR
GS
0 0.447 0.741 RC
1 LJ
N
232.5 197.5 M
231.621 195.379 L
229.5 194.5 L
227.379 195.379 L
226.5 197.5 L
227.379 199.621 L
229.5 200.5 L
231.621 199.621 L
cp
S
GR
GS
0 0.447 0.741 RC
1 LJ
N
249.5 218.5 M
248.621 216.379 L
246.5 215.5 L
244.379 216.379 L
243.5 218.5 L
244.379 220.621 L
246.5 221.5 L
248.621 220.621 L
cp
S
GR
GS
0 0.447 0.741 RC
1 LJ
N
266.5 241.5 M
265.621 239.379 L
263.5 238.5 L
261.379 239.379 L
260.5 241.5 L
261.379 243.621 L
263.5 244.5 L
265.621 243.621 L
cp
S
GR
GS
0 0.447 0.741 RC
1 LJ
N
284.5 265.5 M
283.621 263.379 L
281.5 262.5 L
279.379 263.379 L
278.5 265.5 L
279.379 267.621 L
281.5 268.5 L
283.621 267.621 L
cp
S
GR
GS
0 0.447 0.741 RC
1 LJ
N
301.5 289.5 M
300.621 287.379 L
298.5 286.5 L
296.379 287.379 L
295.5 289.5 L
296.379 291.621 L
298.5 292.5 L
300.621 291.621 L
cp
S
GR
GS
0.851 0.325 0.098 RC
1 LJ
N
90.36 48.645 M
107.72 59.52 L
125.08 73.518 L
142.44 94.722 L
159.8 115.981 L
177.16 135.291 L
194.52 154.055 L
211.88 172.928 L
229.24 192.417 L
246.6 212.64 L
263.96 233.759 L
281.32 256.126 L
298.68 278.67 L
316.04 328.282 L
S
GR
GS
0.851 0.325 0.098 RC
1 LJ
N
93.5 48.5 M
92.621 46.379 L
90.5 45.5 L
88.379 46.379 L
87.5 48.5 L
88.379 50.621 L
90.5 51.5 L
92.621 50.621 L
cp
S
GR
GS
0.851 0.325 0.098 RC
1 LJ
N
110.5 59.5 M
109.621 57.379 L
107.5 56.5 L
105.379 57.379 L
104.5 59.5 L
105.379 61.621 L
107.5 62.5 L
109.621 61.621 L
cp
S
GR
GS
0.851 0.325 0.098 RC
1 LJ
N
128.5 73.5 M
127.621 71.379 L
125.5 70.5 L
123.379 71.379 L
122.5 73.5 L
123.379 75.621 L
125.5 76.5 L
127.621 75.621 L
cp
S
GR
GS
0.851 0.325 0.098 RC
1 LJ
N
145.5 94.5 M
144.621 92.379 L
142.5 91.5 L
140.379 92.379 L
139.5 94.5 L
140.379 96.621 L
142.5 97.5 L
144.621 96.621 L
cp
S
GR
GS
0.851 0.325 0.098 RC
1 LJ
N
162.5 115.5 M
161.621 113.379 L
159.5 112.5 L
157.379 113.379 L
156.5 115.5 L
157.379 117.621 L
159.5 118.5 L
161.621 117.621 L
cp
S
GR
GS
0.851 0.325 0.098 RC
1 LJ
N
180.5 135.5 M
179.621 133.379 L
177.5 132.5 L
175.379 133.379 L
174.5 135.5 L
175.379 137.621 L
177.5 138.5 L
179.621 137.621 L
cp
S
GR
GS
0.851 0.325 0.098 RC
1 LJ
N
197.5 154.5 M
196.621 152.379 L
194.5 151.5 L
192.379 152.379 L
191.5 154.5 L
192.379 156.621 L
194.5 157.5 L
196.621 156.621 L
cp
S
GR
GS
0.851 0.325 0.098 RC
1 LJ
N
214.5 172.5 M
213.621 170.379 L
211.5 169.5 L
209.379 170.379 L
208.5 172.5 L
209.379 174.621 L
211.5 175.5 L
213.621 174.621 L
cp
S
GR
GS
0.851 0.325 0.098 RC
1 LJ
N
232.5 192.5 M
231.621 190.379 L
229.5 189.5 L
227.379 190.379 L
226.5 192.5 L
227.379 194.621 L
229.5 195.5 L
231.621 194.621 L
cp
S
GR
GS
0.851 0.325 0.098 RC
1 LJ
N
249.5 212.5 M
248.621 210.379 L
246.5 209.5 L
244.379 210.379 L
243.5 212.5 L
244.379 214.621 L
246.5 215.5 L
248.621 214.621 L
cp
S
GR
GS
0.851 0.325 0.098 RC
1 LJ
N
266.5 233.5 M
265.621 231.379 L
263.5 230.5 L
261.379 231.379 L
260.5 233.5 L
261.379 235.621 L
263.5 236.5 L
265.621 235.621 L
cp
S
GR
GS
0.851 0.325 0.098 RC
1 LJ
N
284.5 256.5 M
283.621 254.379 L
281.5 253.5 L
279.379 254.379 L
278.5 256.5 L
279.379 258.621 L
281.5 259.5 L
283.621 258.621 L
cp
S
GR
GS
0.851 0.325 0.098 RC
1 LJ
N
301.5 278.5 M
300.621 276.379 L
298.5 275.5 L
296.379 276.379 L
295.5 278.5 L
296.379 280.621 L
298.5 281.5 L
300.621 280.621 L
cp
S
GR
GS
0.851 0.325 0.098 RC
1 LJ
N
319.5 328.5 M
318.621 326.379 L
316.5 325.5 L
314.379 326.379 L
313.5 328.5 L
314.379 330.621 L
316.5 331.5 L
318.621 330.621 L
cp
S
GR
GS
0.929 0.694 0.125 RC
1 LJ
N
90.36 48.645 M
107.72 57.582 L
125.08 62.998 L
142.44 72.934 L
159.8 89.45 L
177.16 107.846 L
194.52 125.427 L
211.88 142.696 L
229.24 160.093 L
246.6 177.935 L
263.96 196.056 L
281.32 214.909 L
298.68 234.255 L
316.04 254.348 L
333.4 274.334 L
350.76 295.406 L
S
GR
GS
0.929 0.694 0.125 RC
1 LJ
N
93.5 48.5 M
92.621 46.379 L
90.5 45.5 L
88.379 46.379 L
87.5 48.5 L
88.379 50.621 L
90.5 51.5 L
92.621 50.621 L
cp
S
GR
GS
0.929 0.694 0.125 RC
1 LJ
N
110.5 57.5 M
109.621 55.379 L
107.5 54.5 L
105.379 55.379 L
104.5 57.5 L
105.379 59.621 L
107.5 60.5 L
109.621 59.621 L
cp
S
GR
GS
0.929 0.694 0.125 RC
1 LJ
N
128.5 62.5 M
127.621 60.379 L
125.5 59.5 L
123.379 60.379 L
122.5 62.5 L
123.379 64.621 L
125.5 65.5 L
127.621 64.621 L
cp
S
GR
GS
0.929 0.694 0.125 RC
1 LJ
N
145.5 72.5 M
144.621 70.379 L
142.5 69.5 L
140.379 70.379 L
139.5 72.5 L
140.379 74.621 L
142.5 75.5 L
144.621 74.621 L
cp
S
GR
GS
0.929 0.694 0.125 RC
1 LJ
N
162.5 89.5 M
161.621 87.379 L
159.5 86.5 L
157.379 87.379 L
156.5 89.5 L
157.379 91.621 L
159.5 92.5 L
161.621 91.621 L
cp
S
GR
GS
0.929 0.694 0.125 RC
1 LJ
N
180.5 107.5 M
179.621 105.379 L
177.5 104.5 L
175.379 105.379 L
174.5 107.5 L
175.379 109.621 L
177.5 110.5 L
179.621 109.621 L
cp
S
GR
GS
0.929 0.694 0.125 RC
1 LJ
N
197.5 125.5 M
196.621 123.379 L
194.5 122.5 L
192.379 123.379 L
191.5 125.5 L
192.379 127.621 L
194.5 128.5 L
196.621 127.621 L
cp
S
GR
GS
0.929 0.694 0.125 RC
1 LJ
N
214.5 142.5 M
213.621 140.379 L
211.5 139.5 L
209.379 140.379 L
208.5 142.5 L
209.379 144.621 L
211.5 145.5 L
213.621 144.621 L
cp
S
GR
GS
0.929 0.694 0.125 RC
1 LJ
N
232.5 160.5 M
231.621 158.379 L
229.5 157.5 L
227.379 158.379 L
226.5 160.5 L
227.379 162.621 L
229.5 163.5 L
231.621 162.621 L
cp
S
GR
GS
0.929 0.694 0.125 RC
1 LJ
N
249.5 177.5 M
248.621 175.379 L
246.5 174.5 L
244.379 175.379 L
243.5 177.5 L
244.379 179.621 L
246.5 180.5 L
248.621 179.621 L
cp
S
GR
GS
0.929 0.694 0.125 RC
1 LJ
N
266.5 196.5 M
265.621 194.379 L
263.5 193.5 L
261.379 194.379 L
260.5 196.5 L
261.379 198.621 L
263.5 199.5 L
265.621 198.621 L
cp
S
GR
GS
0.929 0.694 0.125 RC
1 LJ
N
284.5 214.5 M
283.621 212.379 L
281.5 211.5 L
279.379 212.379 L
278.5 214.5 L
279.379 216.621 L
281.5 217.5 L
283.621 216.621 L
cp
S
GR
GS
0.929 0.694 0.125 RC
1 LJ
N
301.5 234.5 M
300.621 232.379 L
298.5 231.5 L
296.379 232.379 L
295.5 234.5 L
296.379 236.621 L
298.5 237.5 L
300.621 236.621 L
cp
S
GR
GS
0.929 0.694 0.125 RC
1 LJ
N
319.5 254.5 M
318.621 252.379 L
316.5 251.5 L
314.379 252.379 L
313.5 254.5 L
314.379 256.621 L
316.5 257.5 L
318.621 256.621 L
cp
S
GR
GS
0.929 0.694 0.125 RC
1 LJ
N
336.5 274.5 M
335.621 272.379 L
333.5 271.5 L
331.379 272.379 L
330.5 274.5 L
331.379 276.621 L
333.5 277.5 L
335.621 276.621 L
cp
S
GR
GS
0.929 0.694 0.125 RC
1 LJ
N
353.5 295.5 M
352.621 293.379 L
350.5 292.5 L
348.379 293.379 L
347.5 295.5 L
348.379 297.621 L
350.5 298.5 L
352.621 297.621 L
cp
S
GR
GS
0.494 0.184 0.557 RC
1 LJ
N
90.36 48.645 M
107.72 59.22 L
125.08 65.455 L
142.44 83.639 L
159.8 95.682 L
177.16 110.765 L
194.52 119.477 L
211.88 131.285 L
229.24 138.357 L
246.6 148.074 L
263.96 153.932 L
281.32 162.479 L
298.68 167.421 L
316.04 175.695 L
333.4 180.017 L
350.76 188.755 L
368.12 192.259 L
385.48 201.676 L
402.84 202.874 L
420.2 206.193 L
437.56 189.853 L
454.92 233.522 L
472.28 249.731 L
489.64 283.013 L
S
GR
GS
0.494 0.184 0.557 RC
1 LJ
N
93.5 48.5 M
92.621 46.379 L
90.5 45.5 L
88.379 46.379 L
87.5 48.5 L
88.379 50.621 L
90.5 51.5 L
92.621 50.621 L
cp
S
GR
GS
0.494 0.184 0.557 RC
1 LJ
N
110.5 59.5 M
109.621 57.379 L
107.5 56.5 L
105.379 57.379 L
104.5 59.5 L
105.379 61.621 L
107.5 62.5 L
109.621 61.621 L
cp
S
GR
GS
0.494 0.184 0.557 RC
1 LJ
N
128.5 65.5 M
127.621 63.379 L
125.5 62.5 L
123.379 63.379 L
122.5 65.5 L
123.379 67.621 L
125.5 68.5 L
127.621 67.621 L
cp
S
GR
GS
0.494 0.184 0.557 RC
1 LJ
N
145.5 83.5 M
144.621 81.379 L
142.5 80.5 L
140.379 81.379 L
139.5 83.5 L
140.379 85.621 L
142.5 86.5 L
144.621 85.621 L
cp
S
GR
GS
0.494 0.184 0.557 RC
1 LJ
N
162.5 95.5 M
161.621 93.379 L
159.5 92.5 L
157.379 93.379 L
156.5 95.5 L
157.379 97.621 L
159.5 98.5 L
161.621 97.621 L
cp
S
GR
GS
0.494 0.184 0.557 RC
1 LJ
N
180.5 110.5 M
179.621 108.379 L
177.5 107.5 L
175.379 108.379 L
174.5 110.5 L
175.379 112.621 L
177.5 113.5 L
179.621 112.621 L
cp
S
GR
GS
0.494 0.184 0.557 RC
1 LJ
N
197.5 119.5 M
196.621 117.379 L
194.5 116.5 L
192.379 117.379 L
191.5 119.5 L
192.379 121.621 L
194.5 122.5 L
196.621 121.621 L
cp
S
GR
GS
0.494 0.184 0.557 RC
1 LJ
N
214.5 131.5 M
213.621 129.379 L
211.5 128.5 L
209.379 129.379 L
208.5 131.5 L
209.379 133.621 L
211.5 134.5 L
213.621 133.621 L
cp
S
GR
GS
0.494 0.184 0.557 RC
1 LJ
N
232.5 138.5 M
231.621 136.379 L
229.5 135.5 L
227.379 136.379 L
226.5 138.5 L
227.379 140.621 L
229.5 141.5 L
231.621 140.621 L
cp
S
GR
GS
0.494 0.184 0.557 RC
1 LJ
N
249.5 148.5 M
248.621 146.379 L
246.5 145.5 L
244.379 146.379 L
243.5 148.5 L
244.379 150.621 L
246.5 151.5 L
248.621 150.621 L
cp
S
GR
GS
0.494 0.184 0.557 RC
1 LJ
N
266.5 153.5 M
265.621 151.379 L
263.5 150.5 L
261.379 151.379 L
260.5 153.5 L
261.379 155.621 L
263.5 156.5 L
265.621 155.621 L
cp
S
GR
GS
0.494 0.184 0.557 RC
1 LJ
N
284.5 162.5 M
283.621 160.379 L
281.5 159.5 L
279.379 160.379 L
278.5 162.5 L
279.379 164.621 L
281.5 165.5 L
283.621 164.621 L
cp
S
GR
GS
0.494 0.184 0.557 RC
1 LJ
N
301.5 167.5 M
300.621 165.379 L
298.5 164.5 L
296.379 165.379 L
295.5 167.5 L
296.379 169.621 L
298.5 170.5 L
300.621 169.621 L
cp
S
GR
GS
0.494 0.184 0.557 RC
1 LJ
N
319.5 175.5 M
318.621 173.379 L
316.5 172.5 L
314.379 173.379 L
313.5 175.5 L
314.379 177.621 L
316.5 178.5 L
318.621 177.621 L
cp
S
GR
GS
0.494 0.184 0.557 RC
1 LJ
N
336.5 180.5 M
335.621 178.379 L
333.5 177.5 L
331.379 178.379 L
330.5 180.5 L
331.379 182.621 L
333.5 183.5 L
335.621 182.621 L
cp
S
GR
GS
0.494 0.184 0.557 RC
1 LJ
N
353.5 188.5 M
352.621 186.379 L
350.5 185.5 L
348.379 186.379 L
347.5 188.5 L
348.379 190.621 L
350.5 191.5 L
352.621 190.621 L
cp
S
GR
GS
0.494 0.184 0.557 RC
1 LJ
N
371.5 192.5 M
370.621 190.379 L
368.5 189.5 L
366.379 190.379 L
365.5 192.5 L
366.379 194.621 L
368.5 195.5 L
370.621 194.621 L
cp
S
GR
GS
0.494 0.184 0.557 RC
1 LJ
N
388.5 201.5 M
387.621 199.379 L
385.5 198.5 L
383.379 199.379 L
382.5 201.5 L
383.379 203.621 L
385.5 204.5 L
387.621 203.621 L
cp
S
GR
GS
0.494 0.184 0.557 RC
1 LJ
N
405.5 202.5 M
404.621 200.379 L
402.5 199.5 L
400.379 200.379 L
399.5 202.5 L
400.379 204.621 L
402.5 205.5 L
404.621 204.621 L
cp
S
GR
GS
0.494 0.184 0.557 RC
1 LJ
N
423.5 206.5 M
422.621 204.379 L
420.5 203.5 L
418.379 204.379 L
417.5 206.5 L
418.379 208.621 L
420.5 209.5 L
422.621 208.621 L
cp
S
GR
GS
0.494 0.184 0.557 RC
1 LJ
N
440.5 189.5 M
439.621 187.379 L
437.5 186.5 L
435.379 187.379 L
434.5 189.5 L
435.379 191.621 L
437.5 192.5 L
439.621 191.621 L
cp
S
GR
GS
0.494 0.184 0.557 RC
1 LJ
N
457.5 233.5 M
456.621 231.379 L
454.5 230.5 L
452.379 231.379 L
451.5 233.5 L
452.379 235.621 L
454.5 236.5 L
456.621 235.621 L
cp
S
GR
GS
0.494 0.184 0.557 RC
1 LJ
N
475.5 249.5 M
474.621 247.379 L
472.5 246.5 L
470.379 247.379 L
469.5 249.5 L
470.379 251.621 L
472.5 252.5 L
474.621 251.621 L
cp
S
GR
GS
0.494 0.184 0.557 RC
1 LJ
N
492.5 283.5 M
491.621 281.379 L
489.5 280.5 L
487.379 281.379 L
486.5 283.5 L
487.379 285.621 L
489.5 286.5 L
491.621 285.621 L
cp
S
GR
GS
[1 0 0 1 407.5 48.25] CT
/Helvetica 9 F
GS
[1 0 0 1 0 0] CT
0 2 moveto 
1 -1 scale
(No) t 
GR
GR
GS
0 0.447 0.741 RC
1 LJ
N
374.5 48.25 M
404.5 48.25 L
S
GR
GS
0 0.447 0.741 RC
1 LJ
N
392.5 48.5 M
391.621 46.379 L
389.5 45.5 L
387.379 46.379 L
386.5 48.5 L
387.379 50.621 L
389.5 51.5 L
391.621 50.621 L
cp
S
GR
GS
[1 0 0 1 407.5 58.25] CT
/Helvetica 9 F
GS
[1 0 0 1 0 0] CT
0 2 moveto 
1 -1 scale
(Random) t 
GR
GR
GS
0.851 0.325 0.098 RC
1 LJ
N
374.5 58.25 M
404.5 58.25 L
S
GR
GS
0.851 0.325 0.098 RC
1 LJ
N
392.5 58.5 M
391.621 56.379 L
389.5 55.5 L
387.379 56.379 L
386.5 58.5 L
387.379 60.621 L
389.5 61.5 L
391.621 60.621 L
cp
S
GR
GS
[1 0 0 1 407.5 68.25] CT
/Helvetica 9 F
GS
[1 0 0 1 0 0] CT
0 2 moveto 
1 -1 scale
(Random replacement) t 
GR
GR
GS
0.929 0.694 0.125 RC
1 LJ
N
374.5 68.25 M
404.5 68.25 L
S
GR
GS
0.929 0.694 0.125 RC
1 LJ
N
392.5 68.5 M
391.621 66.379 L
389.5 65.5 L
387.379 66.379 L
386.5 68.5 L
387.379 70.621 L
389.5 71.5 L
391.621 70.621 L
cp
S
GR
GS
[1 0 0 1 407.5 78.25] CT
/Helvetica 9 F
GS
[1 0 0 1 0 0] CT
0 2 moveto 
1 -1 scale
(Shuffling) t 
GR
GR
GS
0.494 0.184 0.557 RC
1 LJ
N
374.5 78.25 M
404.5 78.25 L
S
GR
GS
0.494 0.184 0.557 RC
1 LJ
N
392.5 78.5 M
391.621 76.379 L
389.5 75.5 L
387.379 76.379 L
386.5 78.5 L
387.379 80.621 L
389.5 81.5 L
391.621 80.621 L
cp
S
GR
%%Trailer
%%Pages: 1
%%EOF
