%!PS-Adobe-3.0 EPSF-3.0
%%Creator: (MATLAB, The Mathworks, Inc. Version 8.6.0.267246 \(R2015b\). Operating System: Mac OS X)
%%Title: /Users/gauthiermuguerza/Desktop/rsgd/report/images/hybrid.eps
%%CreationDate: 2018-05-27T11:18:13
%%Pages: (atend)
%%BoundingBox:    23    10   530   419
%%LanguageLevel: 3
%%EndComments
%%BeginProlog
%%BeginResource: procset (Apache XML Graphics Std ProcSet) 1.2 0
%%Version: 1.2 0
%%Copyright: (Copyright 2001-2003,2010 The Apache Software Foundation. License terms: http://www.apache.org/licenses/LICENSE-2.0)
/bd{bind def}bind def
/ld{load def}bd
/GR/grestore ld
/M/moveto ld
/LJ/setlinejoin ld
/C/curveto ld
/f/fill ld
/LW/setlinewidth ld
/GC/setgray ld
/t/show ld
/N/newpath ld
/CT/concat ld
/cp/closepath ld
/S/stroke ld
/L/lineto ld
/CC/setcmykcolor ld
/A/ashow ld
/GS/gsave ld
/RC/setrgbcolor ld
/RM/rmoveto ld
/ML/setmiterlimit ld
/re {4 2 roll M
1 index 0 rlineto
0 exch rlineto
neg 0 rlineto
cp } bd
/_ctm matrix def
/_tm matrix def
/BT { _ctm currentmatrix pop matrix _tm copy pop 0 0 moveto } bd
/ET { _ctm setmatrix } bd
/iTm { _ctm setmatrix _tm concat } bd
/Tm { _tm astore pop iTm 0 0 moveto } bd
/ux 0.0 def
/uy 0.0 def
/F {
  /Tp exch def
  /Tf exch def
  Tf findfont Tp scalefont setfont
  /cf Tf def  /cs Tp def
} bd
/ULS {currentpoint /uy exch def /ux exch def} bd
/ULE {
  /Tcx currentpoint pop def
  gsave
  newpath
  cf findfont cs scalefont dup
  /FontMatrix get 0 get /Ts exch def /FontInfo get dup
  /UnderlinePosition get Ts mul /To exch def
  /UnderlineThickness get Ts mul /Tt exch def
  ux uy To add moveto  Tcx uy To add lineto
  Tt setlinewidth stroke
  grestore
} bd
/OLE {
  /Tcx currentpoint pop def
  gsave
  newpath
  cf findfont cs scalefont dup
  /FontMatrix get 0 get /Ts exch def /FontInfo get dup
  /UnderlinePosition get Ts mul /To exch def
  /UnderlineThickness get Ts mul /Tt exch def
  ux uy To add cs add moveto Tcx uy To add cs add lineto
  Tt setlinewidth stroke
  grestore
} bd
/SOE {
  /Tcx currentpoint pop def
  gsave
  newpath
  cf findfont cs scalefont dup
  /FontMatrix get 0 get /Ts exch def /FontInfo get dup
  /UnderlinePosition get Ts mul /To exch def
  /UnderlineThickness get Ts mul /Tt exch def
  ux uy To add cs 10 mul 26 idiv add moveto Tcx uy To add cs 10 mul 26 idiv add lineto
  Tt setlinewidth stroke
  grestore
} bd
/QT {
/Y22 exch store
/X22 exch store
/Y21 exch store
/X21 exch store
currentpoint
/Y21 load 2 mul add 3 div exch
/X21 load 2 mul add 3 div exch
/X21 load 2 mul /X22 load add 3 div
/Y21 load 2 mul /Y22 load add 3 div
/X22 load /Y22 load curveto
} bd
/SSPD {
dup length /d exch dict def
{
/v exch def
/k exch def
currentpagedevice k known {
/cpdv currentpagedevice k get def
v cpdv ne {
/upd false def
/nullv v type /nulltype eq def
/nullcpdv cpdv type /nulltype eq def
nullv nullcpdv or
{
/upd true def
} {
/sametype v type cpdv type eq def
sametype {
v type /arraytype eq {
/vlen v length def
/cpdvlen cpdv length def
vlen cpdvlen eq {
0 1 vlen 1 sub {
/i exch def
/obj v i get def
/cpdobj cpdv i get def
obj cpdobj ne {
/upd true def
exit
} if
} for
} {
/upd true def
} ifelse
} {
v type /dicttype eq {
v {
/dv exch def
/dk exch def
/cpddv cpdv dk get def
dv cpddv ne {
/upd true def
exit
} if
} forall
} {
/upd true def
} ifelse
} ifelse
} if
} ifelse
upd true eq {
d k v put
} if
} if
} if
} forall
d length 0 gt {
d setpagedevice
} if
} bd
%%EndResource
%%BeginResource: procset (Apache XML Graphics EPS ProcSet) 1.0 0
%%Version: 1.0 0
%%Copyright: (Copyright 2002-2003 The Apache Software Foundation. License terms: http://www.apache.org/licenses/LICENSE-2.0)
/BeginEPSF { %def
/b4_Inc_state save def         % Save state for cleanup
/dict_count countdictstack def % Count objects on dict stack
/op_count count 1 sub def      % Count objects on operand stack
userdict begin                 % Push userdict on dict stack
/showpage { } def              % Redefine showpage, { } = null proc
0 setgray 0 setlinecap         % Prepare graphics state
1 setlinewidth 0 setlinejoin
10 setmiterlimit [ ] 0 setdash newpath
/languagelevel where           % If level not equal to 1 then
{pop languagelevel             % set strokeadjust and
1 ne                           % overprint to their defaults.
{false setstrokeadjust false setoverprint
} if
} if
} bd
/EndEPSF { %def
count op_count sub {pop} repeat            % Clean up stacks
countdictstack dict_count sub {end} repeat
b4_Inc_state restore
} bd
%%EndResource
%FOPBeginFontDict
%%IncludeResource: font Courier-Bold
%%IncludeResource: font Helvetica
%%IncludeResource: font Courier-BoldOblique
%%IncludeResource: font Courier-Oblique
%%IncludeResource: font Times-Roman
%%IncludeResource: font Helvetica-BoldOblique
%%IncludeResource: font Helvetica-Bold
%%IncludeResource: font Helvetica-Oblique
%%IncludeResource: font Times-BoldItalic
%%IncludeResource: font Courier
%%IncludeResource: font Times-Italic
%%IncludeResource: font Times-Bold
%%IncludeResource: font Symbol
%%IncludeResource: font ZapfDingbats
%FOPEndFontDict
%%BeginResource: encoding WinAnsiEncoding
/WinAnsiEncoding [
/.notdef /.notdef /.notdef /.notdef /.notdef
/.notdef /.notdef /.notdef /.notdef /.notdef
/.notdef /.notdef /.notdef /.notdef /.notdef
/.notdef /.notdef /.notdef /.notdef /.notdef
/.notdef /.notdef /.notdef /.notdef /.notdef
/.notdef /.notdef /.notdef /.notdef /.notdef
/.notdef /.notdef /space /exclam /quotedbl
/numbersign /dollar /percent /ampersand /quotesingle
/parenleft /parenright /asterisk /plus /comma
/hyphen /period /slash /zero /one
/two /three /four /five /six
/seven /eight /nine /colon /semicolon
/less /equal /greater /question /at
/A /B /C /D /E
/F /G /H /I /J
/K /L /M /N /O
/P /Q /R /S /T
/U /V /W /X /Y
/Z /bracketleft /backslash /bracketright /asciicircum
/underscore /quoteleft /a /b /c
/d /e /f /g /h
/i /j /k /l /m
/n /o /p /q /r
/s /t /u /v /w
/x /y /z /braceleft /bar
/braceright /asciitilde /bullet /Euro /bullet
/quotesinglbase /florin /quotedblbase /ellipsis /dagger
/daggerdbl /circumflex /perthousand /Scaron /guilsinglleft
/OE /bullet /Zcaron /bullet /bullet
/quoteleft /quoteright /quotedblleft /quotedblright /bullet
/endash /emdash /asciitilde /trademark /scaron
/guilsinglright /oe /bullet /zcaron /Ydieresis
/space /exclamdown /cent /sterling /currency
/yen /brokenbar /section /dieresis /copyright
/ordfeminine /guillemotleft /logicalnot /sfthyphen /registered
/macron /degree /plusminus /twosuperior /threesuperior
/acute /mu /paragraph /middot /cedilla
/onesuperior /ordmasculine /guillemotright /onequarter /onehalf
/threequarters /questiondown /Agrave /Aacute /Acircumflex
/Atilde /Adieresis /Aring /AE /Ccedilla
/Egrave /Eacute /Ecircumflex /Edieresis /Igrave
/Iacute /Icircumflex /Idieresis /Eth /Ntilde
/Ograve /Oacute /Ocircumflex /Otilde /Odieresis
/multiply /Oslash /Ugrave /Uacute /Ucircumflex
/Udieresis /Yacute /Thorn /germandbls /agrave
/aacute /acircumflex /atilde /adieresis /aring
/ae /ccedilla /egrave /eacute /ecircumflex
/edieresis /igrave /iacute /icircumflex /idieresis
/eth /ntilde /ograve /oacute /ocircumflex
/otilde /odieresis /divide /oslash /ugrave
/uacute /ucircumflex /udieresis /yacute /thorn
/ydieresis
] def
%%EndResource
%FOPBeginFontReencode
/Courier-Bold findfont
dup length dict begin
  {1 index /FID ne {def} {pop pop} ifelse} forall
  /Encoding WinAnsiEncoding def
  currentdict
end
/Courier-Bold exch definefont pop
/Helvetica findfont
dup length dict begin
  {1 index /FID ne {def} {pop pop} ifelse} forall
  /Encoding WinAnsiEncoding def
  currentdict
end
/Helvetica exch definefont pop
/Courier-BoldOblique findfont
dup length dict begin
  {1 index /FID ne {def} {pop pop} ifelse} forall
  /Encoding WinAnsiEncoding def
  currentdict
end
/Courier-BoldOblique exch definefont pop
/Courier-Oblique findfont
dup length dict begin
  {1 index /FID ne {def} {pop pop} ifelse} forall
  /Encoding WinAnsiEncoding def
  currentdict
end
/Courier-Oblique exch definefont pop
/Times-Roman findfont
dup length dict begin
  {1 index /FID ne {def} {pop pop} ifelse} forall
  /Encoding WinAnsiEncoding def
  currentdict
end
/Times-Roman exch definefont pop
/Helvetica-BoldOblique findfont
dup length dict begin
  {1 index /FID ne {def} {pop pop} ifelse} forall
  /Encoding WinAnsiEncoding def
  currentdict
end
/Helvetica-BoldOblique exch definefont pop
/Helvetica-Bold findfont
dup length dict begin
  {1 index /FID ne {def} {pop pop} ifelse} forall
  /Encoding WinAnsiEncoding def
  currentdict
end
/Helvetica-Bold exch definefont pop
/Helvetica-Oblique findfont
dup length dict begin
  {1 index /FID ne {def} {pop pop} ifelse} forall
  /Encoding WinAnsiEncoding def
  currentdict
end
/Helvetica-Oblique exch definefont pop
/Times-BoldItalic findfont
dup length dict begin
  {1 index /FID ne {def} {pop pop} ifelse} forall
  /Encoding WinAnsiEncoding def
  currentdict
end
/Times-BoldItalic exch definefont pop
/Courier findfont
dup length dict begin
  {1 index /FID ne {def} {pop pop} ifelse} forall
  /Encoding WinAnsiEncoding def
  currentdict
end
/Courier exch definefont pop
/Times-Italic findfont
dup length dict begin
  {1 index /FID ne {def} {pop pop} ifelse} forall
  /Encoding WinAnsiEncoding def
  currentdict
end
/Times-Italic exch definefont pop
/Times-Bold findfont
dup length dict begin
  {1 index /FID ne {def} {pop pop} ifelse} forall
  /Encoding WinAnsiEncoding def
  currentdict
end
/Times-Bold exch definefont pop
%FOPEndFontReencode
%%EndProlog
%%Page: 1 1
%%PageBoundingBox: 0 0 576 432
%%BeginPageSetup
[1 0 0 -1 0 432] CT
%%EndPageSetup
GS
1 GC
N
0 0 576 432 re
f
GR
GS
1 GC
N
0 0 576 432 re
f
GR
GS
1 GC
N
75 384.5 M
521.5 384.5 L
521.5 32.5 L
75 32.5 L
cp
f
GR
GS
0.149 GC
2 setlinecap
1 LJ
0.5 LW
N
75 384.5 M
521.5 384.5 L
S
GR
GS
0.149 GC
2 setlinecap
1 LJ
0.5 LW
N
75 384.5 M
75 380.035 L
S
GR
GS
0.149 GC
2 setlinecap
1 LJ
0.5 LW
N
149.417 384.5 M
149.417 380.035 L
S
GR
GS
0.149 GC
2 setlinecap
1 LJ
0.5 LW
N
223.833 384.5 M
223.833 380.035 L
S
GR
GS
0.149 GC
2 setlinecap
1 LJ
0.5 LW
N
298.25 384.5 M
298.25 380.035 L
S
GR
GS
0.149 GC
2 setlinecap
1 LJ
0.5 LW
N
372.667 384.5 M
372.667 380.035 L
S
GR
GS
0.149 GC
2 setlinecap
1 LJ
0.5 LW
N
447.083 384.5 M
447.083 380.035 L
S
GR
GS
0.149 GC
2 setlinecap
1 LJ
0.5 LW
N
521.5 384.5 M
521.5 380.035 L
S
GR
GS
[1 0 0 1 75 389.5] CT
0.149 GC
/Helvetica 15 F
GS
[1 0 0 1 0 0] CT
-4.5 12 moveto 
1 -1 scale
(0) t 
GR
GR
GS
[1 0 0 1 149.41667 389.5] CT
0.149 GC
/Helvetica 15 F
GS
[1 0 0 1 0 0] CT
-8.5 12 moveto 
1 -1 scale
(10) t 
GR
GR
GS
[1 0 0 1 223.83334 389.5] CT
0.149 GC
/Helvetica 15 F
GS
[1 0 0 1 0 0] CT
-8.5 12 moveto 
1 -1 scale
(20) t 
GR
GR
GS
[1 0 0 1 298.25 389.5] CT
0.149 GC
/Helvetica 15 F
GS
[1 0 0 1 0 0] CT
-8.5 12 moveto 
1 -1 scale
(30) t 
GR
GR
GS
[1 0 0 1 372.66669 389.5] CT
0.149 GC
/Helvetica 15 F
GS
[1 0 0 1 0 0] CT
-8.5 12 moveto 
1 -1 scale
(40) t 
GR
GR
GS
[1 0 0 1 447.08331 389.5] CT
0.149 GC
/Helvetica 15 F
GS
[1 0 0 1 0 0] CT
-8.5 12 moveto 
1 -1 scale
(50) t 
GR
GR
GS
[1 0 0 1 521.5 389.5] CT
0.149 GC
/Helvetica 15 F
GS
[1 0 0 1 0 0] CT
-8.5 12 moveto 
1 -1 scale
(60) t 
GR
GR
GS
[1 0 0 1 298.25021 406] CT
0.149 GC
/Helvetica 15 F
GS
[1 0 0 1 0 0] CT
-27.5 12 moveto 
1 -1 scale
(Time \(s\)) t 
GR
GR
GS
0.149 GC
2 setlinecap
1 LJ
0.5 LW
N
75 384.5 M
75 32.5 L
S
GR
GS
0.149 GC
2 setlinecap
1 LJ
0.5 LW
N
75 384.5 M
79.465 384.5 L
S
GR
GS
0.149 GC
2 setlinecap
1 LJ
0.5 LW
N
75 325.833 M
79.465 325.833 L
S
GR
GS
0.149 GC
2 setlinecap
1 LJ
0.5 LW
N
75 267.167 M
79.465 267.167 L
S
GR
GS
0.149 GC
2 setlinecap
1 LJ
0.5 LW
N
75 208.5 M
79.465 208.5 L
S
GR
GS
0.149 GC
2 setlinecap
1 LJ
0.5 LW
N
75 149.833 M
79.465 149.833 L
S
GR
GS
0.149 GC
2 setlinecap
1 LJ
0.5 LW
N
75 91.167 M
79.465 91.167 L
S
GR
GS
0.149 GC
2 setlinecap
1 LJ
0.5 LW
N
75 32.5 M
79.465 32.5 L
S
GR
GS
0.149 GC
2 setlinecap
1 LJ
0.5 LW
N
75 366.84 M
77.232 366.84 L
S
GR
GS
0.149 GC
2 setlinecap
1 LJ
0.5 LW
N
75 356.509 M
77.232 356.509 L
S
GR
GS
0.149 GC
2 setlinecap
1 LJ
0.5 LW
N
75 349.179 M
77.232 349.179 L
S
GR
GS
0.149 GC
2 setlinecap
1 LJ
0.5 LW
N
75 343.494 M
77.232 343.494 L
S
GR
GS
0.149 GC
2 setlinecap
1 LJ
0.5 LW
N
75 338.848 M
77.232 338.848 L
S
GR
GS
0.149 GC
2 setlinecap
1 LJ
0.5 LW
N
75 334.921 M
77.232 334.921 L
S
GR
GS
0.149 GC
2 setlinecap
1 LJ
0.5 LW
N
75 331.519 M
77.232 331.519 L
S
GR
GS
0.149 GC
2 setlinecap
1 LJ
0.5 LW
N
75 328.518 M
77.232 328.518 L
S
GR
GS
0.149 GC
2 setlinecap
1 LJ
0.5 LW
N
75 308.173 M
77.232 308.173 L
S
GR
GS
0.149 GC
2 setlinecap
1 LJ
0.5 LW
N
75 297.842 M
77.232 297.842 L
S
GR
GS
0.149 GC
2 setlinecap
1 LJ
0.5 LW
N
75 290.512 M
77.232 290.512 L
S
GR
GS
0.149 GC
2 setlinecap
1 LJ
0.5 LW
N
75 284.827 M
77.232 284.827 L
S
GR
GS
0.149 GC
2 setlinecap
1 LJ
0.5 LW
N
75 280.182 M
77.232 280.182 L
S
GR
GS
0.149 GC
2 setlinecap
1 LJ
0.5 LW
N
75 276.254 M
77.232 276.254 L
S
GR
GS
0.149 GC
2 setlinecap
1 LJ
0.5 LW
N
75 272.852 M
77.232 272.852 L
S
GR
GS
0.149 GC
2 setlinecap
1 LJ
0.5 LW
N
75 269.851 M
77.232 269.851 L
S
GR
GS
0.149 GC
2 setlinecap
1 LJ
0.5 LW
N
75 249.506 M
77.232 249.506 L
S
GR
GS
0.149 GC
2 setlinecap
1 LJ
0.5 LW
N
75 239.176 M
77.232 239.176 L
S
GR
GS
0.149 GC
2 setlinecap
1 LJ
0.5 LW
N
75 231.846 M
77.232 231.846 L
S
GR
GS
0.149 GC
2 setlinecap
1 LJ
0.5 LW
N
75 226.16 M
77.232 226.16 L
S
GR
GS
0.149 GC
2 setlinecap
1 LJ
0.5 LW
N
75 221.515 M
77.232 221.515 L
S
GR
GS
0.149 GC
2 setlinecap
1 LJ
0.5 LW
N
75 217.588 M
77.232 217.588 L
S
GR
GS
0.149 GC
2 setlinecap
1 LJ
0.5 LW
N
75 214.185 M
77.232 214.185 L
S
GR
GS
0.149 GC
2 setlinecap
1 LJ
0.5 LW
N
75 211.184 M
77.232 211.184 L
S
GR
GS
0.149 GC
2 setlinecap
1 LJ
0.5 LW
N
75 190.84 M
77.232 190.84 L
S
GR
GS
0.149 GC
2 setlinecap
1 LJ
0.5 LW
N
75 180.509 M
77.232 180.509 L
S
GR
GS
0.149 GC
2 setlinecap
1 LJ
0.5 LW
N
75 173.179 M
77.232 173.179 L
S
GR
GS
0.149 GC
2 setlinecap
1 LJ
0.5 LW
N
75 167.494 M
77.232 167.494 L
S
GR
GS
0.149 GC
2 setlinecap
1 LJ
0.5 LW
N
75 162.848 M
77.232 162.848 L
S
GR
GS
0.149 GC
2 setlinecap
1 LJ
0.5 LW
N
75 158.921 M
77.232 158.921 L
S
GR
GS
0.149 GC
2 setlinecap
1 LJ
0.5 LW
N
75 155.519 M
77.232 155.519 L
S
GR
GS
0.149 GC
2 setlinecap
1 LJ
0.5 LW
N
75 152.518 M
77.232 152.518 L
S
GR
GS
0.149 GC
2 setlinecap
1 LJ
0.5 LW
N
75 132.173 M
77.232 132.173 L
S
GR
GS
0.149 GC
2 setlinecap
1 LJ
0.5 LW
N
75 121.842 M
77.232 121.842 L
S
GR
GS
0.149 GC
2 setlinecap
1 LJ
0.5 LW
N
75 114.512 M
77.232 114.512 L
S
GR
GS
0.149 GC
2 setlinecap
1 LJ
0.5 LW
N
75 108.827 M
77.232 108.827 L
S
GR
GS
0.149 GC
2 setlinecap
1 LJ
0.5 LW
N
75 104.182 M
77.232 104.182 L
S
GR
GS
0.149 GC
2 setlinecap
1 LJ
0.5 LW
N
75 100.254 M
77.232 100.254 L
S
GR
GS
0.149 GC
2 setlinecap
1 LJ
0.5 LW
N
75 96.852 M
77.232 96.852 L
S
GR
GS
0.149 GC
2 setlinecap
1 LJ
0.5 LW
N
75 93.851 M
77.232 93.851 L
S
GR
GS
0.149 GC
2 setlinecap
1 LJ
0.5 LW
N
75 73.506 M
77.232 73.506 L
S
GR
GS
0.149 GC
2 setlinecap
1 LJ
0.5 LW
N
75 63.176 M
77.232 63.176 L
S
GR
GS
0.149 GC
2 setlinecap
1 LJ
0.5 LW
N
75 55.846 M
77.232 55.846 L
S
GR
GS
0.149 GC
2 setlinecap
1 LJ
0.5 LW
N
75 50.16 M
77.232 50.16 L
S
GR
GS
0.149 GC
2 setlinecap
1 LJ
0.5 LW
N
75 45.515 M
77.232 45.515 L
S
GR
GS
0.149 GC
2 setlinecap
1 LJ
0.5 LW
N
75 41.588 M
77.232 41.588 L
S
GR
GS
0.149 GC
2 setlinecap
1 LJ
0.5 LW
N
75 38.185 M
77.232 38.185 L
S
GR
GS
0.149 GC
2 setlinecap
1 LJ
0.5 LW
N
75 35.184 M
77.232 35.184 L
S
GR
GS
[1 0 0 1 42 392] CT
0.149 GC
/Helvetica 15 F
GS
[1 0 0 1 0 0] CT
0 0 moveto 
1 -1 scale
(10) t 
GR
GR
GS
[1 0 0 1 59 385] CT
0.149 GC
/Helvetica 12 F
GS
[1 0 0 1 0 0] CT
0 0 moveto 
1 -1 scale
(-5) t 
GR
GR
GS
[1 0 0 1 42 333] CT
0.149 GC
/Helvetica 15 F
GS
[1 0 0 1 0 0] CT
0 0 moveto 
1 -1 scale
(10) t 
GR
GR
GS
[1 0 0 1 59 326] CT
0.149 GC
/Helvetica 12 F
GS
[1 0 0 1 0 0] CT
0 0 moveto 
1 -1 scale
(-4) t 
GR
GR
GS
[1 0 0 1 42 274] CT
0.149 GC
/Helvetica 15 F
GS
[1 0 0 1 0 0] CT
0 0 moveto 
1 -1 scale
(10) t 
GR
GR
GS
[1 0 0 1 59 267] CT
0.149 GC
/Helvetica 12 F
GS
[1 0 0 1 0 0] CT
0 0 moveto 
1 -1 scale
(-3) t 
GR
GR
GS
[1 0 0 1 42 216] CT
0.149 GC
/Helvetica 15 F
GS
[1 0 0 1 0 0] CT
0 0 moveto 
1 -1 scale
(10) t 
GR
GR
GS
[1 0 0 1 59 209] CT
0.149 GC
/Helvetica 12 F
GS
[1 0 0 1 0 0] CT
0 0 moveto 
1 -1 scale
(-2) t 
GR
GR
GS
[1 0 0 1 42 157] CT
0.149 GC
/Helvetica 15 F
GS
[1 0 0 1 0 0] CT
0 0 moveto 
1 -1 scale
(10) t 
GR
GR
GS
[1 0 0 1 59 150] CT
0.149 GC
/Helvetica 12 F
GS
[1 0 0 1 0 0] CT
0 0 moveto 
1 -1 scale
(-1) t 
GR
GR
GS
[1 0 0 1 46 98] CT
0.149 GC
/Helvetica 15 F
GS
[1 0 0 1 0 0] CT
0 0 moveto 
1 -1 scale
(10) t 
GR
GR
GS
[1 0 0 1 63 91] CT
0.149 GC
/Helvetica 12 F
GS
[1 0 0 1 0 0] CT
0 0 moveto 
1 -1 scale
(0) t 
GR
GR
GS
[1 0 0 1 46 40] CT
0.149 GC
/Helvetica 15 F
GS
[1 0 0 1 0 0] CT
0 0 moveto 
1 -1 scale
(10) t 
GR
GR
GS
[1 0 0 1 63 33] CT
0.149 GC
/Helvetica 12 F
GS
[1 0 0 1 0 0] CT
0 0 moveto 
1 -1 scale
(1) t 
GR
GR
GS
[0 -1 1 0 39 208.49983] CT
0.149 GC
/Helvetica 15 F
GS
[1 0 0 1 0 0] CT
-22 -4 moveto 
1 -1 scale
(Train RMSE) t 
GR
GR
GS
[1 0 0 1 298.25031 30.4375] CT
/Helvetica-Bold 17 F
GS
[1 0 0 1 0 0] CT
-157 -4 moveto 
1 -1 scale
( ) t 
GR
GR
GS
0 0.447 0.741 RC
1 LJ
2 LW
N
75 52.794 M
122.302 72.89 L
169.302 115.584 L
216.51 156.548 L
263.642 193.956 L
310.864 231.534 L
358.149 270.428 L
405.432 311.311 L
452.43 350.746 L
S
GR
GS
0.851 0.325 0.098 RC
1 LJ
2 LW
N
75 52.794 M
75.338 52.797 L
75.58 52.801 L
75.77 52.805 L
75.959 52.81 L
76.176 52.815 L
76.406 52.821 L
76.651 52.827 L
76.898 52.835 L
77.149 52.843 L
77.403 52.852 L
77.668 52.862 L
77.946 52.873 L
78.237 52.884 L
78.524 52.898 L
78.816 52.913 L
79.117 52.931 L
79.372 52.95 L
79.661 52.971 L
79.923 52.994 L
80.192 53.019 L
80.464 53.047 L
80.734 53.079 L
81.015 53.113 L
81.298 53.151 L
81.582 53.195 L
81.867 53.241 L
82.154 53.292 L
82.449 53.351 L
82.761 53.412 L
83.067 53.485 L
83.379 53.56 L
83.712 53.647 L
84.036 53.738 L
84.36 53.838 L
84.696 53.947 L
85.028 54.068 L
85.368 54.204 L
85.709 54.345 L
86.038 54.499 L
86.365 54.668 L
86.691 54.853 L
87.027 55.054 L
87.353 55.268 L
87.707 55.498 L
88.063 55.739 L
88.418 56.002 L
88.777 56.266 L
89.136 56.56 L
89.492 56.867 L
S
GR
GS
0.851 0.325 0.098 RC
1 LJ
2 LW
N
89.136 56.56 M
89.492 56.867 L
89.839 57.186 L
90.185 57.539 L
90.53 57.904 L
90.878 58.272 L
91.229 58.628 L
91.583 59.012 L
91.938 59.402 L
92.296 59.772 L
92.664 60.14 L
93.033 60.5 L
93.41 60.842 L
93.791 61.159 L
94.182 61.456 L
94.582 61.726 L
94.982 61.971 L
95.38 62.223 L
95.78 62.432 L
96.175 62.639 L
96.582 62.842 L
96.983 63.088 L
97.386 63.323 L
97.786 63.654 L
98.19 64.032 L
98.598 64.475 L
99.004 64.978 L
99.423 65.633 L
99.838 66.115 L
100.251 66.803 L
100.677 67.517 L
101.102 68.173 L
101.525 68.796 L
101.943 69.316 L
102.371 69.292 L
102.798 72.136 L
103.23 74.431 L
103.658 76.631 L
104.098 78.776 L
104.541 81.13 L
104.979 83.548 L
105.413 85.958 L
105.855 87.971 L
106.306 89.599 L
106.746 90.479 L
107.194 90.38 L
107.645 95.143 L
108.107 99.372 L
108.574 103.179 L
109.03 106.816 L
109.487 110.168 L
109.945 112.949 L
S
GR
GS
0.851 0.325 0.098 RC
1 LJ
2 LW
N
109.487 110.168 M
109.945 112.949 L
110.407 114.867 L
110.88 115.864 L
111.353 115.287 L
111.828 120.789 L
112.305 125.567 L
112.793 129.874 L
113.276 133.938 L
113.758 137.391 L
114.239 139.44 L
114.732 141.263 L
115.222 142.021 L
115.72 140.924 L
116.205 146.904 L
116.703 152.486 L
117.195 157.046 L
117.686 160.849 L
118.183 164.336 L
118.685 166.638 L
119.193 168.383 L
119.703 169.021 L
120.213 166.973 L
120.731 173.281 L
121.239 178.795 L
121.756 183.852 L
122.274 188.198 L
122.799 191.807 L
123.32 194.06 L
123.848 194.754 L
124.386 191.687 L
124.948 199.396 L
125.504 205.258 L
126.064 210.288 L
126.654 215.133 L
127.288 217.759 L
127.852 220.869 L
128.404 223.222 L
128.963 223.396 L
129.516 217.738 L
130.086 224.075 L
130.648 229.613 L
131.243 234.993 L
131.81 239.72 L
132.402 242.973 L
133 246.27 L
133.585 248.683 L
134.153 249.641 L
134.719 247.768 L
135.282 255.231 L
135.849 261.88 L
136.415 267.668 L
S
GR
GS
0.851 0.325 0.098 RC
1 LJ
2 LW
N
135.849 261.88 M
136.415 267.668 L
136.976 272.655 L
137.539 276.908 L
138.12 279.967 L
138.68 282.096 L
139.257 283.022 L
139.824 280.964 L
140.41 289.145 L
140.978 295.693 L
141.562 301.546 L
142.136 306.525 L
142.72 310.44 L
143.316 312.626 L
143.901 313.925 L
144.51 313.431 L
145.152 321.395 L
145.757 328.448 L
S
GR
GS
0.929 0.694 0.125 RC
1 LJ
2 LW
N
75 52.794 M
77.276 52.799 L
78.135 52.805 L
79.936 52.81 L
80.179 52.814 L
80.893 52.822 L
82.878 52.829 L
83.186 52.836 L
85.152 52.844 L
85.955 52.856 L
86.698 52.868 L
89.074 52.879 L
91.109 52.892 L
91.725 52.909 L
93.112 52.925 L
94.073 52.945 L
96.347 52.963 L
97.669 52.985 L
100.1 53.006 L
101.836 53.031 L
103.216 53.061 L
105.145 53.09 L
107.345 53.12 L
108.333 53.161 L
110.137 53.201 L
112.863 53.239 L
113.411 53.296 L
115.519 53.346 L
117.161 53.404 L
118.366 53.474 L
118.929 53.556 L
121.749 53.62 L
124.041 53.696 L
125.679 53.787 L
127.394 53.887 L
129.357 53.992 L
131.782 54.099 L
132.697 54.248 L
135.367 54.37 L
136.368 54.543 L
136.779 54.726 L
138.577 54.904 L
141.176 55.071 L
143.368 55.263 L
144.42 55.512 L
147.22 55.712 L
148.166 56.001 L
150.26 56.258 L
152.52 56.525 L
153.063 56.876 L
S
GR
GS
0.929 0.694 0.125 RC
1 LJ
2 LW
N
152.52 56.525 M
153.063 56.876 L
155.832 57.15 L
156.426 57.546 L
158.414 57.879 L
159.167 58.296 L
160.139 58.711 L
161.442 59.113 L
163.483 59.48 L
165.485 59.846 L
167.433 60.227 L
168.151 60.639 L
169.374 61.036 L
169.744 61.25 L
171.054 61.636 L
173.672 61.949 L
173.975 61.92 L
174.811 62.139 L
175.59 62.372 L
178.426 62.557 L
180.812 62.763 L
181.332 62.984 L
182.937 63.253 L
184.336 63.554 L
186.572 63.859 L
188.548 64.22 L
189.317 64.659 L
191.018 65.178 L
193.785 65.707 L
195.143 66.413 L
196.523 67.273 L
197.485 68.234 L
199.553 69.314 L
200.269 70.364 L
202.003 71.849 L
204.736 73.33 L
205.284 74.191 L
206.346 76.443 L
206.797 76.839 L
207.37 78.993 L
209.322 82.838 L
209.621 76.259 L
210.727 80.144 L
213.34 82.949 L
216.187 85.491 L
218.047 88.51 L
220.147 91.922 L
220.549 92.008 L
222.578 97.76 L
223.334 102.675 L
225.368 109.154 L
225.819 109.221 L
S
GR
GS
0.929 0.694 0.125 RC
1 LJ
2 LW
N
225.368 109.154 M
225.819 109.221 L
226.856 117.762 L
229.379 126.205 L
231.515 133.876 L
231.977 129.483 L
233.872 136.683 L
235.907 143.11 L
238.563 148.538 L
239.065 148.83 L
240.904 157.132 L
241.501 158.09 L
243.232 167.854 L
244.648 174.992 L
246.713 183.139 L
247.554 183.675 L
247.877 163.322 L
249.26 175.814 L
250.876 187.071 L
251.871 195.061 L
252.662 197.047 L
255.872 208.841 L
258.178 218.176 L
260.845 226.145 L
262.045 230.435 L
263.486 237.603 L
265.881 248.537 L
268.6 257.889 L
269.819 256.141 L
272.427 270.203 L
274.32 278.52 L
276.15 285.201 L
276.663 277.302 L
277.47 285.087 L
279.387 293.378 L
281.169 299.788 L
284.136 305.306 L
284.495 296.193 L
285.626 302.877 L
288.103 308.159 L
288.563 308.885 L
290.127 315.332 L
292.663 320.525 L
293.096 316.263 L
295.113 320.497 L
296.219 324.815 L
298.98 328.173 L
S
GR
GS
0.494 0.184 0.557 RC
1 LJ
2 LW
N
75 52.794 M
75.685 52.8 L
76.23 52.806 L
76.765 52.812 L
77.299 52.819 L
77.827 52.827 L
78.355 52.836 L
78.889 52.846 L
79.421 52.856 L
79.952 52.868 L
80.481 52.88 L
81.012 52.894 L
81.546 52.91 L
82.07 52.927 L
82.606 52.945 L
83.136 52.966 L
83.659 52.988 L
84.198 53.012 L
84.736 53.039 L
85.277 53.069 L
85.798 53.103 L
86.316 53.138 L
86.847 53.178 L
87.375 53.221 L
87.903 53.269 L
88.437 53.321 L
88.968 53.377 L
89.49 53.438 L
90.016 53.506 L
90.542 53.583 L
91.074 53.663 L
91.604 53.753 L
92.136 53.846 L
92.67 53.948 L
93.187 54.063 L
93.7 54.186 L
94.213 54.321 L
94.72 54.465 L
95.234 54.625 L
95.743 54.797 L
96.252 54.981 L
96.76 55.18 L
97.295 55.399 L
97.828 55.628 L
98.364 55.879 L
98.898 56.149 L
99.432 56.435 L
99.962 56.733 L
100.495 57.051 L
101.001 57.38 L
S
GR
GS
0.494 0.184 0.557 RC
1 LJ
2 LW
N
100.495 57.051 M
101.001 57.38 L
101.559 57.722 L
102.095 58.097 L
102.635 58.459 L
103.166 58.839 L
103.694 59.214 L
104.233 59.588 L
104.775 59.964 L
105.319 60.327 L
105.857 60.698 L
106.406 61.046 L
106.936 61.39 L
107.47 61.703 L
107.999 62.008 L
108.549 62.305 L
109.101 62.584 L
109.638 62.874 L
110.174 63.15 L
110.713 63.482 L
111.244 63.883 L
111.775 64.336 L
112.304 64.897 L
112.834 65.535 L
113.363 66.338 L
113.89 67.219 L
114.418 68.242 L
114.953 69.368 L
115.484 70.591 L
116.022 71.879 L
116.553 73.233 L
117.085 74.762 L
117.614 76.262 L
118.151 77.563 L
118.684 78.867 L
119.214 79.747 L
119.744 79.885 L
120.269 79.315 L
120.796 82.68 L
121.327 84.862 L
121.85 86.099 L
122.386 86.682 L
122.918 86.819 L
123.451 86.508 L
123.99 89.044 L
124.523 91.293 L
125.061 94.41 L
125.587 98.113 L
126.112 102.324 L
126.716 106.297 L
127.253 110.256 L
127.795 113.631 L
S
GR
GS
0.494 0.184 0.557 RC
1 LJ
2 LW
N
127.253 110.256 M
127.795 113.631 L
128.33 116.532 L
128.873 118.737 L
129.416 119.955 L
129.965 120.039 L
130.507 117.122 L
131.047 123.272 L
131.589 128.424 L
132.127 133.107 L
132.681 136.789 L
133.214 140.107 L
133.737 141.736 L
134.27 141.875 L
134.798 139.921 L
135.331 146.336 L
135.861 151.909 L
136.388 156.578 L
136.913 160.467 L
137.442 163.156 L
137.97 165.286 L
138.501 164.378 L
139.032 170.369 L
139.556 175.668 L
140.09 180.237 L
140.629 184.699 L
141.154 188.587 L
141.691 191.701 L
142.212 192.28 L
142.743 192.547 L
143.269 190.722 L
143.803 196.746 L
144.329 202.073 L
144.86 206.411 L
145.397 210.482 L
145.928 213.648 L
146.463 216.313 L
146.994 217.056 L
147.521 215.955 L
148.055 222.271 L
148.58 227.706 L
149.119 232.777 L
149.647 237.161 L
150.189 240.612 L
150.72 243.367 L
151.244 245.02 L
151.774 244.319 L
152.3 250.672 L
152.828 256.153 L
153.351 260.929 L
153.88 264.815 L
154.421 268.003 L
S
GR
GS
0.494 0.184 0.557 RC
1 LJ
2 LW
N
153.88 264.815 M
154.421 268.003 L
154.958 271.104 L
155.481 272.503 L
156 273.002 L
156.536 272.03 L
157.065 278.282 L
157.592 283.735 L
158.116 288.432 L
158.646 292.548 L
159.172 295.315 L
159.697 296.996 L
160.219 296.13 L
160.748 302.361 L
161.276 307.515 L
161.808 312.002 L
162.331 315.982 L
162.86 319.399 L
163.38 322.853 L
163.902 325.223 L
164.428 326.483 L
S
GR
GS
[1 0 0 1 368.5 51.5] CT
/Helvetica 14 F
GS
[1 0 0 1 0 0] CT
0 3.5 moveto 
1 -1 scale
(Random shuffling) t 
GR
GR
GS
0 0.447 0.741 RC
1 LJ
2 LW
N
335.5 51.5 M
365.5 51.5 L
S
GR
GS
[1 0 0 1 368.5 66] CT
/Helvetica 14 F
GS
[1 0 0 1 0 0] CT
0 3.5 moveto 
1 -1 scale
(Increasing batch-size) t 
GR
GR
GS
0.851 0.325 0.098 RC
1 LJ
2 LW
N
335.5 66 M
365.5 66 L
S
GR
GS
[1 0 0 1 368.5 80.5] CT
/Helvetica 14 F
GS
[1 0 0 1 0 0] CT
0 3.5 moveto 
1 -1 scale
(Random batch-size) t 
GR
GR
GS
0.929 0.694 0.125 RC
1 LJ
2 LW
N
335.5 80.5 M
365.5 80.5 L
S
GR
GS
[1 0 0 1 368.5 95] CT
/Helvetica 14 F
GS
[1 0 0 1 0 0] CT
0 3.5 moveto 
1 -1 scale
(Constant batch-size) t 
GR
GR
GS
0.494 0.184 0.557 RC
1 LJ
2 LW
N
335.5 95 M
365.5 95 L
S
GR
%%Trailer
%%Pages: 1
%%EOF
