%!PS-Adobe-3.0 EPSF-3.0
%%Creator: (MATLAB, The Mathworks, Inc. Version 8.6.0.267246 \(R2015b\). Operating System: Mac OS X)
%%Title: /Users/gauthiermuguerza/Desktop/rsgd/code/increaseOrConstant.eps
%%CreationDate: 2018-05-26T23:19:24
%%Pages: (atend)
%%BoundingBox: 0 0 560 420
%%LanguageLevel: 2
%%EndComments
%%BeginProlog
%%BeginResource: procset (Apache XML Graphics Std ProcSet) 1.2 0
%%Version: 1.2 0
%%Copyright: (Copyright 2001-2003,2010 The Apache Software Foundation. License terms: http://www.apache.org/licenses/LICENSE-2.0)
/bd{bind def}bind def
/ld{load def}bd
/GR/grestore ld
/M/moveto ld
/LJ/setlinejoin ld
/C/curveto ld
/f/fill ld
/LW/setlinewidth ld
/GC/setgray ld
/t/show ld
/N/newpath ld
/CT/concat ld
/cp/closepath ld
/S/stroke ld
/L/lineto ld
/CC/setcmykcolor ld
/A/ashow ld
/GS/gsave ld
/RC/setrgbcolor ld
/RM/rmoveto ld
/ML/setmiterlimit ld
/re {4 2 roll M
1 index 0 rlineto
0 exch rlineto
neg 0 rlineto
cp } bd
/_ctm matrix def
/_tm matrix def
/BT { _ctm currentmatrix pop matrix _tm copy pop 0 0 moveto } bd
/ET { _ctm setmatrix } bd
/iTm { _ctm setmatrix _tm concat } bd
/Tm { _tm astore pop iTm 0 0 moveto } bd
/ux 0.0 def
/uy 0.0 def
/F {
  /Tp exch def
  /Tf exch def
  Tf findfont Tp scalefont setfont
  /cf Tf def  /cs Tp def
} bd
/ULS {currentpoint /uy exch def /ux exch def} bd
/ULE {
  /Tcx currentpoint pop def
  gsave
  newpath
  cf findfont cs scalefont dup
  /FontMatrix get 0 get /Ts exch def /FontInfo get dup
  /UnderlinePosition get Ts mul /To exch def
  /UnderlineThickness get Ts mul /Tt exch def
  ux uy To add moveto  Tcx uy To add lineto
  Tt setlinewidth stroke
  grestore
} bd
/OLE {
  /Tcx currentpoint pop def
  gsave
  newpath
  cf findfont cs scalefont dup
  /FontMatrix get 0 get /Ts exch def /FontInfo get dup
  /UnderlinePosition get Ts mul /To exch def
  /UnderlineThickness get Ts mul /Tt exch def
  ux uy To add cs add moveto Tcx uy To add cs add lineto
  Tt setlinewidth stroke
  grestore
} bd
/SOE {
  /Tcx currentpoint pop def
  gsave
  newpath
  cf findfont cs scalefont dup
  /FontMatrix get 0 get /Ts exch def /FontInfo get dup
  /UnderlinePosition get Ts mul /To exch def
  /UnderlineThickness get Ts mul /Tt exch def
  ux uy To add cs 10 mul 26 idiv add moveto Tcx uy To add cs 10 mul 26 idiv add lineto
  Tt setlinewidth stroke
  grestore
} bd
/QT {
/Y22 exch store
/X22 exch store
/Y21 exch store
/X21 exch store
currentpoint
/Y21 load 2 mul add 3 div exch
/X21 load 2 mul add 3 div exch
/X21 load 2 mul /X22 load add 3 div
/Y21 load 2 mul /Y22 load add 3 div
/X22 load /Y22 load curveto
} bd
/SSPD {
dup length /d exch dict def
{
/v exch def
/k exch def
currentpagedevice k known {
/cpdv currentpagedevice k get def
v cpdv ne {
/upd false def
/nullv v type /nulltype eq def
/nullcpdv cpdv type /nulltype eq def
nullv nullcpdv or
{
/upd true def
} {
/sametype v type cpdv type eq def
sametype {
v type /arraytype eq {
/vlen v length def
/cpdvlen cpdv length def
vlen cpdvlen eq {
0 1 vlen 1 sub {
/i exch def
/obj v i get def
/cpdobj cpdv i get def
obj cpdobj ne {
/upd true def
exit
} if
} for
} {
/upd true def
} ifelse
} {
v type /dicttype eq {
v {
/dv exch def
/dk exch def
/cpddv cpdv dk get def
dv cpddv ne {
/upd true def
exit
} if
} forall
} {
/upd true def
} ifelse
} ifelse
} if
} ifelse
upd true eq {
d k v put
} if
} if
} if
} forall
d length 0 gt {
d setpagedevice
} if
} bd
%%EndResource
%%BeginResource: procset (Apache XML Graphics EPS ProcSet) 1.0 0
%%Version: 1.0 0
%%Copyright: (Copyright 2002-2003 The Apache Software Foundation. License terms: http://www.apache.org/licenses/LICENSE-2.0)
/BeginEPSF { %def
/b4_Inc_state save def         % Save state for cleanup
/dict_count countdictstack def % Count objects on dict stack
/op_count count 1 sub def      % Count objects on operand stack
userdict begin                 % Push userdict on dict stack
/showpage { } def              % Redefine showpage, { } = null proc
0 setgray 0 setlinecap         % Prepare graphics state
1 setlinewidth 0 setlinejoin
10 setmiterlimit [ ] 0 setdash newpath
/languagelevel where           % If level not equal to 1 then
{pop languagelevel             % set strokeadjust and
1 ne                           % overprint to their defaults.
{false setstrokeadjust false setoverprint
} if
} if
} bd
/EndEPSF { %def
count op_count sub {pop} repeat            % Clean up stacks
countdictstack dict_count sub {end} repeat
b4_Inc_state restore
} bd
%%EndResource
%FOPBeginFontDict
%%IncludeResource: font Courier-Bold
%%IncludeResource: font Helvetica
%%IncludeResource: font Courier-BoldOblique
%%IncludeResource: font Courier-Oblique
%%IncludeResource: font Times-Roman
%%IncludeResource: font Helvetica-BoldOblique
%%IncludeResource: font Helvetica-Bold
%%IncludeResource: font Helvetica-Oblique
%%IncludeResource: font Times-BoldItalic
%%IncludeResource: font Courier
%%IncludeResource: font Times-Italic
%%IncludeResource: font Times-Bold
%%IncludeResource: font Symbol
%%IncludeResource: font ZapfDingbats
%FOPEndFontDict
%%BeginResource: encoding WinAnsiEncoding
/WinAnsiEncoding [
/.notdef /.notdef /.notdef /.notdef /.notdef
/.notdef /.notdef /.notdef /.notdef /.notdef
/.notdef /.notdef /.notdef /.notdef /.notdef
/.notdef /.notdef /.notdef /.notdef /.notdef
/.notdef /.notdef /.notdef /.notdef /.notdef
/.notdef /.notdef /.notdef /.notdef /.notdef
/.notdef /.notdef /space /exclam /quotedbl
/numbersign /dollar /percent /ampersand /quotesingle
/parenleft /parenright /asterisk /plus /comma
/hyphen /period /slash /zero /one
/two /three /four /five /six
/seven /eight /nine /colon /semicolon
/less /equal /greater /question /at
/A /B /C /D /E
/F /G /H /I /J
/K /L /M /N /O
/P /Q /R /S /T
/U /V /W /X /Y
/Z /bracketleft /backslash /bracketright /asciicircum
/underscore /quoteleft /a /b /c
/d /e /f /g /h
/i /j /k /l /m
/n /o /p /q /r
/s /t /u /v /w
/x /y /z /braceleft /bar
/braceright /asciitilde /bullet /Euro /bullet
/quotesinglbase /florin /quotedblbase /ellipsis /dagger
/daggerdbl /circumflex /perthousand /Scaron /guilsinglleft
/OE /bullet /Zcaron /bullet /bullet
/quoteleft /quoteright /quotedblleft /quotedblright /bullet
/endash /emdash /asciitilde /trademark /scaron
/guilsinglright /oe /bullet /zcaron /Ydieresis
/space /exclamdown /cent /sterling /currency
/yen /brokenbar /section /dieresis /copyright
/ordfeminine /guillemotleft /logicalnot /sfthyphen /registered
/macron /degree /plusminus /twosuperior /threesuperior
/acute /mu /paragraph /middot /cedilla
/onesuperior /ordmasculine /guillemotright /onequarter /onehalf
/threequarters /questiondown /Agrave /Aacute /Acircumflex
/Atilde /Adieresis /Aring /AE /Ccedilla
/Egrave /Eacute /Ecircumflex /Edieresis /Igrave
/Iacute /Icircumflex /Idieresis /Eth /Ntilde
/Ograve /Oacute /Ocircumflex /Otilde /Odieresis
/multiply /Oslash /Ugrave /Uacute /Ucircumflex
/Udieresis /Yacute /Thorn /germandbls /agrave
/aacute /acircumflex /atilde /adieresis /aring
/ae /ccedilla /egrave /eacute /ecircumflex
/edieresis /igrave /iacute /icircumflex /idieresis
/eth /ntilde /ograve /oacute /ocircumflex
/otilde /odieresis /divide /oslash /ugrave
/uacute /ucircumflex /udieresis /yacute /thorn
/ydieresis
] def
%%EndResource
%FOPBeginFontReencode
/Courier-Bold findfont
dup length dict begin
  {1 index /FID ne {def} {pop pop} ifelse} forall
  /Encoding WinAnsiEncoding def
  currentdict
end
/Courier-Bold exch definefont pop
/Helvetica findfont
dup length dict begin
  {1 index /FID ne {def} {pop pop} ifelse} forall
  /Encoding WinAnsiEncoding def
  currentdict
end
/Helvetica exch definefont pop
/Courier-BoldOblique findfont
dup length dict begin
  {1 index /FID ne {def} {pop pop} ifelse} forall
  /Encoding WinAnsiEncoding def
  currentdict
end
/Courier-BoldOblique exch definefont pop
/Courier-Oblique findfont
dup length dict begin
  {1 index /FID ne {def} {pop pop} ifelse} forall
  /Encoding WinAnsiEncoding def
  currentdict
end
/Courier-Oblique exch definefont pop
/Times-Roman findfont
dup length dict begin
  {1 index /FID ne {def} {pop pop} ifelse} forall
  /Encoding WinAnsiEncoding def
  currentdict
end
/Times-Roman exch definefont pop
/Helvetica-BoldOblique findfont
dup length dict begin
  {1 index /FID ne {def} {pop pop} ifelse} forall
  /Encoding WinAnsiEncoding def
  currentdict
end
/Helvetica-BoldOblique exch definefont pop
/Helvetica-Bold findfont
dup length dict begin
  {1 index /FID ne {def} {pop pop} ifelse} forall
  /Encoding WinAnsiEncoding def
  currentdict
end
/Helvetica-Bold exch definefont pop
/Helvetica-Oblique findfont
dup length dict begin
  {1 index /FID ne {def} {pop pop} ifelse} forall
  /Encoding WinAnsiEncoding def
  currentdict
end
/Helvetica-Oblique exch definefont pop
/Times-BoldItalic findfont
dup length dict begin
  {1 index /FID ne {def} {pop pop} ifelse} forall
  /Encoding WinAnsiEncoding def
  currentdict
end
/Times-BoldItalic exch definefont pop
/Courier findfont
dup length dict begin
  {1 index /FID ne {def} {pop pop} ifelse} forall
  /Encoding WinAnsiEncoding def
  currentdict
end
/Courier exch definefont pop
/Times-Italic findfont
dup length dict begin
  {1 index /FID ne {def} {pop pop} ifelse} forall
  /Encoding WinAnsiEncoding def
  currentdict
end
/Times-Italic exch definefont pop
/Times-Bold findfont
dup length dict begin
  {1 index /FID ne {def} {pop pop} ifelse} forall
  /Encoding WinAnsiEncoding def
  currentdict
end
/Times-Bold exch definefont pop
%FOPEndFontReencode
%%EndProlog
%%Page: 1 1
%%PageBoundingBox: 0 0 560 420
%%BeginPageSetup
[1 0 0 -1 0 420] CT
%%EndPageSetup
GS
1 GC
N
0 0 560 420 re
f
GR
GS
1 GC
N
0 0 560 420 re
f
GR
GS
1 GC
N
73 374 M
507 374 L
507 31.5 L
73 31.5 L
cp
f
GR
GS
0.149 GC
2 setlinecap
1 LJ
0.5 LW
N
73 374 M
507 374 L
S
GR
GS
0.149 GC
2 setlinecap
1 LJ
0.5 LW
N
73 374 M
73 369.66 L
S
GR
GS
0.149 GC
2 setlinecap
1 LJ
0.5 LW
N
116.4 374 M
116.4 369.66 L
S
GR
GS
0.149 GC
2 setlinecap
1 LJ
0.5 LW
N
159.8 374 M
159.8 369.66 L
S
GR
GS
0.149 GC
2 setlinecap
1 LJ
0.5 LW
N
203.2 374 M
203.2 369.66 L
S
GR
GS
0.149 GC
2 setlinecap
1 LJ
0.5 LW
N
246.6 374 M
246.6 369.66 L
S
GR
GS
0.149 GC
2 setlinecap
1 LJ
0.5 LW
N
290 374 M
290 369.66 L
S
GR
GS
0.149 GC
2 setlinecap
1 LJ
0.5 LW
N
333.4 374 M
333.4 369.66 L
S
GR
GS
0.149 GC
2 setlinecap
1 LJ
0.5 LW
N
376.8 374 M
376.8 369.66 L
S
GR
GS
0.149 GC
2 setlinecap
1 LJ
0.5 LW
N
420.2 374 M
420.2 369.66 L
S
GR
GS
0.149 GC
2 setlinecap
1 LJ
0.5 LW
N
463.6 374 M
463.6 369.66 L
S
GR
GS
0.149 GC
2 setlinecap
1 LJ
0.5 LW
N
507 374 M
507 369.66 L
S
GR
GS
[1 0 0 1 73 378] CT
0.149 GC
/Helvetica 10 F
GS
[1 0 0 1 0 0] CT
-3 8 moveto 
1 -1 scale
(0) t 
GR
GR
GS
[1 0 0 1 116.4 378] CT
0.149 GC
/Helvetica 10 F
GS
[1 0 0 1 0 0] CT
-3 8 moveto 
1 -1 scale
(5) t 
GR
GR
GS
[1 0 0 1 159.8 378] CT
0.149 GC
/Helvetica 10 F
GS
[1 0 0 1 0 0] CT
-6 8 moveto 
1 -1 scale
(10) t 
GR
GR
GS
[1 0 0 1 203.20001 378] CT
0.149 GC
/Helvetica 10 F
GS
[1 0 0 1 0 0] CT
-6 8 moveto 
1 -1 scale
(15) t 
GR
GR
GS
[1 0 0 1 246.60001 378] CT
0.149 GC
/Helvetica 10 F
GS
[1 0 0 1 0 0] CT
-6 8 moveto 
1 -1 scale
(20) t 
GR
GR
GS
[1 0 0 1 290 378] CT
0.149 GC
/Helvetica 10 F
GS
[1 0 0 1 0 0] CT
-6 8 moveto 
1 -1 scale
(25) t 
GR
GR
GS
[1 0 0 1 333.40002 378] CT
0.149 GC
/Helvetica 10 F
GS
[1 0 0 1 0 0] CT
-6 8 moveto 
1 -1 scale
(30) t 
GR
GR
GS
[1 0 0 1 376.79999 378] CT
0.149 GC
/Helvetica 10 F
GS
[1 0 0 1 0 0] CT
-6 8 moveto 
1 -1 scale
(35) t 
GR
GR
GS
[1 0 0 1 420.20001 378] CT
0.149 GC
/Helvetica 10 F
GS
[1 0 0 1 0 0] CT
-6 8 moveto 
1 -1 scale
(40) t 
GR
GR
GS
[1 0 0 1 463.59998 378] CT
0.149 GC
/Helvetica 10 F
GS
[1 0 0 1 0 0] CT
-6 8 moveto 
1 -1 scale
(45) t 
GR
GR
GS
[1 0 0 1 507 378] CT
0.149 GC
/Helvetica 10 F
GS
[1 0 0 1 0 0] CT
-6 8 moveto 
1 -1 scale
(50) t 
GR
GR
GS
[1 0 0 1 290.00021 389.5] CT
0.149 GC
/Helvetica 11 F
GS
[1 0 0 1 0 0] CT
-20.5 9 moveto 
1 -1 scale
(Time \(s\)) t 
GR
GR
GS
0.149 GC
2 setlinecap
1 LJ
0.5 LW
N
73 374 M
73 31.5 L
S
GR
GS
0.149 GC
2 setlinecap
1 LJ
0.5 LW
N
73 374 M
77.34 374 L
S
GR
GS
0.149 GC
2 setlinecap
1 LJ
0.5 LW
N
73 316.917 M
77.34 316.917 L
S
GR
GS
0.149 GC
2 setlinecap
1 LJ
0.5 LW
N
73 259.833 M
77.34 259.833 L
S
GR
GS
0.149 GC
2 setlinecap
1 LJ
0.5 LW
N
73 202.75 M
77.34 202.75 L
S
GR
GS
0.149 GC
2 setlinecap
1 LJ
0.5 LW
N
73 145.667 M
77.34 145.667 L
S
GR
GS
0.149 GC
2 setlinecap
1 LJ
0.5 LW
N
73 88.583 M
77.34 88.583 L
S
GR
GS
0.149 GC
2 setlinecap
1 LJ
0.5 LW
N
73 31.5 M
77.34 31.5 L
S
GR
GS
0.149 GC
2 setlinecap
1 LJ
0.5 LW
N
73 356.816 M
75.17 356.816 L
S
GR
GS
0.149 GC
2 setlinecap
1 LJ
0.5 LW
N
73 346.764 M
75.17 346.764 L
S
GR
GS
0.149 GC
2 setlinecap
1 LJ
0.5 LW
N
73 339.632 M
75.17 339.632 L
S
GR
GS
0.149 GC
2 setlinecap
1 LJ
0.5 LW
N
73 334.1 M
75.17 334.1 L
S
GR
GS
0.149 GC
2 setlinecap
1 LJ
0.5 LW
N
73 329.581 M
75.17 329.581 L
S
GR
GS
0.149 GC
2 setlinecap
1 LJ
0.5 LW
N
73 325.759 M
75.17 325.759 L
S
GR
GS
0.149 GC
2 setlinecap
1 LJ
0.5 LW
N
73 322.449 M
75.17 322.449 L
S
GR
GS
0.149 GC
2 setlinecap
1 LJ
0.5 LW
N
73 319.529 M
75.17 319.529 L
S
GR
GS
0.149 GC
2 setlinecap
1 LJ
0.5 LW
N
73 299.733 M
75.17 299.733 L
S
GR
GS
0.149 GC
2 setlinecap
1 LJ
0.5 LW
N
73 289.681 M
75.17 289.681 L
S
GR
GS
0.149 GC
2 setlinecap
1 LJ
0.5 LW
N
73 282.549 M
75.17 282.549 L
S
GR
GS
0.149 GC
2 setlinecap
1 LJ
0.5 LW
N
73 277.017 M
75.17 277.017 L
S
GR
GS
0.149 GC
2 setlinecap
1 LJ
0.5 LW
N
73 272.497 M
75.17 272.497 L
S
GR
GS
0.149 GC
2 setlinecap
1 LJ
0.5 LW
N
73 268.676 M
75.17 268.676 L
S
GR
GS
0.149 GC
2 setlinecap
1 LJ
0.5 LW
N
73 265.365 M
75.17 265.365 L
S
GR
GS
0.149 GC
2 setlinecap
1 LJ
0.5 LW
N
73 262.445 M
75.17 262.445 L
S
GR
GS
0.149 GC
2 setlinecap
1 LJ
0.5 LW
N
73 242.65 M
75.17 242.65 L
S
GR
GS
0.149 GC
2 setlinecap
1 LJ
0.5 LW
N
73 232.598 M
75.17 232.598 L
S
GR
GS
0.149 GC
2 setlinecap
1 LJ
0.5 LW
N
73 225.466 M
75.17 225.466 L
S
GR
GS
0.149 GC
2 setlinecap
1 LJ
0.5 LW
N
73 219.934 M
75.17 219.934 L
S
GR
GS
0.149 GC
2 setlinecap
1 LJ
0.5 LW
N
73 215.414 M
75.17 215.414 L
S
GR
GS
0.149 GC
2 setlinecap
1 LJ
0.5 LW
N
73 211.592 M
75.17 211.592 L
S
GR
GS
0.149 GC
2 setlinecap
1 LJ
0.5 LW
N
73 208.282 M
75.17 208.282 L
S
GR
GS
0.149 GC
2 setlinecap
1 LJ
0.5 LW
N
73 205.362 M
75.17 205.362 L
S
GR
GS
0.149 GC
2 setlinecap
1 LJ
0.5 LW
N
73 185.566 M
75.17 185.566 L
S
GR
GS
0.149 GC
2 setlinecap
1 LJ
0.5 LW
N
73 175.514 M
75.17 175.514 L
S
GR
GS
0.149 GC
2 setlinecap
1 LJ
0.5 LW
N
73 168.382 M
75.17 168.382 L
S
GR
GS
0.149 GC
2 setlinecap
1 LJ
0.5 LW
N
73 162.85 M
75.17 162.85 L
S
GR
GS
0.149 GC
2 setlinecap
1 LJ
0.5 LW
N
73 158.331 M
75.17 158.331 L
S
GR
GS
0.149 GC
2 setlinecap
1 LJ
0.5 LW
N
73 154.509 M
75.17 154.509 L
S
GR
GS
0.149 GC
2 setlinecap
1 LJ
0.5 LW
N
73 151.199 M
75.17 151.199 L
S
GR
GS
0.149 GC
2 setlinecap
1 LJ
0.5 LW
N
73 148.279 M
75.17 148.279 L
S
GR
GS
0.149 GC
2 setlinecap
1 LJ
0.5 LW
N
73 128.483 M
75.17 128.483 L
S
GR
GS
0.149 GC
2 setlinecap
1 LJ
0.5 LW
N
73 118.431 M
75.17 118.431 L
S
GR
GS
0.149 GC
2 setlinecap
1 LJ
0.5 LW
N
73 111.299 M
75.17 111.299 L
S
GR
GS
0.149 GC
2 setlinecap
1 LJ
0.5 LW
N
73 105.767 M
75.17 105.767 L
S
GR
GS
0.149 GC
2 setlinecap
1 LJ
0.5 LW
N
73 101.247 M
75.17 101.247 L
S
GR
GS
0.149 GC
2 setlinecap
1 LJ
0.5 LW
N
73 97.426 M
75.17 97.426 L
S
GR
GS
0.149 GC
2 setlinecap
1 LJ
0.5 LW
N
73 94.115 M
75.17 94.115 L
S
GR
GS
0.149 GC
2 setlinecap
1 LJ
0.5 LW
N
73 91.195 M
75.17 91.195 L
S
GR
GS
0.149 GC
2 setlinecap
1 LJ
0.5 LW
N
73 71.4 M
75.17 71.4 L
S
GR
GS
0.149 GC
2 setlinecap
1 LJ
0.5 LW
N
73 61.348 M
75.17 61.348 L
S
GR
GS
0.149 GC
2 setlinecap
1 LJ
0.5 LW
N
73 54.216 M
75.17 54.216 L
S
GR
GS
0.149 GC
2 setlinecap
1 LJ
0.5 LW
N
73 48.684 M
75.17 48.684 L
S
GR
GS
0.149 GC
2 setlinecap
1 LJ
0.5 LW
N
73 44.164 M
75.17 44.164 L
S
GR
GS
0.149 GC
2 setlinecap
1 LJ
0.5 LW
N
73 40.342 M
75.17 40.342 L
S
GR
GS
0.149 GC
2 setlinecap
1 LJ
0.5 LW
N
73 37.032 M
75.17 37.032 L
S
GR
GS
0.149 GC
2 setlinecap
1 LJ
0.5 LW
N
73 34.112 M
75.17 34.112 L
S
GR
GS
[1 0 0 1 49 379] CT
0.149 GC
/Helvetica 10 F
GS
[1 0 0 1 0 0] CT
0 0 moveto 
1 -1 scale
(10) t 
GR
GR
GS
[1 0 0 1 61 374] CT
0.149 GC
/Helvetica 8 F
GS
[1 0 0 1 0 0] CT
0 0 moveto 
1 -1 scale
(-5) t 
GR
GR
GS
[1 0 0 1 49 322] CT
0.149 GC
/Helvetica 10 F
GS
[1 0 0 1 0 0] CT
0 0 moveto 
1 -1 scale
(10) t 
GR
GR
GS
[1 0 0 1 61 317] CT
0.149 GC
/Helvetica 8 F
GS
[1 0 0 1 0 0] CT
0 0 moveto 
1 -1 scale
(-4) t 
GR
GR
GS
[1 0 0 1 49 265] CT
0.149 GC
/Helvetica 10 F
GS
[1 0 0 1 0 0] CT
0 0 moveto 
1 -1 scale
(10) t 
GR
GR
GS
[1 0 0 1 61 260] CT
0.149 GC
/Helvetica 8 F
GS
[1 0 0 1 0 0] CT
0 0 moveto 
1 -1 scale
(-3) t 
GR
GR
GS
[1 0 0 1 49 208] CT
0.149 GC
/Helvetica 10 F
GS
[1 0 0 1 0 0] CT
0 0 moveto 
1 -1 scale
(10) t 
GR
GR
GS
[1 0 0 1 61 203] CT
0.149 GC
/Helvetica 8 F
GS
[1 0 0 1 0 0] CT
0 0 moveto 
1 -1 scale
(-2) t 
GR
GR
GS
[1 0 0 1 49 151] CT
0.149 GC
/Helvetica 10 F
GS
[1 0 0 1 0 0] CT
0 0 moveto 
1 -1 scale
(10) t 
GR
GR
GS
[1 0 0 1 61 146] CT
0.149 GC
/Helvetica 8 F
GS
[1 0 0 1 0 0] CT
0 0 moveto 
1 -1 scale
(-1) t 
GR
GR
GS
[1 0 0 1 52 94] CT
0.149 GC
/Helvetica 10 F
GS
[1 0 0 1 0 0] CT
0 0 moveto 
1 -1 scale
(10) t 
GR
GR
GS
[1 0 0 1 64 89] CT
0.149 GC
/Helvetica 8 F
GS
[1 0 0 1 0 0] CT
0 0 moveto 
1 -1 scale
(0) t 
GR
GR
GS
[1 0 0 1 52 37] CT
0.149 GC
/Helvetica 10 F
GS
[1 0 0 1 0 0] CT
0 0 moveto 
1 -1 scale
(10) t 
GR
GR
GS
[1 0 0 1 64 32] CT
0.149 GC
/Helvetica 8 F
GS
[1 0 0 1 0 0] CT
0 0 moveto 
1 -1 scale
(1) t 
GR
GR
GS
[0 -1 1 0 47 202.74983] CT
0.149 GC
/Helvetica 11 F
GS
[1 0 0 1 0 0] CT
-16 -3 moveto 
1 -1 scale
(RMSE) t 
GR
GR
GS
[1 0 0 1 290.00027 30.125] CT
/Helvetica-Bold 11 F
GS
[1 0 0 1 0 0] CT
-145.5 -3 moveto 
1 -1 scale
(1000 by 1000, rank 10, over-sampling 6, Condition No. 0) t 
GR
GR
GS
0 0.447 0.741 RC
1 LJ
2 LW
N
73 51.499 M
122.917 70.263 L
173.022 108.233 L
223.89 150.355 L
275.117 187.737 L
325.256 225.166 L
375.191 263.752 L
425.676 304.183 L
475.76 342.9 L
S
GR
GS
0.851 0.325 0.098 RC
1 LJ
2 LW
N
73 51.499 M
73.27 51.499 L
73.477 51.5 L
73.682 51.5 L
73.892 51.501 L
74.096 51.502 L
74.301 51.504 L
74.508 51.506 L
74.711 51.508 L
74.918 51.509 L
75.121 51.511 L
75.326 51.516 L
75.534 51.519 L
75.738 51.522 L
75.942 51.525 L
76.152 51.529 L
76.357 51.533 L
76.562 51.538 L
76.767 51.544 L
76.975 51.548 L
77.178 51.556 L
77.386 51.563 L
77.59 51.571 L
77.794 51.579 L
77.997 51.596 L
78.205 51.61 L
78.41 51.617 L
78.614 51.637 L
78.819 51.659 L
79.024 51.674 L
79.231 51.691 L
79.436 51.704 L
79.643 51.722 L
79.851 51.738 L
80.082 51.754 L
80.292 51.779 L
80.501 51.822 L
80.714 51.846 L
80.925 51.877 L
81.134 51.911 L
81.345 51.963 L
81.558 52 L
81.77 52.04 L
81.979 52.078 L
82.191 52.128 L
82.399 52.169 L
82.615 52.212 L
82.827 52.258 L
83.035 52.319 L
83.246 52.389 L
S
GR
GS
0.851 0.325 0.098 RC
1 LJ
2 LW
N
83.035 52.319 M
83.246 52.389 L
83.454 52.442 L
83.662 52.492 L
83.872 52.527 L
84.083 52.563 L
84.297 52.592 L
84.505 52.614 L
84.714 52.614 L
84.926 52.659 L
85.139 52.728 L
85.352 52.781 L
85.563 52.846 L
85.776 52.903 L
85.986 52.932 L
86.199 52.976 L
86.409 53.051 L
86.618 53.119 L
86.829 53.17 L
87.042 53.175 L
87.257 53.198 L
87.472 53.1 L
87.686 53.139 L
87.898 53.221 L
88.11 53.284 L
88.312 53.342 L
88.518 53.359 L
88.72 53.364 L
88.924 53.343 L
89.124 53.423 L
89.324 53.5 L
89.523 53.595 L
89.72 53.638 L
89.917 53.673 L
90.118 53.72 L
90.32 53.792 L
90.523 53.836 L
90.729 53.814 L
90.93 53.883 L
91.13 53.972 L
91.333 54.044 L
91.533 54.128 L
91.736 54.177 L
91.935 54.238 L
92.139 54.31 L
92.342 54.284 L
92.548 54.363 L
92.753 54.437 L
92.952 54.496 L
93.151 54.545 L
93.352 54.644 L
93.555 54.718 L
S
GR
GS
0.851 0.325 0.098 RC
1 LJ
2 LW
N
93.352 54.644 M
93.555 54.718 L
93.761 54.739 L
93.967 54.788 L
94.172 54.817 L
94.378 54.788 L
94.577 54.871 L
94.777 54.976 L
94.985 55.012 L
95.193 55.038 L
95.395 55.108 L
95.599 55.116 L
95.807 55.121 L
96.019 55.111 L
96.22 55.216 L
96.421 55.283 L
96.628 55.391 L
96.83 55.463 L
97.031 55.53 L
97.244 55.671 L
97.479 55.681 L
97.681 55.6 L
97.888 55.684 L
98.097 55.754 L
98.299 55.799 L
98.506 55.839 L
98.708 55.915 L
98.91 55.948 L
99.119 56.004 L
99.328 56.056 L
99.537 56.036 L
99.742 56.116 L
99.951 56.177 L
100.165 56.24 L
100.368 56.267 L
100.578 56.33 L
100.783 56.375 L
100.998 56.36 L
101.208 56.414 L
101.415 56.487 L
101.639 56.57 L
101.869 56.63 L
102.086 56.674 L
102.302 56.731 L
102.521 56.763 L
102.747 56.809 L
102.971 56.817 L
103.19 56.733 L
103.404 56.77 L
103.626 56.825 L
103.843 56.867 L
104.063 56.909 L
S
GR
GS
0.851 0.325 0.098 RC
1 LJ
2 LW
N
103.843 56.867 M
104.063 56.909 L
104.28 56.947 L
104.499 56.926 L
104.72 57.007 L
104.94 57.093 L
105.171 57.128 L
105.411 57.197 L
105.65 57.269 L
105.884 57.329 L
106.108 57.387 L
106.332 57.429 L
106.552 57.424 L
106.774 57.49 L
106.994 57.558 L
107.214 57.616 L
107.435 57.698 L
107.658 57.745 L
107.877 57.775 L
108.096 57.797 L
108.314 57.849 L
108.536 57.826 L
108.758 57.885 L
108.981 57.96 L
109.204 58.005 L
109.423 58.084 L
109.645 58.089 L
109.868 58.118 L
110.091 58.176 L
110.311 58.185 L
110.535 58.174 L
110.757 58.234 L
110.985 58.288 L
111.215 58.336 L
111.44 58.379 L
111.666 58.415 L
111.898 58.396 L
112.12 58.451 L
112.341 58.513 L
112.569 58.562 L
112.805 58.618 L
113.038 58.668 L
113.262 58.732 L
113.484 58.754 L
113.712 58.755 L
113.937 58.777 L
114.161 58.821 L
114.389 58.793 L
114.618 58.855 L
114.842 58.919 L
115.065 58.999 L
115.289 59.046 L
S
GR
GS
0.851 0.325 0.098 RC
1 LJ
2 LW
N
115.065 58.999 M
115.289 59.046 L
115.514 59.089 L
115.738 59.114 L
115.961 59.124 L
116.185 59.127 L
116.413 59.12 L
116.638 59.191 L
116.861 59.252 L
117.085 59.308 L
117.314 59.372 L
117.541 59.379 L
117.78 59.41 L
118.007 59.416 L
118.239 59.366 L
118.473 59.429 L
118.696 59.482 L
118.928 59.58 L
119.171 59.629 L
119.396 59.675 L
119.636 59.723 L
119.881 59.744 L
120.107 59.763 L
120.334 59.713 L
120.572 59.768 L
120.798 59.848 L
121.022 59.944 L
121.262 60.007 L
121.5 60.05 L
121.724 60.08 L
121.947 60.109 L
122.171 60.101 L
122.413 60.174 L
122.652 60.274 L
122.876 60.338 L
123.119 60.381 L
123.349 60.425 L
123.578 60.467 L
123.802 60.507 L
124.058 60.504 L
124.302 60.584 L
124.546 60.632 L
124.77 60.7 L
124.997 60.791 L
125.222 60.851 L
125.449 60.886 L
125.68 60.918 L
125.928 60.923 L
126.157 60.899 L
126.381 60.98 L
126.626 61.065 L
126.856 61.143 L
S
GR
GS
0.851 0.325 0.098 RC
1 LJ
2 LW
N
126.626 61.065 M
126.856 61.143 L
127.095 61.205 L
127.342 61.258 L
127.569 61.302 L
127.798 61.336 L
128.039 61.348 L
128.265 61.356 L
128.504 61.319 L
128.753 61.39 L
129.001 61.481 L
129.238 61.564 L
129.473 61.639 L
129.69 61.688 L
129.93 61.739 L
130.146 61.792 L
130.367 61.81 L
130.595 61.791 L
130.822 61.903 L
131.042 61.98 L
131.261 62.042 L
131.487 62.114 L
131.703 62.176 L
131.924 62.222 L
132.167 62.273 L
132.388 62.233 L
132.632 62.329 L
132.872 62.417 L
133.094 62.503 L
133.313 62.575 L
133.552 62.646 L
133.77 62.699 L
133.987 62.719 L
134.204 62.722 L
134.444 62.657 L
134.671 62.788 L
134.889 62.891 L
135.136 63.004 L
135.372 63.128 L
135.616 63.201 L
135.857 63.253 L
136.081 63.303 L
136.31 63.326 L
136.538 63.31 L
136.757 63.432 L
136.982 63.524 L
137.228 63.645 L
137.469 63.766 L
137.701 63.881 L
137.947 63.935 L
138.17 63.967 L
138.398 64.003 L
S
GR
GS
0.851 0.325 0.098 RC
1 LJ
2 LW
N
138.17 63.967 M
138.398 64.003 L
138.649 63.986 L
138.87 64.14 L
139.09 64.247 L
139.312 64.371 L
139.56 64.473 L
139.782 64.549 L
140.035 64.619 L
140.278 64.67 L
140.509 64.604 L
140.734 64.74 L
140.964 64.897 L
141.188 65.031 L
141.417 65.185 L
141.64 65.288 L
141.861 65.369 L
142.11 65.447 L
142.357 65.47 L
142.58 65.482 L
142.806 65.347 L
143.028 65.517 L
143.25 65.674 L
143.473 65.793 L
143.721 65.892 L
143.971 66.016 L
144.222 66.051 L
144.449 66.057 L
144.674 66.131 L
144.9 66.013 L
145.123 66.187 L
145.345 66.326 L
145.569 66.525 L
145.796 66.673 L
146.021 66.817 L
146.274 66.869 L
146.499 66.903 L
146.725 66.94 L
146.951 66.781 L
147.178 66.992 L
147.432 67.189 L
147.657 67.408 L
147.911 67.588 L
148.14 67.645 L
148.367 67.719 L
148.606 67.778 L
148.834 67.721 L
149.063 67.927 L
149.297 68.138 L
149.555 68.324 L
149.811 68.557 L
150.041 68.747 L
S
GR
GS
0.851 0.325 0.098 RC
1 LJ
2 LW
N
149.811 68.557 M
150.041 68.747 L
150.273 68.88 L
150.501 68.953 L
150.729 68.961 L
150.958 68.992 L
151.216 68.793 L
151.467 69.084 L
151.7 69.251 L
151.926 69.475 L
152.152 69.646 L
152.38 69.748 L
152.609 69.935 L
152.841 69.944 L
153.1 69.889 L
153.329 70.183 L
153.592 70.377 L
153.825 70.571 L
154.052 70.771 L
154.319 70.963 L
154.548 71.067 L
154.783 71.1 L
155.046 71.117 L
155.276 70.929 L
155.508 71.223 L
155.74 71.471 L
155.997 71.696 L
156.231 71.815 L
156.495 72.015 L
156.756 72.116 L
157.022 72.219 L
157.252 72.089 L
157.481 72.346 L
157.736 72.665 L
157.978 72.937 L
158.212 73.219 L
158.454 73.431 L
158.723 73.602 L
158.954 73.808 L
159.221 73.863 L
159.459 73.79 L
159.698 74.067 L
159.934 74.391 L
160.195 74.707 L
160.458 74.928 L
160.693 75.186 L
160.928 75.34 L
161.195 75.467 L
161.431 75.505 L
161.668 75.433 L
161.906 75.729 L
162.145 76.06 L
S
GR
GS
0.851 0.325 0.098 RC
1 LJ
2 LW
N
161.906 75.729 M
162.145 76.06 L
162.414 76.414 L
162.647 76.73 L
162.879 76.987 L
163.152 77.155 L
163.42 77.225 L
163.656 77.102 L
163.895 77.466 L
164.135 77.887 L
164.376 78.35 L
164.616 78.696 L
164.849 78.987 L
165.085 79.21 L
165.321 79.439 L
165.592 79.471 L
165.83 79.456 L
166.072 79.857 L
166.311 80.201 L
166.555 80.573 L
166.793 80.876 L
167.035 81.178 L
167.269 81.363 L
167.541 81.528 L
167.81 81.506 L
168.048 81.901 L
168.319 82.342 L
168.558 82.766 L
168.798 83.154 L
169.034 83.585 L
169.303 83.851 L
169.541 83.965 L
169.776 84.081 L
170.012 84.029 L
170.283 84.463 L
170.523 84.91 L
170.796 85.342 L
171.068 85.68 L
171.306 85.953 L
171.547 86.206 L
171.786 86.434 L
172.08 86.482 L
172.344 86.379 L
172.608 86.818 L
172.875 87.293 L
173.146 87.681 L
173.449 88.064 L
173.731 88.366 L
173.986 88.602 L
174.244 88.745 L
174.5 88.689 L
174.757 89.172 L
S
GR
GS
0.851 0.325 0.098 RC
1 LJ
2 LW
N
174.5 88.689 M
174.757 89.172 L
175.013 89.612 L
175.274 90.01 L
175.539 90.399 L
175.789 90.664 L
176.045 90.964 L
176.313 91.082 L
176.596 91.081 L
176.845 91.568 L
177.116 92.001 L
177.412 92.422 L
177.706 92.857 L
177.988 93.219 L
178.24 93.474 L
178.498 93.67 L
178.749 93.745 L
179.011 93.562 L
179.273 94.095 L
179.535 94.563 L
179.787 95.011 L
180.061 95.429 L
180.313 95.781 L
180.583 96.083 L
180.831 96.271 L
181.078 96.28 L
181.327 96.085 L
181.594 96.622 L
181.873 97.077 L
182.12 97.477 L
182.403 97.879 L
182.641 98.247 L
182.881 98.423 L
183.147 98.551 L
183.423 98.462 L
183.674 98.969 L
183.918 99.453 L
184.165 99.927 L
184.407 100.398 L
184.681 100.694 L
184.923 100.985 L
185.171 101.125 L
185.409 101.111 L
185.651 101.656 L
185.894 102.151 L
186.147 102.656 L
186.428 103.172 L
186.681 103.572 L
186.942 103.904 L
187.187 104.047 L
187.426 104.108 L
187.671 103.968 L
S
GR
GS
0.851 0.325 0.098 RC
1 LJ
2 LW
N
187.426 104.108 M
187.671 103.968 L
187.91 104.521 L
188.181 105.041 L
188.421 105.52 L
188.668 105.893 L
188.914 106.286 L
189.16 106.537 L
189.399 106.641 L
189.641 106.541 L
189.881 107.168 L
190.128 107.695 L
190.373 108.143 L
190.612 108.557 L
190.881 108.914 L
191.148 109.277 L
191.418 109.48 L
191.69 109.517 L
191.935 109.443 L
192.178 109.952 L
192.455 110.527 L
192.708 110.972 L
192.959 111.438 L
193.24 111.802 L
193.484 112.056 L
193.73 112.23 L
193.975 112.325 L
194.225 112.077 L
194.477 112.649 L
194.725 113.168 L
194.972 113.675 L
195.224 114.119 L
195.478 114.514 L
195.752 114.718 L
196.03 114.726 L
196.28 114.263 L
196.535 114.914 L
196.786 115.395 L
197.037 116.025 L
197.315 116.525 L
197.557 116.935 L
197.807 117.177 L
198.057 117.309 L
198.306 117.28 L
198.561 117.913 L
198.809 118.511 L
199.061 119.035 L
199.31 119.454 L
199.56 119.831 L
199.813 120.008 L
200.072 120.145 L
200.333 120.077 L
S
GR
GS
0.851 0.325 0.098 RC
1 LJ
2 LW
N
200.072 120.145 M
200.333 120.077 L
200.627 120.668 L
200.876 121.238 L
201.122 121.869 L
201.378 122.354 L
201.637 122.821 L
201.903 123.238 L
202.151 123.433 L
202.401 123.525 L
202.66 123.154 L
202.913 123.793 L
203.194 124.422 L
203.447 124.947 L
203.729 125.388 L
203.985 125.822 L
204.239 126.106 L
204.52 126.266 L
204.773 126.326 L
205.027 125.813 L
205.283 126.484 L
205.535 127.059 L
205.783 127.669 L
206.035 128.172 L
206.288 128.507 L
206.54 128.769 L
206.805 128.889 L
207.066 128.621 L
207.324 129.294 L
207.577 129.895 L
207.859 130.487 L
208.156 130.996 L
208.41 131.378 L
208.666 131.743 L
208.949 131.869 L
209.205 131.792 L
209.456 132.461 L
209.708 133.014 L
209.994 133.607 L
210.253 134.071 L
210.509 134.489 L
210.765 134.819 L
211.021 135.039 L
211.278 134.877 L
211.574 135.541 L
211.842 136.157 L
212.101 136.669 L
212.39 137.248 L
212.644 137.717 L
212.902 138.155 L
213.155 138.435 L
213.417 138.348 L
S
GR
GS
0.851 0.325 0.098 RC
1 LJ
2 LW
N
213.155 138.435 M
213.417 138.348 L
213.67 138.997 L
213.984 139.634 L
214.238 140.213 L
214.494 140.833 L
214.792 141.302 L
215.091 141.739 L
215.39 142.126 L
215.646 142.288 L
215.908 142.257 L
216.166 142.914 L
216.424 143.588 L
216.682 144.191 L
216.941 144.782 L
217.229 145.16 L
217.534 145.505 L
217.839 145.788 L
218.113 145.859 L
218.373 145.568 L
218.641 146.223 L
218.911 146.815 L
219.204 147.324 L
219.464 147.804 L
219.722 148.224 L
220.015 148.535 L
220.28 148.623 L
220.538 148.517 L
220.831 149.248 L
221.09 149.906 L
221.352 150.533 L
221.609 151.218 L
221.9 151.712 L
222.161 152.042 L
222.418 152.284 L
222.678 152.281 L
222.941 152.979 L
223.199 153.732 L
223.463 154.269 L
223.725 154.839 L
223.984 155.301 L
224.245 155.642 L
224.511 155.738 L
224.769 155.649 L
225.035 156.288 L
225.293 156.963 L
225.551 157.555 L
225.811 158.132 L
226.07 158.723 L
226.366 159.201 L
226.624 159.515 L
226.884 159.71 L
S
GR
GS
0.851 0.325 0.098 RC
1 LJ
2 LW
N
226.624 159.515 M
226.884 159.71 L
227.197 159.594 L
227.468 160.252 L
227.732 160.967 L
227.993 161.628 L
228.257 162.22 L
228.527 162.622 L
228.789 162.976 L
229.054 163.135 L
229.314 163.02 L
229.577 163.762 L
229.842 164.425 L
230.111 165.095 L
230.376 165.702 L
230.649 166.244 L
230.961 166.707 L
231.272 166.928 L
231.538 166.936 L
231.803 166.819 L
232.099 167.533 L
232.365 168.237 L
232.627 168.923 L
232.896 169.528 L
233.159 170.014 L
233.427 170.279 L
233.694 170.436 L
233.956 170.368 L
234.254 171.059 L
234.577 171.734 L
234.846 172.317 L
235.114 172.908 L
235.38 173.413 L
235.642 173.823 L
235.908 174.025 L
236.213 174.108 L
236.481 173.723 L
236.746 174.568 L
237.013 175.265 L
237.28 175.977 L
237.551 176.484 L
237.821 176.973 L
238.12 177.293 L
238.432 177.411 L
238.699 177.319 L
238.965 178.11 L
239.23 178.759 L
239.53 179.406 L
239.797 180.01 L
240.1 180.551 L
240.412 180.993 L
240.68 181.187 L
S
GR
GS
0.851 0.325 0.098 RC
1 LJ
2 LW
N
240.412 180.993 M
240.68 181.187 L
240.946 181.201 L
241.27 180.699 L
241.538 181.42 L
241.803 182.193 L
242.076 182.857 L
242.347 183.376 L
242.612 183.747 L
242.884 183.939 L
243.156 184.005 L
243.421 183.879 L
243.69 184.725 L
243.959 185.467 L
244.231 186.206 L
244.497 186.742 L
244.77 187.244 L
245.042 187.583 L
245.307 187.879 L
245.576 187.741 L
245.876 188.489 L
246.147 189.239 L
246.42 189.955 L
246.688 190.562 L
246.952 191.151 L
247.257 191.588 L
247.525 191.746 L
247.793 191.637 L
248.062 192.425 L
248.331 193.229 L
248.604 193.956 L
248.877 194.627 L
249.202 195.155 L
249.473 195.672 L
249.747 196.079 L
250.02 196.219 L
250.293 195.848 L
250.604 196.611 L
250.874 197.444 L
251.179 198.16 L
251.451 198.765 L
251.72 199.277 L
251.997 199.606 L
252.27 199.66 L
252.542 199.603 L
252.814 200.461 L
253.144 201.267 L
253.427 202.02 L
253.699 202.68 L
253.976 203.256 L
254.249 203.584 L
254.528 203.887 L
S
GR
GS
0.851 0.325 0.098 RC
1 LJ
2 LW
N
254.249 203.584 M
254.528 203.887 L
254.813 203.84 L
255.084 204.731 L
255.358 205.507 L
255.632 206.297 L
255.905 206.954 L
256.205 207.641 L
256.486 208.064 L
256.756 208.466 L
257.028 208.576 L
257.3 208.1 L
257.579 209 L
257.859 209.863 L
258.136 210.685 L
258.407 211.322 L
258.679 211.884 L
258.953 212.246 L
259.238 212.32 L
259.515 212.226 L
259.794 213.04 L
260.069 213.94 L
260.359 214.691 L
260.632 215.412 L
260.908 216.07 L
261.182 216.534 L
261.453 216.706 L
261.728 216.673 L
262.005 217.444 L
262.284 218.262 L
262.559 219.007 L
262.837 219.729 L
263.116 220.479 L
263.396 220.902 L
263.671 221.174 L
263.948 221.292 L
264.222 220.992 L
264.5 221.884 L
264.775 222.717 L
265.05 223.438 L
265.324 224.071 L
265.601 224.602 L
265.875 225.022 L
266.153 225.14 L
266.435 224.952 L
266.711 225.781 L
266.985 226.65 L
267.264 227.417 L
267.548 228.096 L
267.829 228.748 L
268.119 229.343 L
268.399 229.623 L
S
GR
GS
0.851 0.325 0.098 RC
1 LJ
2 LW
N
268.119 229.343 M
268.399 229.623 L
268.679 229.556 L
268.959 230.378 L
269.236 231.24 L
269.516 232.058 L
269.794 232.708 L
270.074 233.319 L
270.353 233.897 L
270.636 234.167 L
270.921 234.218 L
271.197 234.221 L
271.473 233.798 L
271.751 234.664 L
272.032 235.527 L
272.314 236.284 L
272.594 236.943 L
272.871 237.413 L
273.15 237.604 L
273.426 237.77 L
273.706 237.618 L
273.984 238.545 L
274.266 239.347 L
274.548 240.124 L
274.826 240.621 L
275.102 241.137 L
275.381 241.32 L
275.66 241.471 L
275.943 241.252 L
276.224 242.19 L
276.506 243.036 L
276.79 243.834 L
277.069 244.492 L
277.348 245.089 L
277.626 245.503 L
277.905 245.649 L
278.183 245.3 L
278.464 246.23 L
278.741 247.098 L
279.02 247.982 L
279.3 248.65 L
279.587 249.294 L
279.869 249.619 L
280.151 249.83 L
280.43 249.835 L
280.709 249.464 L
280.988 250.384 L
281.279 251.342 L
281.559 252.183 L
281.839 252.821 L
282.118 253.365 L
282.402 253.685 L
S
GR
GS
0.851 0.325 0.098 RC
1 LJ
2 LW
N
282.118 253.365 M
282.402 253.685 L
282.682 253.849 L
282.968 253.701 L
283.252 254.634 L
283.534 255.567 L
283.819 256.376 L
284.103 257.088 L
284.385 257.716 L
284.677 258.029 L
284.959 258.378 L
285.243 258.197 L
285.529 259.037 L
285.815 259.908 L
286.103 260.707 L
286.387 261.497 L
286.672 262.142 L
286.957 262.668 L
287.24 262.775 L
287.528 262.823 L
287.819 262.311 L
288.111 263.308 L
288.4 264.275 L
288.682 265.184 L
288.963 265.971 L
289.243 266.567 L
289.53 267.002 L
289.817 267.068 L
290.099 266.908 L
290.381 267.885 L
290.665 268.716 L
290.957 269.51 L
291.243 270.208 L
291.528 270.747 L
291.819 271.245 L
292.103 271.455 L
292.388 271.266 L
292.672 272.329 L
292.952 273.258 L
293.242 274.092 L
293.535 274.908 L
293.819 275.625 L
294.108 275.962 L
294.39 276.201 L
294.674 276.015 L
294.96 277.007 L
295.252 278.093 L
295.539 278.967 L
295.82 279.849 L
296.102 280.431 L
296.386 280.833 L
296.681 281.088 L
S
GR
GS
0.851 0.325 0.098 RC
1 LJ
2 LW
N
296.386 280.833 M
296.681 281.088 L
296.971 281.263 L
297.258 280.897 L
297.547 281.867 L
297.835 282.843 L
298.118 283.691 L
298.404 284.441 L
298.69 285.029 L
298.973 285.361 L
299.261 285.531 L
299.552 285.387 L
299.837 286.375 L
300.127 287.375 L
300.414 288.302 L
300.699 289.052 L
300.986 289.765 L
301.273 290.295 L
301.557 290.694 L
301.845 290.507 L
302.135 291.49 L
302.424 292.478 L
302.716 293.436 L
303.006 294.307 L
303.3 295.095 L
303.593 295.648 L
303.884 296.025 L
304.17 296.051 L
304.459 295.489 L
304.745 296.475 L
305.035 297.498 L
305.34 298.33 L
305.639 299.179 L
305.927 299.784 L
306.213 300.238 L
306.501 300.494 L
306.791 300.369 L
307.083 301.39 L
307.37 302.363 L
307.66 303.342 L
307.945 304.122 L
308.239 304.828 L
308.532 305.361 L
308.822 305.609 L
309.117 305.3 L
309.404 306.284 L
309.694 307.206 L
309.985 308.14 L
310.274 309.014 L
310.568 309.703 L
310.857 310.267 L
311.154 310.642 L
S
GR
GS
0.851 0.325 0.098 RC
1 LJ
2 LW
N
310.857 310.267 M
311.154 310.642 L
311.458 310.553 L
311.746 311.525 L
312.037 312.504 L
312.329 313.407 L
312.622 314.206 L
312.915 314.888 L
313.21 315.448 L
313.503 315.869 L
313.788 315.906 L
314.084 315.709 L
314.379 316.658 L
314.669 317.736 L
S
GR
GS
0.929 0.694 0.125 RC
1 LJ
2 LW
N
73 51.499 M
75.143 51.503 L
77.2 51.508 L
79.231 51.513 L
81.271 51.518 L
83.346 51.525 L
85.38 51.531 L
87.507 51.539 L
89.651 51.547 L
91.658 51.556 L
93.666 51.566 L
95.735 51.576 L
97.835 51.588 L
99.929 51.601 L
102.051 51.616 L
104.24 51.631 L
106.382 51.648 L
108.517 51.667 L
110.676 51.688 L
112.812 51.711 L
114.945 51.736 L
117.688 51.763 L
119.947 51.794 L
122.081 51.827 L
124.23 51.863 L
126.374 51.903 L
128.509 51.947 L
130.652 51.995 L
132.778 52.047 L
134.892 52.104 L
137.162 52.168 L
139.331 52.236 L
141.467 52.312 L
143.56 52.394 L
145.608 52.482 L
147.688 52.581 L
149.751 52.687 L
151.788 52.804 L
153.863 52.928 L
155.902 53.065 L
157.931 53.214 L
159.967 53.375 L
162.047 53.55 L
164.098 53.739 L
166.148 53.942 L
168.205 54.16 L
170.235 54.393 L
172.281 54.644 L
174.312 54.909 L
176.373 55.193 L
S
GR
GS
0.929 0.694 0.125 RC
1 LJ
2 LW
N
174.312 54.909 M
176.373 55.193 L
178.375 55.488 L
180.473 55.803 L
182.555 56.132 L
184.58 56.47 L
186.626 56.825 L
188.662 57.183 L
190.688 57.549 L
192.826 57.916 L
194.856 58.283 L
196.908 58.648 L
198.935 59.007 L
200.95 59.354 L
203.005 59.694 L
205.064 60.026 L
207.121 60.35 L
209.212 60.676 L
211.266 61.012 L
213.344 61.376 L
215.411 61.793 L
217.445 62.283 L
219.476 62.878 L
221.525 63.599 L
223.571 64.455 L
225.619 65.487 L
227.648 66.679 L
229.667 68.079 L
231.686 69.696 L
233.721 71.54 L
235.777 73.707 L
237.808 76.241 L
239.85 79.374 L
241.906 83.218 L
243.979 87.923 L
246.029 93.543 L
248.097 99.853 L
250.151 106.541 L
252.201 113.601 L
254.28 120.92 L
256.312 128.642 L
258.353 136.602 L
260.399 144.615 L
262.465 152.843 L
264.506 160.702 L
266.531 166.159 L
268.525 166.887 L
270.533 159.132 L
272.574 177.975 L
274.616 192.659 L
276.646 203.112 L
278.706 210.373 L
S
GR
GS
0.929 0.694 0.125 RC
1 LJ
2 LW
N
276.646 203.112 M
278.706 210.373 L
280.748 214.115 L
282.793 213.112 L
284.852 233.238 L
286.885 242.113 L
288.925 248.235 L
290.936 253.367 L
293 258.549 L
295.137 263.466 L
297.247 269.005 L
299.397 273.741 L
301.548 276.522 L
303.662 276.313 L
305.794 290.845 L
307.884 298.508 L
309.934 303.757 L
311.961 307.808 L
313.99 312.704 L
316.795 317.045 L
S
GR
GS
[1 0 0 1 403.5 51.25] CT
/Helvetica 9 F
GS
[1 0 0 1 0 0] CT
0 2 moveto 
1 -1 scale
(Entire epoch \(Random\)) t 
GR
GR
GS
0 0.447 0.741 RC
1 LJ
2 LW
N
370.5 51.25 M
400.5 51.25 L
S
GR
GS
[1 0 0 1 403.5 61.25] CT
/Helvetica 9 F
GS
[1 0 0 1 0 0] CT
0 2 moveto 
1 -1 scale
(Increasing batchsize) t 
GR
GR
GS
0.851 0.325 0.098 RC
1 LJ
2 LW
N
370.5 61.25 M
400.5 61.25 L
S
GR
GS
[1 0 0 1 403.5 71.25] CT
/Helvetica 9 F
GS
[1 0 0 1 0 0] CT
0 2 moveto 
1 -1 scale
(Constant batchsize) t 
GR
GR
GS
0.929 0.694 0.125 RC
1 LJ
2 LW
N
370.5 71.25 M
400.5 71.25 L
S
GR
%%Trailer
%%Pages: 1
%%EOF
