%!PS-Adobe-3.0 EPSF-3.0
%%Creator: (MATLAB, The Mathworks, Inc. Version 8.6.0.267246 \(R2015b\). Operating System: Mac OS X)
%%Title: /Users/gauthiermuguerza/Desktop/rsgd/report/images/jokesFourTrain.eps
%%CreationDate: 2018-06-08T09:28:18
%%Pages: (atend)
%%BoundingBox:     6     0   533   404
%%LanguageLevel: 3
%%EndComments
%%BeginProlog
%%BeginResource: procset (Apache XML Graphics Std ProcSet) 1.2 0
%%Version: 1.2 0
%%Copyright: (Copyright 2001-2003,2010 The Apache Software Foundation. License terms: http://www.apache.org/licenses/LICENSE-2.0)
/bd{bind def}bind def
/ld{load def}bd
/GR/grestore ld
/M/moveto ld
/LJ/setlinejoin ld
/C/curveto ld
/f/fill ld
/LW/setlinewidth ld
/GC/setgray ld
/t/show ld
/N/newpath ld
/CT/concat ld
/cp/closepath ld
/S/stroke ld
/L/lineto ld
/CC/setcmykcolor ld
/A/ashow ld
/GS/gsave ld
/RC/setrgbcolor ld
/RM/rmoveto ld
/ML/setmiterlimit ld
/re {4 2 roll M
1 index 0 rlineto
0 exch rlineto
neg 0 rlineto
cp } bd
/_ctm matrix def
/_tm matrix def
/BT { _ctm currentmatrix pop matrix _tm copy pop 0 0 moveto } bd
/ET { _ctm setmatrix } bd
/iTm { _ctm setmatrix _tm concat } bd
/Tm { _tm astore pop iTm 0 0 moveto } bd
/ux 0.0 def
/uy 0.0 def
/F {
  /Tp exch def
  /Tf exch def
  Tf findfont Tp scalefont setfont
  /cf Tf def  /cs Tp def
} bd
/ULS {currentpoint /uy exch def /ux exch def} bd
/ULE {
  /Tcx currentpoint pop def
  gsave
  newpath
  cf findfont cs scalefont dup
  /FontMatrix get 0 get /Ts exch def /FontInfo get dup
  /UnderlinePosition get Ts mul /To exch def
  /UnderlineThickness get Ts mul /Tt exch def
  ux uy To add moveto  Tcx uy To add lineto
  Tt setlinewidth stroke
  grestore
} bd
/OLE {
  /Tcx currentpoint pop def
  gsave
  newpath
  cf findfont cs scalefont dup
  /FontMatrix get 0 get /Ts exch def /FontInfo get dup
  /UnderlinePosition get Ts mul /To exch def
  /UnderlineThickness get Ts mul /Tt exch def
  ux uy To add cs add moveto Tcx uy To add cs add lineto
  Tt setlinewidth stroke
  grestore
} bd
/SOE {
  /Tcx currentpoint pop def
  gsave
  newpath
  cf findfont cs scalefont dup
  /FontMatrix get 0 get /Ts exch def /FontInfo get dup
  /UnderlinePosition get Ts mul /To exch def
  /UnderlineThickness get Ts mul /Tt exch def
  ux uy To add cs 10 mul 26 idiv add moveto Tcx uy To add cs 10 mul 26 idiv add lineto
  Tt setlinewidth stroke
  grestore
} bd
/QT {
/Y22 exch store
/X22 exch store
/Y21 exch store
/X21 exch store
currentpoint
/Y21 load 2 mul add 3 div exch
/X21 load 2 mul add 3 div exch
/X21 load 2 mul /X22 load add 3 div
/Y21 load 2 mul /Y22 load add 3 div
/X22 load /Y22 load curveto
} bd
/SSPD {
dup length /d exch dict def
{
/v exch def
/k exch def
currentpagedevice k known {
/cpdv currentpagedevice k get def
v cpdv ne {
/upd false def
/nullv v type /nulltype eq def
/nullcpdv cpdv type /nulltype eq def
nullv nullcpdv or
{
/upd true def
} {
/sametype v type cpdv type eq def
sametype {
v type /arraytype eq {
/vlen v length def
/cpdvlen cpdv length def
vlen cpdvlen eq {
0 1 vlen 1 sub {
/i exch def
/obj v i get def
/cpdobj cpdv i get def
obj cpdobj ne {
/upd true def
exit
} if
} for
} {
/upd true def
} ifelse
} {
v type /dicttype eq {
v {
/dv exch def
/dk exch def
/cpddv cpdv dk get def
dv cpddv ne {
/upd true def
exit
} if
} forall
} {
/upd true def
} ifelse
} ifelse
} if
} ifelse
upd true eq {
d k v put
} if
} if
} if
} forall
d length 0 gt {
d setpagedevice
} if
} bd
%%EndResource
%%BeginResource: procset (Apache XML Graphics EPS ProcSet) 1.0 0
%%Version: 1.0 0
%%Copyright: (Copyright 2002-2003 The Apache Software Foundation. License terms: http://www.apache.org/licenses/LICENSE-2.0)
/BeginEPSF { %def
/b4_Inc_state save def         % Save state for cleanup
/dict_count countdictstack def % Count objects on dict stack
/op_count count 1 sub def      % Count objects on operand stack
userdict begin                 % Push userdict on dict stack
/showpage { } def              % Redefine showpage, { } = null proc
0 setgray 0 setlinecap         % Prepare graphics state
1 setlinewidth 0 setlinejoin
10 setmiterlimit [ ] 0 setdash newpath
/languagelevel where           % If level not equal to 1 then
{pop languagelevel             % set strokeadjust and
1 ne                           % overprint to their defaults.
{false setstrokeadjust false setoverprint
} if
} if
} bd
/EndEPSF { %def
count op_count sub {pop} repeat            % Clean up stacks
countdictstack dict_count sub {end} repeat
b4_Inc_state restore
} bd
%%EndResource
%FOPBeginFontDict
%%IncludeResource: font Courier-Bold
%%IncludeResource: font Helvetica
%%IncludeResource: font Courier-BoldOblique
%%IncludeResource: font Courier-Oblique
%%IncludeResource: font Times-Roman
%%IncludeResource: font Helvetica-BoldOblique
%%IncludeResource: font Helvetica-Bold
%%IncludeResource: font Helvetica-Oblique
%%IncludeResource: font Times-BoldItalic
%%IncludeResource: font Courier
%%IncludeResource: font Times-Italic
%%IncludeResource: font Times-Bold
%%IncludeResource: font Symbol
%%IncludeResource: font ZapfDingbats
%FOPEndFontDict
%%BeginResource: encoding WinAnsiEncoding
/WinAnsiEncoding [
/.notdef /.notdef /.notdef /.notdef /.notdef
/.notdef /.notdef /.notdef /.notdef /.notdef
/.notdef /.notdef /.notdef /.notdef /.notdef
/.notdef /.notdef /.notdef /.notdef /.notdef
/.notdef /.notdef /.notdef /.notdef /.notdef
/.notdef /.notdef /.notdef /.notdef /.notdef
/.notdef /.notdef /space /exclam /quotedbl
/numbersign /dollar /percent /ampersand /quotesingle
/parenleft /parenright /asterisk /plus /comma
/hyphen /period /slash /zero /one
/two /three /four /five /six
/seven /eight /nine /colon /semicolon
/less /equal /greater /question /at
/A /B /C /D /E
/F /G /H /I /J
/K /L /M /N /O
/P /Q /R /S /T
/U /V /W /X /Y
/Z /bracketleft /backslash /bracketright /asciicircum
/underscore /quoteleft /a /b /c
/d /e /f /g /h
/i /j /k /l /m
/n /o /p /q /r
/s /t /u /v /w
/x /y /z /braceleft /bar
/braceright /asciitilde /bullet /Euro /bullet
/quotesinglbase /florin /quotedblbase /ellipsis /dagger
/daggerdbl /circumflex /perthousand /Scaron /guilsinglleft
/OE /bullet /Zcaron /bullet /bullet
/quoteleft /quoteright /quotedblleft /quotedblright /bullet
/endash /emdash /asciitilde /trademark /scaron
/guilsinglright /oe /bullet /zcaron /Ydieresis
/space /exclamdown /cent /sterling /currency
/yen /brokenbar /section /dieresis /copyright
/ordfeminine /guillemotleft /logicalnot /sfthyphen /registered
/macron /degree /plusminus /twosuperior /threesuperior
/acute /mu /paragraph /middot /cedilla
/onesuperior /ordmasculine /guillemotright /onequarter /onehalf
/threequarters /questiondown /Agrave /Aacute /Acircumflex
/Atilde /Adieresis /Aring /AE /Ccedilla
/Egrave /Eacute /Ecircumflex /Edieresis /Igrave
/Iacute /Icircumflex /Idieresis /Eth /Ntilde
/Ograve /Oacute /Ocircumflex /Otilde /Odieresis
/multiply /Oslash /Ugrave /Uacute /Ucircumflex
/Udieresis /Yacute /Thorn /germandbls /agrave
/aacute /acircumflex /atilde /adieresis /aring
/ae /ccedilla /egrave /eacute /ecircumflex
/edieresis /igrave /iacute /icircumflex /idieresis
/eth /ntilde /ograve /oacute /ocircumflex
/otilde /odieresis /divide /oslash /ugrave
/uacute /ucircumflex /udieresis /yacute /thorn
/ydieresis
] def
%%EndResource
%FOPBeginFontReencode
/Courier-Bold findfont
dup length dict begin
  {1 index /FID ne {def} {pop pop} ifelse} forall
  /Encoding WinAnsiEncoding def
  currentdict
end
/Courier-Bold exch definefont pop
/Helvetica findfont
dup length dict begin
  {1 index /FID ne {def} {pop pop} ifelse} forall
  /Encoding WinAnsiEncoding def
  currentdict
end
/Helvetica exch definefont pop
/Courier-BoldOblique findfont
dup length dict begin
  {1 index /FID ne {def} {pop pop} ifelse} forall
  /Encoding WinAnsiEncoding def
  currentdict
end
/Courier-BoldOblique exch definefont pop
/Courier-Oblique findfont
dup length dict begin
  {1 index /FID ne {def} {pop pop} ifelse} forall
  /Encoding WinAnsiEncoding def
  currentdict
end
/Courier-Oblique exch definefont pop
/Times-Roman findfont
dup length dict begin
  {1 index /FID ne {def} {pop pop} ifelse} forall
  /Encoding WinAnsiEncoding def
  currentdict
end
/Times-Roman exch definefont pop
/Helvetica-BoldOblique findfont
dup length dict begin
  {1 index /FID ne {def} {pop pop} ifelse} forall
  /Encoding WinAnsiEncoding def
  currentdict
end
/Helvetica-BoldOblique exch definefont pop
/Helvetica-Bold findfont
dup length dict begin
  {1 index /FID ne {def} {pop pop} ifelse} forall
  /Encoding WinAnsiEncoding def
  currentdict
end
/Helvetica-Bold exch definefont pop
/Helvetica-Oblique findfont
dup length dict begin
  {1 index /FID ne {def} {pop pop} ifelse} forall
  /Encoding WinAnsiEncoding def
  currentdict
end
/Helvetica-Oblique exch definefont pop
/Times-BoldItalic findfont
dup length dict begin
  {1 index /FID ne {def} {pop pop} ifelse} forall
  /Encoding WinAnsiEncoding def
  currentdict
end
/Times-BoldItalic exch definefont pop
/Courier findfont
dup length dict begin
  {1 index /FID ne {def} {pop pop} ifelse} forall
  /Encoding WinAnsiEncoding def
  currentdict
end
/Courier exch definefont pop
/Times-Italic findfont
dup length dict begin
  {1 index /FID ne {def} {pop pop} ifelse} forall
  /Encoding WinAnsiEncoding def
  currentdict
end
/Times-Italic exch definefont pop
/Times-Bold findfont
dup length dict begin
  {1 index /FID ne {def} {pop pop} ifelse} forall
  /Encoding WinAnsiEncoding def
  currentdict
end
/Times-Bold exch definefont pop
%FOPEndFontReencode
%%EndProlog
%%Page: 1 1
%%PageBoundingBox: 0 0 576 432
%%BeginPageSetup
[1 0 0 -1 0 432] CT
%%EndPageSetup
GS
1 GC
N
0 0 576 432 re
f
GR
GS
1 GC
N
0 0 576 432 re
f
GR
GS
1 GC
N
75 384 M
521.5 384 L
521.5 32.5 L
75 32.5 L
cp
f
GR
GS
0.149 GC
2 setlinecap
1 LJ
0.5 LW
N
75 384 M
521.5 384 L
S
GR
GS
0.149 GC
2 setlinecap
1 LJ
0.5 LW
N
75 384 M
75 379.535 L
S
GR
GS
0.149 GC
2 setlinecap
1 LJ
0.5 LW
N
164.3 384 M
164.3 379.535 L
S
GR
GS
0.149 GC
2 setlinecap
1 LJ
0.5 LW
N
253.6 384 M
253.6 379.535 L
S
GR
GS
0.149 GC
2 setlinecap
1 LJ
0.5 LW
N
342.9 384 M
342.9 379.535 L
S
GR
GS
0.149 GC
2 setlinecap
1 LJ
0.5 LW
N
432.2 384 M
432.2 379.535 L
S
GR
GS
0.149 GC
2 setlinecap
1 LJ
0.5 LW
N
521.5 384 M
521.5 379.535 L
S
GR
GS
[1 0 0 1 75 390] CT
0.149 GC
/Helvetica 20 F
GS
[1 0 0 1 0 0] CT
-6 16 moveto 
1 -1 scale
(0) t 
GR
GR
GS
[1 0 0 1 164.3 390] CT
0.149 GC
/Helvetica 20 F
GS
[1 0 0 1 0 0] CT
-11.5 16 moveto 
1 -1 scale
(10) t 
GR
GR
GS
[1 0 0 1 253.60001 390] CT
0.149 GC
/Helvetica 20 F
GS
[1 0 0 1 0 0] CT
-11.5 16 moveto 
1 -1 scale
(20) t 
GR
GR
GS
[1 0 0 1 342.90002 390] CT
0.149 GC
/Helvetica 20 F
GS
[1 0 0 1 0 0] CT
-11.5 16 moveto 
1 -1 scale
(30) t 
GR
GR
GS
[1 0 0 1 432.20001 390] CT
0.149 GC
/Helvetica 20 F
GS
[1 0 0 1 0 0] CT
-11.5 16 moveto 
1 -1 scale
(40) t 
GR
GR
GS
[1 0 0 1 521.5 390] CT
0.149 GC
/Helvetica 20 F
GS
[1 0 0 1 0 0] CT
-11.5 16 moveto 
1 -1 scale
(50) t 
GR
GR
GS
[1 0 0 1 298.25021 411.5] CT
0.149 GC
/Helvetica 20 F
GS
[1 0 0 1 0 0] CT
-41.5 16 moveto 
1 -1 scale
(Iterations) t 
GR
GR
GS
0.149 GC
2 setlinecap
1 LJ
0.5 LW
N
75 384 M
75 32.5 L
S
GR
GS
0.149 GC
2 setlinecap
1 LJ
0.5 LW
N
75 381.724 M
79.465 381.724 L
S
GR
GS
0.149 GC
2 setlinecap
1 LJ
0.5 LW
N
75 338.676 M
79.465 338.676 L
S
GR
GS
0.149 GC
2 setlinecap
1 LJ
0.5 LW
N
75 296.177 M
79.465 296.177 L
S
GR
GS
0.149 GC
2 setlinecap
1 LJ
0.5 LW
N
75 254.212 M
79.465 254.212 L
S
GR
GS
0.149 GC
2 setlinecap
1 LJ
0.5 LW
N
75 212.769 M
79.465 212.769 L
S
GR
GS
0.149 GC
2 setlinecap
1 LJ
0.5 LW
N
75 171.834 M
79.465 171.834 L
S
GR
GS
0.149 GC
2 setlinecap
1 LJ
0.5 LW
N
75 131.395 M
79.465 131.395 L
S
GR
GS
0.149 GC
2 setlinecap
1 LJ
0.5 LW
N
75 91.441 M
79.465 91.441 L
S
GR
GS
0.149 GC
2 setlinecap
1 LJ
0.5 LW
N
75 51.959 M
79.465 51.959 L
S
GR
GS
0.149 GC
2 setlinecap
1 LJ
0.5 LW
N
75 373.07 M
77.232 373.07 L
S
GR
GS
0.149 GC
2 setlinecap
1 LJ
0.5 LW
N
75 364.438 M
77.232 364.438 L
S
GR
GS
0.149 GC
2 setlinecap
1 LJ
0.5 LW
N
75 355.829 M
77.232 355.829 L
S
GR
GS
0.149 GC
2 setlinecap
1 LJ
0.5 LW
N
75 347.241 M
77.232 347.241 L
S
GR
GS
0.149 GC
2 setlinecap
1 LJ
0.5 LW
N
75 330.133 M
77.232 330.133 L
S
GR
GS
0.149 GC
2 setlinecap
1 LJ
0.5 LW
N
75 321.611 M
77.232 321.611 L
S
GR
GS
0.149 GC
2 setlinecap
1 LJ
0.5 LW
N
75 313.112 M
77.232 313.112 L
S
GR
GS
0.149 GC
2 setlinecap
1 LJ
0.5 LW
N
75 304.633 M
77.232 304.633 L
S
GR
GS
0.149 GC
2 setlinecap
1 LJ
0.5 LW
N
75 287.742 M
77.232 287.742 L
S
GR
GS
0.149 GC
2 setlinecap
1 LJ
0.5 LW
N
75 279.328 M
77.232 279.328 L
S
GR
GS
0.149 GC
2 setlinecap
1 LJ
0.5 LW
N
75 270.935 M
77.232 270.935 L
S
GR
GS
0.149 GC
2 setlinecap
1 LJ
0.5 LW
N
75 262.563 M
77.232 262.563 L
S
GR
GS
0.149 GC
2 setlinecap
1 LJ
0.5 LW
N
75 245.882 M
77.232 245.882 L
S
GR
GS
0.149 GC
2 setlinecap
1 LJ
0.5 LW
N
75 237.573 M
77.232 237.573 L
S
GR
GS
0.149 GC
2 setlinecap
1 LJ
0.5 LW
N
75 229.284 M
77.232 229.284 L
S
GR
GS
0.149 GC
2 setlinecap
1 LJ
0.5 LW
N
75 221.016 M
77.232 221.016 L
S
GR
GS
0.149 GC
2 setlinecap
1 LJ
0.5 LW
N
75 204.541 M
77.232 204.541 L
S
GR
GS
0.149 GC
2 setlinecap
1 LJ
0.5 LW
N
75 196.334 M
77.232 196.334 L
S
GR
GS
0.149 GC
2 setlinecap
1 LJ
0.5 LW
N
75 188.148 M
77.232 188.148 L
S
GR
GS
0.149 GC
2 setlinecap
1 LJ
0.5 LW
N
75 179.981 M
77.232 179.981 L
S
GR
GS
0.149 GC
2 setlinecap
1 LJ
0.5 LW
N
75 163.707 M
77.232 163.707 L
S
GR
GS
0.149 GC
2 setlinecap
1 LJ
0.5 LW
N
75 155.6 M
77.232 155.6 L
S
GR
GS
0.149 GC
2 setlinecap
1 LJ
0.5 LW
N
75 147.512 M
77.232 147.512 L
S
GR
GS
0.149 GC
2 setlinecap
1 LJ
0.5 LW
N
75 139.444 M
77.232 139.444 L
S
GR
GS
0.149 GC
2 setlinecap
1 LJ
0.5 LW
N
75 123.366 M
77.232 123.366 L
S
GR
GS
0.149 GC
2 setlinecap
1 LJ
0.5 LW
N
75 115.356 M
77.232 115.356 L
S
GR
GS
0.149 GC
2 setlinecap
1 LJ
0.5 LW
N
75 107.365 M
77.232 107.365 L
S
GR
GS
0.149 GC
2 setlinecap
1 LJ
0.5 LW
N
75 99.394 M
77.232 99.394 L
S
GR
GS
0.149 GC
2 setlinecap
1 LJ
0.5 LW
N
75 83.507 M
77.232 83.507 L
S
GR
GS
0.149 GC
2 setlinecap
1 LJ
0.5 LW
N
75 75.592 M
77.232 75.592 L
S
GR
GS
0.149 GC
2 setlinecap
1 LJ
0.5 LW
N
75 67.696 M
77.232 67.696 L
S
GR
GS
0.149 GC
2 setlinecap
1 LJ
0.5 LW
N
75 59.818 M
77.232 59.818 L
S
GR
GS
0.149 GC
2 setlinecap
1 LJ
0.5 LW
N
75 44.119 M
77.232 44.119 L
S
GR
GS
0.149 GC
2 setlinecap
1 LJ
0.5 LW
N
75 36.297 M
77.232 36.297 L
S
GR
GS
[1 0 0 1 69 381.72382] CT
0.149 GC
/Helvetica 20 F
GS
[1 0 0 1 0 0] CT
-39 5.5 moveto 
1 -1 scale
(3.85) t 
GR
GR
GS
[1 0 0 1 69 338.67612] CT
0.149 GC
/Helvetica 20 F
GS
[1 0 0 1 0 0] CT
-28 5.5 moveto 
1 -1 scale
(3.9) t 
GR
GR
GS
[1 0 0 1 69 296.17682] CT
0.149 GC
/Helvetica 20 F
GS
[1 0 0 1 0 0] CT
-39 5.5 moveto 
1 -1 scale
(3.95) t 
GR
GR
GS
[1 0 0 1 69 254.21211] CT
0.149 GC
/Helvetica 20 F
GS
[1 0 0 1 0 0] CT
-12 5.5 moveto 
1 -1 scale
(4) t 
GR
GR
GS
[1 0 0 1 69 212.76872] CT
0.149 GC
/Helvetica 20 F
GS
[1 0 0 1 0 0] CT
-39 5.5 moveto 
1 -1 scale
(4.05) t 
GR
GR
GS
[1 0 0 1 69 171.83386] CT
0.149 GC
/Helvetica 20 F
GS
[1 0 0 1 0 0] CT
-28 5.5 moveto 
1 -1 scale
(4.1) t 
GR
GR
GS
[1 0 0 1 69 131.39519] CT
0.149 GC
/Helvetica 20 F
GS
[1 0 0 1 0 0] CT
-39 5.5 moveto 
1 -1 scale
(4.15) t 
GR
GR
GS
[1 0 0 1 69 91.44083] CT
0.149 GC
/Helvetica 20 F
GS
[1 0 0 1 0 0] CT
-28 5.5 moveto 
1 -1 scale
(4.2) t 
GR
GR
GS
[1 0 0 1 69 51.9593] CT
0.149 GC
/Helvetica 20 F
GS
[1 0 0 1 0 0] CT
-39 5.5 moveto 
1 -1 scale
(4.25) t 
GR
GR
GS
[0 -1 1 0 27 208.24983] CT
0.149 GC
/Helvetica 20 F
GS
[1 0 0 1 0 0] CT
-54.5 -5 moveto 
1 -1 scale
(Train RMSE) t 
GR
GR
GS
0 0.447 0.741 RC
1 LJ
N
119.65 32.5 M
128.58 127.613 L
137.51 115.093 L
146.44 235.031 L
155.37 245.029 L
164.3 239.721 L
173.23 301.363 L
182.16 307.179 L
191.09 306.21 L
200.02 326.647 L
208.95 340.473 L
217.88 341.37 L
226.81 352.223 L
235.74 352.524 L
244.67 359.867 L
253.6 362.642 L
262.53 365.68 L
271.46 365.703 L
280.39 369.824 L
289.32 371.224 L
298.25 372.719 L
307.18 372.834 L
316.11 375.066 L
325.04 375.832 L
333.97 376.563 L
342.9 376.724 L
351.83 377.839 L
360.76 378.068 L
369.69 378.383 L
378.62 378.749 L
387.55 378.865 L
396.48 379.461 L
405.41 379.646 L
414.34 379.705 L
423.27 379.866 L
432.2 380.077 L
441.13 380.153 L
S
GR
GS
0 0.447 0.741 RC
1 LJ
N
122.5 32.5 M
121.621 30.379 L
119.5 29.5 L
117.379 30.379 L
116.5 32.5 L
117.379 34.621 L
119.5 35.5 L
121.621 34.621 L
cp
S
GR
GS
0 0.447 0.741 RC
1 LJ
N
131.5 127.5 M
130.621 125.379 L
128.5 124.5 L
126.379 125.379 L
125.5 127.5 L
126.379 129.621 L
128.5 130.5 L
130.621 129.621 L
cp
S
GR
GS
0 0.447 0.741 RC
1 LJ
N
140.5 115.5 M
139.621 113.379 L
137.5 112.5 L
135.379 113.379 L
134.5 115.5 L
135.379 117.621 L
137.5 118.5 L
139.621 117.621 L
cp
S
GR
GS
0 0.447 0.741 RC
1 LJ
N
149.5 235.5 M
148.621 233.379 L
146.5 232.5 L
144.379 233.379 L
143.5 235.5 L
144.379 237.621 L
146.5 238.5 L
148.621 237.621 L
cp
S
GR
GS
0 0.447 0.741 RC
1 LJ
N
158.5 245.5 M
157.621 243.379 L
155.5 242.5 L
153.379 243.379 L
152.5 245.5 L
153.379 247.621 L
155.5 248.5 L
157.621 247.621 L
cp
S
GR
GS
0 0.447 0.741 RC
1 LJ
N
167.5 239.5 M
166.621 237.379 L
164.5 236.5 L
162.379 237.379 L
161.5 239.5 L
162.379 241.621 L
164.5 242.5 L
166.621 241.621 L
cp
S
GR
GS
0 0.447 0.741 RC
1 LJ
N
176.5 301.5 M
175.621 299.379 L
173.5 298.5 L
171.379 299.379 L
170.5 301.5 L
171.379 303.621 L
173.5 304.5 L
175.621 303.621 L
cp
S
GR
GS
0 0.447 0.741 RC
1 LJ
N
185.5 307.5 M
184.621 305.379 L
182.5 304.5 L
180.379 305.379 L
179.5 307.5 L
180.379 309.621 L
182.5 310.5 L
184.621 309.621 L
cp
S
GR
GS
0 0.447 0.741 RC
1 LJ
N
194.5 306.5 M
193.621 304.379 L
191.5 303.5 L
189.379 304.379 L
188.5 306.5 L
189.379 308.621 L
191.5 309.5 L
193.621 308.621 L
cp
S
GR
GS
0 0.447 0.741 RC
1 LJ
N
203.5 326.5 M
202.621 324.379 L
200.5 323.5 L
198.379 324.379 L
197.5 326.5 L
198.379 328.621 L
200.5 329.5 L
202.621 328.621 L
cp
S
GR
GS
0 0.447 0.741 RC
1 LJ
N
211.5 340.5 M
210.621 338.379 L
208.5 337.5 L
206.379 338.379 L
205.5 340.5 L
206.379 342.621 L
208.5 343.5 L
210.621 342.621 L
cp
S
GR
GS
0 0.447 0.741 RC
1 LJ
N
220.5 341.5 M
219.621 339.379 L
217.5 338.5 L
215.379 339.379 L
214.5 341.5 L
215.379 343.621 L
217.5 344.5 L
219.621 343.621 L
cp
S
GR
GS
0 0.447 0.741 RC
1 LJ
N
229.5 352.5 M
228.621 350.379 L
226.5 349.5 L
224.379 350.379 L
223.5 352.5 L
224.379 354.621 L
226.5 355.5 L
228.621 354.621 L
cp
S
GR
GS
0 0.447 0.741 RC
1 LJ
N
238.5 352.5 M
237.621 350.379 L
235.5 349.5 L
233.379 350.379 L
232.5 352.5 L
233.379 354.621 L
235.5 355.5 L
237.621 354.621 L
cp
S
GR
GS
0 0.447 0.741 RC
1 LJ
N
247.5 359.5 M
246.621 357.379 L
244.5 356.5 L
242.379 357.379 L
241.5 359.5 L
242.379 361.621 L
244.5 362.5 L
246.621 361.621 L
cp
S
GR
GS
0 0.447 0.741 RC
1 LJ
N
256.5 362.5 M
255.621 360.379 L
253.5 359.5 L
251.379 360.379 L
250.5 362.5 L
251.379 364.621 L
253.5 365.5 L
255.621 364.621 L
cp
S
GR
GS
0 0.447 0.741 RC
1 LJ
N
265.5 365.5 M
264.621 363.379 L
262.5 362.5 L
260.379 363.379 L
259.5 365.5 L
260.379 367.621 L
262.5 368.5 L
264.621 367.621 L
cp
S
GR
GS
0 0.447 0.741 RC
1 LJ
N
274.5 365.5 M
273.621 363.379 L
271.5 362.5 L
269.379 363.379 L
268.5 365.5 L
269.379 367.621 L
271.5 368.5 L
273.621 367.621 L
cp
S
GR
GS
0 0.447 0.741 RC
1 LJ
N
283.5 369.5 M
282.621 367.379 L
280.5 366.5 L
278.379 367.379 L
277.5 369.5 L
278.379 371.621 L
280.5 372.5 L
282.621 371.621 L
cp
S
GR
GS
0 0.447 0.741 RC
1 LJ
N
292.5 371.5 M
291.621 369.379 L
289.5 368.5 L
287.379 369.379 L
286.5 371.5 L
287.379 373.621 L
289.5 374.5 L
291.621 373.621 L
cp
S
GR
GS
0 0.447 0.741 RC
1 LJ
N
301.5 372.5 M
300.621 370.379 L
298.5 369.5 L
296.379 370.379 L
295.5 372.5 L
296.379 374.621 L
298.5 375.5 L
300.621 374.621 L
cp
S
GR
GS
0 0.447 0.741 RC
1 LJ
N
310.5 372.5 M
309.621 370.379 L
307.5 369.5 L
305.379 370.379 L
304.5 372.5 L
305.379 374.621 L
307.5 375.5 L
309.621 374.621 L
cp
S
GR
GS
0 0.447 0.741 RC
1 LJ
N
319.5 375.5 M
318.621 373.379 L
316.5 372.5 L
314.379 373.379 L
313.5 375.5 L
314.379 377.621 L
316.5 378.5 L
318.621 377.621 L
cp
S
GR
GS
0 0.447 0.741 RC
1 LJ
N
328.5 375.5 M
327.621 373.379 L
325.5 372.5 L
323.379 373.379 L
322.5 375.5 L
323.379 377.621 L
325.5 378.5 L
327.621 377.621 L
cp
S
GR
GS
0 0.447 0.741 RC
1 LJ
N
336.5 376.5 M
335.621 374.379 L
333.5 373.5 L
331.379 374.379 L
330.5 376.5 L
331.379 378.621 L
333.5 379.5 L
335.621 378.621 L
cp
S
GR
GS
0 0.447 0.741 RC
1 LJ
N
345.5 376.5 M
344.621 374.379 L
342.5 373.5 L
340.379 374.379 L
339.5 376.5 L
340.379 378.621 L
342.5 379.5 L
344.621 378.621 L
cp
S
GR
GS
0 0.447 0.741 RC
1 LJ
N
354.5 377.5 M
353.621 375.379 L
351.5 374.5 L
349.379 375.379 L
348.5 377.5 L
349.379 379.621 L
351.5 380.5 L
353.621 379.621 L
cp
S
GR
GS
0 0.447 0.741 RC
1 LJ
N
363.5 378.5 M
362.621 376.379 L
360.5 375.5 L
358.379 376.379 L
357.5 378.5 L
358.379 380.621 L
360.5 381.5 L
362.621 380.621 L
cp
S
GR
GS
0 0.447 0.741 RC
1 LJ
N
372.5 378.5 M
371.621 376.379 L
369.5 375.5 L
367.379 376.379 L
366.5 378.5 L
367.379 380.621 L
369.5 381.5 L
371.621 380.621 L
cp
S
GR
GS
0 0.447 0.741 RC
1 LJ
N
381.5 378.5 M
380.621 376.379 L
378.5 375.5 L
376.379 376.379 L
375.5 378.5 L
376.379 380.621 L
378.5 381.5 L
380.621 380.621 L
cp
S
GR
GS
0 0.447 0.741 RC
1 LJ
N
390.5 378.5 M
389.621 376.379 L
387.5 375.5 L
385.379 376.379 L
384.5 378.5 L
385.379 380.621 L
387.5 381.5 L
389.621 380.621 L
cp
S
GR
GS
0 0.447 0.741 RC
1 LJ
N
399.5 379.5 M
398.621 377.379 L
396.5 376.5 L
394.379 377.379 L
393.5 379.5 L
394.379 381.621 L
396.5 382.5 L
398.621 381.621 L
cp
S
GR
GS
0 0.447 0.741 RC
1 LJ
N
408.5 379.5 M
407.621 377.379 L
405.5 376.5 L
403.379 377.379 L
402.5 379.5 L
403.379 381.621 L
405.5 382.5 L
407.621 381.621 L
cp
S
GR
GS
0 0.447 0.741 RC
1 LJ
N
417.5 379.5 M
416.621 377.379 L
414.5 376.5 L
412.379 377.379 L
411.5 379.5 L
412.379 381.621 L
414.5 382.5 L
416.621 381.621 L
cp
S
GR
GS
0 0.447 0.741 RC
1 LJ
N
426.5 379.5 M
425.621 377.379 L
423.5 376.5 L
421.379 377.379 L
420.5 379.5 L
421.379 381.621 L
423.5 382.5 L
425.621 381.621 L
cp
S
GR
GS
0 0.447 0.741 RC
1 LJ
N
435.5 380.5 M
434.621 378.379 L
432.5 377.5 L
430.379 378.379 L
429.5 380.5 L
430.379 382.621 L
432.5 383.5 L
434.621 382.621 L
cp
S
GR
GS
0 0.447 0.741 RC
1 LJ
N
444.5 380.5 M
443.621 378.379 L
441.5 377.5 L
439.379 378.379 L
438.5 380.5 L
439.379 382.621 L
441.5 383.5 L
443.621 382.621 L
cp
S
GR
GS
0.851 0.325 0.098 RC
1 LJ
N
119.65 159.394 M
128.58 159.387 L
137.51 245.757 L
146.44 295.719 L
155.37 310.567 L
164.3 319.643 L
173.23 350.517 L
182.16 350.67 L
191.09 356.677 L
200.02 369.42 L
208.95 372.909 L
217.88 377.837 L
226.81 379.961 L
235.74 379.767 L
244.67 382.088 L
253.6 381.846 L
262.53 383.179 L
271.46 383.191 L
280.39 383.182 L
289.32 383.592 L
298.25 383.657 L
307.18 383.684 L
316.11 383.69 L
325.04 383.796 L
333.97 383.84 L
342.9 383.845 L
351.83 383.862 L
360.76 383.905 L
369.69 383.919 L
378.62 383.935 L
387.55 383.937 L
396.48 383.949 L
405.41 383.964 L
414.34 383.955 L
423.27 383.977 L
432.2 383.983 L
441.13 384 L
S
GR
GS
0.851 0.325 0.098 RC
1 LJ
N
122.5 159.5 M
121.621 157.379 L
119.5 156.5 L
117.379 157.379 L
116.5 159.5 L
117.379 161.621 L
119.5 162.5 L
121.621 161.621 L
cp
S
GR
GS
0.851 0.325 0.098 RC
1 LJ
N
131.5 159.5 M
130.621 157.379 L
128.5 156.5 L
126.379 157.379 L
125.5 159.5 L
126.379 161.621 L
128.5 162.5 L
130.621 161.621 L
cp
S
GR
GS
0.851 0.325 0.098 RC
1 LJ
N
140.5 245.5 M
139.621 243.379 L
137.5 242.5 L
135.379 243.379 L
134.5 245.5 L
135.379 247.621 L
137.5 248.5 L
139.621 247.621 L
cp
S
GR
GS
0.851 0.325 0.098 RC
1 LJ
N
149.5 295.5 M
148.621 293.379 L
146.5 292.5 L
144.379 293.379 L
143.5 295.5 L
144.379 297.621 L
146.5 298.5 L
148.621 297.621 L
cp
S
GR
GS
0.851 0.325 0.098 RC
1 LJ
N
158.5 310.5 M
157.621 308.379 L
155.5 307.5 L
153.379 308.379 L
152.5 310.5 L
153.379 312.621 L
155.5 313.5 L
157.621 312.621 L
cp
S
GR
GS
0.851 0.325 0.098 RC
1 LJ
N
167.5 319.5 M
166.621 317.379 L
164.5 316.5 L
162.379 317.379 L
161.5 319.5 L
162.379 321.621 L
164.5 322.5 L
166.621 321.621 L
cp
S
GR
GS
0.851 0.325 0.098 RC
1 LJ
N
176.5 350.5 M
175.621 348.379 L
173.5 347.5 L
171.379 348.379 L
170.5 350.5 L
171.379 352.621 L
173.5 353.5 L
175.621 352.621 L
cp
S
GR
GS
0.851 0.325 0.098 RC
1 LJ
N
185.5 350.5 M
184.621 348.379 L
182.5 347.5 L
180.379 348.379 L
179.5 350.5 L
180.379 352.621 L
182.5 353.5 L
184.621 352.621 L
cp
S
GR
GS
0.851 0.325 0.098 RC
1 LJ
N
194.5 356.5 M
193.621 354.379 L
191.5 353.5 L
189.379 354.379 L
188.5 356.5 L
189.379 358.621 L
191.5 359.5 L
193.621 358.621 L
cp
S
GR
GS
0.851 0.325 0.098 RC
1 LJ
N
203.5 369.5 M
202.621 367.379 L
200.5 366.5 L
198.379 367.379 L
197.5 369.5 L
198.379 371.621 L
200.5 372.5 L
202.621 371.621 L
cp
S
GR
GS
0.851 0.325 0.098 RC
1 LJ
N
211.5 372.5 M
210.621 370.379 L
208.5 369.5 L
206.379 370.379 L
205.5 372.5 L
206.379 374.621 L
208.5 375.5 L
210.621 374.621 L
cp
S
GR
GS
0.851 0.325 0.098 RC
1 LJ
N
220.5 377.5 M
219.621 375.379 L
217.5 374.5 L
215.379 375.379 L
214.5 377.5 L
215.379 379.621 L
217.5 380.5 L
219.621 379.621 L
cp
S
GR
GS
0.851 0.325 0.098 RC
1 LJ
N
229.5 379.5 M
228.621 377.379 L
226.5 376.5 L
224.379 377.379 L
223.5 379.5 L
224.379 381.621 L
226.5 382.5 L
228.621 381.621 L
cp
S
GR
GS
0.851 0.325 0.098 RC
1 LJ
N
238.5 379.5 M
237.621 377.379 L
235.5 376.5 L
233.379 377.379 L
232.5 379.5 L
233.379 381.621 L
235.5 382.5 L
237.621 381.621 L
cp
S
GR
GS
0.851 0.325 0.098 RC
1 LJ
N
247.5 382.5 M
246.621 380.379 L
244.5 379.5 L
242.379 380.379 L
241.5 382.5 L
242.379 384.621 L
244.5 385.5 L
246.621 384.621 L
cp
S
GR
GS
0.851 0.325 0.098 RC
1 LJ
N
256.5 381.5 M
255.621 379.379 L
253.5 378.5 L
251.379 379.379 L
250.5 381.5 L
251.379 383.621 L
253.5 384.5 L
255.621 383.621 L
cp
S
GR
GS
0.851 0.325 0.098 RC
1 LJ
N
265.5 383.5 M
264.621 381.379 L
262.5 380.5 L
260.379 381.379 L
259.5 383.5 L
260.379 385.621 L
262.5 386.5 L
264.621 385.621 L
cp
S
GR
GS
0.851 0.325 0.098 RC
1 LJ
N
274.5 383.5 M
273.621 381.379 L
271.5 380.5 L
269.379 381.379 L
268.5 383.5 L
269.379 385.621 L
271.5 386.5 L
273.621 385.621 L
cp
S
GR
GS
0.851 0.325 0.098 RC
1 LJ
N
283.5 383.5 M
282.621 381.379 L
280.5 380.5 L
278.379 381.379 L
277.5 383.5 L
278.379 385.621 L
280.5 386.5 L
282.621 385.621 L
cp
S
GR
GS
0.851 0.325 0.098 RC
1 LJ
N
292.5 383.5 M
291.621 381.379 L
289.5 380.5 L
287.379 381.379 L
286.5 383.5 L
287.379 385.621 L
289.5 386.5 L
291.621 385.621 L
cp
S
GR
GS
0.851 0.325 0.098 RC
1 LJ
N
301.5 383.5 M
300.621 381.379 L
298.5 380.5 L
296.379 381.379 L
295.5 383.5 L
296.379 385.621 L
298.5 386.5 L
300.621 385.621 L
cp
S
GR
GS
0.851 0.325 0.098 RC
1 LJ
N
310.5 383.5 M
309.621 381.379 L
307.5 380.5 L
305.379 381.379 L
304.5 383.5 L
305.379 385.621 L
307.5 386.5 L
309.621 385.621 L
cp
S
GR
GS
0.851 0.325 0.098 RC
1 LJ
N
319.5 383.5 M
318.621 381.379 L
316.5 380.5 L
314.379 381.379 L
313.5 383.5 L
314.379 385.621 L
316.5 386.5 L
318.621 385.621 L
cp
S
GR
GS
0.851 0.325 0.098 RC
1 LJ
N
328.5 383.5 M
327.621 381.379 L
325.5 380.5 L
323.379 381.379 L
322.5 383.5 L
323.379 385.621 L
325.5 386.5 L
327.621 385.621 L
cp
S
GR
GS
0.851 0.325 0.098 RC
1 LJ
N
336.5 383.5 M
335.621 381.379 L
333.5 380.5 L
331.379 381.379 L
330.5 383.5 L
331.379 385.621 L
333.5 386.5 L
335.621 385.621 L
cp
S
GR
GS
0.851 0.325 0.098 RC
1 LJ
N
345.5 383.5 M
344.621 381.379 L
342.5 380.5 L
340.379 381.379 L
339.5 383.5 L
340.379 385.621 L
342.5 386.5 L
344.621 385.621 L
cp
S
GR
GS
0.851 0.325 0.098 RC
1 LJ
N
354.5 383.5 M
353.621 381.379 L
351.5 380.5 L
349.379 381.379 L
348.5 383.5 L
349.379 385.621 L
351.5 386.5 L
353.621 385.621 L
cp
S
GR
GS
0.851 0.325 0.098 RC
1 LJ
N
363.5 383.5 M
362.621 381.379 L
360.5 380.5 L
358.379 381.379 L
357.5 383.5 L
358.379 385.621 L
360.5 386.5 L
362.621 385.621 L
cp
S
GR
GS
0.851 0.325 0.098 RC
1 LJ
N
372.5 383.5 M
371.621 381.379 L
369.5 380.5 L
367.379 381.379 L
366.5 383.5 L
367.379 385.621 L
369.5 386.5 L
371.621 385.621 L
cp
S
GR
GS
0.851 0.325 0.098 RC
1 LJ
N
381.5 383.5 M
380.621 381.379 L
378.5 380.5 L
376.379 381.379 L
375.5 383.5 L
376.379 385.621 L
378.5 386.5 L
380.621 385.621 L
cp
S
GR
GS
0.851 0.325 0.098 RC
1 LJ
N
390.5 383.5 M
389.621 381.379 L
387.5 380.5 L
385.379 381.379 L
384.5 383.5 L
385.379 385.621 L
387.5 386.5 L
389.621 385.621 L
cp
S
GR
GS
0.851 0.325 0.098 RC
1 LJ
N
399.5 383.5 M
398.621 381.379 L
396.5 380.5 L
394.379 381.379 L
393.5 383.5 L
394.379 385.621 L
396.5 386.5 L
398.621 385.621 L
cp
S
GR
GS
0.851 0.325 0.098 RC
1 LJ
N
408.5 383.5 M
407.621 381.379 L
405.5 380.5 L
403.379 381.379 L
402.5 383.5 L
403.379 385.621 L
405.5 386.5 L
407.621 385.621 L
cp
S
GR
GS
0.851 0.325 0.098 RC
1 LJ
N
417.5 383.5 M
416.621 381.379 L
414.5 380.5 L
412.379 381.379 L
411.5 383.5 L
412.379 385.621 L
414.5 386.5 L
416.621 385.621 L
cp
S
GR
GS
0.851 0.325 0.098 RC
1 LJ
N
426.5 383.5 M
425.621 381.379 L
423.5 380.5 L
421.379 381.379 L
420.5 383.5 L
421.379 385.621 L
423.5 386.5 L
425.621 385.621 L
cp
S
GR
GS
0.851 0.325 0.098 RC
1 LJ
N
435.5 383.5 M
434.621 381.379 L
432.5 380.5 L
430.379 381.379 L
429.5 383.5 L
430.379 385.621 L
432.5 386.5 L
434.621 385.621 L
cp
S
GR
GS
0.851 0.325 0.098 RC
1 LJ
N
444.5 383.5 M
443.621 381.379 L
441.5 380.5 L
439.379 381.379 L
438.5 383.5 L
439.379 385.621 L
441.5 386.5 L
443.621 385.621 L
cp
S
GR
GS
0.929 0.694 0.125 RC
1 LJ
N
119.65 38.587 M
128.58 131.507 L
137.51 156.975 L
146.44 240.468 L
155.37 240.842 L
164.3 274.284 L
173.23 300.755 L
182.16 299.255 L
191.09 318.173 L
200.02 332.3 L
208.95 333.434 L
217.88 343.645 L
226.81 350.689 L
235.74 351.305 L
244.67 357.498 L
253.6 358.265 L
262.53 361.894 L
271.46 361.835 L
280.39 364.934 L
289.32 367.41 L
298.25 368.53 L
307.18 368.442 L
316.11 370.714 L
325.04 372.147 L
333.97 372.828 L
342.9 373.135 L
351.83 372.517 L
360.76 374.259 L
369.69 375.067 L
378.62 375.488 L
387.55 375.524 L
396.48 375.708 L
405.41 376.204 L
414.34 376.946 L
423.27 377.109 L
432.2 377.63 L
441.13 377.611 L
S
GR
GS
0.929 0.694 0.125 RC
1 LJ
N
122.5 38.5 M
121.621 36.379 L
119.5 35.5 L
117.379 36.379 L
116.5 38.5 L
117.379 40.621 L
119.5 41.5 L
121.621 40.621 L
cp
S
GR
GS
0.929 0.694 0.125 RC
1 LJ
N
131.5 131.5 M
130.621 129.379 L
128.5 128.5 L
126.379 129.379 L
125.5 131.5 L
126.379 133.621 L
128.5 134.5 L
130.621 133.621 L
cp
S
GR
GS
0.929 0.694 0.125 RC
1 LJ
N
140.5 156.5 M
139.621 154.379 L
137.5 153.5 L
135.379 154.379 L
134.5 156.5 L
135.379 158.621 L
137.5 159.5 L
139.621 158.621 L
cp
S
GR
GS
0.929 0.694 0.125 RC
1 LJ
N
149.5 240.5 M
148.621 238.379 L
146.5 237.5 L
144.379 238.379 L
143.5 240.5 L
144.379 242.621 L
146.5 243.5 L
148.621 242.621 L
cp
S
GR
GS
0.929 0.694 0.125 RC
1 LJ
N
158.5 240.5 M
157.621 238.379 L
155.5 237.5 L
153.379 238.379 L
152.5 240.5 L
153.379 242.621 L
155.5 243.5 L
157.621 242.621 L
cp
S
GR
GS
0.929 0.694 0.125 RC
1 LJ
N
167.5 274.5 M
166.621 272.379 L
164.5 271.5 L
162.379 272.379 L
161.5 274.5 L
162.379 276.621 L
164.5 277.5 L
166.621 276.621 L
cp
S
GR
GS
0.929 0.694 0.125 RC
1 LJ
N
176.5 300.5 M
175.621 298.379 L
173.5 297.5 L
171.379 298.379 L
170.5 300.5 L
171.379 302.621 L
173.5 303.5 L
175.621 302.621 L
cp
S
GR
GS
0.929 0.694 0.125 RC
1 LJ
N
185.5 299.5 M
184.621 297.379 L
182.5 296.5 L
180.379 297.379 L
179.5 299.5 L
180.379 301.621 L
182.5 302.5 L
184.621 301.621 L
cp
S
GR
GS
0.929 0.694 0.125 RC
1 LJ
N
194.5 318.5 M
193.621 316.379 L
191.5 315.5 L
189.379 316.379 L
188.5 318.5 L
189.379 320.621 L
191.5 321.5 L
193.621 320.621 L
cp
S
GR
GS
0.929 0.694 0.125 RC
1 LJ
N
203.5 332.5 M
202.621 330.379 L
200.5 329.5 L
198.379 330.379 L
197.5 332.5 L
198.379 334.621 L
200.5 335.5 L
202.621 334.621 L
cp
S
GR
GS
0.929 0.694 0.125 RC
1 LJ
N
211.5 333.5 M
210.621 331.379 L
208.5 330.5 L
206.379 331.379 L
205.5 333.5 L
206.379 335.621 L
208.5 336.5 L
210.621 335.621 L
cp
S
GR
GS
0.929 0.694 0.125 RC
1 LJ
N
220.5 343.5 M
219.621 341.379 L
217.5 340.5 L
215.379 341.379 L
214.5 343.5 L
215.379 345.621 L
217.5 346.5 L
219.621 345.621 L
cp
S
GR
GS
0.929 0.694 0.125 RC
1 LJ
N
229.5 350.5 M
228.621 348.379 L
226.5 347.5 L
224.379 348.379 L
223.5 350.5 L
224.379 352.621 L
226.5 353.5 L
228.621 352.621 L
cp
S
GR
GS
0.929 0.694 0.125 RC
1 LJ
N
238.5 351.5 M
237.621 349.379 L
235.5 348.5 L
233.379 349.379 L
232.5 351.5 L
233.379 353.621 L
235.5 354.5 L
237.621 353.621 L
cp
S
GR
GS
0.929 0.694 0.125 RC
1 LJ
N
247.5 357.5 M
246.621 355.379 L
244.5 354.5 L
242.379 355.379 L
241.5 357.5 L
242.379 359.621 L
244.5 360.5 L
246.621 359.621 L
cp
S
GR
GS
0.929 0.694 0.125 RC
1 LJ
N
256.5 358.5 M
255.621 356.379 L
253.5 355.5 L
251.379 356.379 L
250.5 358.5 L
251.379 360.621 L
253.5 361.5 L
255.621 360.621 L
cp
S
GR
GS
0.929 0.694 0.125 RC
1 LJ
N
265.5 361.5 M
264.621 359.379 L
262.5 358.5 L
260.379 359.379 L
259.5 361.5 L
260.379 363.621 L
262.5 364.5 L
264.621 363.621 L
cp
S
GR
GS
0.929 0.694 0.125 RC
1 LJ
N
274.5 361.5 M
273.621 359.379 L
271.5 358.5 L
269.379 359.379 L
268.5 361.5 L
269.379 363.621 L
271.5 364.5 L
273.621 363.621 L
cp
S
GR
GS
0.929 0.694 0.125 RC
1 LJ
N
283.5 364.5 M
282.621 362.379 L
280.5 361.5 L
278.379 362.379 L
277.5 364.5 L
278.379 366.621 L
280.5 367.5 L
282.621 366.621 L
cp
S
GR
GS
0.929 0.694 0.125 RC
1 LJ
N
292.5 367.5 M
291.621 365.379 L
289.5 364.5 L
287.379 365.379 L
286.5 367.5 L
287.379 369.621 L
289.5 370.5 L
291.621 369.621 L
cp
S
GR
GS
0.929 0.694 0.125 RC
1 LJ
N
301.5 368.5 M
300.621 366.379 L
298.5 365.5 L
296.379 366.379 L
295.5 368.5 L
296.379 370.621 L
298.5 371.5 L
300.621 370.621 L
cp
S
GR
GS
0.929 0.694 0.125 RC
1 LJ
N
310.5 368.5 M
309.621 366.379 L
307.5 365.5 L
305.379 366.379 L
304.5 368.5 L
305.379 370.621 L
307.5 371.5 L
309.621 370.621 L
cp
S
GR
GS
0.929 0.694 0.125 RC
1 LJ
N
319.5 370.5 M
318.621 368.379 L
316.5 367.5 L
314.379 368.379 L
313.5 370.5 L
314.379 372.621 L
316.5 373.5 L
318.621 372.621 L
cp
S
GR
GS
0.929 0.694 0.125 RC
1 LJ
N
328.5 372.5 M
327.621 370.379 L
325.5 369.5 L
323.379 370.379 L
322.5 372.5 L
323.379 374.621 L
325.5 375.5 L
327.621 374.621 L
cp
S
GR
GS
0.929 0.694 0.125 RC
1 LJ
N
336.5 372.5 M
335.621 370.379 L
333.5 369.5 L
331.379 370.379 L
330.5 372.5 L
331.379 374.621 L
333.5 375.5 L
335.621 374.621 L
cp
S
GR
GS
0.929 0.694 0.125 RC
1 LJ
N
345.5 373.5 M
344.621 371.379 L
342.5 370.5 L
340.379 371.379 L
339.5 373.5 L
340.379 375.621 L
342.5 376.5 L
344.621 375.621 L
cp
S
GR
GS
0.929 0.694 0.125 RC
1 LJ
N
354.5 372.5 M
353.621 370.379 L
351.5 369.5 L
349.379 370.379 L
348.5 372.5 L
349.379 374.621 L
351.5 375.5 L
353.621 374.621 L
cp
S
GR
GS
0.929 0.694 0.125 RC
1 LJ
N
363.5 374.5 M
362.621 372.379 L
360.5 371.5 L
358.379 372.379 L
357.5 374.5 L
358.379 376.621 L
360.5 377.5 L
362.621 376.621 L
cp
S
GR
GS
0.929 0.694 0.125 RC
1 LJ
N
372.5 375.5 M
371.621 373.379 L
369.5 372.5 L
367.379 373.379 L
366.5 375.5 L
367.379 377.621 L
369.5 378.5 L
371.621 377.621 L
cp
S
GR
GS
0.929 0.694 0.125 RC
1 LJ
N
381.5 375.5 M
380.621 373.379 L
378.5 372.5 L
376.379 373.379 L
375.5 375.5 L
376.379 377.621 L
378.5 378.5 L
380.621 377.621 L
cp
S
GR
GS
0.929 0.694 0.125 RC
1 LJ
N
390.5 375.5 M
389.621 373.379 L
387.5 372.5 L
385.379 373.379 L
384.5 375.5 L
385.379 377.621 L
387.5 378.5 L
389.621 377.621 L
cp
S
GR
GS
0.929 0.694 0.125 RC
1 LJ
N
399.5 375.5 M
398.621 373.379 L
396.5 372.5 L
394.379 373.379 L
393.5 375.5 L
394.379 377.621 L
396.5 378.5 L
398.621 377.621 L
cp
S
GR
GS
0.929 0.694 0.125 RC
1 LJ
N
408.5 376.5 M
407.621 374.379 L
405.5 373.5 L
403.379 374.379 L
402.5 376.5 L
403.379 378.621 L
405.5 379.5 L
407.621 378.621 L
cp
S
GR
GS
0.929 0.694 0.125 RC
1 LJ
N
417.5 376.5 M
416.621 374.379 L
414.5 373.5 L
412.379 374.379 L
411.5 376.5 L
412.379 378.621 L
414.5 379.5 L
416.621 378.621 L
cp
S
GR
GS
0.929 0.694 0.125 RC
1 LJ
N
426.5 377.5 M
425.621 375.379 L
423.5 374.5 L
421.379 375.379 L
420.5 377.5 L
421.379 379.621 L
423.5 380.5 L
425.621 379.621 L
cp
S
GR
GS
0.929 0.694 0.125 RC
1 LJ
N
435.5 377.5 M
434.621 375.379 L
432.5 374.5 L
430.379 375.379 L
429.5 377.5 L
430.379 379.621 L
432.5 380.5 L
434.621 379.621 L
cp
S
GR
GS
0.929 0.694 0.125 RC
1 LJ
N
444.5 377.5 M
443.621 375.379 L
441.5 374.5 L
439.379 375.379 L
438.5 377.5 L
439.379 379.621 L
441.5 380.5 L
443.621 379.621 L
cp
S
GR
GS
0.494 0.184 0.557 RC
1 LJ
N
119.65 164.964 M
128.58 162.817 L
137.51 189.457 L
146.44 278.908 L
155.37 300.078 L
164.3 314.003 L
173.23 340.934 L
182.16 352.252 L
191.09 354.046 L
200.02 347.775 L
208.95 370.464 L
217.88 368.652 L
226.81 377.819 L
235.74 377.028 L
244.67 380.75 L
253.6 380.494 L
262.53 381.596 L
271.46 381.529 L
280.39 381.793 L
289.32 381.79 L
298.25 381.941 L
307.18 381.948 L
316.11 382.075 L
325.04 382.087 L
333.97 382.209 L
342.9 382.25 L
351.83 382.284 L
360.76 382.329 L
369.69 382.371 L
378.62 382.447 L
387.55 382.476 L
396.48 382.484 L
405.41 382.592 L
414.34 382.615 L
423.27 382.655 L
432.2 382.656 L
441.13 382.708 L
S
GR
GS
0.494 0.184 0.557 RC
1 LJ
N
122.5 164.5 M
121.621 162.379 L
119.5 161.5 L
117.379 162.379 L
116.5 164.5 L
117.379 166.621 L
119.5 167.5 L
121.621 166.621 L
cp
S
GR
GS
0.494 0.184 0.557 RC
1 LJ
N
131.5 162.5 M
130.621 160.379 L
128.5 159.5 L
126.379 160.379 L
125.5 162.5 L
126.379 164.621 L
128.5 165.5 L
130.621 164.621 L
cp
S
GR
GS
0.494 0.184 0.557 RC
1 LJ
N
140.5 189.5 M
139.621 187.379 L
137.5 186.5 L
135.379 187.379 L
134.5 189.5 L
135.379 191.621 L
137.5 192.5 L
139.621 191.621 L
cp
S
GR
GS
0.494 0.184 0.557 RC
1 LJ
N
149.5 278.5 M
148.621 276.379 L
146.5 275.5 L
144.379 276.379 L
143.5 278.5 L
144.379 280.621 L
146.5 281.5 L
148.621 280.621 L
cp
S
GR
GS
0.494 0.184 0.557 RC
1 LJ
N
158.5 300.5 M
157.621 298.379 L
155.5 297.5 L
153.379 298.379 L
152.5 300.5 L
153.379 302.621 L
155.5 303.5 L
157.621 302.621 L
cp
S
GR
GS
0.494 0.184 0.557 RC
1 LJ
N
167.5 314.5 M
166.621 312.379 L
164.5 311.5 L
162.379 312.379 L
161.5 314.5 L
162.379 316.621 L
164.5 317.5 L
166.621 316.621 L
cp
S
GR
GS
0.494 0.184 0.557 RC
1 LJ
N
176.5 340.5 M
175.621 338.379 L
173.5 337.5 L
171.379 338.379 L
170.5 340.5 L
171.379 342.621 L
173.5 343.5 L
175.621 342.621 L
cp
S
GR
GS
0.494 0.184 0.557 RC
1 LJ
N
185.5 352.5 M
184.621 350.379 L
182.5 349.5 L
180.379 350.379 L
179.5 352.5 L
180.379 354.621 L
182.5 355.5 L
184.621 354.621 L
cp
S
GR
GS
0.494 0.184 0.557 RC
1 LJ
N
194.5 354.5 M
193.621 352.379 L
191.5 351.5 L
189.379 352.379 L
188.5 354.5 L
189.379 356.621 L
191.5 357.5 L
193.621 356.621 L
cp
S
GR
GS
0.494 0.184 0.557 RC
1 LJ
N
203.5 347.5 M
202.621 345.379 L
200.5 344.5 L
198.379 345.379 L
197.5 347.5 L
198.379 349.621 L
200.5 350.5 L
202.621 349.621 L
cp
S
GR
GS
0.494 0.184 0.557 RC
1 LJ
N
211.5 370.5 M
210.621 368.379 L
208.5 367.5 L
206.379 368.379 L
205.5 370.5 L
206.379 372.621 L
208.5 373.5 L
210.621 372.621 L
cp
S
GR
GS
0.494 0.184 0.557 RC
1 LJ
N
220.5 368.5 M
219.621 366.379 L
217.5 365.5 L
215.379 366.379 L
214.5 368.5 L
215.379 370.621 L
217.5 371.5 L
219.621 370.621 L
cp
S
GR
GS
0.494 0.184 0.557 RC
1 LJ
N
229.5 377.5 M
228.621 375.379 L
226.5 374.5 L
224.379 375.379 L
223.5 377.5 L
224.379 379.621 L
226.5 380.5 L
228.621 379.621 L
cp
S
GR
GS
0.494 0.184 0.557 RC
1 LJ
N
238.5 377.5 M
237.621 375.379 L
235.5 374.5 L
233.379 375.379 L
232.5 377.5 L
233.379 379.621 L
235.5 380.5 L
237.621 379.621 L
cp
S
GR
GS
0.494 0.184 0.557 RC
1 LJ
N
247.5 380.5 M
246.621 378.379 L
244.5 377.5 L
242.379 378.379 L
241.5 380.5 L
242.379 382.621 L
244.5 383.5 L
246.621 382.621 L
cp
S
GR
GS
0.494 0.184 0.557 RC
1 LJ
N
256.5 380.5 M
255.621 378.379 L
253.5 377.5 L
251.379 378.379 L
250.5 380.5 L
251.379 382.621 L
253.5 383.5 L
255.621 382.621 L
cp
S
GR
GS
0.494 0.184 0.557 RC
1 LJ
N
265.5 381.5 M
264.621 379.379 L
262.5 378.5 L
260.379 379.379 L
259.5 381.5 L
260.379 383.621 L
262.5 384.5 L
264.621 383.621 L
cp
S
GR
GS
0.494 0.184 0.557 RC
1 LJ
N
274.5 381.5 M
273.621 379.379 L
271.5 378.5 L
269.379 379.379 L
268.5 381.5 L
269.379 383.621 L
271.5 384.5 L
273.621 383.621 L
cp
S
GR
GS
0.494 0.184 0.557 RC
1 LJ
N
283.5 381.5 M
282.621 379.379 L
280.5 378.5 L
278.379 379.379 L
277.5 381.5 L
278.379 383.621 L
280.5 384.5 L
282.621 383.621 L
cp
S
GR
GS
0.494 0.184 0.557 RC
1 LJ
N
292.5 381.5 M
291.621 379.379 L
289.5 378.5 L
287.379 379.379 L
286.5 381.5 L
287.379 383.621 L
289.5 384.5 L
291.621 383.621 L
cp
S
GR
GS
0.494 0.184 0.557 RC
1 LJ
N
301.5 381.5 M
300.621 379.379 L
298.5 378.5 L
296.379 379.379 L
295.5 381.5 L
296.379 383.621 L
298.5 384.5 L
300.621 383.621 L
cp
S
GR
GS
0.494 0.184 0.557 RC
1 LJ
N
310.5 381.5 M
309.621 379.379 L
307.5 378.5 L
305.379 379.379 L
304.5 381.5 L
305.379 383.621 L
307.5 384.5 L
309.621 383.621 L
cp
S
GR
GS
0.494 0.184 0.557 RC
1 LJ
N
319.5 382.5 M
318.621 380.379 L
316.5 379.5 L
314.379 380.379 L
313.5 382.5 L
314.379 384.621 L
316.5 385.5 L
318.621 384.621 L
cp
S
GR
GS
0.494 0.184 0.557 RC
1 LJ
N
328.5 382.5 M
327.621 380.379 L
325.5 379.5 L
323.379 380.379 L
322.5 382.5 L
323.379 384.621 L
325.5 385.5 L
327.621 384.621 L
cp
S
GR
GS
0.494 0.184 0.557 RC
1 LJ
N
336.5 382.5 M
335.621 380.379 L
333.5 379.5 L
331.379 380.379 L
330.5 382.5 L
331.379 384.621 L
333.5 385.5 L
335.621 384.621 L
cp
S
GR
GS
0.494 0.184 0.557 RC
1 LJ
N
345.5 382.5 M
344.621 380.379 L
342.5 379.5 L
340.379 380.379 L
339.5 382.5 L
340.379 384.621 L
342.5 385.5 L
344.621 384.621 L
cp
S
GR
GS
0.494 0.184 0.557 RC
1 LJ
N
354.5 382.5 M
353.621 380.379 L
351.5 379.5 L
349.379 380.379 L
348.5 382.5 L
349.379 384.621 L
351.5 385.5 L
353.621 384.621 L
cp
S
GR
GS
0.494 0.184 0.557 RC
1 LJ
N
363.5 382.5 M
362.621 380.379 L
360.5 379.5 L
358.379 380.379 L
357.5 382.5 L
358.379 384.621 L
360.5 385.5 L
362.621 384.621 L
cp
S
GR
GS
0.494 0.184 0.557 RC
1 LJ
N
372.5 382.5 M
371.621 380.379 L
369.5 379.5 L
367.379 380.379 L
366.5 382.5 L
367.379 384.621 L
369.5 385.5 L
371.621 384.621 L
cp
S
GR
GS
0.494 0.184 0.557 RC
1 LJ
N
381.5 382.5 M
380.621 380.379 L
378.5 379.5 L
376.379 380.379 L
375.5 382.5 L
376.379 384.621 L
378.5 385.5 L
380.621 384.621 L
cp
S
GR
GS
0.494 0.184 0.557 RC
1 LJ
N
390.5 382.5 M
389.621 380.379 L
387.5 379.5 L
385.379 380.379 L
384.5 382.5 L
385.379 384.621 L
387.5 385.5 L
389.621 384.621 L
cp
S
GR
GS
0.494 0.184 0.557 RC
1 LJ
N
399.5 382.5 M
398.621 380.379 L
396.5 379.5 L
394.379 380.379 L
393.5 382.5 L
394.379 384.621 L
396.5 385.5 L
398.621 384.621 L
cp
S
GR
GS
0.494 0.184 0.557 RC
1 LJ
N
408.5 382.5 M
407.621 380.379 L
405.5 379.5 L
403.379 380.379 L
402.5 382.5 L
403.379 384.621 L
405.5 385.5 L
407.621 384.621 L
cp
S
GR
GS
0.494 0.184 0.557 RC
1 LJ
N
417.5 382.5 M
416.621 380.379 L
414.5 379.5 L
412.379 380.379 L
411.5 382.5 L
412.379 384.621 L
414.5 385.5 L
416.621 384.621 L
cp
S
GR
GS
0.494 0.184 0.557 RC
1 LJ
N
426.5 382.5 M
425.621 380.379 L
423.5 379.5 L
421.379 380.379 L
420.5 382.5 L
421.379 384.621 L
423.5 385.5 L
425.621 384.621 L
cp
S
GR
GS
0.494 0.184 0.557 RC
1 LJ
N
435.5 382.5 M
434.621 380.379 L
432.5 379.5 L
430.379 380.379 L
429.5 382.5 L
430.379 384.621 L
432.5 385.5 L
434.621 384.621 L
cp
S
GR
GS
0.494 0.184 0.557 RC
1 LJ
N
444.5 382.5 M
443.621 380.379 L
441.5 379.5 L
439.379 380.379 L
438.5 382.5 L
439.379 384.621 L
441.5 385.5 L
443.621 384.621 L
cp
S
GR
GS
[1 0 0 1 338 53.75] CT
/Helvetica 20 F
GS
[1 0 0 1 0 0] CT
0 4.5 moveto 
1 -1 scale
(No shuffling) t 
GR
GR
GS
0 0.447 0.741 RC
1 LJ
N
305 53.75 M
335 53.75 L
S
GR
GS
0 0.447 0.741 RC
1 LJ
N
323.5 53.5 M
322.621 51.379 L
320.5 50.5 L
318.379 51.379 L
317.5 53.5 L
318.379 55.621 L
320.5 56.5 L
322.621 55.621 L
cp
S
GR
GS
[1 0 0 1 338 72.75] CT
/Helvetica 20 F
GS
[1 0 0 1 0 0] CT
0 4.5 moveto 
1 -1 scale
(Random without repl.) t 
GR
GR
GS
0.851 0.325 0.098 RC
1 LJ
N
305 72.75 M
335 72.75 L
S
GR
GS
0.851 0.325 0.098 RC
1 LJ
N
323.5 72.5 M
322.621 70.379 L
320.5 69.5 L
318.379 70.379 L
317.5 72.5 L
318.379 74.621 L
320.5 75.5 L
322.621 74.621 L
cp
S
GR
GS
[1 0 0 1 338 91.75] CT
/Helvetica 20 F
GS
[1 0 0 1 0 0] CT
0 4.5 moveto 
1 -1 scale
(Random with repl.) t 
GR
GR
GS
0.929 0.694 0.125 RC
1 LJ
N
305 91.75 M
335 91.75 L
S
GR
GS
0.929 0.694 0.125 RC
1 LJ
N
323.5 91.5 M
322.621 89.379 L
320.5 88.5 L
318.379 89.379 L
317.5 91.5 L
318.379 93.621 L
320.5 94.5 L
322.621 93.621 L
cp
S
GR
GS
[1 0 0 1 338 110.75] CT
/Helvetica 20 F
GS
[1 0 0 1 0 0] CT
0 4.5 moveto 
1 -1 scale
(Smart shuffling) t 
GR
GR
GS
0.494 0.184 0.557 RC
1 LJ
N
305 110.75 M
335 110.75 L
S
GR
GS
0.494 0.184 0.557 RC
1 LJ
N
323.5 110.5 M
322.621 108.379 L
320.5 107.5 L
318.379 108.379 L
317.5 110.5 L
318.379 112.621 L
320.5 113.5 L
322.621 112.621 L
cp
S
GR
%%Trailer
%%Pages: 1
%%EOF
