%!PS-Adobe-3.0 EPSF-3.0
%%Creator: (MATLAB, The Mathworks, Inc. Version 8.6.0.267246 \(R2015b\). Operating System: Mac OS X)
%%Title: /Users/gauthiermuguerza/Desktop/rsgd/report/images/jokesWeightsDelta.eps
%%CreationDate: 2018-06-09T22:43:53
%%Pages: (atend)
%%BoundingBox:    17     0   538   404
%%LanguageLevel: 3
%%EndComments
%%BeginProlog
%%BeginResource: procset (Apache XML Graphics Std ProcSet) 1.2 0
%%Version: 1.2 0
%%Copyright: (Copyright 2001-2003,2010 The Apache Software Foundation. License terms: http://www.apache.org/licenses/LICENSE-2.0)
/bd{bind def}bind def
/ld{load def}bd
/GR/grestore ld
/M/moveto ld
/LJ/setlinejoin ld
/C/curveto ld
/f/fill ld
/LW/setlinewidth ld
/GC/setgray ld
/t/show ld
/N/newpath ld
/CT/concat ld
/cp/closepath ld
/S/stroke ld
/L/lineto ld
/CC/setcmykcolor ld
/A/ashow ld
/GS/gsave ld
/RC/setrgbcolor ld
/RM/rmoveto ld
/ML/setmiterlimit ld
/re {4 2 roll M
1 index 0 rlineto
0 exch rlineto
neg 0 rlineto
cp } bd
/_ctm matrix def
/_tm matrix def
/BT { _ctm currentmatrix pop matrix _tm copy pop 0 0 moveto } bd
/ET { _ctm setmatrix } bd
/iTm { _ctm setmatrix _tm concat } bd
/Tm { _tm astore pop iTm 0 0 moveto } bd
/ux 0.0 def
/uy 0.0 def
/F {
  /Tp exch def
  /Tf exch def
  Tf findfont Tp scalefont setfont
  /cf Tf def  /cs Tp def
} bd
/ULS {currentpoint /uy exch def /ux exch def} bd
/ULE {
  /Tcx currentpoint pop def
  gsave
  newpath
  cf findfont cs scalefont dup
  /FontMatrix get 0 get /Ts exch def /FontInfo get dup
  /UnderlinePosition get Ts mul /To exch def
  /UnderlineThickness get Ts mul /Tt exch def
  ux uy To add moveto  Tcx uy To add lineto
  Tt setlinewidth stroke
  grestore
} bd
/OLE {
  /Tcx currentpoint pop def
  gsave
  newpath
  cf findfont cs scalefont dup
  /FontMatrix get 0 get /Ts exch def /FontInfo get dup
  /UnderlinePosition get Ts mul /To exch def
  /UnderlineThickness get Ts mul /Tt exch def
  ux uy To add cs add moveto Tcx uy To add cs add lineto
  Tt setlinewidth stroke
  grestore
} bd
/SOE {
  /Tcx currentpoint pop def
  gsave
  newpath
  cf findfont cs scalefont dup
  /FontMatrix get 0 get /Ts exch def /FontInfo get dup
  /UnderlinePosition get Ts mul /To exch def
  /UnderlineThickness get Ts mul /Tt exch def
  ux uy To add cs 10 mul 26 idiv add moveto Tcx uy To add cs 10 mul 26 idiv add lineto
  Tt setlinewidth stroke
  grestore
} bd
/QT {
/Y22 exch store
/X22 exch store
/Y21 exch store
/X21 exch store
currentpoint
/Y21 load 2 mul add 3 div exch
/X21 load 2 mul add 3 div exch
/X21 load 2 mul /X22 load add 3 div
/Y21 load 2 mul /Y22 load add 3 div
/X22 load /Y22 load curveto
} bd
/SSPD {
dup length /d exch dict def
{
/v exch def
/k exch def
currentpagedevice k known {
/cpdv currentpagedevice k get def
v cpdv ne {
/upd false def
/nullv v type /nulltype eq def
/nullcpdv cpdv type /nulltype eq def
nullv nullcpdv or
{
/upd true def
} {
/sametype v type cpdv type eq def
sametype {
v type /arraytype eq {
/vlen v length def
/cpdvlen cpdv length def
vlen cpdvlen eq {
0 1 vlen 1 sub {
/i exch def
/obj v i get def
/cpdobj cpdv i get def
obj cpdobj ne {
/upd true def
exit
} if
} for
} {
/upd true def
} ifelse
} {
v type /dicttype eq {
v {
/dv exch def
/dk exch def
/cpddv cpdv dk get def
dv cpddv ne {
/upd true def
exit
} if
} forall
} {
/upd true def
} ifelse
} ifelse
} if
} ifelse
upd true eq {
d k v put
} if
} if
} if
} forall
d length 0 gt {
d setpagedevice
} if
} bd
%%EndResource
%%BeginResource: procset (Apache XML Graphics EPS ProcSet) 1.0 0
%%Version: 1.0 0
%%Copyright: (Copyright 2002-2003 The Apache Software Foundation. License terms: http://www.apache.org/licenses/LICENSE-2.0)
/BeginEPSF { %def
/b4_Inc_state save def         % Save state for cleanup
/dict_count countdictstack def % Count objects on dict stack
/op_count count 1 sub def      % Count objects on operand stack
userdict begin                 % Push userdict on dict stack
/showpage { } def              % Redefine showpage, { } = null proc
0 setgray 0 setlinecap         % Prepare graphics state
1 setlinewidth 0 setlinejoin
10 setmiterlimit [ ] 0 setdash newpath
/languagelevel where           % If level not equal to 1 then
{pop languagelevel             % set strokeadjust and
1 ne                           % overprint to their defaults.
{false setstrokeadjust false setoverprint
} if
} if
} bd
/EndEPSF { %def
count op_count sub {pop} repeat            % Clean up stacks
countdictstack dict_count sub {end} repeat
b4_Inc_state restore
} bd
%%EndResource
%FOPBeginFontDict
%%IncludeResource: font Courier-Bold
%%IncludeResource: font Helvetica
%%IncludeResource: font Courier-BoldOblique
%%IncludeResource: font Courier-Oblique
%%IncludeResource: font Times-Roman
%%IncludeResource: font Helvetica-BoldOblique
%%IncludeResource: font Helvetica-Bold
%%IncludeResource: font Helvetica-Oblique
%%IncludeResource: font Times-BoldItalic
%%IncludeResource: font Courier
%%IncludeResource: font Times-Italic
%%IncludeResource: font Times-Bold
%%IncludeResource: font Symbol
%%IncludeResource: font ZapfDingbats
%FOPEndFontDict
%%BeginResource: encoding WinAnsiEncoding
/WinAnsiEncoding [
/.notdef /.notdef /.notdef /.notdef /.notdef
/.notdef /.notdef /.notdef /.notdef /.notdef
/.notdef /.notdef /.notdef /.notdef /.notdef
/.notdef /.notdef /.notdef /.notdef /.notdef
/.notdef /.notdef /.notdef /.notdef /.notdef
/.notdef /.notdef /.notdef /.notdef /.notdef
/.notdef /.notdef /space /exclam /quotedbl
/numbersign /dollar /percent /ampersand /quotesingle
/parenleft /parenright /asterisk /plus /comma
/hyphen /period /slash /zero /one
/two /three /four /five /six
/seven /eight /nine /colon /semicolon
/less /equal /greater /question /at
/A /B /C /D /E
/F /G /H /I /J
/K /L /M /N /O
/P /Q /R /S /T
/U /V /W /X /Y
/Z /bracketleft /backslash /bracketright /asciicircum
/underscore /quoteleft /a /b /c
/d /e /f /g /h
/i /j /k /l /m
/n /o /p /q /r
/s /t /u /v /w
/x /y /z /braceleft /bar
/braceright /asciitilde /bullet /Euro /bullet
/quotesinglbase /florin /quotedblbase /ellipsis /dagger
/daggerdbl /circumflex /perthousand /Scaron /guilsinglleft
/OE /bullet /Zcaron /bullet /bullet
/quoteleft /quoteright /quotedblleft /quotedblright /bullet
/endash /emdash /asciitilde /trademark /scaron
/guilsinglright /oe /bullet /zcaron /Ydieresis
/space /exclamdown /cent /sterling /currency
/yen /brokenbar /section /dieresis /copyright
/ordfeminine /guillemotleft /logicalnot /sfthyphen /registered
/macron /degree /plusminus /twosuperior /threesuperior
/acute /mu /paragraph /middot /cedilla
/onesuperior /ordmasculine /guillemotright /onequarter /onehalf
/threequarters /questiondown /Agrave /Aacute /Acircumflex
/Atilde /Adieresis /Aring /AE /Ccedilla
/Egrave /Eacute /Ecircumflex /Edieresis /Igrave
/Iacute /Icircumflex /Idieresis /Eth /Ntilde
/Ograve /Oacute /Ocircumflex /Otilde /Odieresis
/multiply /Oslash /Ugrave /Uacute /Ucircumflex
/Udieresis /Yacute /Thorn /germandbls /agrave
/aacute /acircumflex /atilde /adieresis /aring
/ae /ccedilla /egrave /eacute /ecircumflex
/edieresis /igrave /iacute /icircumflex /idieresis
/eth /ntilde /ograve /oacute /ocircumflex
/otilde /odieresis /divide /oslash /ugrave
/uacute /ucircumflex /udieresis /yacute /thorn
/ydieresis
] def
%%EndResource
%FOPBeginFontReencode
/Courier-Bold findfont
dup length dict begin
  {1 index /FID ne {def} {pop pop} ifelse} forall
  /Encoding WinAnsiEncoding def
  currentdict
end
/Courier-Bold exch definefont pop
/Helvetica findfont
dup length dict begin
  {1 index /FID ne {def} {pop pop} ifelse} forall
  /Encoding WinAnsiEncoding def
  currentdict
end
/Helvetica exch definefont pop
/Courier-BoldOblique findfont
dup length dict begin
  {1 index /FID ne {def} {pop pop} ifelse} forall
  /Encoding WinAnsiEncoding def
  currentdict
end
/Courier-BoldOblique exch definefont pop
/Courier-Oblique findfont
dup length dict begin
  {1 index /FID ne {def} {pop pop} ifelse} forall
  /Encoding WinAnsiEncoding def
  currentdict
end
/Courier-Oblique exch definefont pop
/Times-Roman findfont
dup length dict begin
  {1 index /FID ne {def} {pop pop} ifelse} forall
  /Encoding WinAnsiEncoding def
  currentdict
end
/Times-Roman exch definefont pop
/Helvetica-BoldOblique findfont
dup length dict begin
  {1 index /FID ne {def} {pop pop} ifelse} forall
  /Encoding WinAnsiEncoding def
  currentdict
end
/Helvetica-BoldOblique exch definefont pop
/Helvetica-Bold findfont
dup length dict begin
  {1 index /FID ne {def} {pop pop} ifelse} forall
  /Encoding WinAnsiEncoding def
  currentdict
end
/Helvetica-Bold exch definefont pop
/Helvetica-Oblique findfont
dup length dict begin
  {1 index /FID ne {def} {pop pop} ifelse} forall
  /Encoding WinAnsiEncoding def
  currentdict
end
/Helvetica-Oblique exch definefont pop
/Times-BoldItalic findfont
dup length dict begin
  {1 index /FID ne {def} {pop pop} ifelse} forall
  /Encoding WinAnsiEncoding def
  currentdict
end
/Times-BoldItalic exch definefont pop
/Courier findfont
dup length dict begin
  {1 index /FID ne {def} {pop pop} ifelse} forall
  /Encoding WinAnsiEncoding def
  currentdict
end
/Courier exch definefont pop
/Times-Italic findfont
dup length dict begin
  {1 index /FID ne {def} {pop pop} ifelse} forall
  /Encoding WinAnsiEncoding def
  currentdict
end
/Times-Italic exch definefont pop
/Times-Bold findfont
dup length dict begin
  {1 index /FID ne {def} {pop pop} ifelse} forall
  /Encoding WinAnsiEncoding def
  currentdict
end
/Times-Bold exch definefont pop
%FOPEndFontReencode
%%EndProlog
%%Page: 1 1
%%PageBoundingBox: 0 0 576 432
%%BeginPageSetup
[1 0 0 -1 0 432] CT
%%EndPageSetup
GS
1 GC
N
0 0 576 432 re
f
GR
GS
1 GC
N
0 0 576 432 re
f
GR
GS
1 GC
N
75 384 M
521.5 384 L
521.5 32.5 L
75 32.5 L
cp
f
GR
GS
0.149 GC
2 setlinecap
1 LJ
0.5 LW
N
75 384 M
521.5 384 L
S
GR
GS
0.149 GC
2 setlinecap
1 LJ
0.5 LW
N
75 384 M
75 379.535 L
S
GR
GS
0.149 GC
2 setlinecap
1 LJ
0.5 LW
N
186.625 384 M
186.625 379.535 L
S
GR
GS
0.149 GC
2 setlinecap
1 LJ
0.5 LW
N
298.25 384 M
298.25 379.535 L
S
GR
GS
0.149 GC
2 setlinecap
1 LJ
0.5 LW
N
409.875 384 M
409.875 379.535 L
S
GR
GS
0.149 GC
2 setlinecap
1 LJ
0.5 LW
N
521.5 384 M
521.5 379.535 L
S
GR
GS
[1 0 0 1 75 390] CT
0.149 GC
/Helvetica 20 F
GS
[1 0 0 1 0 0] CT
-6 16 moveto 
1 -1 scale
(0) t 
GR
GR
GS
[1 0 0 1 186.625 390] CT
0.149 GC
/Helvetica 20 F
GS
[1 0 0 1 0 0] CT
-17 16 moveto 
1 -1 scale
(100) t 
GR
GR
GS
[1 0 0 1 298.25 390] CT
0.149 GC
/Helvetica 20 F
GS
[1 0 0 1 0 0] CT
-17 16 moveto 
1 -1 scale
(200) t 
GR
GR
GS
[1 0 0 1 409.875 390] CT
0.149 GC
/Helvetica 20 F
GS
[1 0 0 1 0 0] CT
-17 16 moveto 
1 -1 scale
(300) t 
GR
GR
GS
[1 0 0 1 521.5 390] CT
0.149 GC
/Helvetica 20 F
GS
[1 0 0 1 0 0] CT
-17 16 moveto 
1 -1 scale
(400) t 
GR
GR
GS
[1 0 0 1 298.25021 411.5] CT
0.149 GC
/Helvetica 20 F
GS
[1 0 0 1 0 0] CT
-37 16 moveto 
1 -1 scale
(Time \(s\)) t 
GR
GR
GS
0.149 GC
2 setlinecap
1 LJ
0.5 LW
N
75 384 M
75 32.5 L
S
GR
GS
0.149 GC
2 setlinecap
1 LJ
0.5 LW
N
75 340.846 M
79.465 340.846 L
S
GR
GS
0.149 GC
2 setlinecap
1 LJ
0.5 LW
N
75 298.435 M
79.465 298.435 L
S
GR
GS
0.149 GC
2 setlinecap
1 LJ
0.5 LW
N
75 257.998 M
79.465 257.998 L
S
GR
GS
0.149 GC
2 setlinecap
1 LJ
0.5 LW
N
75 219.358 M
79.465 219.358 L
S
GR
GS
0.149 GC
2 setlinecap
1 LJ
0.5 LW
N
75 182.363 M
79.465 182.363 L
S
GR
GS
0.149 GC
2 setlinecap
1 LJ
0.5 LW
N
75 146.878 M
79.465 146.878 L
S
GR
GS
0.149 GC
2 setlinecap
1 LJ
0.5 LW
N
75 112.786 M
79.465 112.786 L
S
GR
GS
0.149 GC
2 setlinecap
1 LJ
0.5 LW
N
75 79.98 M
79.465 79.98 L
S
GR
GS
0.149 GC
2 setlinecap
1 LJ
0.5 LW
N
75 48.368 M
79.465 48.368 L
S
GR
GS
0.149 GC
2 setlinecap
1 LJ
0.5 LW
N
75 376.33 M
77.232 376.33 L
S
GR
GS
0.149 GC
2 setlinecap
1 LJ
0.5 LW
N
75 367.323 M
77.232 367.323 L
S
GR
GS
0.149 GC
2 setlinecap
1 LJ
0.5 LW
N
75 358.407 M
77.232 358.407 L
S
GR
GS
0.149 GC
2 setlinecap
1 LJ
0.5 LW
N
75 349.582 M
77.232 349.582 L
S
GR
GS
0.149 GC
2 setlinecap
1 LJ
0.5 LW
N
75 332.197 M
77.232 332.197 L
S
GR
GS
0.149 GC
2 setlinecap
1 LJ
0.5 LW
N
75 323.632 M
77.232 323.632 L
S
GR
GS
0.149 GC
2 setlinecap
1 LJ
0.5 LW
N
75 315.152 M
77.232 315.152 L
S
GR
GS
0.149 GC
2 setlinecap
1 LJ
0.5 LW
N
75 306.753 M
77.232 306.753 L
S
GR
GS
0.149 GC
2 setlinecap
1 LJ
0.5 LW
N
75 290.196 M
77.232 290.196 L
S
GR
GS
0.149 GC
2 setlinecap
1 LJ
0.5 LW
N
75 282.034 M
77.232 282.034 L
S
GR
GS
0.149 GC
2 setlinecap
1 LJ
0.5 LW
N
75 273.948 M
77.232 273.948 L
S
GR
GS
0.149 GC
2 setlinecap
1 LJ
0.5 LW
N
75 265.936 M
77.232 265.936 L
S
GR
GS
0.149 GC
2 setlinecap
1 LJ
0.5 LW
N
75 250.131 M
77.232 250.131 L
S
GR
GS
0.149 GC
2 setlinecap
1 LJ
0.5 LW
N
75 242.335 M
77.232 242.335 L
S
GR
GS
0.149 GC
2 setlinecap
1 LJ
0.5 LW
N
75 234.608 M
77.232 234.608 L
S
GR
GS
0.149 GC
2 setlinecap
1 LJ
0.5 LW
N
75 226.95 M
77.232 226.95 L
S
GR
GS
0.149 GC
2 setlinecap
1 LJ
0.5 LW
N
75 211.832 M
77.232 211.832 L
S
GR
GS
0.149 GC
2 setlinecap
1 LJ
0.5 LW
N
75 204.37 M
77.232 204.37 L
S
GR
GS
0.149 GC
2 setlinecap
1 LJ
0.5 LW
N
75 196.973 M
77.232 196.973 L
S
GR
GS
0.149 GC
2 setlinecap
1 LJ
0.5 LW
N
75 189.637 M
77.232 189.637 L
S
GR
GS
0.149 GC
2 setlinecap
1 LJ
0.5 LW
N
75 175.149 M
77.232 175.149 L
S
GR
GS
0.149 GC
2 setlinecap
1 LJ
0.5 LW
N
75 167.995 M
77.232 167.995 L
S
GR
GS
0.149 GC
2 setlinecap
1 LJ
0.5 LW
N
75 160.899 M
77.232 160.899 L
S
GR
GS
0.149 GC
2 setlinecap
1 LJ
0.5 LW
N
75 153.86 M
77.232 153.86 L
S
GR
GS
0.149 GC
2 setlinecap
1 LJ
0.5 LW
N
75 139.952 M
77.232 139.952 L
S
GR
GS
0.149 GC
2 setlinecap
1 LJ
0.5 LW
N
75 133.081 M
77.232 133.081 L
S
GR
GS
0.149 GC
2 setlinecap
1 LJ
0.5 LW
N
75 126.263 M
77.232 126.263 L
S
GR
GS
0.149 GC
2 setlinecap
1 LJ
0.5 LW
N
75 119.498 M
77.232 119.498 L
S
GR
GS
0.149 GC
2 setlinecap
1 LJ
0.5 LW
N
75 106.125 M
77.232 106.125 L
S
GR
GS
0.149 GC
2 setlinecap
1 LJ
0.5 LW
N
75 99.515 M
77.232 99.515 L
S
GR
GS
0.149 GC
2 setlinecap
1 LJ
0.5 LW
N
75 92.954 M
77.232 92.954 L
S
GR
GS
0.149 GC
2 setlinecap
1 LJ
0.5 LW
N
75 86.443 M
77.232 86.443 L
S
GR
GS
0.149 GC
2 setlinecap
1 LJ
0.5 LW
N
75 73.565 M
77.232 73.565 L
S
GR
GS
0.149 GC
2 setlinecap
1 LJ
0.5 LW
N
75 67.197 M
77.232 67.197 L
S
GR
GS
0.149 GC
2 setlinecap
1 LJ
0.5 LW
N
75 60.875 M
77.232 60.875 L
S
GR
GS
0.149 GC
2 setlinecap
1 LJ
0.5 LW
N
75 54.599 M
77.232 54.599 L
S
GR
GS
0.149 GC
2 setlinecap
1 LJ
0.5 LW
N
75 42.181 M
77.232 42.181 L
S
GR
GS
0.149 GC
2 setlinecap
1 LJ
0.5 LW
N
75 36.038 M
77.232 36.038 L
S
GR
GS
[1 0 0 1 69 340.84592] CT
0.149 GC
/Helvetica 20 F
GS
[1 0 0 1 0 0] CT
-12 5.5 moveto 
1 -1 scale
(4) t 
GR
GR
GS
[1 0 0 1 69 298.43509] CT
0.149 GC
/Helvetica 20 F
GS
[1 0 0 1 0 0] CT
-28 5.5 moveto 
1 -1 scale
(4.2) t 
GR
GR
GS
[1 0 0 1 69 257.99759] CT
0.149 GC
/Helvetica 20 F
GS
[1 0 0 1 0 0] CT
-28 5.5 moveto 
1 -1 scale
(4.4) t 
GR
GR
GS
[1 0 0 1 69 219.35791] CT
0.149 GC
/Helvetica 20 F
GS
[1 0 0 1 0 0] CT
-28 5.5 moveto 
1 -1 scale
(4.6) t 
GR
GR
GS
[1 0 0 1 69 182.36299] CT
0.149 GC
/Helvetica 20 F
GS
[1 0 0 1 0 0] CT
-28 5.5 moveto 
1 -1 scale
(4.8) t 
GR
GR
GS
[1 0 0 1 69 146.87849] CT
0.149 GC
/Helvetica 20 F
GS
[1 0 0 1 0 0] CT
-12 5.5 moveto 
1 -1 scale
(5) t 
GR
GR
GS
[1 0 0 1 69 112.7859] CT
0.149 GC
/Helvetica 20 F
GS
[1 0 0 1 0 0] CT
-28 5.5 moveto 
1 -1 scale
(5.2) t 
GR
GR
GS
[1 0 0 1 69 79.98015] CT
0.149 GC
/Helvetica 20 F
GS
[1 0 0 1 0 0] CT
-28 5.5 moveto 
1 -1 scale
(5.4) t 
GR
GR
GS
[1 0 0 1 69 48.3676] CT
0.149 GC
/Helvetica 20 F
GS
[1 0 0 1 0 0] CT
-28 5.5 moveto 
1 -1 scale
(5.6) t 
GR
GR
GS
[0 -1 1 0 38 208.24983] CT
0.149 GC
/Helvetica 20 F
GS
[1 0 0 1 0 0] CT
-29 -5 moveto 
1 -1 scale
(RMSE) t 
GR
GR
GS
0 0.447 0.741 RC
1 LJ
N
75 32.5 M
81.891 200.444 L
88.926 282.927 L
95.853 324.513 L
102.644 344.153 L
109.658 354.303 L
116.599 360.263 L
123.529 363.474 L
130.52 366.283 L
137.441 368.023 L
144.369 369.225 L
151.396 368.911 L
158.461 372.413 L
165.484 376.66 L
172.54 378.876 L
179.606 380.693 L
186.584 381.547 L
193.492 381.503 L
200.245 382.468 L
207.014 382.42 L
213.787 382.76 L
220.624 383.152 L
227.443 383.17 L
234.201 383.095 L
240.904 383.316 L
247.637 383.317 L
254.414 383.513 L
261.114 383.528 L
267.991 383.605 L
275.76 383.592 L
282.58 383.669 L
289.376 383.702 L
296.357 383.726 L
303.4 383.745 L
310.556 383.782 L
317.58 383.794 L
324.474 383.78 L
331.353 383.828 L
338.187 383.854 L
345.096 383.867 L
351.975 383.861 L
358.918 383.89 L
365.739 383.91 L
372.641 383.93 L
379.544 383.937 L
386.59 383.951 L
393.52 383.954 L
400.6 383.971 L
407.496 383.982 L
414.315 383.993 L
S
GR
GS
0 0.447 0.741 RC
1 LJ
N
407.496 383.982 M
414.315 383.993 L
421.363 384 L
S
GR
GS
0 0.447 0.741 RC
1 LJ
N
78.5 32.5 M
77.621 30.379 L
75.5 29.5 L
73.379 30.379 L
72.5 32.5 L
73.379 34.621 L
75.5 35.5 L
77.621 34.621 L
cp
S
GR
GS
0 0.447 0.741 RC
1 LJ
N
84.5 200.5 M
83.621 198.379 L
81.5 197.5 L
79.379 198.379 L
78.5 200.5 L
79.379 202.621 L
81.5 203.5 L
83.621 202.621 L
cp
S
GR
GS
0 0.447 0.741 RC
1 LJ
N
91.5 282.5 M
90.621 280.379 L
88.5 279.5 L
86.379 280.379 L
85.5 282.5 L
86.379 284.621 L
88.5 285.5 L
90.621 284.621 L
cp
S
GR
GS
0 0.447 0.741 RC
1 LJ
N
98.5 324.5 M
97.621 322.379 L
95.5 321.5 L
93.379 322.379 L
92.5 324.5 L
93.379 326.621 L
95.5 327.5 L
97.621 326.621 L
cp
S
GR
GS
0 0.447 0.741 RC
1 LJ
N
105.5 344.5 M
104.621 342.379 L
102.5 341.5 L
100.379 342.379 L
99.5 344.5 L
100.379 346.621 L
102.5 347.5 L
104.621 346.621 L
cp
S
GR
GS
0 0.447 0.741 RC
1 LJ
N
112.5 354.5 M
111.621 352.379 L
109.5 351.5 L
107.379 352.379 L
106.5 354.5 L
107.379 356.621 L
109.5 357.5 L
111.621 356.621 L
cp
S
GR
GS
0 0.447 0.741 RC
1 LJ
N
119.5 360.5 M
118.621 358.379 L
116.5 357.5 L
114.379 358.379 L
113.5 360.5 L
114.379 362.621 L
116.5 363.5 L
118.621 362.621 L
cp
S
GR
GS
0 0.447 0.741 RC
1 LJ
N
126.5 363.5 M
125.621 361.379 L
123.5 360.5 L
121.379 361.379 L
120.5 363.5 L
121.379 365.621 L
123.5 366.5 L
125.621 365.621 L
cp
S
GR
GS
0 0.447 0.741 RC
1 LJ
N
133.5 366.5 M
132.621 364.379 L
130.5 363.5 L
128.379 364.379 L
127.5 366.5 L
128.379 368.621 L
130.5 369.5 L
132.621 368.621 L
cp
S
GR
GS
0 0.447 0.741 RC
1 LJ
N
140.5 368.5 M
139.621 366.379 L
137.5 365.5 L
135.379 366.379 L
134.5 368.5 L
135.379 370.621 L
137.5 371.5 L
139.621 370.621 L
cp
S
GR
GS
0 0.447 0.741 RC
1 LJ
N
147.5 369.5 M
146.621 367.379 L
144.5 366.5 L
142.379 367.379 L
141.5 369.5 L
142.379 371.621 L
144.5 372.5 L
146.621 371.621 L
cp
S
GR
GS
0 0.447 0.741 RC
1 LJ
N
154.5 368.5 M
153.621 366.379 L
151.5 365.5 L
149.379 366.379 L
148.5 368.5 L
149.379 370.621 L
151.5 371.5 L
153.621 370.621 L
cp
S
GR
GS
0 0.447 0.741 RC
1 LJ
N
161.5 372.5 M
160.621 370.379 L
158.5 369.5 L
156.379 370.379 L
155.5 372.5 L
156.379 374.621 L
158.5 375.5 L
160.621 374.621 L
cp
S
GR
GS
0 0.447 0.741 RC
1 LJ
N
168.5 376.5 M
167.621 374.379 L
165.5 373.5 L
163.379 374.379 L
162.5 376.5 L
163.379 378.621 L
165.5 379.5 L
167.621 378.621 L
cp
S
GR
GS
0 0.447 0.741 RC
1 LJ
N
175.5 378.5 M
174.621 376.379 L
172.5 375.5 L
170.379 376.379 L
169.5 378.5 L
170.379 380.621 L
172.5 381.5 L
174.621 380.621 L
cp
S
GR
GS
0 0.447 0.741 RC
1 LJ
N
182.5 380.5 M
181.621 378.379 L
179.5 377.5 L
177.379 378.379 L
176.5 380.5 L
177.379 382.621 L
179.5 383.5 L
181.621 382.621 L
cp
S
GR
GS
0 0.447 0.741 RC
1 LJ
N
189.5 381.5 M
188.621 379.379 L
186.5 378.5 L
184.379 379.379 L
183.5 381.5 L
184.379 383.621 L
186.5 384.5 L
188.621 383.621 L
cp
S
GR
GS
0 0.447 0.741 RC
1 LJ
N
196.5 381.5 M
195.621 379.379 L
193.5 378.5 L
191.379 379.379 L
190.5 381.5 L
191.379 383.621 L
193.5 384.5 L
195.621 383.621 L
cp
S
GR
GS
0 0.447 0.741 RC
1 LJ
N
203.5 382.5 M
202.621 380.379 L
200.5 379.5 L
198.379 380.379 L
197.5 382.5 L
198.379 384.621 L
200.5 385.5 L
202.621 384.621 L
cp
S
GR
GS
0 0.447 0.741 RC
1 LJ
N
210.5 382.5 M
209.621 380.379 L
207.5 379.5 L
205.379 380.379 L
204.5 382.5 L
205.379 384.621 L
207.5 385.5 L
209.621 384.621 L
cp
S
GR
GS
0 0.447 0.741 RC
1 LJ
N
216.5 382.5 M
215.621 380.379 L
213.5 379.5 L
211.379 380.379 L
210.5 382.5 L
211.379 384.621 L
213.5 385.5 L
215.621 384.621 L
cp
S
GR
GS
0 0.447 0.741 RC
1 LJ
N
223.5 383.5 M
222.621 381.379 L
220.5 380.5 L
218.379 381.379 L
217.5 383.5 L
218.379 385.621 L
220.5 386.5 L
222.621 385.621 L
cp
S
GR
GS
0 0.447 0.741 RC
1 LJ
N
230.5 383.5 M
229.621 381.379 L
227.5 380.5 L
225.379 381.379 L
224.5 383.5 L
225.379 385.621 L
227.5 386.5 L
229.621 385.621 L
cp
S
GR
GS
0 0.447 0.741 RC
1 LJ
N
237.5 383.5 M
236.621 381.379 L
234.5 380.5 L
232.379 381.379 L
231.5 383.5 L
232.379 385.621 L
234.5 386.5 L
236.621 385.621 L
cp
S
GR
GS
0 0.447 0.741 RC
1 LJ
N
243.5 383.5 M
242.621 381.379 L
240.5 380.5 L
238.379 381.379 L
237.5 383.5 L
238.379 385.621 L
240.5 386.5 L
242.621 385.621 L
cp
S
GR
GS
0 0.447 0.741 RC
1 LJ
N
250.5 383.5 M
249.621 381.379 L
247.5 380.5 L
245.379 381.379 L
244.5 383.5 L
245.379 385.621 L
247.5 386.5 L
249.621 385.621 L
cp
S
GR
GS
0 0.447 0.741 RC
1 LJ
N
257.5 383.5 M
256.621 381.379 L
254.5 380.5 L
252.379 381.379 L
251.5 383.5 L
252.379 385.621 L
254.5 386.5 L
256.621 385.621 L
cp
S
GR
GS
0 0.447 0.741 RC
1 LJ
N
264.5 383.5 M
263.621 381.379 L
261.5 380.5 L
259.379 381.379 L
258.5 383.5 L
259.379 385.621 L
261.5 386.5 L
263.621 385.621 L
cp
S
GR
GS
0 0.447 0.741 RC
1 LJ
N
270.5 383.5 M
269.621 381.379 L
267.5 380.5 L
265.379 381.379 L
264.5 383.5 L
265.379 385.621 L
267.5 386.5 L
269.621 385.621 L
cp
S
GR
GS
0 0.447 0.741 RC
1 LJ
N
278.5 383.5 M
277.621 381.379 L
275.5 380.5 L
273.379 381.379 L
272.5 383.5 L
273.379 385.621 L
275.5 386.5 L
277.621 385.621 L
cp
S
GR
GS
0 0.447 0.741 RC
1 LJ
N
285.5 383.5 M
284.621 381.379 L
282.5 380.5 L
280.379 381.379 L
279.5 383.5 L
280.379 385.621 L
282.5 386.5 L
284.621 385.621 L
cp
S
GR
GS
0 0.447 0.741 RC
1 LJ
N
292.5 383.5 M
291.621 381.379 L
289.5 380.5 L
287.379 381.379 L
286.5 383.5 L
287.379 385.621 L
289.5 386.5 L
291.621 385.621 L
cp
S
GR
GS
0 0.447 0.741 RC
1 LJ
N
299.5 383.5 M
298.621 381.379 L
296.5 380.5 L
294.379 381.379 L
293.5 383.5 L
294.379 385.621 L
296.5 386.5 L
298.621 385.621 L
cp
S
GR
GS
0 0.447 0.741 RC
1 LJ
N
306.5 383.5 M
305.621 381.379 L
303.5 380.5 L
301.379 381.379 L
300.5 383.5 L
301.379 385.621 L
303.5 386.5 L
305.621 385.621 L
cp
S
GR
GS
0 0.447 0.741 RC
1 LJ
N
313.5 383.5 M
312.621 381.379 L
310.5 380.5 L
308.379 381.379 L
307.5 383.5 L
308.379 385.621 L
310.5 386.5 L
312.621 385.621 L
cp
S
GR
GS
0 0.447 0.741 RC
1 LJ
N
320.5 383.5 M
319.621 381.379 L
317.5 380.5 L
315.379 381.379 L
314.5 383.5 L
315.379 385.621 L
317.5 386.5 L
319.621 385.621 L
cp
S
GR
GS
0 0.447 0.741 RC
1 LJ
N
327.5 383.5 M
326.621 381.379 L
324.5 380.5 L
322.379 381.379 L
321.5 383.5 L
322.379 385.621 L
324.5 386.5 L
326.621 385.621 L
cp
S
GR
GS
0 0.447 0.741 RC
1 LJ
N
334.5 383.5 M
333.621 381.379 L
331.5 380.5 L
329.379 381.379 L
328.5 383.5 L
329.379 385.621 L
331.5 386.5 L
333.621 385.621 L
cp
S
GR
GS
0 0.447 0.741 RC
1 LJ
N
341.5 383.5 M
340.621 381.379 L
338.5 380.5 L
336.379 381.379 L
335.5 383.5 L
336.379 385.621 L
338.5 386.5 L
340.621 385.621 L
cp
S
GR
GS
0 0.447 0.741 RC
1 LJ
N
348.5 383.5 M
347.621 381.379 L
345.5 380.5 L
343.379 381.379 L
342.5 383.5 L
343.379 385.621 L
345.5 386.5 L
347.621 385.621 L
cp
S
GR
GS
0 0.447 0.741 RC
1 LJ
N
354.5 383.5 M
353.621 381.379 L
351.5 380.5 L
349.379 381.379 L
348.5 383.5 L
349.379 385.621 L
351.5 386.5 L
353.621 385.621 L
cp
S
GR
GS
0 0.447 0.741 RC
1 LJ
N
361.5 383.5 M
360.621 381.379 L
358.5 380.5 L
356.379 381.379 L
355.5 383.5 L
356.379 385.621 L
358.5 386.5 L
360.621 385.621 L
cp
S
GR
GS
0 0.447 0.741 RC
1 LJ
N
368.5 383.5 M
367.621 381.379 L
365.5 380.5 L
363.379 381.379 L
362.5 383.5 L
363.379 385.621 L
365.5 386.5 L
367.621 385.621 L
cp
S
GR
GS
0 0.447 0.741 RC
1 LJ
N
375.5 383.5 M
374.621 381.379 L
372.5 380.5 L
370.379 381.379 L
369.5 383.5 L
370.379 385.621 L
372.5 386.5 L
374.621 385.621 L
cp
S
GR
GS
0 0.447 0.741 RC
1 LJ
N
382.5 383.5 M
381.621 381.379 L
379.5 380.5 L
377.379 381.379 L
376.5 383.5 L
377.379 385.621 L
379.5 386.5 L
381.621 385.621 L
cp
S
GR
GS
0 0.447 0.741 RC
1 LJ
N
389.5 383.5 M
388.621 381.379 L
386.5 380.5 L
384.379 381.379 L
383.5 383.5 L
384.379 385.621 L
386.5 386.5 L
388.621 385.621 L
cp
S
GR
GS
0 0.447 0.741 RC
1 LJ
N
396.5 383.5 M
395.621 381.379 L
393.5 380.5 L
391.379 381.379 L
390.5 383.5 L
391.379 385.621 L
393.5 386.5 L
395.621 385.621 L
cp
S
GR
GS
0 0.447 0.741 RC
1 LJ
N
403.5 383.5 M
402.621 381.379 L
400.5 380.5 L
398.379 381.379 L
397.5 383.5 L
398.379 385.621 L
400.5 386.5 L
402.621 385.621 L
cp
S
GR
GS
0 0.447 0.741 RC
1 LJ
N
410.5 383.5 M
409.621 381.379 L
407.5 380.5 L
405.379 381.379 L
404.5 383.5 L
405.379 385.621 L
407.5 386.5 L
409.621 385.621 L
cp
S
GR
GS
0 0.447 0.741 RC
1 LJ
N
417.5 383.5 M
416.621 381.379 L
414.5 380.5 L
412.379 381.379 L
411.5 383.5 L
412.379 385.621 L
414.5 386.5 L
416.621 385.621 L
cp
S
GR
GS
0 0.447 0.741 RC
1 LJ
N
424.5 383.5 M
423.621 381.379 L
421.5 380.5 L
419.379 381.379 L
418.5 383.5 L
419.379 385.621 L
421.5 386.5 L
423.621 385.621 L
cp
S
GR
GS
0 0.447 0.741 RC
1 LJ
N
75 33.164 M
81.891 178.88 L
88.926 238.636 L
95.853 268.075 L
102.644 280.975 L
109.658 286.765 L
116.599 290.298 L
123.529 293.379 L
130.52 296.234 L
137.441 299.262 L
144.369 298.518 L
151.396 300.398 L
158.461 300.134 L
165.484 305.048 L
172.54 305.859 L
179.606 306.712 L
186.584 305.326 L
193.492 306.325 L
200.245 307.012 L
207.014 306.353 L
213.787 306.392 L
220.624 306.835 L
227.443 306.738 L
234.201 307.04 L
240.904 306.843 L
247.637 306.559 L
254.414 306.995 L
261.114 306.917 L
267.991 306.989 L
275.76 306.779 L
282.58 306.837 L
289.376 306.914 L
296.357 306.876 L
303.4 306.807 L
310.556 306.958 L
317.58 307.102 L
324.474 307.06 L
331.353 306.957 L
338.187 307.022 L
345.096 307.092 L
351.975 306.995 L
358.918 306.982 L
365.739 306.93 L
372.641 306.972 L
379.544 306.92 L
386.59 307.031 L
393.52 307.054 L
400.6 306.91 L
407.496 307.007 L
414.315 306.966 L
S
GR
GS
0 0.447 0.741 RC
1 LJ
N
407.496 307.007 M
414.315 306.966 L
421.363 307.029 L
S
GR
GS
0 0.447 0.741 RC
1 LJ
N
72 33.5 M
79 33.5 L
S
GR
GS
0 0.447 0.741 RC
1 LJ
N
75.5 37 M
75.5 30 L
S
GR
GS
0 0.447 0.741 RC
1 LJ
N
73 36 M
78 31 L
S
GR
GS
0 0.447 0.741 RC
1 LJ
N
73 31 M
78 36 L
S
GR
GS
0 0.447 0.741 RC
1 LJ
N
78 178.5 M
85 178.5 L
S
GR
GS
0 0.447 0.741 RC
1 LJ
N
81.5 182 M
81.5 175 L
S
GR
GS
0 0.447 0.741 RC
1 LJ
N
79 181 M
84 176 L
S
GR
GS
0 0.447 0.741 RC
1 LJ
N
79 176 M
84 181 L
S
GR
GS
0 0.447 0.741 RC
1 LJ
N
85 238.5 M
92 238.5 L
S
GR
GS
0 0.447 0.741 RC
1 LJ
N
88.5 242 M
88.5 235 L
S
GR
GS
0 0.447 0.741 RC
1 LJ
N
86 241 M
91 236 L
S
GR
GS
0 0.447 0.741 RC
1 LJ
N
86 236 M
91 241 L
S
GR
GS
0 0.447 0.741 RC
1 LJ
N
92 268.5 M
99 268.5 L
S
GR
GS
0 0.447 0.741 RC
1 LJ
N
95.5 272 M
95.5 265 L
S
GR
GS
0 0.447 0.741 RC
1 LJ
N
93 271 M
98 266 L
S
GR
GS
0 0.447 0.741 RC
1 LJ
N
93 266 M
98 271 L
S
GR
GS
0 0.447 0.741 RC
1 LJ
N
99 280.5 M
106 280.5 L
S
GR
GS
0 0.447 0.741 RC
1 LJ
N
102.5 284 M
102.5 277 L
S
GR
GS
0 0.447 0.741 RC
1 LJ
N
100 283 M
105 278 L
S
GR
GS
0 0.447 0.741 RC
1 LJ
N
100 278 M
105 283 L
S
GR
GS
0 0.447 0.741 RC
1 LJ
N
106 286.5 M
113 286.5 L
S
GR
GS
0 0.447 0.741 RC
1 LJ
N
109.5 290 M
109.5 283 L
S
GR
GS
0 0.447 0.741 RC
1 LJ
N
107 289 M
112 284 L
S
GR
GS
0 0.447 0.741 RC
1 LJ
N
107 284 M
112 289 L
S
GR
GS
0 0.447 0.741 RC
1 LJ
N
113 290.5 M
120 290.5 L
S
GR
GS
0 0.447 0.741 RC
1 LJ
N
116.5 294 M
116.5 287 L
S
GR
GS
0 0.447 0.741 RC
1 LJ
N
114 293 M
119 288 L
S
GR
GS
0 0.447 0.741 RC
1 LJ
N
114 288 M
119 293 L
S
GR
GS
0 0.447 0.741 RC
1 LJ
N
120 293.5 M
127 293.5 L
S
GR
GS
0 0.447 0.741 RC
1 LJ
N
123.5 297 M
123.5 290 L
S
GR
GS
0 0.447 0.741 RC
1 LJ
N
121 296 M
126 291 L
S
GR
GS
0 0.447 0.741 RC
1 LJ
N
121 291 M
126 296 L
S
GR
GS
0 0.447 0.741 RC
1 LJ
N
127 296.5 M
134 296.5 L
S
GR
GS
0 0.447 0.741 RC
1 LJ
N
130.5 300 M
130.5 293 L
S
GR
GS
0 0.447 0.741 RC
1 LJ
N
128 299 M
133 294 L
S
GR
GS
0 0.447 0.741 RC
1 LJ
N
128 294 M
133 299 L
S
GR
GS
0 0.447 0.741 RC
1 LJ
N
134 299.5 M
141 299.5 L
S
GR
GS
0 0.447 0.741 RC
1 LJ
N
137.5 303 M
137.5 296 L
S
GR
GS
0 0.447 0.741 RC
1 LJ
N
135 302 M
140 297 L
S
GR
GS
0 0.447 0.741 RC
1 LJ
N
135 297 M
140 302 L
S
GR
GS
0 0.447 0.741 RC
1 LJ
N
141 298.5 M
148 298.5 L
S
GR
GS
0 0.447 0.741 RC
1 LJ
N
144.5 302 M
144.5 295 L
S
GR
GS
0 0.447 0.741 RC
1 LJ
N
142 301 M
147 296 L
S
GR
GS
0 0.447 0.741 RC
1 LJ
N
142 296 M
147 301 L
S
GR
GS
0 0.447 0.741 RC
1 LJ
N
148 300.5 M
155 300.5 L
S
GR
GS
0 0.447 0.741 RC
1 LJ
N
151.5 304 M
151.5 297 L
S
GR
GS
0 0.447 0.741 RC
1 LJ
N
149 303 M
154 298 L
S
GR
GS
0 0.447 0.741 RC
1 LJ
N
149 298 M
154 303 L
S
GR
GS
0 0.447 0.741 RC
1 LJ
N
155 300.5 M
162 300.5 L
S
GR
GS
0 0.447 0.741 RC
1 LJ
N
158.5 304 M
158.5 297 L
S
GR
GS
0 0.447 0.741 RC
1 LJ
N
156 303 M
161 298 L
S
GR
GS
0 0.447 0.741 RC
1 LJ
N
156 298 M
161 303 L
S
GR
GS
0 0.447 0.741 RC
1 LJ
N
162 305.5 M
169 305.5 L
S
GR
GS
0 0.447 0.741 RC
1 LJ
N
165.5 309 M
165.5 302 L
S
GR
GS
0 0.447 0.741 RC
1 LJ
N
163 308 M
168 303 L
S
GR
GS
0 0.447 0.741 RC
1 LJ
N
163 303 M
168 308 L
S
GR
GS
0 0.447 0.741 RC
1 LJ
N
169 305.5 M
176 305.5 L
S
GR
GS
0 0.447 0.741 RC
1 LJ
N
172.5 309 M
172.5 302 L
S
GR
GS
0 0.447 0.741 RC
1 LJ
N
170 308 M
175 303 L
S
GR
GS
0 0.447 0.741 RC
1 LJ
N
170 303 M
175 308 L
S
GR
GS
0 0.447 0.741 RC
1 LJ
N
176 306.5 M
183 306.5 L
S
GR
GS
0 0.447 0.741 RC
1 LJ
N
179.5 310 M
179.5 303 L
S
GR
GS
0 0.447 0.741 RC
1 LJ
N
177 309 M
182 304 L
S
GR
GS
0 0.447 0.741 RC
1 LJ
N
177 304 M
182 309 L
S
GR
GS
0 0.447 0.741 RC
1 LJ
N
183 305.5 M
190 305.5 L
S
GR
GS
0 0.447 0.741 RC
1 LJ
N
186.5 309 M
186.5 302 L
S
GR
GS
0 0.447 0.741 RC
1 LJ
N
184 308 M
189 303 L
S
GR
GS
0 0.447 0.741 RC
1 LJ
N
184 303 M
189 308 L
S
GR
GS
0 0.447 0.741 RC
1 LJ
N
190 306.5 M
197 306.5 L
S
GR
GS
0 0.447 0.741 RC
1 LJ
N
193.5 310 M
193.5 303 L
S
GR
GS
0 0.447 0.741 RC
1 LJ
N
191 309 M
196 304 L
S
GR
GS
0 0.447 0.741 RC
1 LJ
N
191 304 M
196 309 L
S
GR
GS
0 0.447 0.741 RC
1 LJ
N
197 307.5 M
204 307.5 L
S
GR
GS
0 0.447 0.741 RC
1 LJ
N
200.5 311 M
200.5 304 L
S
GR
GS
0 0.447 0.741 RC
1 LJ
N
198 310 M
203 305 L
S
GR
GS
0 0.447 0.741 RC
1 LJ
N
198 305 M
203 310 L
S
GR
GS
0 0.447 0.741 RC
1 LJ
N
204 306.5 M
211 306.5 L
S
GR
GS
0 0.447 0.741 RC
1 LJ
N
207.5 310 M
207.5 303 L
S
GR
GS
0 0.447 0.741 RC
1 LJ
N
205 309 M
210 304 L
S
GR
GS
0 0.447 0.741 RC
1 LJ
N
205 304 M
210 309 L
S
GR
GS
0 0.447 0.741 RC
1 LJ
N
210 306.5 M
217 306.5 L
S
GR
GS
0 0.447 0.741 RC
1 LJ
N
213.5 310 M
213.5 303 L
S
GR
GS
0 0.447 0.741 RC
1 LJ
N
211 309 M
216 304 L
S
GR
GS
0 0.447 0.741 RC
1 LJ
N
211 304 M
216 309 L
S
GR
GS
0 0.447 0.741 RC
1 LJ
N
217 306.5 M
224 306.5 L
S
GR
GS
0 0.447 0.741 RC
1 LJ
N
220.5 310 M
220.5 303 L
S
GR
GS
0 0.447 0.741 RC
1 LJ
N
218 309 M
223 304 L
S
GR
GS
0 0.447 0.741 RC
1 LJ
N
218 304 M
223 309 L
S
GR
GS
0 0.447 0.741 RC
1 LJ
N
224 306.5 M
231 306.5 L
S
GR
GS
0 0.447 0.741 RC
1 LJ
N
227.5 310 M
227.5 303 L
S
GR
GS
0 0.447 0.741 RC
1 LJ
N
225 309 M
230 304 L
S
GR
GS
0 0.447 0.741 RC
1 LJ
N
225 304 M
230 309 L
S
GR
GS
0 0.447 0.741 RC
1 LJ
N
231 307.5 M
238 307.5 L
S
GR
GS
0 0.447 0.741 RC
1 LJ
N
234.5 311 M
234.5 304 L
S
GR
GS
0 0.447 0.741 RC
1 LJ
N
232 310 M
237 305 L
S
GR
GS
0 0.447 0.741 RC
1 LJ
N
232 305 M
237 310 L
S
GR
GS
0 0.447 0.741 RC
1 LJ
N
237 306.5 M
244 306.5 L
S
GR
GS
0 0.447 0.741 RC
1 LJ
N
240.5 310 M
240.5 303 L
S
GR
GS
0 0.447 0.741 RC
1 LJ
N
238 309 M
243 304 L
S
GR
GS
0 0.447 0.741 RC
1 LJ
N
238 304 M
243 309 L
S
GR
GS
0 0.447 0.741 RC
1 LJ
N
244 306.5 M
251 306.5 L
S
GR
GS
0 0.447 0.741 RC
1 LJ
N
247.5 310 M
247.5 303 L
S
GR
GS
0 0.447 0.741 RC
1 LJ
N
245 309 M
250 304 L
S
GR
GS
0 0.447 0.741 RC
1 LJ
N
245 304 M
250 309 L
S
GR
GS
0 0.447 0.741 RC
1 LJ
N
251 306.5 M
258 306.5 L
S
GR
GS
0 0.447 0.741 RC
1 LJ
N
254.5 310 M
254.5 303 L
S
GR
GS
0 0.447 0.741 RC
1 LJ
N
252 309 M
257 304 L
S
GR
GS
0 0.447 0.741 RC
1 LJ
N
252 304 M
257 309 L
S
GR
GS
0 0.447 0.741 RC
1 LJ
N
258 306.5 M
265 306.5 L
S
GR
GS
0 0.447 0.741 RC
1 LJ
N
261.5 310 M
261.5 303 L
S
GR
GS
0 0.447 0.741 RC
1 LJ
N
259 309 M
264 304 L
S
GR
GS
0 0.447 0.741 RC
1 LJ
N
259 304 M
264 309 L
S
GR
GS
0 0.447 0.741 RC
1 LJ
N
264 306.5 M
271 306.5 L
S
GR
GS
0 0.447 0.741 RC
1 LJ
N
267.5 310 M
267.5 303 L
S
GR
GS
0 0.447 0.741 RC
1 LJ
N
265 309 M
270 304 L
S
GR
GS
0 0.447 0.741 RC
1 LJ
N
265 304 M
270 309 L
S
GR
GS
0 0.447 0.741 RC
1 LJ
N
272 306.5 M
279 306.5 L
S
GR
GS
0 0.447 0.741 RC
1 LJ
N
275.5 310 M
275.5 303 L
S
GR
GS
0 0.447 0.741 RC
1 LJ
N
273 309 M
278 304 L
S
GR
GS
0 0.447 0.741 RC
1 LJ
N
273 304 M
278 309 L
S
GR
GS
0 0.447 0.741 RC
1 LJ
N
279 306.5 M
286 306.5 L
S
GR
GS
0 0.447 0.741 RC
1 LJ
N
282.5 310 M
282.5 303 L
S
GR
GS
0 0.447 0.741 RC
1 LJ
N
280 309 M
285 304 L
S
GR
GS
0 0.447 0.741 RC
1 LJ
N
280 304 M
285 309 L
S
GR
GS
0 0.447 0.741 RC
1 LJ
N
286 306.5 M
293 306.5 L
S
GR
GS
0 0.447 0.741 RC
1 LJ
N
289.5 310 M
289.5 303 L
S
GR
GS
0 0.447 0.741 RC
1 LJ
N
287 309 M
292 304 L
S
GR
GS
0 0.447 0.741 RC
1 LJ
N
287 304 M
292 309 L
S
GR
GS
0 0.447 0.741 RC
1 LJ
N
293 306.5 M
300 306.5 L
S
GR
GS
0 0.447 0.741 RC
1 LJ
N
296.5 310 M
296.5 303 L
S
GR
GS
0 0.447 0.741 RC
1 LJ
N
294 309 M
299 304 L
S
GR
GS
0 0.447 0.741 RC
1 LJ
N
294 304 M
299 309 L
S
GR
GS
0 0.447 0.741 RC
1 LJ
N
300 306.5 M
307 306.5 L
S
GR
GS
0 0.447 0.741 RC
1 LJ
N
303.5 310 M
303.5 303 L
S
GR
GS
0 0.447 0.741 RC
1 LJ
N
301 309 M
306 304 L
S
GR
GS
0 0.447 0.741 RC
1 LJ
N
301 304 M
306 309 L
S
GR
GS
0 0.447 0.741 RC
1 LJ
N
307 306.5 M
314 306.5 L
S
GR
GS
0 0.447 0.741 RC
1 LJ
N
310.5 310 M
310.5 303 L
S
GR
GS
0 0.447 0.741 RC
1 LJ
N
308 309 M
313 304 L
S
GR
GS
0 0.447 0.741 RC
1 LJ
N
308 304 M
313 309 L
S
GR
GS
0 0.447 0.741 RC
1 LJ
N
314 307.5 M
321 307.5 L
S
GR
GS
0 0.447 0.741 RC
1 LJ
N
317.5 311 M
317.5 304 L
S
GR
GS
0 0.447 0.741 RC
1 LJ
N
315 310 M
320 305 L
S
GR
GS
0 0.447 0.741 RC
1 LJ
N
315 305 M
320 310 L
S
GR
GS
0 0.447 0.741 RC
1 LJ
N
321 307.5 M
328 307.5 L
S
GR
GS
0 0.447 0.741 RC
1 LJ
N
324.5 311 M
324.5 304 L
S
GR
GS
0 0.447 0.741 RC
1 LJ
N
322 310 M
327 305 L
S
GR
GS
0 0.447 0.741 RC
1 LJ
N
322 305 M
327 310 L
S
GR
GS
0 0.447 0.741 RC
1 LJ
N
328 306.5 M
335 306.5 L
S
GR
GS
0 0.447 0.741 RC
1 LJ
N
331.5 310 M
331.5 303 L
S
GR
GS
0 0.447 0.741 RC
1 LJ
N
329 309 M
334 304 L
S
GR
GS
0 0.447 0.741 RC
1 LJ
N
329 304 M
334 309 L
S
GR
GS
0 0.447 0.741 RC
1 LJ
N
335 307.5 M
342 307.5 L
S
GR
GS
0 0.447 0.741 RC
1 LJ
N
338.5 311 M
338.5 304 L
S
GR
GS
0 0.447 0.741 RC
1 LJ
N
336 310 M
341 305 L
S
GR
GS
0 0.447 0.741 RC
1 LJ
N
336 305 M
341 310 L
S
GR
GS
0 0.447 0.741 RC
1 LJ
N
342 307.5 M
349 307.5 L
S
GR
GS
0 0.447 0.741 RC
1 LJ
N
345.5 311 M
345.5 304 L
S
GR
GS
0 0.447 0.741 RC
1 LJ
N
343 310 M
348 305 L
S
GR
GS
0 0.447 0.741 RC
1 LJ
N
343 305 M
348 310 L
S
GR
GS
0 0.447 0.741 RC
1 LJ
N
348 306.5 M
355 306.5 L
S
GR
GS
0 0.447 0.741 RC
1 LJ
N
351.5 310 M
351.5 303 L
S
GR
GS
0 0.447 0.741 RC
1 LJ
N
349 309 M
354 304 L
S
GR
GS
0 0.447 0.741 RC
1 LJ
N
349 304 M
354 309 L
S
GR
GS
0 0.447 0.741 RC
1 LJ
N
355 306.5 M
362 306.5 L
S
GR
GS
0 0.447 0.741 RC
1 LJ
N
358.5 310 M
358.5 303 L
S
GR
GS
0 0.447 0.741 RC
1 LJ
N
356 309 M
361 304 L
S
GR
GS
0 0.447 0.741 RC
1 LJ
N
356 304 M
361 309 L
S
GR
GS
0 0.447 0.741 RC
1 LJ
N
362 306.5 M
369 306.5 L
S
GR
GS
0 0.447 0.741 RC
1 LJ
N
365.5 310 M
365.5 303 L
S
GR
GS
0 0.447 0.741 RC
1 LJ
N
363 309 M
368 304 L
S
GR
GS
0 0.447 0.741 RC
1 LJ
N
363 304 M
368 309 L
S
GR
GS
0 0.447 0.741 RC
1 LJ
N
369 306.5 M
376 306.5 L
S
GR
GS
0 0.447 0.741 RC
1 LJ
N
372.5 310 M
372.5 303 L
S
GR
GS
0 0.447 0.741 RC
1 LJ
N
370 309 M
375 304 L
S
GR
GS
0 0.447 0.741 RC
1 LJ
N
370 304 M
375 309 L
S
GR
GS
0 0.447 0.741 RC
1 LJ
N
376 306.5 M
383 306.5 L
S
GR
GS
0 0.447 0.741 RC
1 LJ
N
379.5 310 M
379.5 303 L
S
GR
GS
0 0.447 0.741 RC
1 LJ
N
377 309 M
382 304 L
S
GR
GS
0 0.447 0.741 RC
1 LJ
N
377 304 M
382 309 L
S
GR
GS
0 0.447 0.741 RC
1 LJ
N
383 307.5 M
390 307.5 L
S
GR
GS
0 0.447 0.741 RC
1 LJ
N
386.5 311 M
386.5 304 L
S
GR
GS
0 0.447 0.741 RC
1 LJ
N
384 310 M
389 305 L
S
GR
GS
0 0.447 0.741 RC
1 LJ
N
384 305 M
389 310 L
S
GR
GS
0 0.447 0.741 RC
1 LJ
N
390 307.5 M
397 307.5 L
S
GR
GS
0 0.447 0.741 RC
1 LJ
N
393.5 311 M
393.5 304 L
S
GR
GS
0 0.447 0.741 RC
1 LJ
N
391 310 M
396 305 L
S
GR
GS
0 0.447 0.741 RC
1 LJ
N
391 305 M
396 310 L
S
GR
GS
0 0.447 0.741 RC
1 LJ
N
397 306.5 M
404 306.5 L
S
GR
GS
0 0.447 0.741 RC
1 LJ
N
400.5 310 M
400.5 303 L
S
GR
GS
0 0.447 0.741 RC
1 LJ
N
398 309 M
403 304 L
S
GR
GS
0 0.447 0.741 RC
1 LJ
N
398 304 M
403 309 L
S
GR
GS
0 0.447 0.741 RC
1 LJ
N
404 307.5 M
411 307.5 L
S
GR
GS
0 0.447 0.741 RC
1 LJ
N
407.5 311 M
407.5 304 L
S
GR
GS
0 0.447 0.741 RC
1 LJ
N
405 310 M
410 305 L
S
GR
GS
0 0.447 0.741 RC
1 LJ
N
405 305 M
410 310 L
S
GR
GS
0 0.447 0.741 RC
1 LJ
N
411 306.5 M
418 306.5 L
S
GR
GS
0 0.447 0.741 RC
1 LJ
N
414.5 310 M
414.5 303 L
S
GR
GS
0 0.447 0.741 RC
1 LJ
N
412 309 M
417 304 L
S
GR
GS
0 0.447 0.741 RC
1 LJ
N
412 304 M
417 309 L
S
GR
GS
0 0.447 0.741 RC
1 LJ
N
418 307.5 M
425 307.5 L
S
GR
GS
0 0.447 0.741 RC
1 LJ
N
421.5 311 M
421.5 304 L
S
GR
GS
0 0.447 0.741 RC
1 LJ
N
419 310 M
424 305 L
S
GR
GS
0 0.447 0.741 RC
1 LJ
N
419 305 M
424 310 L
S
GR
GS
0.851 0.325 0.098 RC
1 LJ
N
75 32.5 M
83.471 192.056 L
90.491 252.713 L
97.904 291.37 L
105.019 313.048 L
112.745 335.849 L
119.824 345.288 L
126.902 346.786 L
133.74 345.725 L
140.757 353.777 L
148.432 364.346 L
155.603 366.952 L
162.562 365.462 L
170.298 371.058 L
177.344 370.538 L
185.586 373.689 L
192.507 373.447 L
199.43 375.149 L
206.423 376.008 L
213.356 375.922 L
221.062 380.142 L
228.227 379.616 L
235.152 380.483 L
242.011 380.786 L
248.995 380.888 L
256.756 381.871 L
264.029 381.687 L
271.095 381.757 L
278.113 381.918 L
285.021 381.967 L
292.615 382.489 L
299.493 382.573 L
306.358 382.7 L
313.399 382.783 L
320.328 382.849 L
328.043 383.013 L
334.837 382.972 L
341.652 383.046 L
348.518 382.983 L
355.436 383.038 L
363.126 383.184 L
370.06 383.262 L
376.875 383.236 L
383.695 383.327 L
390.496 383.382 L
397.98 383.448 L
404.792 383.539 L
411.661 383.543 L
418.512 383.535 L
425.507 383.562 L
S
GR
GS
0.851 0.325 0.098 RC
1 LJ
N
418.512 383.535 M
425.507 383.562 L
433.071 383.621 L
S
GR
GS
0.851 0.325 0.098 RC
1 LJ
N
78.5 32.5 M
77.621 30.379 L
75.5 29.5 L
73.379 30.379 L
72.5 32.5 L
73.379 34.621 L
75.5 35.5 L
77.621 34.621 L
cp
S
GR
GS
0.851 0.325 0.098 RC
1 LJ
N
86.5 192.5 M
85.621 190.379 L
83.5 189.5 L
81.379 190.379 L
80.5 192.5 L
81.379 194.621 L
83.5 195.5 L
85.621 194.621 L
cp
S
GR
GS
0.851 0.325 0.098 RC
1 LJ
N
93.5 252.5 M
92.621 250.379 L
90.5 249.5 L
88.379 250.379 L
87.5 252.5 L
88.379 254.621 L
90.5 255.5 L
92.621 254.621 L
cp
S
GR
GS
0.851 0.325 0.098 RC
1 LJ
N
100.5 291.5 M
99.621 289.379 L
97.5 288.5 L
95.379 289.379 L
94.5 291.5 L
95.379 293.621 L
97.5 294.5 L
99.621 293.621 L
cp
S
GR
GS
0.851 0.325 0.098 RC
1 LJ
N
108.5 313.5 M
107.621 311.379 L
105.5 310.5 L
103.379 311.379 L
102.5 313.5 L
103.379 315.621 L
105.5 316.5 L
107.621 315.621 L
cp
S
GR
GS
0.851 0.325 0.098 RC
1 LJ
N
115.5 335.5 M
114.621 333.379 L
112.5 332.5 L
110.379 333.379 L
109.5 335.5 L
110.379 337.621 L
112.5 338.5 L
114.621 337.621 L
cp
S
GR
GS
0.851 0.325 0.098 RC
1 LJ
N
122.5 345.5 M
121.621 343.379 L
119.5 342.5 L
117.379 343.379 L
116.5 345.5 L
117.379 347.621 L
119.5 348.5 L
121.621 347.621 L
cp
S
GR
GS
0.851 0.325 0.098 RC
1 LJ
N
129.5 346.5 M
128.621 344.379 L
126.5 343.5 L
124.379 344.379 L
123.5 346.5 L
124.379 348.621 L
126.5 349.5 L
128.621 348.621 L
cp
S
GR
GS
0.851 0.325 0.098 RC
1 LJ
N
136.5 345.5 M
135.621 343.379 L
133.5 342.5 L
131.379 343.379 L
130.5 345.5 L
131.379 347.621 L
133.5 348.5 L
135.621 347.621 L
cp
S
GR
GS
0.851 0.325 0.098 RC
1 LJ
N
143.5 353.5 M
142.621 351.379 L
140.5 350.5 L
138.379 351.379 L
137.5 353.5 L
138.379 355.621 L
140.5 356.5 L
142.621 355.621 L
cp
S
GR
GS
0.851 0.325 0.098 RC
1 LJ
N
151.5 364.5 M
150.621 362.379 L
148.5 361.5 L
146.379 362.379 L
145.5 364.5 L
146.379 366.621 L
148.5 367.5 L
150.621 366.621 L
cp
S
GR
GS
0.851 0.325 0.098 RC
1 LJ
N
158.5 366.5 M
157.621 364.379 L
155.5 363.5 L
153.379 364.379 L
152.5 366.5 L
153.379 368.621 L
155.5 369.5 L
157.621 368.621 L
cp
S
GR
GS
0.851 0.325 0.098 RC
1 LJ
N
165.5 365.5 M
164.621 363.379 L
162.5 362.5 L
160.379 363.379 L
159.5 365.5 L
160.379 367.621 L
162.5 368.5 L
164.621 367.621 L
cp
S
GR
GS
0.851 0.325 0.098 RC
1 LJ
N
173.5 371.5 M
172.621 369.379 L
170.5 368.5 L
168.379 369.379 L
167.5 371.5 L
168.379 373.621 L
170.5 374.5 L
172.621 373.621 L
cp
S
GR
GS
0.851 0.325 0.098 RC
1 LJ
N
180.5 370.5 M
179.621 368.379 L
177.5 367.5 L
175.379 368.379 L
174.5 370.5 L
175.379 372.621 L
177.5 373.5 L
179.621 372.621 L
cp
S
GR
GS
0.851 0.325 0.098 RC
1 LJ
N
188.5 373.5 M
187.621 371.379 L
185.5 370.5 L
183.379 371.379 L
182.5 373.5 L
183.379 375.621 L
185.5 376.5 L
187.621 375.621 L
cp
S
GR
GS
0.851 0.325 0.098 RC
1 LJ
N
195.5 373.5 M
194.621 371.379 L
192.5 370.5 L
190.379 371.379 L
189.5 373.5 L
190.379 375.621 L
192.5 376.5 L
194.621 375.621 L
cp
S
GR
GS
0.851 0.325 0.098 RC
1 LJ
N
202.5 375.5 M
201.621 373.379 L
199.5 372.5 L
197.379 373.379 L
196.5 375.5 L
197.379 377.621 L
199.5 378.5 L
201.621 377.621 L
cp
S
GR
GS
0.851 0.325 0.098 RC
1 LJ
N
209.5 376.5 M
208.621 374.379 L
206.5 373.5 L
204.379 374.379 L
203.5 376.5 L
204.379 378.621 L
206.5 379.5 L
208.621 378.621 L
cp
S
GR
GS
0.851 0.325 0.098 RC
1 LJ
N
216.5 375.5 M
215.621 373.379 L
213.5 372.5 L
211.379 373.379 L
210.5 375.5 L
211.379 377.621 L
213.5 378.5 L
215.621 377.621 L
cp
S
GR
GS
0.851 0.325 0.098 RC
1 LJ
N
224.5 380.5 M
223.621 378.379 L
221.5 377.5 L
219.379 378.379 L
218.5 380.5 L
219.379 382.621 L
221.5 383.5 L
223.621 382.621 L
cp
S
GR
GS
0.851 0.325 0.098 RC
1 LJ
N
231.5 379.5 M
230.621 377.379 L
228.5 376.5 L
226.379 377.379 L
225.5 379.5 L
226.379 381.621 L
228.5 382.5 L
230.621 381.621 L
cp
S
GR
GS
0.851 0.325 0.098 RC
1 LJ
N
238.5 380.5 M
237.621 378.379 L
235.5 377.5 L
233.379 378.379 L
232.5 380.5 L
233.379 382.621 L
235.5 383.5 L
237.621 382.621 L
cp
S
GR
GS
0.851 0.325 0.098 RC
1 LJ
N
245.5 380.5 M
244.621 378.379 L
242.5 377.5 L
240.379 378.379 L
239.5 380.5 L
240.379 382.621 L
242.5 383.5 L
244.621 382.621 L
cp
S
GR
GS
0.851 0.325 0.098 RC
1 LJ
N
251.5 380.5 M
250.621 378.379 L
248.5 377.5 L
246.379 378.379 L
245.5 380.5 L
246.379 382.621 L
248.5 383.5 L
250.621 382.621 L
cp
S
GR
GS
0.851 0.325 0.098 RC
1 LJ
N
259.5 381.5 M
258.621 379.379 L
256.5 378.5 L
254.379 379.379 L
253.5 381.5 L
254.379 383.621 L
256.5 384.5 L
258.621 383.621 L
cp
S
GR
GS
0.851 0.325 0.098 RC
1 LJ
N
267.5 381.5 M
266.621 379.379 L
264.5 378.5 L
262.379 379.379 L
261.5 381.5 L
262.379 383.621 L
264.5 384.5 L
266.621 383.621 L
cp
S
GR
GS
0.851 0.325 0.098 RC
1 LJ
N
274.5 381.5 M
273.621 379.379 L
271.5 378.5 L
269.379 379.379 L
268.5 381.5 L
269.379 383.621 L
271.5 384.5 L
273.621 383.621 L
cp
S
GR
GS
0.851 0.325 0.098 RC
1 LJ
N
281.5 381.5 M
280.621 379.379 L
278.5 378.5 L
276.379 379.379 L
275.5 381.5 L
276.379 383.621 L
278.5 384.5 L
280.621 383.621 L
cp
S
GR
GS
0.851 0.325 0.098 RC
1 LJ
N
288.5 381.5 M
287.621 379.379 L
285.5 378.5 L
283.379 379.379 L
282.5 381.5 L
283.379 383.621 L
285.5 384.5 L
287.621 383.621 L
cp
S
GR
GS
0.851 0.325 0.098 RC
1 LJ
N
295.5 382.5 M
294.621 380.379 L
292.5 379.5 L
290.379 380.379 L
289.5 382.5 L
290.379 384.621 L
292.5 385.5 L
294.621 384.621 L
cp
S
GR
GS
0.851 0.325 0.098 RC
1 LJ
N
302.5 382.5 M
301.621 380.379 L
299.5 379.5 L
297.379 380.379 L
296.5 382.5 L
297.379 384.621 L
299.5 385.5 L
301.621 384.621 L
cp
S
GR
GS
0.851 0.325 0.098 RC
1 LJ
N
309.5 382.5 M
308.621 380.379 L
306.5 379.5 L
304.379 380.379 L
303.5 382.5 L
304.379 384.621 L
306.5 385.5 L
308.621 384.621 L
cp
S
GR
GS
0.851 0.325 0.098 RC
1 LJ
N
316.5 382.5 M
315.621 380.379 L
313.5 379.5 L
311.379 380.379 L
310.5 382.5 L
311.379 384.621 L
313.5 385.5 L
315.621 384.621 L
cp
S
GR
GS
0.851 0.325 0.098 RC
1 LJ
N
323.5 382.5 M
322.621 380.379 L
320.5 379.5 L
318.379 380.379 L
317.5 382.5 L
318.379 384.621 L
320.5 385.5 L
322.621 384.621 L
cp
S
GR
GS
0.851 0.325 0.098 RC
1 LJ
N
331.5 383.5 M
330.621 381.379 L
328.5 380.5 L
326.379 381.379 L
325.5 383.5 L
326.379 385.621 L
328.5 386.5 L
330.621 385.621 L
cp
S
GR
GS
0.851 0.325 0.098 RC
1 LJ
N
337.5 382.5 M
336.621 380.379 L
334.5 379.5 L
332.379 380.379 L
331.5 382.5 L
332.379 384.621 L
334.5 385.5 L
336.621 384.621 L
cp
S
GR
GS
0.851 0.325 0.098 RC
1 LJ
N
344.5 383.5 M
343.621 381.379 L
341.5 380.5 L
339.379 381.379 L
338.5 383.5 L
339.379 385.621 L
341.5 386.5 L
343.621 385.621 L
cp
S
GR
GS
0.851 0.325 0.098 RC
1 LJ
N
351.5 382.5 M
350.621 380.379 L
348.5 379.5 L
346.379 380.379 L
345.5 382.5 L
346.379 384.621 L
348.5 385.5 L
350.621 384.621 L
cp
S
GR
GS
0.851 0.325 0.098 RC
1 LJ
N
358.5 383.5 M
357.621 381.379 L
355.5 380.5 L
353.379 381.379 L
352.5 383.5 L
353.379 385.621 L
355.5 386.5 L
357.621 385.621 L
cp
S
GR
GS
0.851 0.325 0.098 RC
1 LJ
N
366.5 383.5 M
365.621 381.379 L
363.5 380.5 L
361.379 381.379 L
360.5 383.5 L
361.379 385.621 L
363.5 386.5 L
365.621 385.621 L
cp
S
GR
GS
0.851 0.325 0.098 RC
1 LJ
N
373.5 383.5 M
372.621 381.379 L
370.5 380.5 L
368.379 381.379 L
367.5 383.5 L
368.379 385.621 L
370.5 386.5 L
372.621 385.621 L
cp
S
GR
GS
0.851 0.325 0.098 RC
1 LJ
N
379.5 383.5 M
378.621 381.379 L
376.5 380.5 L
374.379 381.379 L
373.5 383.5 L
374.379 385.621 L
376.5 386.5 L
378.621 385.621 L
cp
S
GR
GS
0.851 0.325 0.098 RC
1 LJ
N
386.5 383.5 M
385.621 381.379 L
383.5 380.5 L
381.379 381.379 L
380.5 383.5 L
381.379 385.621 L
383.5 386.5 L
385.621 385.621 L
cp
S
GR
GS
0.851 0.325 0.098 RC
1 LJ
N
393.5 383.5 M
392.621 381.379 L
390.5 380.5 L
388.379 381.379 L
387.5 383.5 L
388.379 385.621 L
390.5 386.5 L
392.621 385.621 L
cp
S
GR
GS
0.851 0.325 0.098 RC
1 LJ
N
400.5 383.5 M
399.621 381.379 L
397.5 380.5 L
395.379 381.379 L
394.5 383.5 L
395.379 385.621 L
397.5 386.5 L
399.621 385.621 L
cp
S
GR
GS
0.851 0.325 0.098 RC
1 LJ
N
407.5 383.5 M
406.621 381.379 L
404.5 380.5 L
402.379 381.379 L
401.5 383.5 L
402.379 385.621 L
404.5 386.5 L
406.621 385.621 L
cp
S
GR
GS
0.851 0.325 0.098 RC
1 LJ
N
414.5 383.5 M
413.621 381.379 L
411.5 380.5 L
409.379 381.379 L
408.5 383.5 L
409.379 385.621 L
411.5 386.5 L
413.621 385.621 L
cp
S
GR
GS
0.851 0.325 0.098 RC
1 LJ
N
421.5 383.5 M
420.621 381.379 L
418.5 380.5 L
416.379 381.379 L
415.5 383.5 L
416.379 385.621 L
418.5 386.5 L
420.621 385.621 L
cp
S
GR
GS
0.851 0.325 0.098 RC
1 LJ
N
428.5 383.5 M
427.621 381.379 L
425.5 380.5 L
423.379 381.379 L
422.5 383.5 L
423.379 385.621 L
425.5 386.5 L
427.621 385.621 L
cp
S
GR
GS
0.851 0.325 0.098 RC
1 LJ
N
436.5 383.5 M
435.621 381.379 L
433.5 380.5 L
431.379 381.379 L
430.5 383.5 L
431.379 385.621 L
433.5 386.5 L
435.621 385.621 L
cp
S
GR
GS
0.851 0.325 0.098 RC
1 LJ
N
75 33.164 M
83.471 154.917 L
90.491 195.949 L
97.904 225.128 L
105.019 241.53 L
112.745 275.542 L
119.824 285.889 L
126.902 291.33 L
133.74 284.641 L
140.757 289.2 L
148.432 303.883 L
155.603 303.127 L
162.562 300.148 L
170.298 305.883 L
177.344 303.114 L
185.586 307.144 L
192.507 304.881 L
199.43 308.838 L
206.423 308.151 L
213.356 307.723 L
221.062 310.375 L
228.227 309.918 L
235.152 309.681 L
242.011 308.99 L
248.995 309.107 L
256.756 311.082 L
264.029 310.339 L
271.095 310.227 L
278.113 310.645 L
285.021 310.501 L
292.615 310.57 L
299.493 310.559 L
306.358 310.489 L
313.399 310.639 L
320.328 310.658 L
328.043 311.327 L
334.837 311.495 L
341.652 311.313 L
348.518 311.333 L
355.436 311.151 L
363.126 311.009 L
370.06 310.966 L
376.875 310.942 L
383.695 310.928 L
390.496 310.964 L
397.98 311.332 L
404.792 311.533 L
411.661 311.507 L
418.512 311.61 L
425.507 311.811 L
S
GR
GS
0.851 0.325 0.098 RC
1 LJ
N
418.512 311.61 M
425.507 311.811 L
433.071 311.649 L
S
GR
GS
0.851 0.325 0.098 RC
1 LJ
N
72 33.5 M
79 33.5 L
S
GR
GS
0.851 0.325 0.098 RC
1 LJ
N
75.5 37 M
75.5 30 L
S
GR
GS
0.851 0.325 0.098 RC
1 LJ
N
73 36 M
78 31 L
S
GR
GS
0.851 0.325 0.098 RC
1 LJ
N
73 31 M
78 36 L
S
GR
GS
0.851 0.325 0.098 RC
1 LJ
N
80 154.5 M
87 154.5 L
S
GR
GS
0.851 0.325 0.098 RC
1 LJ
N
83.5 158 M
83.5 151 L
S
GR
GS
0.851 0.325 0.098 RC
1 LJ
N
81 157 M
86 152 L
S
GR
GS
0.851 0.325 0.098 RC
1 LJ
N
81 152 M
86 157 L
S
GR
GS
0.851 0.325 0.098 RC
1 LJ
N
87 195.5 M
94 195.5 L
S
GR
GS
0.851 0.325 0.098 RC
1 LJ
N
90.5 199 M
90.5 192 L
S
GR
GS
0.851 0.325 0.098 RC
1 LJ
N
88 198 M
93 193 L
S
GR
GS
0.851 0.325 0.098 RC
1 LJ
N
88 193 M
93 198 L
S
GR
GS
0.851 0.325 0.098 RC
1 LJ
N
94 225.5 M
101 225.5 L
S
GR
GS
0.851 0.325 0.098 RC
1 LJ
N
97.5 229 M
97.5 222 L
S
GR
GS
0.851 0.325 0.098 RC
1 LJ
N
95 228 M
100 223 L
S
GR
GS
0.851 0.325 0.098 RC
1 LJ
N
95 223 M
100 228 L
S
GR
GS
0.851 0.325 0.098 RC
1 LJ
N
102 241.5 M
109 241.5 L
S
GR
GS
0.851 0.325 0.098 RC
1 LJ
N
105.5 245 M
105.5 238 L
S
GR
GS
0.851 0.325 0.098 RC
1 LJ
N
103 244 M
108 239 L
S
GR
GS
0.851 0.325 0.098 RC
1 LJ
N
103 239 M
108 244 L
S
GR
GS
0.851 0.325 0.098 RC
1 LJ
N
109 275.5 M
116 275.5 L
S
GR
GS
0.851 0.325 0.098 RC
1 LJ
N
112.5 279 M
112.5 272 L
S
GR
GS
0.851 0.325 0.098 RC
1 LJ
N
110 278 M
115 273 L
S
GR
GS
0.851 0.325 0.098 RC
1 LJ
N
110 273 M
115 278 L
S
GR
GS
0.851 0.325 0.098 RC
1 LJ
N
116 285.5 M
123 285.5 L
S
GR
GS
0.851 0.325 0.098 RC
1 LJ
N
119.5 289 M
119.5 282 L
S
GR
GS
0.851 0.325 0.098 RC
1 LJ
N
117 288 M
122 283 L
S
GR
GS
0.851 0.325 0.098 RC
1 LJ
N
117 283 M
122 288 L
S
GR
GS
0.851 0.325 0.098 RC
1 LJ
N
123 291.5 M
130 291.5 L
S
GR
GS
0.851 0.325 0.098 RC
1 LJ
N
126.5 295 M
126.5 288 L
S
GR
GS
0.851 0.325 0.098 RC
1 LJ
N
124 294 M
129 289 L
S
GR
GS
0.851 0.325 0.098 RC
1 LJ
N
124 289 M
129 294 L
S
GR
GS
0.851 0.325 0.098 RC
1 LJ
N
130 284.5 M
137 284.5 L
S
GR
GS
0.851 0.325 0.098 RC
1 LJ
N
133.5 288 M
133.5 281 L
S
GR
GS
0.851 0.325 0.098 RC
1 LJ
N
131 287 M
136 282 L
S
GR
GS
0.851 0.325 0.098 RC
1 LJ
N
131 282 M
136 287 L
S
GR
GS
0.851 0.325 0.098 RC
1 LJ
N
137 289.5 M
144 289.5 L
S
GR
GS
0.851 0.325 0.098 RC
1 LJ
N
140.5 293 M
140.5 286 L
S
GR
GS
0.851 0.325 0.098 RC
1 LJ
N
138 292 M
143 287 L
S
GR
GS
0.851 0.325 0.098 RC
1 LJ
N
138 287 M
143 292 L
S
GR
GS
0.851 0.325 0.098 RC
1 LJ
N
145 303.5 M
152 303.5 L
S
GR
GS
0.851 0.325 0.098 RC
1 LJ
N
148.5 307 M
148.5 300 L
S
GR
GS
0.851 0.325 0.098 RC
1 LJ
N
146 306 M
151 301 L
S
GR
GS
0.851 0.325 0.098 RC
1 LJ
N
146 301 M
151 306 L
S
GR
GS
0.851 0.325 0.098 RC
1 LJ
N
152 303.5 M
159 303.5 L
S
GR
GS
0.851 0.325 0.098 RC
1 LJ
N
155.5 307 M
155.5 300 L
S
GR
GS
0.851 0.325 0.098 RC
1 LJ
N
153 306 M
158 301 L
S
GR
GS
0.851 0.325 0.098 RC
1 LJ
N
153 301 M
158 306 L
S
GR
GS
0.851 0.325 0.098 RC
1 LJ
N
159 300.5 M
166 300.5 L
S
GR
GS
0.851 0.325 0.098 RC
1 LJ
N
162.5 304 M
162.5 297 L
S
GR
GS
0.851 0.325 0.098 RC
1 LJ
N
160 303 M
165 298 L
S
GR
GS
0.851 0.325 0.098 RC
1 LJ
N
160 298 M
165 303 L
S
GR
GS
0.851 0.325 0.098 RC
1 LJ
N
167 305.5 M
174 305.5 L
S
GR
GS
0.851 0.325 0.098 RC
1 LJ
N
170.5 309 M
170.5 302 L
S
GR
GS
0.851 0.325 0.098 RC
1 LJ
N
168 308 M
173 303 L
S
GR
GS
0.851 0.325 0.098 RC
1 LJ
N
168 303 M
173 308 L
S
GR
GS
0.851 0.325 0.098 RC
1 LJ
N
174 303.5 M
181 303.5 L
S
GR
GS
0.851 0.325 0.098 RC
1 LJ
N
177.5 307 M
177.5 300 L
S
GR
GS
0.851 0.325 0.098 RC
1 LJ
N
175 306 M
180 301 L
S
GR
GS
0.851 0.325 0.098 RC
1 LJ
N
175 301 M
180 306 L
S
GR
GS
0.851 0.325 0.098 RC
1 LJ
N
182 307.5 M
189 307.5 L
S
GR
GS
0.851 0.325 0.098 RC
1 LJ
N
185.5 311 M
185.5 304 L
S
GR
GS
0.851 0.325 0.098 RC
1 LJ
N
183 310 M
188 305 L
S
GR
GS
0.851 0.325 0.098 RC
1 LJ
N
183 305 M
188 310 L
S
GR
GS
0.851 0.325 0.098 RC
1 LJ
N
189 304.5 M
196 304.5 L
S
GR
GS
0.851 0.325 0.098 RC
1 LJ
N
192.5 308 M
192.5 301 L
S
GR
GS
0.851 0.325 0.098 RC
1 LJ
N
190 307 M
195 302 L
S
GR
GS
0.851 0.325 0.098 RC
1 LJ
N
190 302 M
195 307 L
S
GR
GS
0.851 0.325 0.098 RC
1 LJ
N
196 308.5 M
203 308.5 L
S
GR
GS
0.851 0.325 0.098 RC
1 LJ
N
199.5 312 M
199.5 305 L
S
GR
GS
0.851 0.325 0.098 RC
1 LJ
N
197 311 M
202 306 L
S
GR
GS
0.851 0.325 0.098 RC
1 LJ
N
197 306 M
202 311 L
S
GR
GS
0.851 0.325 0.098 RC
1 LJ
N
203 308.5 M
210 308.5 L
S
GR
GS
0.851 0.325 0.098 RC
1 LJ
N
206.5 312 M
206.5 305 L
S
GR
GS
0.851 0.325 0.098 RC
1 LJ
N
204 311 M
209 306 L
S
GR
GS
0.851 0.325 0.098 RC
1 LJ
N
204 306 M
209 311 L
S
GR
GS
0.851 0.325 0.098 RC
1 LJ
N
210 307.5 M
217 307.5 L
S
GR
GS
0.851 0.325 0.098 RC
1 LJ
N
213.5 311 M
213.5 304 L
S
GR
GS
0.851 0.325 0.098 RC
1 LJ
N
211 310 M
216 305 L
S
GR
GS
0.851 0.325 0.098 RC
1 LJ
N
211 305 M
216 310 L
S
GR
GS
0.851 0.325 0.098 RC
1 LJ
N
218 310.5 M
225 310.5 L
S
GR
GS
0.851 0.325 0.098 RC
1 LJ
N
221.5 314 M
221.5 307 L
S
GR
GS
0.851 0.325 0.098 RC
1 LJ
N
219 313 M
224 308 L
S
GR
GS
0.851 0.325 0.098 RC
1 LJ
N
219 308 M
224 313 L
S
GR
GS
0.851 0.325 0.098 RC
1 LJ
N
225 309.5 M
232 309.5 L
S
GR
GS
0.851 0.325 0.098 RC
1 LJ
N
228.5 313 M
228.5 306 L
S
GR
GS
0.851 0.325 0.098 RC
1 LJ
N
226 312 M
231 307 L
S
GR
GS
0.851 0.325 0.098 RC
1 LJ
N
226 307 M
231 312 L
S
GR
GS
0.851 0.325 0.098 RC
1 LJ
N
232 309.5 M
239 309.5 L
S
GR
GS
0.851 0.325 0.098 RC
1 LJ
N
235.5 313 M
235.5 306 L
S
GR
GS
0.851 0.325 0.098 RC
1 LJ
N
233 312 M
238 307 L
S
GR
GS
0.851 0.325 0.098 RC
1 LJ
N
233 307 M
238 312 L
S
GR
GS
0.851 0.325 0.098 RC
1 LJ
N
239 308.5 M
246 308.5 L
S
GR
GS
0.851 0.325 0.098 RC
1 LJ
N
242.5 312 M
242.5 305 L
S
GR
GS
0.851 0.325 0.098 RC
1 LJ
N
240 311 M
245 306 L
S
GR
GS
0.851 0.325 0.098 RC
1 LJ
N
240 306 M
245 311 L
S
GR
GS
0.851 0.325 0.098 RC
1 LJ
N
245 309.5 M
252 309.5 L
S
GR
GS
0.851 0.325 0.098 RC
1 LJ
N
248.5 313 M
248.5 306 L
S
GR
GS
0.851 0.325 0.098 RC
1 LJ
N
246 312 M
251 307 L
S
GR
GS
0.851 0.325 0.098 RC
1 LJ
N
246 307 M
251 312 L
S
GR
GS
0.851 0.325 0.098 RC
1 LJ
N
253 311.5 M
260 311.5 L
S
GR
GS
0.851 0.325 0.098 RC
1 LJ
N
256.5 315 M
256.5 308 L
S
GR
GS
0.851 0.325 0.098 RC
1 LJ
N
254 314 M
259 309 L
S
GR
GS
0.851 0.325 0.098 RC
1 LJ
N
254 309 M
259 314 L
S
GR
GS
0.851 0.325 0.098 RC
1 LJ
N
261 310.5 M
268 310.5 L
S
GR
GS
0.851 0.325 0.098 RC
1 LJ
N
264.5 314 M
264.5 307 L
S
GR
GS
0.851 0.325 0.098 RC
1 LJ
N
262 313 M
267 308 L
S
GR
GS
0.851 0.325 0.098 RC
1 LJ
N
262 308 M
267 313 L
S
GR
GS
0.851 0.325 0.098 RC
1 LJ
N
268 310.5 M
275 310.5 L
S
GR
GS
0.851 0.325 0.098 RC
1 LJ
N
271.5 314 M
271.5 307 L
S
GR
GS
0.851 0.325 0.098 RC
1 LJ
N
269 313 M
274 308 L
S
GR
GS
0.851 0.325 0.098 RC
1 LJ
N
269 308 M
274 313 L
S
GR
GS
0.851 0.325 0.098 RC
1 LJ
N
275 310.5 M
282 310.5 L
S
GR
GS
0.851 0.325 0.098 RC
1 LJ
N
278.5 314 M
278.5 307 L
S
GR
GS
0.851 0.325 0.098 RC
1 LJ
N
276 313 M
281 308 L
S
GR
GS
0.851 0.325 0.098 RC
1 LJ
N
276 308 M
281 313 L
S
GR
GS
0.851 0.325 0.098 RC
1 LJ
N
282 310.5 M
289 310.5 L
S
GR
GS
0.851 0.325 0.098 RC
1 LJ
N
285.5 314 M
285.5 307 L
S
GR
GS
0.851 0.325 0.098 RC
1 LJ
N
283 313 M
288 308 L
S
GR
GS
0.851 0.325 0.098 RC
1 LJ
N
283 308 M
288 313 L
S
GR
GS
0.851 0.325 0.098 RC
1 LJ
N
289 310.5 M
296 310.5 L
S
GR
GS
0.851 0.325 0.098 RC
1 LJ
N
292.5 314 M
292.5 307 L
S
GR
GS
0.851 0.325 0.098 RC
1 LJ
N
290 313 M
295 308 L
S
GR
GS
0.851 0.325 0.098 RC
1 LJ
N
290 308 M
295 313 L
S
GR
GS
0.851 0.325 0.098 RC
1 LJ
N
296 310.5 M
303 310.5 L
S
GR
GS
0.851 0.325 0.098 RC
1 LJ
N
299.5 314 M
299.5 307 L
S
GR
GS
0.851 0.325 0.098 RC
1 LJ
N
297 313 M
302 308 L
S
GR
GS
0.851 0.325 0.098 RC
1 LJ
N
297 308 M
302 313 L
S
GR
GS
0.851 0.325 0.098 RC
1 LJ
N
303 310.5 M
310 310.5 L
S
GR
GS
0.851 0.325 0.098 RC
1 LJ
N
306.5 314 M
306.5 307 L
S
GR
GS
0.851 0.325 0.098 RC
1 LJ
N
304 313 M
309 308 L
S
GR
GS
0.851 0.325 0.098 RC
1 LJ
N
304 308 M
309 313 L
S
GR
GS
0.851 0.325 0.098 RC
1 LJ
N
310 310.5 M
317 310.5 L
S
GR
GS
0.851 0.325 0.098 RC
1 LJ
N
313.5 314 M
313.5 307 L
S
GR
GS
0.851 0.325 0.098 RC
1 LJ
N
311 313 M
316 308 L
S
GR
GS
0.851 0.325 0.098 RC
1 LJ
N
311 308 M
316 313 L
S
GR
GS
0.851 0.325 0.098 RC
1 LJ
N
317 310.5 M
324 310.5 L
S
GR
GS
0.851 0.325 0.098 RC
1 LJ
N
320.5 314 M
320.5 307 L
S
GR
GS
0.851 0.325 0.098 RC
1 LJ
N
318 313 M
323 308 L
S
GR
GS
0.851 0.325 0.098 RC
1 LJ
N
318 308 M
323 313 L
S
GR
GS
0.851 0.325 0.098 RC
1 LJ
N
325 311.5 M
332 311.5 L
S
GR
GS
0.851 0.325 0.098 RC
1 LJ
N
328.5 315 M
328.5 308 L
S
GR
GS
0.851 0.325 0.098 RC
1 LJ
N
326 314 M
331 309 L
S
GR
GS
0.851 0.325 0.098 RC
1 LJ
N
326 309 M
331 314 L
S
GR
GS
0.851 0.325 0.098 RC
1 LJ
N
331 311.5 M
338 311.5 L
S
GR
GS
0.851 0.325 0.098 RC
1 LJ
N
334.5 315 M
334.5 308 L
S
GR
GS
0.851 0.325 0.098 RC
1 LJ
N
332 314 M
337 309 L
S
GR
GS
0.851 0.325 0.098 RC
1 LJ
N
332 309 M
337 314 L
S
GR
GS
0.851 0.325 0.098 RC
1 LJ
N
338 311.5 M
345 311.5 L
S
GR
GS
0.851 0.325 0.098 RC
1 LJ
N
341.5 315 M
341.5 308 L
S
GR
GS
0.851 0.325 0.098 RC
1 LJ
N
339 314 M
344 309 L
S
GR
GS
0.851 0.325 0.098 RC
1 LJ
N
339 309 M
344 314 L
S
GR
GS
0.851 0.325 0.098 RC
1 LJ
N
345 311.5 M
352 311.5 L
S
GR
GS
0.851 0.325 0.098 RC
1 LJ
N
348.5 315 M
348.5 308 L
S
GR
GS
0.851 0.325 0.098 RC
1 LJ
N
346 314 M
351 309 L
S
GR
GS
0.851 0.325 0.098 RC
1 LJ
N
346 309 M
351 314 L
S
GR
GS
0.851 0.325 0.098 RC
1 LJ
N
352 311.5 M
359 311.5 L
S
GR
GS
0.851 0.325 0.098 RC
1 LJ
N
355.5 315 M
355.5 308 L
S
GR
GS
0.851 0.325 0.098 RC
1 LJ
N
353 314 M
358 309 L
S
GR
GS
0.851 0.325 0.098 RC
1 LJ
N
353 309 M
358 314 L
S
GR
GS
0.851 0.325 0.098 RC
1 LJ
N
360 311.5 M
367 311.5 L
S
GR
GS
0.851 0.325 0.098 RC
1 LJ
N
363.5 315 M
363.5 308 L
S
GR
GS
0.851 0.325 0.098 RC
1 LJ
N
361 314 M
366 309 L
S
GR
GS
0.851 0.325 0.098 RC
1 LJ
N
361 309 M
366 314 L
S
GR
GS
0.851 0.325 0.098 RC
1 LJ
N
367 310.5 M
374 310.5 L
S
GR
GS
0.851 0.325 0.098 RC
1 LJ
N
370.5 314 M
370.5 307 L
S
GR
GS
0.851 0.325 0.098 RC
1 LJ
N
368 313 M
373 308 L
S
GR
GS
0.851 0.325 0.098 RC
1 LJ
N
368 308 M
373 313 L
S
GR
GS
0.851 0.325 0.098 RC
1 LJ
N
373 310.5 M
380 310.5 L
S
GR
GS
0.851 0.325 0.098 RC
1 LJ
N
376.5 314 M
376.5 307 L
S
GR
GS
0.851 0.325 0.098 RC
1 LJ
N
374 313 M
379 308 L
S
GR
GS
0.851 0.325 0.098 RC
1 LJ
N
374 308 M
379 313 L
S
GR
GS
0.851 0.325 0.098 RC
1 LJ
N
380 310.5 M
387 310.5 L
S
GR
GS
0.851 0.325 0.098 RC
1 LJ
N
383.5 314 M
383.5 307 L
S
GR
GS
0.851 0.325 0.098 RC
1 LJ
N
381 313 M
386 308 L
S
GR
GS
0.851 0.325 0.098 RC
1 LJ
N
381 308 M
386 313 L
S
GR
GS
0.851 0.325 0.098 RC
1 LJ
N
387 310.5 M
394 310.5 L
S
GR
GS
0.851 0.325 0.098 RC
1 LJ
N
390.5 314 M
390.5 307 L
S
GR
GS
0.851 0.325 0.098 RC
1 LJ
N
388 313 M
393 308 L
S
GR
GS
0.851 0.325 0.098 RC
1 LJ
N
388 308 M
393 313 L
S
GR
GS
0.851 0.325 0.098 RC
1 LJ
N
394 311.5 M
401 311.5 L
S
GR
GS
0.851 0.325 0.098 RC
1 LJ
N
397.5 315 M
397.5 308 L
S
GR
GS
0.851 0.325 0.098 RC
1 LJ
N
395 314 M
400 309 L
S
GR
GS
0.851 0.325 0.098 RC
1 LJ
N
395 309 M
400 314 L
S
GR
GS
0.851 0.325 0.098 RC
1 LJ
N
401 311.5 M
408 311.5 L
S
GR
GS
0.851 0.325 0.098 RC
1 LJ
N
404.5 315 M
404.5 308 L
S
GR
GS
0.851 0.325 0.098 RC
1 LJ
N
402 314 M
407 309 L
S
GR
GS
0.851 0.325 0.098 RC
1 LJ
N
402 309 M
407 314 L
S
GR
GS
0.851 0.325 0.098 RC
1 LJ
N
408 311.5 M
415 311.5 L
S
GR
GS
0.851 0.325 0.098 RC
1 LJ
N
411.5 315 M
411.5 308 L
S
GR
GS
0.851 0.325 0.098 RC
1 LJ
N
409 314 M
414 309 L
S
GR
GS
0.851 0.325 0.098 RC
1 LJ
N
409 309 M
414 314 L
S
GR
GS
0.851 0.325 0.098 RC
1 LJ
N
415 311.5 M
422 311.5 L
S
GR
GS
0.851 0.325 0.098 RC
1 LJ
N
418.5 315 M
418.5 308 L
S
GR
GS
0.851 0.325 0.098 RC
1 LJ
N
416 314 M
421 309 L
S
GR
GS
0.851 0.325 0.098 RC
1 LJ
N
416 309 M
421 314 L
S
GR
GS
0.851 0.325 0.098 RC
1 LJ
N
422 311.5 M
429 311.5 L
S
GR
GS
0.851 0.325 0.098 RC
1 LJ
N
425.5 315 M
425.5 308 L
S
GR
GS
0.851 0.325 0.098 RC
1 LJ
N
423 314 M
428 309 L
S
GR
GS
0.851 0.325 0.098 RC
1 LJ
N
423 309 M
428 314 L
S
GR
GS
0.851 0.325 0.098 RC
1 LJ
N
430 311.5 M
437 311.5 L
S
GR
GS
0.851 0.325 0.098 RC
1 LJ
N
433.5 315 M
433.5 308 L
S
GR
GS
0.851 0.325 0.098 RC
1 LJ
N
431 314 M
436 309 L
S
GR
GS
0.851 0.325 0.098 RC
1 LJ
N
431 309 M
436 314 L
S
GR
GS
[1 0 0 1 302 53.75] CT
/Helvetica 18 F
GS
[1 0 0 1 0 0] CT
0 4.5 moveto 
1 -1 scale
(Random shuffling \(Train\)) t 
GR
GR
GS
0 0.447 0.741 RC
1 LJ
N
269 53.75 M
299 53.75 L
S
GR
GS
0 0.447 0.741 RC
1 LJ
N
286.5 53.5 M
285.621 51.379 L
283.5 50.5 L
281.379 51.379 L
280.5 53.5 L
281.379 55.621 L
283.5 56.5 L
285.621 55.621 L
cp
S
GR
GS
[1 0 0 1 302 72.75] CT
/Helvetica 18 F
GS
[1 0 0 1 0 0] CT
0 4.5 moveto 
1 -1 scale
(Random shuffling \(Test\)) t 
GR
GR
GS
0 0.447 0.741 RC
1 LJ
N
269 72.75 M
299 72.75 L
S
GR
GS
0 0.447 0.741 RC
1 LJ
N
280 72.5 M
287 72.5 L
S
GR
GS
0 0.447 0.741 RC
1 LJ
N
283.5 76 M
283.5 69 L
S
GR
GS
0 0.447 0.741 RC
1 LJ
N
281 75 M
286 70 L
S
GR
GS
0 0.447 0.741 RC
1 LJ
N
281 70 M
286 75 L
S
GR
GS
[1 0 0 1 302 91.75] CT
/Helvetica 18 F
GS
[1 0 0 1 0 0] CT
0 4.5 moveto 
1 -1 scale
(Weighted shuffling \(Train\)) t 
GR
GR
GS
0.851 0.325 0.098 RC
1 LJ
N
269 91.75 M
299 91.75 L
S
GR
GS
0.851 0.325 0.098 RC
1 LJ
N
286.5 91.5 M
285.621 89.379 L
283.5 88.5 L
281.379 89.379 L
280.5 91.5 L
281.379 93.621 L
283.5 94.5 L
285.621 93.621 L
cp
S
GR
GS
[1 0 0 1 302 110.75] CT
/Helvetica 18 F
GS
[1 0 0 1 0 0] CT
0 4.5 moveto 
1 -1 scale
(Weighted shuffling \(Test\)) t 
GR
GR
GS
0.851 0.325 0.098 RC
1 LJ
N
269 110.75 M
299 110.75 L
S
GR
GS
0.851 0.325 0.098 RC
1 LJ
N
280 110.5 M
287 110.5 L
S
GR
GS
0.851 0.325 0.098 RC
1 LJ
N
283.5 114 M
283.5 107 L
S
GR
GS
0.851 0.325 0.098 RC
1 LJ
N
281 113 M
286 108 L
S
GR
GS
0.851 0.325 0.098 RC
1 LJ
N
281 108 M
286 113 L
S
GR
%%Trailer
%%Pages: 1
%%EOF
