%!PS-Adobe-3.0 EPSF-3.0
%%Creator: (MATLAB, The Mathworks, Inc. Version 8.6.0.267246 \(R2015b\). Operating System: Mac OS X)
%%Title: /Users/gauthiermuguerza/Desktop/rsgd/report/images/jokesWeightsoneTest.eps
%%CreationDate: 2018-06-03T19:09:31
%%Pages: (atend)
%%BoundingBox:    17     0   533   410
%%LanguageLevel: 3
%%EndComments
%%BeginProlog
%%BeginResource: procset (Apache XML Graphics Std ProcSet) 1.2 0
%%Version: 1.2 0
%%Copyright: (Copyright 2001-2003,2010 The Apache Software Foundation. License terms: http://www.apache.org/licenses/LICENSE-2.0)
/bd{bind def}bind def
/ld{load def}bd
/GR/grestore ld
/M/moveto ld
/LJ/setlinejoin ld
/C/curveto ld
/f/fill ld
/LW/setlinewidth ld
/GC/setgray ld
/t/show ld
/N/newpath ld
/CT/concat ld
/cp/closepath ld
/S/stroke ld
/L/lineto ld
/CC/setcmykcolor ld
/A/ashow ld
/GS/gsave ld
/RC/setrgbcolor ld
/RM/rmoveto ld
/ML/setmiterlimit ld
/re {4 2 roll M
1 index 0 rlineto
0 exch rlineto
neg 0 rlineto
cp } bd
/_ctm matrix def
/_tm matrix def
/BT { _ctm currentmatrix pop matrix _tm copy pop 0 0 moveto } bd
/ET { _ctm setmatrix } bd
/iTm { _ctm setmatrix _tm concat } bd
/Tm { _tm astore pop iTm 0 0 moveto } bd
/ux 0.0 def
/uy 0.0 def
/F {
  /Tp exch def
  /Tf exch def
  Tf findfont Tp scalefont setfont
  /cf Tf def  /cs Tp def
} bd
/ULS {currentpoint /uy exch def /ux exch def} bd
/ULE {
  /Tcx currentpoint pop def
  gsave
  newpath
  cf findfont cs scalefont dup
  /FontMatrix get 0 get /Ts exch def /FontInfo get dup
  /UnderlinePosition get Ts mul /To exch def
  /UnderlineThickness get Ts mul /Tt exch def
  ux uy To add moveto  Tcx uy To add lineto
  Tt setlinewidth stroke
  grestore
} bd
/OLE {
  /Tcx currentpoint pop def
  gsave
  newpath
  cf findfont cs scalefont dup
  /FontMatrix get 0 get /Ts exch def /FontInfo get dup
  /UnderlinePosition get Ts mul /To exch def
  /UnderlineThickness get Ts mul /Tt exch def
  ux uy To add cs add moveto Tcx uy To add cs add lineto
  Tt setlinewidth stroke
  grestore
} bd
/SOE {
  /Tcx currentpoint pop def
  gsave
  newpath
  cf findfont cs scalefont dup
  /FontMatrix get 0 get /Ts exch def /FontInfo get dup
  /UnderlinePosition get Ts mul /To exch def
  /UnderlineThickness get Ts mul /Tt exch def
  ux uy To add cs 10 mul 26 idiv add moveto Tcx uy To add cs 10 mul 26 idiv add lineto
  Tt setlinewidth stroke
  grestore
} bd
/QT {
/Y22 exch store
/X22 exch store
/Y21 exch store
/X21 exch store
currentpoint
/Y21 load 2 mul add 3 div exch
/X21 load 2 mul add 3 div exch
/X21 load 2 mul /X22 load add 3 div
/Y21 load 2 mul /Y22 load add 3 div
/X22 load /Y22 load curveto
} bd
/SSPD {
dup length /d exch dict def
{
/v exch def
/k exch def
currentpagedevice k known {
/cpdv currentpagedevice k get def
v cpdv ne {
/upd false def
/nullv v type /nulltype eq def
/nullcpdv cpdv type /nulltype eq def
nullv nullcpdv or
{
/upd true def
} {
/sametype v type cpdv type eq def
sametype {
v type /arraytype eq {
/vlen v length def
/cpdvlen cpdv length def
vlen cpdvlen eq {
0 1 vlen 1 sub {
/i exch def
/obj v i get def
/cpdobj cpdv i get def
obj cpdobj ne {
/upd true def
exit
} if
} for
} {
/upd true def
} ifelse
} {
v type /dicttype eq {
v {
/dv exch def
/dk exch def
/cpddv cpdv dk get def
dv cpddv ne {
/upd true def
exit
} if
} forall
} {
/upd true def
} ifelse
} ifelse
} if
} ifelse
upd true eq {
d k v put
} if
} if
} if
} forall
d length 0 gt {
d setpagedevice
} if
} bd
%%EndResource
%%BeginResource: procset (Apache XML Graphics EPS ProcSet) 1.0 0
%%Version: 1.0 0
%%Copyright: (Copyright 2002-2003 The Apache Software Foundation. License terms: http://www.apache.org/licenses/LICENSE-2.0)
/BeginEPSF { %def
/b4_Inc_state save def         % Save state for cleanup
/dict_count countdictstack def % Count objects on dict stack
/op_count count 1 sub def      % Count objects on operand stack
userdict begin                 % Push userdict on dict stack
/showpage { } def              % Redefine showpage, { } = null proc
0 setgray 0 setlinecap         % Prepare graphics state
1 setlinewidth 0 setlinejoin
10 setmiterlimit [ ] 0 setdash newpath
/languagelevel where           % If level not equal to 1 then
{pop languagelevel             % set strokeadjust and
1 ne                           % overprint to their defaults.
{false setstrokeadjust false setoverprint
} if
} if
} bd
/EndEPSF { %def
count op_count sub {pop} repeat            % Clean up stacks
countdictstack dict_count sub {end} repeat
b4_Inc_state restore
} bd
%%EndResource
%FOPBeginFontDict
%%IncludeResource: font Courier-Bold
%%IncludeResource: font Helvetica
%%IncludeResource: font Courier-BoldOblique
%%IncludeResource: font Courier-Oblique
%%IncludeResource: font Times-Roman
%%IncludeResource: font Helvetica-BoldOblique
%%IncludeResource: font Helvetica-Bold
%%IncludeResource: font Helvetica-Oblique
%%IncludeResource: font Times-BoldItalic
%%IncludeResource: font Courier
%%IncludeResource: font Times-Italic
%%IncludeResource: font Times-Bold
%%IncludeResource: font Symbol
%%IncludeResource: font ZapfDingbats
%FOPEndFontDict
%%BeginResource: encoding WinAnsiEncoding
/WinAnsiEncoding [
/.notdef /.notdef /.notdef /.notdef /.notdef
/.notdef /.notdef /.notdef /.notdef /.notdef
/.notdef /.notdef /.notdef /.notdef /.notdef
/.notdef /.notdef /.notdef /.notdef /.notdef
/.notdef /.notdef /.notdef /.notdef /.notdef
/.notdef /.notdef /.notdef /.notdef /.notdef
/.notdef /.notdef /space /exclam /quotedbl
/numbersign /dollar /percent /ampersand /quotesingle
/parenleft /parenright /asterisk /plus /comma
/hyphen /period /slash /zero /one
/two /three /four /five /six
/seven /eight /nine /colon /semicolon
/less /equal /greater /question /at
/A /B /C /D /E
/F /G /H /I /J
/K /L /M /N /O
/P /Q /R /S /T
/U /V /W /X /Y
/Z /bracketleft /backslash /bracketright /asciicircum
/underscore /quoteleft /a /b /c
/d /e /f /g /h
/i /j /k /l /m
/n /o /p /q /r
/s /t /u /v /w
/x /y /z /braceleft /bar
/braceright /asciitilde /bullet /Euro /bullet
/quotesinglbase /florin /quotedblbase /ellipsis /dagger
/daggerdbl /circumflex /perthousand /Scaron /guilsinglleft
/OE /bullet /Zcaron /bullet /bullet
/quoteleft /quoteright /quotedblleft /quotedblright /bullet
/endash /emdash /asciitilde /trademark /scaron
/guilsinglright /oe /bullet /zcaron /Ydieresis
/space /exclamdown /cent /sterling /currency
/yen /brokenbar /section /dieresis /copyright
/ordfeminine /guillemotleft /logicalnot /sfthyphen /registered
/macron /degree /plusminus /twosuperior /threesuperior
/acute /mu /paragraph /middot /cedilla
/onesuperior /ordmasculine /guillemotright /onequarter /onehalf
/threequarters /questiondown /Agrave /Aacute /Acircumflex
/Atilde /Adieresis /Aring /AE /Ccedilla
/Egrave /Eacute /Ecircumflex /Edieresis /Igrave
/Iacute /Icircumflex /Idieresis /Eth /Ntilde
/Ograve /Oacute /Ocircumflex /Otilde /Odieresis
/multiply /Oslash /Ugrave /Uacute /Ucircumflex
/Udieresis /Yacute /Thorn /germandbls /agrave
/aacute /acircumflex /atilde /adieresis /aring
/ae /ccedilla /egrave /eacute /ecircumflex
/edieresis /igrave /iacute /icircumflex /idieresis
/eth /ntilde /ograve /oacute /ocircumflex
/otilde /odieresis /divide /oslash /ugrave
/uacute /ucircumflex /udieresis /yacute /thorn
/ydieresis
] def
%%EndResource
%FOPBeginFontReencode
/Courier-Bold findfont
dup length dict begin
  {1 index /FID ne {def} {pop pop} ifelse} forall
  /Encoding WinAnsiEncoding def
  currentdict
end
/Courier-Bold exch definefont pop
/Helvetica findfont
dup length dict begin
  {1 index /FID ne {def} {pop pop} ifelse} forall
  /Encoding WinAnsiEncoding def
  currentdict
end
/Helvetica exch definefont pop
/Courier-BoldOblique findfont
dup length dict begin
  {1 index /FID ne {def} {pop pop} ifelse} forall
  /Encoding WinAnsiEncoding def
  currentdict
end
/Courier-BoldOblique exch definefont pop
/Courier-Oblique findfont
dup length dict begin
  {1 index /FID ne {def} {pop pop} ifelse} forall
  /Encoding WinAnsiEncoding def
  currentdict
end
/Courier-Oblique exch definefont pop
/Times-Roman findfont
dup length dict begin
  {1 index /FID ne {def} {pop pop} ifelse} forall
  /Encoding WinAnsiEncoding def
  currentdict
end
/Times-Roman exch definefont pop
/Helvetica-BoldOblique findfont
dup length dict begin
  {1 index /FID ne {def} {pop pop} ifelse} forall
  /Encoding WinAnsiEncoding def
  currentdict
end
/Helvetica-BoldOblique exch definefont pop
/Helvetica-Bold findfont
dup length dict begin
  {1 index /FID ne {def} {pop pop} ifelse} forall
  /Encoding WinAnsiEncoding def
  currentdict
end
/Helvetica-Bold exch definefont pop
/Helvetica-Oblique findfont
dup length dict begin
  {1 index /FID ne {def} {pop pop} ifelse} forall
  /Encoding WinAnsiEncoding def
  currentdict
end
/Helvetica-Oblique exch definefont pop
/Times-BoldItalic findfont
dup length dict begin
  {1 index /FID ne {def} {pop pop} ifelse} forall
  /Encoding WinAnsiEncoding def
  currentdict
end
/Times-BoldItalic exch definefont pop
/Courier findfont
dup length dict begin
  {1 index /FID ne {def} {pop pop} ifelse} forall
  /Encoding WinAnsiEncoding def
  currentdict
end
/Courier exch definefont pop
/Times-Italic findfont
dup length dict begin
  {1 index /FID ne {def} {pop pop} ifelse} forall
  /Encoding WinAnsiEncoding def
  currentdict
end
/Times-Italic exch definefont pop
/Times-Bold findfont
dup length dict begin
  {1 index /FID ne {def} {pop pop} ifelse} forall
  /Encoding WinAnsiEncoding def
  currentdict
end
/Times-Bold exch definefont pop
%FOPEndFontReencode
%%EndProlog
%%Page: 1 1
%%PageBoundingBox: 0 0 576 432
%%BeginPageSetup
[1 0 0 -1 0 432] CT
%%EndPageSetup
GS
1 GC
N
0 0 576 432 re
f
GR
GS
1 GC
N
0 0 576 432 re
f
GR
GS
1 GC
N
75 384 M
521.5 384 L
521.5 32.5 L
75 32.5 L
cp
f
GR
GS
0.149 GC
2 setlinecap
1 LJ
0.5 LW
N
75 384 M
521.5 384 L
S
GR
GS
0.149 GC
2 setlinecap
1 LJ
0.5 LW
N
75 384 M
75 379.535 L
S
GR
GS
0.149 GC
2 setlinecap
1 LJ
0.5 LW
N
186.625 384 M
186.625 379.535 L
S
GR
GS
0.149 GC
2 setlinecap
1 LJ
0.5 LW
N
298.25 384 M
298.25 379.535 L
S
GR
GS
0.149 GC
2 setlinecap
1 LJ
0.5 LW
N
409.875 384 M
409.875 379.535 L
S
GR
GS
0.149 GC
2 setlinecap
1 LJ
0.5 LW
N
521.5 384 M
521.5 379.535 L
S
GR
GS
[1 0 0 1 75 389.99994] CT
0.149 GC
/Helvetica 20 F
GS
[1 0 0 1 0 0] CT
-6 16 moveto 
1 -1 scale
(0) t 
GR
GR
GS
[1 0 0 1 186.625 389.99994] CT
0.149 GC
/Helvetica 20 F
GS
[1 0 0 1 0 0] CT
-6 16 moveto 
1 -1 scale
(5) t 
GR
GR
GS
[1 0 0 1 298.25 389.99994] CT
0.149 GC
/Helvetica 20 F
GS
[1 0 0 1 0 0] CT
-11.5 16 moveto 
1 -1 scale
(10) t 
GR
GR
GS
[1 0 0 1 409.875 389.99994] CT
0.149 GC
/Helvetica 20 F
GS
[1 0 0 1 0 0] CT
-11.5 16 moveto 
1 -1 scale
(15) t 
GR
GR
GS
[1 0 0 1 521.5 389.99994] CT
0.149 GC
/Helvetica 20 F
GS
[1 0 0 1 0 0] CT
-11.5 16 moveto 
1 -1 scale
(20) t 
GR
GR
GS
[1 0 0 1 298.25021 411.5] CT
0.149 GC
/Helvetica 20 F
GS
[1 0 0 1 0 0] CT
-37 16 moveto 
1 -1 scale
(Time \(s\)) t 
GR
GR
GS
0.149 GC
2 setlinecap
1 LJ
0.5 LW
N
75 384 M
75 32.5 L
S
GR
GS
0.149 GC
2 setlinecap
1 LJ
0.5 LW
N
75 384 M
79.465 384 L
S
GR
GS
0.149 GC
2 setlinecap
1 LJ
0.5 LW
N
75 340.063 M
79.465 340.063 L
S
GR
GS
0.149 GC
2 setlinecap
1 LJ
0.5 LW
N
75 296.125 M
79.465 296.125 L
S
GR
GS
0.149 GC
2 setlinecap
1 LJ
0.5 LW
N
75 252.188 M
79.465 252.188 L
S
GR
GS
0.149 GC
2 setlinecap
1 LJ
0.5 LW
N
75 208.25 M
79.465 208.25 L
S
GR
GS
0.149 GC
2 setlinecap
1 LJ
0.5 LW
N
75 164.312 M
79.465 164.312 L
S
GR
GS
0.149 GC
2 setlinecap
1 LJ
0.5 LW
N
75 120.375 M
79.465 120.375 L
S
GR
GS
0.149 GC
2 setlinecap
1 LJ
0.5 LW
N
75 76.437 M
79.465 76.437 L
S
GR
GS
0.149 GC
2 setlinecap
1 LJ
0.5 LW
N
75 32.5 M
79.465 32.5 L
S
GR
GS
[1 0 0 1 69 383.99997] CT
0.149 GC
/Helvetica 20 F
GS
[1 0 0 1 0 0] CT
-28 5.5 moveto 
1 -1 scale
(4.4) t 
GR
GR
GS
[1 0 0 1 69 340.06253] CT
0.149 GC
/Helvetica 20 F
GS
[1 0 0 1 0 0] CT
-28 5.5 moveto 
1 -1 scale
(4.6) t 
GR
GR
GS
[1 0 0 1 69 296.12497] CT
0.149 GC
/Helvetica 20 F
GS
[1 0 0 1 0 0] CT
-28 5.5 moveto 
1 -1 scale
(4.8) t 
GR
GR
GS
[1 0 0 1 69 252.1875] CT
0.149 GC
/Helvetica 20 F
GS
[1 0 0 1 0 0] CT
-12 5.5 moveto 
1 -1 scale
(5) t 
GR
GR
GS
[1 0 0 1 69 208.25005] CT
0.149 GC
/Helvetica 20 F
GS
[1 0 0 1 0 0] CT
-28 5.5 moveto 
1 -1 scale
(5.2) t 
GR
GR
GS
[1 0 0 1 69 164.31248] CT
0.149 GC
/Helvetica 20 F
GS
[1 0 0 1 0 0] CT
-28 5.5 moveto 
1 -1 scale
(5.4) t 
GR
GR
GS
[1 0 0 1 69 120.37502] CT
0.149 GC
/Helvetica 20 F
GS
[1 0 0 1 0 0] CT
-28 5.5 moveto 
1 -1 scale
(5.6) t 
GR
GR
GS
[1 0 0 1 69 76.43746] CT
0.149 GC
/Helvetica 20 F
GS
[1 0 0 1 0 0] CT
-28 5.5 moveto 
1 -1 scale
(5.8) t 
GR
GR
GS
[1 0 0 1 69 32.5] CT
0.149 GC
/Helvetica 20 F
GS
[1 0 0 1 0 0] CT
-12 5.5 moveto 
1 -1 scale
(6) t 
GR
GR
GS
[0 -1 1 0 38 208.24983] CT
0.149 GC
/Helvetica 20 F
GS
[1 0 0 1 0 0] CT
-51.5 -5 moveto 
1 -1 scale
(Test RMSE) t 
GR
GR
GS
0 0.447 0.741 RC
1 LJ
N
75 39.64 M
82.936 89.782 L
90.411 158.563 L
97.671 247.479 L
105.295 303.445 L
112.271 335.159 L
119.449 351.031 L
126.629 359.652 L
134.195 365.597 L
141.395 371.145 L
148.866 377.25 L
156.409 375.324 L
163.914 375.686 L
171.889 377.97 L
180.265 373.035 L
187.523 376.857 L
194.882 374.569 L
202.017 371.334 L
208.973 367.268 L
215.847 367.647 L
222.707 372.145 L
229.713 371.045 L
236.674 365.408 L
243.641 366.991 L
250.525 367.087 L
257.399 367.727 L
264.257 368.275 L
271.198 367.819 L
278.167 367.306 L
285.276 366.149 L
292.598 365.728 L
299.857 365.609 L
306.96 364.546 L
314.096 363.445 L
321.198 363.855 L
328.137 363.503 L
335.21 363.366 L
342.884 364.402 L
349.829 363.293 L
357.55 363.274 L
364.58 362.148 L
372.261 362.215 L
379.115 361.763 L
385.942 361.771 L
392.748 361.341 L
399.674 361.28 L
406.486 361.099 L
413.473 360.741 L
420.504 360.451 L
427.398 360.17 L
S
GR
GS
0 0.447 0.741 RC
1 LJ
N
420.504 360.451 M
427.398 360.17 L
434.2 360.078 L
S
GR
GS
0 0.447 0.741 RC
1 LJ
N
78.5 39.5 M
77.621 37.379 L
75.5 36.5 L
73.379 37.379 L
72.5 39.5 L
73.379 41.621 L
75.5 42.5 L
77.621 41.621 L
cp
S
GR
GS
0 0.447 0.741 RC
1 LJ
N
85.5 89.5 M
84.621 87.379 L
82.5 86.5 L
80.379 87.379 L
79.5 89.5 L
80.379 91.621 L
82.5 92.5 L
84.621 91.621 L
cp
S
GR
GS
0 0.447 0.741 RC
1 LJ
N
93.5 158.5 M
92.621 156.379 L
90.5 155.5 L
88.379 156.379 L
87.5 158.5 L
88.379 160.621 L
90.5 161.5 L
92.621 160.621 L
cp
S
GR
GS
0 0.447 0.741 RC
1 LJ
N
100.5 247.5 M
99.621 245.379 L
97.5 244.5 L
95.379 245.379 L
94.5 247.5 L
95.379 249.621 L
97.5 250.5 L
99.621 249.621 L
cp
S
GR
GS
0 0.447 0.741 RC
1 LJ
N
108.5 303.5 M
107.621 301.379 L
105.5 300.5 L
103.379 301.379 L
102.5 303.5 L
103.379 305.621 L
105.5 306.5 L
107.621 305.621 L
cp
S
GR
GS
0 0.447 0.741 RC
1 LJ
N
115.5 335.5 M
114.621 333.379 L
112.5 332.5 L
110.379 333.379 L
109.5 335.5 L
110.379 337.621 L
112.5 338.5 L
114.621 337.621 L
cp
S
GR
GS
0 0.447 0.741 RC
1 LJ
N
122.5 351.5 M
121.621 349.379 L
119.5 348.5 L
117.379 349.379 L
116.5 351.5 L
117.379 353.621 L
119.5 354.5 L
121.621 353.621 L
cp
S
GR
GS
0 0.447 0.741 RC
1 LJ
N
129.5 359.5 M
128.621 357.379 L
126.5 356.5 L
124.379 357.379 L
123.5 359.5 L
124.379 361.621 L
126.5 362.5 L
128.621 361.621 L
cp
S
GR
GS
0 0.447 0.741 RC
1 LJ
N
137.5 365.5 M
136.621 363.379 L
134.5 362.5 L
132.379 363.379 L
131.5 365.5 L
132.379 367.621 L
134.5 368.5 L
136.621 367.621 L
cp
S
GR
GS
0 0.447 0.741 RC
1 LJ
N
144.5 371.5 M
143.621 369.379 L
141.5 368.5 L
139.379 369.379 L
138.5 371.5 L
139.379 373.621 L
141.5 374.5 L
143.621 373.621 L
cp
S
GR
GS
0 0.447 0.741 RC
1 LJ
N
151.5 377.5 M
150.621 375.379 L
148.5 374.5 L
146.379 375.379 L
145.5 377.5 L
146.379 379.621 L
148.5 380.5 L
150.621 379.621 L
cp
S
GR
GS
0 0.447 0.741 RC
1 LJ
N
159.5 375.5 M
158.621 373.379 L
156.5 372.5 L
154.379 373.379 L
153.5 375.5 L
154.379 377.621 L
156.5 378.5 L
158.621 377.621 L
cp
S
GR
GS
0 0.447 0.741 RC
1 LJ
N
166.5 375.5 M
165.621 373.379 L
163.5 372.5 L
161.379 373.379 L
160.5 375.5 L
161.379 377.621 L
163.5 378.5 L
165.621 377.621 L
cp
S
GR
GS
0 0.447 0.741 RC
1 LJ
N
174.5 377.5 M
173.621 375.379 L
171.5 374.5 L
169.379 375.379 L
168.5 377.5 L
169.379 379.621 L
171.5 380.5 L
173.621 379.621 L
cp
S
GR
GS
0 0.447 0.741 RC
1 LJ
N
183.5 373.5 M
182.621 371.379 L
180.5 370.5 L
178.379 371.379 L
177.5 373.5 L
178.379 375.621 L
180.5 376.5 L
182.621 375.621 L
cp
S
GR
GS
0 0.447 0.741 RC
1 LJ
N
190.5 376.5 M
189.621 374.379 L
187.5 373.5 L
185.379 374.379 L
184.5 376.5 L
185.379 378.621 L
187.5 379.5 L
189.621 378.621 L
cp
S
GR
GS
0 0.447 0.741 RC
1 LJ
N
197.5 374.5 M
196.621 372.379 L
194.5 371.5 L
192.379 372.379 L
191.5 374.5 L
192.379 376.621 L
194.5 377.5 L
196.621 376.621 L
cp
S
GR
GS
0 0.447 0.741 RC
1 LJ
N
205.5 371.5 M
204.621 369.379 L
202.5 368.5 L
200.379 369.379 L
199.5 371.5 L
200.379 373.621 L
202.5 374.5 L
204.621 373.621 L
cp
S
GR
GS
0 0.447 0.741 RC
1 LJ
N
211.5 367.5 M
210.621 365.379 L
208.5 364.5 L
206.379 365.379 L
205.5 367.5 L
206.379 369.621 L
208.5 370.5 L
210.621 369.621 L
cp
S
GR
GS
0 0.447 0.741 RC
1 LJ
N
218.5 367.5 M
217.621 365.379 L
215.5 364.5 L
213.379 365.379 L
212.5 367.5 L
213.379 369.621 L
215.5 370.5 L
217.621 369.621 L
cp
S
GR
GS
0 0.447 0.741 RC
1 LJ
N
225.5 372.5 M
224.621 370.379 L
222.5 369.5 L
220.379 370.379 L
219.5 372.5 L
220.379 374.621 L
222.5 375.5 L
224.621 374.621 L
cp
S
GR
GS
0 0.447 0.741 RC
1 LJ
N
232.5 371.5 M
231.621 369.379 L
229.5 368.5 L
227.379 369.379 L
226.5 371.5 L
227.379 373.621 L
229.5 374.5 L
231.621 373.621 L
cp
S
GR
GS
0 0.447 0.741 RC
1 LJ
N
239.5 365.5 M
238.621 363.379 L
236.5 362.5 L
234.379 363.379 L
233.5 365.5 L
234.379 367.621 L
236.5 368.5 L
238.621 367.621 L
cp
S
GR
GS
0 0.447 0.741 RC
1 LJ
N
246.5 366.5 M
245.621 364.379 L
243.5 363.5 L
241.379 364.379 L
240.5 366.5 L
241.379 368.621 L
243.5 369.5 L
245.621 368.621 L
cp
S
GR
GS
0 0.447 0.741 RC
1 LJ
N
253.5 367.5 M
252.621 365.379 L
250.5 364.5 L
248.379 365.379 L
247.5 367.5 L
248.379 369.621 L
250.5 370.5 L
252.621 369.621 L
cp
S
GR
GS
0 0.447 0.741 RC
1 LJ
N
260.5 367.5 M
259.621 365.379 L
257.5 364.5 L
255.379 365.379 L
254.5 367.5 L
255.379 369.621 L
257.5 370.5 L
259.621 369.621 L
cp
S
GR
GS
0 0.447 0.741 RC
1 LJ
N
267.5 368.5 M
266.621 366.379 L
264.5 365.5 L
262.379 366.379 L
261.5 368.5 L
262.379 370.621 L
264.5 371.5 L
266.621 370.621 L
cp
S
GR
GS
0 0.447 0.741 RC
1 LJ
N
274.5 367.5 M
273.621 365.379 L
271.5 364.5 L
269.379 365.379 L
268.5 367.5 L
269.379 369.621 L
271.5 370.5 L
273.621 369.621 L
cp
S
GR
GS
0 0.447 0.741 RC
1 LJ
N
281.5 367.5 M
280.621 365.379 L
278.5 364.5 L
276.379 365.379 L
275.5 367.5 L
276.379 369.621 L
278.5 370.5 L
280.621 369.621 L
cp
S
GR
GS
0 0.447 0.741 RC
1 LJ
N
288.5 366.5 M
287.621 364.379 L
285.5 363.5 L
283.379 364.379 L
282.5 366.5 L
283.379 368.621 L
285.5 369.5 L
287.621 368.621 L
cp
S
GR
GS
0 0.447 0.741 RC
1 LJ
N
295.5 365.5 M
294.621 363.379 L
292.5 362.5 L
290.379 363.379 L
289.5 365.5 L
290.379 367.621 L
292.5 368.5 L
294.621 367.621 L
cp
S
GR
GS
0 0.447 0.741 RC
1 LJ
N
302.5 365.5 M
301.621 363.379 L
299.5 362.5 L
297.379 363.379 L
296.5 365.5 L
297.379 367.621 L
299.5 368.5 L
301.621 367.621 L
cp
S
GR
GS
0 0.447 0.741 RC
1 LJ
N
309.5 364.5 M
308.621 362.379 L
306.5 361.5 L
304.379 362.379 L
303.5 364.5 L
304.379 366.621 L
306.5 367.5 L
308.621 366.621 L
cp
S
GR
GS
0 0.447 0.741 RC
1 LJ
N
317.5 363.5 M
316.621 361.379 L
314.5 360.5 L
312.379 361.379 L
311.5 363.5 L
312.379 365.621 L
314.5 366.5 L
316.621 365.621 L
cp
S
GR
GS
0 0.447 0.741 RC
1 LJ
N
324.5 363.5 M
323.621 361.379 L
321.5 360.5 L
319.379 361.379 L
318.5 363.5 L
319.379 365.621 L
321.5 366.5 L
323.621 365.621 L
cp
S
GR
GS
0 0.447 0.741 RC
1 LJ
N
331.5 363.5 M
330.621 361.379 L
328.5 360.5 L
326.379 361.379 L
325.5 363.5 L
326.379 365.621 L
328.5 366.5 L
330.621 365.621 L
cp
S
GR
GS
0 0.447 0.741 RC
1 LJ
N
338.5 363.5 M
337.621 361.379 L
335.5 360.5 L
333.379 361.379 L
332.5 363.5 L
333.379 365.621 L
335.5 366.5 L
337.621 365.621 L
cp
S
GR
GS
0 0.447 0.741 RC
1 LJ
N
345.5 364.5 M
344.621 362.379 L
342.5 361.5 L
340.379 362.379 L
339.5 364.5 L
340.379 366.621 L
342.5 367.5 L
344.621 366.621 L
cp
S
GR
GS
0 0.447 0.741 RC
1 LJ
N
352.5 363.5 M
351.621 361.379 L
349.5 360.5 L
347.379 361.379 L
346.5 363.5 L
347.379 365.621 L
349.5 366.5 L
351.621 365.621 L
cp
S
GR
GS
0 0.447 0.741 RC
1 LJ
N
360.5 363.5 M
359.621 361.379 L
357.5 360.5 L
355.379 361.379 L
354.5 363.5 L
355.379 365.621 L
357.5 366.5 L
359.621 365.621 L
cp
S
GR
GS
0 0.447 0.741 RC
1 LJ
N
367.5 362.5 M
366.621 360.379 L
364.5 359.5 L
362.379 360.379 L
361.5 362.5 L
362.379 364.621 L
364.5 365.5 L
366.621 364.621 L
cp
S
GR
GS
0 0.447 0.741 RC
1 LJ
N
375.5 362.5 M
374.621 360.379 L
372.5 359.5 L
370.379 360.379 L
369.5 362.5 L
370.379 364.621 L
372.5 365.5 L
374.621 364.621 L
cp
S
GR
GS
0 0.447 0.741 RC
1 LJ
N
382.5 361.5 M
381.621 359.379 L
379.5 358.5 L
377.379 359.379 L
376.5 361.5 L
377.379 363.621 L
379.5 364.5 L
381.621 363.621 L
cp
S
GR
GS
0 0.447 0.741 RC
1 LJ
N
388.5 361.5 M
387.621 359.379 L
385.5 358.5 L
383.379 359.379 L
382.5 361.5 L
383.379 363.621 L
385.5 364.5 L
387.621 363.621 L
cp
S
GR
GS
0 0.447 0.741 RC
1 LJ
N
395.5 361.5 M
394.621 359.379 L
392.5 358.5 L
390.379 359.379 L
389.5 361.5 L
390.379 363.621 L
392.5 364.5 L
394.621 363.621 L
cp
S
GR
GS
0 0.447 0.741 RC
1 LJ
N
402.5 361.5 M
401.621 359.379 L
399.5 358.5 L
397.379 359.379 L
396.5 361.5 L
397.379 363.621 L
399.5 364.5 L
401.621 363.621 L
cp
S
GR
GS
0 0.447 0.741 RC
1 LJ
N
409.5 361.5 M
408.621 359.379 L
406.5 358.5 L
404.379 359.379 L
403.5 361.5 L
404.379 363.621 L
406.5 364.5 L
408.621 363.621 L
cp
S
GR
GS
0 0.447 0.741 RC
1 LJ
N
416.5 360.5 M
415.621 358.379 L
413.5 357.5 L
411.379 358.379 L
410.5 360.5 L
411.379 362.621 L
413.5 363.5 L
415.621 362.621 L
cp
S
GR
GS
0 0.447 0.741 RC
1 LJ
N
423.5 360.5 M
422.621 358.379 L
420.5 357.5 L
418.379 358.379 L
417.5 360.5 L
418.379 362.621 L
420.5 363.5 L
422.621 362.621 L
cp
S
GR
GS
0 0.447 0.741 RC
1 LJ
N
430.5 360.5 M
429.621 358.379 L
427.5 357.5 L
425.379 358.379 L
424.5 360.5 L
425.379 362.621 L
427.5 363.5 L
429.621 362.621 L
cp
S
GR
GS
0 0.447 0.741 RC
1 LJ
N
437.5 360.5 M
436.621 358.379 L
434.5 357.5 L
432.379 358.379 L
431.5 360.5 L
432.379 362.621 L
434.5 363.5 L
436.621 362.621 L
cp
S
GR
GS
0.851 0.325 0.098 RC
1 LJ
N
75 39.64 M
83.098 93.087 L
90.306 169.352 L
97.484 251.66 L
105.09 281.302 L
113.204 311.644 L
120.426 324.712 L
127.705 327.953 L
134.946 339.151 L
142.18 339.414 L
150.22 338.879 L
157.706 341.628 L
166.421 343.12 L
173.862 352.577 L
181.844 353.323 L
190.098 355.994 L
197.89 364.945 L
205.634 358.44 L
213.156 362.747 L
220.437 363.984 L
229.13 368.378 L
236.87 377.746 L
245.022 381.13 L
252.724 375.201 L
260.059 364.74 L
268.253 359.178 L
275.559 360.779 L
283.008 360.688 L
290.733 360.769 L
298.627 361.874 L
307.483 362.549 L
315.139 365.823 L
323.47 364.977 L
332.186 366.55 L
340.123 368.141 L
348.58 369.399 L
356.003 368.89 L
363.531 370.108 L
370.88 370.198 L
378.208 370.63 L
386.496 367.869 L
393.989 367.845 L
402.882 367.31 L
411.241 367.122 L
419.089 366.477 L
427.964 366.646 L
436.099 367.36 L
444.524 366.403 L
452.736 367.41 L
460.794 368.185 L
S
GR
GS
0.851 0.325 0.098 RC
1 LJ
N
452.736 367.41 M
460.794 368.185 L
469.867 368.576 L
S
GR
GS
0.851 0.325 0.098 RC
1 LJ
N
78.5 39.5 M
77.621 37.379 L
75.5 36.5 L
73.379 37.379 L
72.5 39.5 L
73.379 41.621 L
75.5 42.5 L
77.621 41.621 L
cp
S
GR
GS
0.851 0.325 0.098 RC
1 LJ
N
86.5 93.5 M
85.621 91.379 L
83.5 90.5 L
81.379 91.379 L
80.5 93.5 L
81.379 95.621 L
83.5 96.5 L
85.621 95.621 L
cp
S
GR
GS
0.851 0.325 0.098 RC
1 LJ
N
93.5 169.5 M
92.621 167.379 L
90.5 166.5 L
88.379 167.379 L
87.5 169.5 L
88.379 171.621 L
90.5 172.5 L
92.621 171.621 L
cp
S
GR
GS
0.851 0.325 0.098 RC
1 LJ
N
100.5 251.5 M
99.621 249.379 L
97.5 248.5 L
95.379 249.379 L
94.5 251.5 L
95.379 253.621 L
97.5 254.5 L
99.621 253.621 L
cp
S
GR
GS
0.851 0.325 0.098 RC
1 LJ
N
108.5 281.5 M
107.621 279.379 L
105.5 278.5 L
103.379 279.379 L
102.5 281.5 L
103.379 283.621 L
105.5 284.5 L
107.621 283.621 L
cp
S
GR
GS
0.851 0.325 0.098 RC
1 LJ
N
116.5 311.5 M
115.621 309.379 L
113.5 308.5 L
111.379 309.379 L
110.5 311.5 L
111.379 313.621 L
113.5 314.5 L
115.621 313.621 L
cp
S
GR
GS
0.851 0.325 0.098 RC
1 LJ
N
123.5 324.5 M
122.621 322.379 L
120.5 321.5 L
118.379 322.379 L
117.5 324.5 L
118.379 326.621 L
120.5 327.5 L
122.621 326.621 L
cp
S
GR
GS
0.851 0.325 0.098 RC
1 LJ
N
130.5 327.5 M
129.621 325.379 L
127.5 324.5 L
125.379 325.379 L
124.5 327.5 L
125.379 329.621 L
127.5 330.5 L
129.621 329.621 L
cp
S
GR
GS
0.851 0.325 0.098 RC
1 LJ
N
137.5 339.5 M
136.621 337.379 L
134.5 336.5 L
132.379 337.379 L
131.5 339.5 L
132.379 341.621 L
134.5 342.5 L
136.621 341.621 L
cp
S
GR
GS
0.851 0.325 0.098 RC
1 LJ
N
145.5 339.5 M
144.621 337.379 L
142.5 336.5 L
140.379 337.379 L
139.5 339.5 L
140.379 341.621 L
142.5 342.5 L
144.621 341.621 L
cp
S
GR
GS
0.851 0.325 0.098 RC
1 LJ
N
153.5 338.5 M
152.621 336.379 L
150.5 335.5 L
148.379 336.379 L
147.5 338.5 L
148.379 340.621 L
150.5 341.5 L
152.621 340.621 L
cp
S
GR
GS
0.851 0.325 0.098 RC
1 LJ
N
160.5 341.5 M
159.621 339.379 L
157.5 338.5 L
155.379 339.379 L
154.5 341.5 L
155.379 343.621 L
157.5 344.5 L
159.621 343.621 L
cp
S
GR
GS
0.851 0.325 0.098 RC
1 LJ
N
169.5 343.5 M
168.621 341.379 L
166.5 340.5 L
164.379 341.379 L
163.5 343.5 L
164.379 345.621 L
166.5 346.5 L
168.621 345.621 L
cp
S
GR
GS
0.851 0.325 0.098 RC
1 LJ
N
176.5 352.5 M
175.621 350.379 L
173.5 349.5 L
171.379 350.379 L
170.5 352.5 L
171.379 354.621 L
173.5 355.5 L
175.621 354.621 L
cp
S
GR
GS
0.851 0.325 0.098 RC
1 LJ
N
184.5 353.5 M
183.621 351.379 L
181.5 350.5 L
179.379 351.379 L
178.5 353.5 L
179.379 355.621 L
181.5 356.5 L
183.621 355.621 L
cp
S
GR
GS
0.851 0.325 0.098 RC
1 LJ
N
193.5 355.5 M
192.621 353.379 L
190.5 352.5 L
188.379 353.379 L
187.5 355.5 L
188.379 357.621 L
190.5 358.5 L
192.621 357.621 L
cp
S
GR
GS
0.851 0.325 0.098 RC
1 LJ
N
200.5 364.5 M
199.621 362.379 L
197.5 361.5 L
195.379 362.379 L
194.5 364.5 L
195.379 366.621 L
197.5 367.5 L
199.621 366.621 L
cp
S
GR
GS
0.851 0.325 0.098 RC
1 LJ
N
208.5 358.5 M
207.621 356.379 L
205.5 355.5 L
203.379 356.379 L
202.5 358.5 L
203.379 360.621 L
205.5 361.5 L
207.621 360.621 L
cp
S
GR
GS
0.851 0.325 0.098 RC
1 LJ
N
216.5 362.5 M
215.621 360.379 L
213.5 359.5 L
211.379 360.379 L
210.5 362.5 L
211.379 364.621 L
213.5 365.5 L
215.621 364.621 L
cp
S
GR
GS
0.851 0.325 0.098 RC
1 LJ
N
223.5 363.5 M
222.621 361.379 L
220.5 360.5 L
218.379 361.379 L
217.5 363.5 L
218.379 365.621 L
220.5 366.5 L
222.621 365.621 L
cp
S
GR
GS
0.851 0.325 0.098 RC
1 LJ
N
232.5 368.5 M
231.621 366.379 L
229.5 365.5 L
227.379 366.379 L
226.5 368.5 L
227.379 370.621 L
229.5 371.5 L
231.621 370.621 L
cp
S
GR
GS
0.851 0.325 0.098 RC
1 LJ
N
239.5 377.5 M
238.621 375.379 L
236.5 374.5 L
234.379 375.379 L
233.5 377.5 L
234.379 379.621 L
236.5 380.5 L
238.621 379.621 L
cp
S
GR
GS
0.851 0.325 0.098 RC
1 LJ
N
248.5 381.5 M
247.621 379.379 L
245.5 378.5 L
243.379 379.379 L
242.5 381.5 L
243.379 383.621 L
245.5 384.5 L
247.621 383.621 L
cp
S
GR
GS
0.851 0.325 0.098 RC
1 LJ
N
255.5 375.5 M
254.621 373.379 L
252.5 372.5 L
250.379 373.379 L
249.5 375.5 L
250.379 377.621 L
252.5 378.5 L
254.621 377.621 L
cp
S
GR
GS
0.851 0.325 0.098 RC
1 LJ
N
263.5 364.5 M
262.621 362.379 L
260.5 361.5 L
258.379 362.379 L
257.5 364.5 L
258.379 366.621 L
260.5 367.5 L
262.621 366.621 L
cp
S
GR
GS
0.851 0.325 0.098 RC
1 LJ
N
271.5 359.5 M
270.621 357.379 L
268.5 356.5 L
266.379 357.379 L
265.5 359.5 L
266.379 361.621 L
268.5 362.5 L
270.621 361.621 L
cp
S
GR
GS
0.851 0.325 0.098 RC
1 LJ
N
278.5 360.5 M
277.621 358.379 L
275.5 357.5 L
273.379 358.379 L
272.5 360.5 L
273.379 362.621 L
275.5 363.5 L
277.621 362.621 L
cp
S
GR
GS
0.851 0.325 0.098 RC
1 LJ
N
286.5 360.5 M
285.621 358.379 L
283.5 357.5 L
281.379 358.379 L
280.5 360.5 L
281.379 362.621 L
283.5 363.5 L
285.621 362.621 L
cp
S
GR
GS
0.851 0.325 0.098 RC
1 LJ
N
293.5 360.5 M
292.621 358.379 L
290.5 357.5 L
288.379 358.379 L
287.5 360.5 L
288.379 362.621 L
290.5 363.5 L
292.621 362.621 L
cp
S
GR
GS
0.851 0.325 0.098 RC
1 LJ
N
301.5 361.5 M
300.621 359.379 L
298.5 358.5 L
296.379 359.379 L
295.5 361.5 L
296.379 363.621 L
298.5 364.5 L
300.621 363.621 L
cp
S
GR
GS
0.851 0.325 0.098 RC
1 LJ
N
310.5 362.5 M
309.621 360.379 L
307.5 359.5 L
305.379 360.379 L
304.5 362.5 L
305.379 364.621 L
307.5 365.5 L
309.621 364.621 L
cp
S
GR
GS
0.851 0.325 0.098 RC
1 LJ
N
318.5 365.5 M
317.621 363.379 L
315.5 362.5 L
313.379 363.379 L
312.5 365.5 L
313.379 367.621 L
315.5 368.5 L
317.621 367.621 L
cp
S
GR
GS
0.851 0.325 0.098 RC
1 LJ
N
326.5 364.5 M
325.621 362.379 L
323.5 361.5 L
321.379 362.379 L
320.5 364.5 L
321.379 366.621 L
323.5 367.5 L
325.621 366.621 L
cp
S
GR
GS
0.851 0.325 0.098 RC
1 LJ
N
335.5 366.5 M
334.621 364.379 L
332.5 363.5 L
330.379 364.379 L
329.5 366.5 L
330.379 368.621 L
332.5 369.5 L
334.621 368.621 L
cp
S
GR
GS
0.851 0.325 0.098 RC
1 LJ
N
343.5 368.5 M
342.621 366.379 L
340.5 365.5 L
338.379 366.379 L
337.5 368.5 L
338.379 370.621 L
340.5 371.5 L
342.621 370.621 L
cp
S
GR
GS
0.851 0.325 0.098 RC
1 LJ
N
351.5 369.5 M
350.621 367.379 L
348.5 366.5 L
346.379 367.379 L
345.5 369.5 L
346.379 371.621 L
348.5 372.5 L
350.621 371.621 L
cp
S
GR
GS
0.851 0.325 0.098 RC
1 LJ
N
359.5 368.5 M
358.621 366.379 L
356.5 365.5 L
354.379 366.379 L
353.5 368.5 L
354.379 370.621 L
356.5 371.5 L
358.621 370.621 L
cp
S
GR
GS
0.851 0.325 0.098 RC
1 LJ
N
366.5 370.5 M
365.621 368.379 L
363.5 367.5 L
361.379 368.379 L
360.5 370.5 L
361.379 372.621 L
363.5 373.5 L
365.621 372.621 L
cp
S
GR
GS
0.851 0.325 0.098 RC
1 LJ
N
373.5 370.5 M
372.621 368.379 L
370.5 367.5 L
368.379 368.379 L
367.5 370.5 L
368.379 372.621 L
370.5 373.5 L
372.621 372.621 L
cp
S
GR
GS
0.851 0.325 0.098 RC
1 LJ
N
381.5 370.5 M
380.621 368.379 L
378.5 367.5 L
376.379 368.379 L
375.5 370.5 L
376.379 372.621 L
378.5 373.5 L
380.621 372.621 L
cp
S
GR
GS
0.851 0.325 0.098 RC
1 LJ
N
389.5 367.5 M
388.621 365.379 L
386.5 364.5 L
384.379 365.379 L
383.5 367.5 L
384.379 369.621 L
386.5 370.5 L
388.621 369.621 L
cp
S
GR
GS
0.851 0.325 0.098 RC
1 LJ
N
396.5 367.5 M
395.621 365.379 L
393.5 364.5 L
391.379 365.379 L
390.5 367.5 L
391.379 369.621 L
393.5 370.5 L
395.621 369.621 L
cp
S
GR
GS
0.851 0.325 0.098 RC
1 LJ
N
405.5 367.5 M
404.621 365.379 L
402.5 364.5 L
400.379 365.379 L
399.5 367.5 L
400.379 369.621 L
402.5 370.5 L
404.621 369.621 L
cp
S
GR
GS
0.851 0.325 0.098 RC
1 LJ
N
414.5 367.5 M
413.621 365.379 L
411.5 364.5 L
409.379 365.379 L
408.5 367.5 L
409.379 369.621 L
411.5 370.5 L
413.621 369.621 L
cp
S
GR
GS
0.851 0.325 0.098 RC
1 LJ
N
422.5 366.5 M
421.621 364.379 L
419.5 363.5 L
417.379 364.379 L
416.5 366.5 L
417.379 368.621 L
419.5 369.5 L
421.621 368.621 L
cp
S
GR
GS
0.851 0.325 0.098 RC
1 LJ
N
430.5 366.5 M
429.621 364.379 L
427.5 363.5 L
425.379 364.379 L
424.5 366.5 L
425.379 368.621 L
427.5 369.5 L
429.621 368.621 L
cp
S
GR
GS
0.851 0.325 0.098 RC
1 LJ
N
439.5 367.5 M
438.621 365.379 L
436.5 364.5 L
434.379 365.379 L
433.5 367.5 L
434.379 369.621 L
436.5 370.5 L
438.621 369.621 L
cp
S
GR
GS
0.851 0.325 0.098 RC
1 LJ
N
447.5 366.5 M
446.621 364.379 L
444.5 363.5 L
442.379 364.379 L
441.5 366.5 L
442.379 368.621 L
444.5 369.5 L
446.621 368.621 L
cp
S
GR
GS
0.851 0.325 0.098 RC
1 LJ
N
455.5 367.5 M
454.621 365.379 L
452.5 364.5 L
450.379 365.379 L
449.5 367.5 L
450.379 369.621 L
452.5 370.5 L
454.621 369.621 L
cp
S
GR
GS
0.851 0.325 0.098 RC
1 LJ
N
463.5 368.5 M
462.621 366.379 L
460.5 365.5 L
458.379 366.379 L
457.5 368.5 L
458.379 370.621 L
460.5 371.5 L
462.621 370.621 L
cp
S
GR
GS
0.851 0.325 0.098 RC
1 LJ
N
472.5 368.5 M
471.621 366.379 L
469.5 365.5 L
467.379 366.379 L
466.5 368.5 L
467.379 370.621 L
469.5 371.5 L
471.621 370.621 L
cp
S
GR
GS
[1 0 0 1 360 53.75] CT
/Helvetica 18 F
GS
[1 0 0 1 0 0] CT
0 4.5 moveto 
1 -1 scale
(Random shuffling) t 
GR
GR
GS
0 0.447 0.741 RC
1 LJ
N
327 53.75 M
357 53.75 L
S
GR
GS
0 0.447 0.741 RC
1 LJ
N
344.5 53.5 M
343.621 51.379 L
341.5 50.5 L
339.379 51.379 L
338.5 53.5 L
339.379 55.621 L
341.5 56.5 L
343.621 55.621 L
cp
S
GR
GS
[1 0 0 1 360 72.75] CT
/Helvetica 18 F
GS
[1 0 0 1 0 0] CT
0 4.5 moveto 
1 -1 scale
(Weighted shuffling) t 
GR
GR
GS
0.851 0.325 0.098 RC
1 LJ
N
327 72.75 M
357 72.75 L
S
GR
GS
0.851 0.325 0.098 RC
1 LJ
N
344.5 72.5 M
343.621 70.379 L
341.5 69.5 L
339.379 70.379 L
338.5 72.5 L
339.379 74.621 L
341.5 75.5 L
343.621 74.621 L
cp
S
GR
%%Trailer
%%Pages: 1
%%EOF
