%!PS-Adobe-3.0 EPSF-3.0
%%Creator: (MATLAB, The Mathworks, Inc. Version 8.6.0.267246 \(R2015b\). Operating System: Mac OS X)
%%Title: /Users/gauthiermuguerza/Desktop/rsgd/report/images/jokesFour.eps
%%CreationDate: 2018-05-31T09:57:36
%%Pages: (atend)
%%BoundingBox:    37    21   527   413
%%LanguageLevel: 3
%%EndComments
%%BeginProlog
%%BeginResource: procset (Apache XML Graphics Std ProcSet) 1.2 0
%%Version: 1.2 0
%%Copyright: (Copyright 2001-2003,2010 The Apache Software Foundation. License terms: http://www.apache.org/licenses/LICENSE-2.0)
/bd{bind def}bind def
/ld{load def}bd
/GR/grestore ld
/M/moveto ld
/LJ/setlinejoin ld
/C/curveto ld
/f/fill ld
/LW/setlinewidth ld
/GC/setgray ld
/t/show ld
/N/newpath ld
/CT/concat ld
/cp/closepath ld
/S/stroke ld
/L/lineto ld
/CC/setcmykcolor ld
/A/ashow ld
/GS/gsave ld
/RC/setrgbcolor ld
/RM/rmoveto ld
/ML/setmiterlimit ld
/re {4 2 roll M
1 index 0 rlineto
0 exch rlineto
neg 0 rlineto
cp } bd
/_ctm matrix def
/_tm matrix def
/BT { _ctm currentmatrix pop matrix _tm copy pop 0 0 moveto } bd
/ET { _ctm setmatrix } bd
/iTm { _ctm setmatrix _tm concat } bd
/Tm { _tm astore pop iTm 0 0 moveto } bd
/ux 0.0 def
/uy 0.0 def
/F {
  /Tp exch def
  /Tf exch def
  Tf findfont Tp scalefont setfont
  /cf Tf def  /cs Tp def
} bd
/ULS {currentpoint /uy exch def /ux exch def} bd
/ULE {
  /Tcx currentpoint pop def
  gsave
  newpath
  cf findfont cs scalefont dup
  /FontMatrix get 0 get /Ts exch def /FontInfo get dup
  /UnderlinePosition get Ts mul /To exch def
  /UnderlineThickness get Ts mul /Tt exch def
  ux uy To add moveto  Tcx uy To add lineto
  Tt setlinewidth stroke
  grestore
} bd
/OLE {
  /Tcx currentpoint pop def
  gsave
  newpath
  cf findfont cs scalefont dup
  /FontMatrix get 0 get /Ts exch def /FontInfo get dup
  /UnderlinePosition get Ts mul /To exch def
  /UnderlineThickness get Ts mul /Tt exch def
  ux uy To add cs add moveto Tcx uy To add cs add lineto
  Tt setlinewidth stroke
  grestore
} bd
/SOE {
  /Tcx currentpoint pop def
  gsave
  newpath
  cf findfont cs scalefont dup
  /FontMatrix get 0 get /Ts exch def /FontInfo get dup
  /UnderlinePosition get Ts mul /To exch def
  /UnderlineThickness get Ts mul /Tt exch def
  ux uy To add cs 10 mul 26 idiv add moveto Tcx uy To add cs 10 mul 26 idiv add lineto
  Tt setlinewidth stroke
  grestore
} bd
/QT {
/Y22 exch store
/X22 exch store
/Y21 exch store
/X21 exch store
currentpoint
/Y21 load 2 mul add 3 div exch
/X21 load 2 mul add 3 div exch
/X21 load 2 mul /X22 load add 3 div
/Y21 load 2 mul /Y22 load add 3 div
/X22 load /Y22 load curveto
} bd
/SSPD {
dup length /d exch dict def
{
/v exch def
/k exch def
currentpagedevice k known {
/cpdv currentpagedevice k get def
v cpdv ne {
/upd false def
/nullv v type /nulltype eq def
/nullcpdv cpdv type /nulltype eq def
nullv nullcpdv or
{
/upd true def
} {
/sametype v type cpdv type eq def
sametype {
v type /arraytype eq {
/vlen v length def
/cpdvlen cpdv length def
vlen cpdvlen eq {
0 1 vlen 1 sub {
/i exch def
/obj v i get def
/cpdobj cpdv i get def
obj cpdobj ne {
/upd true def
exit
} if
} for
} {
/upd true def
} ifelse
} {
v type /dicttype eq {
v {
/dv exch def
/dk exch def
/cpddv cpdv dk get def
dv cpddv ne {
/upd true def
exit
} if
} forall
} {
/upd true def
} ifelse
} ifelse
} if
} ifelse
upd true eq {
d k v put
} if
} if
} if
} forall
d length 0 gt {
d setpagedevice
} if
} bd
%%EndResource
%%BeginResource: procset (Apache XML Graphics EPS ProcSet) 1.0 0
%%Version: 1.0 0
%%Copyright: (Copyright 2002-2003 The Apache Software Foundation. License terms: http://www.apache.org/licenses/LICENSE-2.0)
/BeginEPSF { %def
/b4_Inc_state save def         % Save state for cleanup
/dict_count countdictstack def % Count objects on dict stack
/op_count count 1 sub def      % Count objects on operand stack
userdict begin                 % Push userdict on dict stack
/showpage { } def              % Redefine showpage, { } = null proc
0 setgray 0 setlinecap         % Prepare graphics state
1 setlinewidth 0 setlinejoin
10 setmiterlimit [ ] 0 setdash newpath
/languagelevel where           % If level not equal to 1 then
{pop languagelevel             % set strokeadjust and
1 ne                           % overprint to their defaults.
{false setstrokeadjust false setoverprint
} if
} if
} bd
/EndEPSF { %def
count op_count sub {pop} repeat            % Clean up stacks
countdictstack dict_count sub {end} repeat
b4_Inc_state restore
} bd
%%EndResource
%FOPBeginFontDict
%%IncludeResource: font Courier-Bold
%%IncludeResource: font Helvetica
%%IncludeResource: font Courier-BoldOblique
%%IncludeResource: font Courier-Oblique
%%IncludeResource: font Times-Roman
%%IncludeResource: font Helvetica-BoldOblique
%%IncludeResource: font Helvetica-Bold
%%IncludeResource: font Helvetica-Oblique
%%IncludeResource: font Times-BoldItalic
%%IncludeResource: font Courier
%%IncludeResource: font Times-Italic
%%IncludeResource: font Times-Bold
%%IncludeResource: font Symbol
%%IncludeResource: font ZapfDingbats
%FOPEndFontDict
%%BeginResource: encoding WinAnsiEncoding
/WinAnsiEncoding [
/.notdef /.notdef /.notdef /.notdef /.notdef
/.notdef /.notdef /.notdef /.notdef /.notdef
/.notdef /.notdef /.notdef /.notdef /.notdef
/.notdef /.notdef /.notdef /.notdef /.notdef
/.notdef /.notdef /.notdef /.notdef /.notdef
/.notdef /.notdef /.notdef /.notdef /.notdef
/.notdef /.notdef /space /exclam /quotedbl
/numbersign /dollar /percent /ampersand /quotesingle
/parenleft /parenright /asterisk /plus /comma
/hyphen /period /slash /zero /one
/two /three /four /five /six
/seven /eight /nine /colon /semicolon
/less /equal /greater /question /at
/A /B /C /D /E
/F /G /H /I /J
/K /L /M /N /O
/P /Q /R /S /T
/U /V /W /X /Y
/Z /bracketleft /backslash /bracketright /asciicircum
/underscore /quoteleft /a /b /c
/d /e /f /g /h
/i /j /k /l /m
/n /o /p /q /r
/s /t /u /v /w
/x /y /z /braceleft /bar
/braceright /asciitilde /bullet /Euro /bullet
/quotesinglbase /florin /quotedblbase /ellipsis /dagger
/daggerdbl /circumflex /perthousand /Scaron /guilsinglleft
/OE /bullet /Zcaron /bullet /bullet
/quoteleft /quoteright /quotedblleft /quotedblright /bullet
/endash /emdash /asciitilde /trademark /scaron
/guilsinglright /oe /bullet /zcaron /Ydieresis
/space /exclamdown /cent /sterling /currency
/yen /brokenbar /section /dieresis /copyright
/ordfeminine /guillemotleft /logicalnot /sfthyphen /registered
/macron /degree /plusminus /twosuperior /threesuperior
/acute /mu /paragraph /middot /cedilla
/onesuperior /ordmasculine /guillemotright /onequarter /onehalf
/threequarters /questiondown /Agrave /Aacute /Acircumflex
/Atilde /Adieresis /Aring /AE /Ccedilla
/Egrave /Eacute /Ecircumflex /Edieresis /Igrave
/Iacute /Icircumflex /Idieresis /Eth /Ntilde
/Ograve /Oacute /Ocircumflex /Otilde /Odieresis
/multiply /Oslash /Ugrave /Uacute /Ucircumflex
/Udieresis /Yacute /Thorn /germandbls /agrave
/aacute /acircumflex /atilde /adieresis /aring
/ae /ccedilla /egrave /eacute /ecircumflex
/edieresis /igrave /iacute /icircumflex /idieresis
/eth /ntilde /ograve /oacute /ocircumflex
/otilde /odieresis /divide /oslash /ugrave
/uacute /ucircumflex /udieresis /yacute /thorn
/ydieresis
] def
%%EndResource
%FOPBeginFontReencode
/Courier-Bold findfont
dup length dict begin
  {1 index /FID ne {def} {pop pop} ifelse} forall
  /Encoding WinAnsiEncoding def
  currentdict
end
/Courier-Bold exch definefont pop
/Helvetica findfont
dup length dict begin
  {1 index /FID ne {def} {pop pop} ifelse} forall
  /Encoding WinAnsiEncoding def
  currentdict
end
/Helvetica exch definefont pop
/Courier-BoldOblique findfont
dup length dict begin
  {1 index /FID ne {def} {pop pop} ifelse} forall
  /Encoding WinAnsiEncoding def
  currentdict
end
/Courier-BoldOblique exch definefont pop
/Courier-Oblique findfont
dup length dict begin
  {1 index /FID ne {def} {pop pop} ifelse} forall
  /Encoding WinAnsiEncoding def
  currentdict
end
/Courier-Oblique exch definefont pop
/Times-Roman findfont
dup length dict begin
  {1 index /FID ne {def} {pop pop} ifelse} forall
  /Encoding WinAnsiEncoding def
  currentdict
end
/Times-Roman exch definefont pop
/Helvetica-BoldOblique findfont
dup length dict begin
  {1 index /FID ne {def} {pop pop} ifelse} forall
  /Encoding WinAnsiEncoding def
  currentdict
end
/Helvetica-BoldOblique exch definefont pop
/Helvetica-Bold findfont
dup length dict begin
  {1 index /FID ne {def} {pop pop} ifelse} forall
  /Encoding WinAnsiEncoding def
  currentdict
end
/Helvetica-Bold exch definefont pop
/Helvetica-Oblique findfont
dup length dict begin
  {1 index /FID ne {def} {pop pop} ifelse} forall
  /Encoding WinAnsiEncoding def
  currentdict
end
/Helvetica-Oblique exch definefont pop
/Times-BoldItalic findfont
dup length dict begin
  {1 index /FID ne {def} {pop pop} ifelse} forall
  /Encoding WinAnsiEncoding def
  currentdict
end
/Times-BoldItalic exch definefont pop
/Courier findfont
dup length dict begin
  {1 index /FID ne {def} {pop pop} ifelse} forall
  /Encoding WinAnsiEncoding def
  currentdict
end
/Courier exch definefont pop
/Times-Italic findfont
dup length dict begin
  {1 index /FID ne {def} {pop pop} ifelse} forall
  /Encoding WinAnsiEncoding def
  currentdict
end
/Times-Italic exch definefont pop
/Times-Bold findfont
dup length dict begin
  {1 index /FID ne {def} {pop pop} ifelse} forall
  /Encoding WinAnsiEncoding def
  currentdict
end
/Times-Bold exch definefont pop
%FOPEndFontReencode
%%EndProlog
%%Page: 1 1
%%PageBoundingBox: 0 0 576 432
%%BeginPageSetup
[1 0 0 -1 0 432] CT
%%EndPageSetup
GS
1 GC
N
0 0 576 432 re
f
GR
GS
1 GC
N
0 0 576 432 re
f
GR
GS
1 GC
N
75 384.5 M
521.5 384.5 L
521.5 32.5 L
75 32.5 L
cp
f
GR
GS
0.149 GC
2 setlinecap
1 LJ
0.5 LW
N
75 384.5 M
521.5 384.5 L
S
GR
GS
0.149 GC
2 setlinecap
1 LJ
0.5 LW
N
75 384.5 M
75 380.035 L
S
GR
GS
0.149 GC
2 setlinecap
1 LJ
0.5 LW
N
119.65 384.5 M
119.65 380.035 L
S
GR
GS
0.149 GC
2 setlinecap
1 LJ
0.5 LW
N
164.3 384.5 M
164.3 380.035 L
S
GR
GS
0.149 GC
2 setlinecap
1 LJ
0.5 LW
N
208.95 384.5 M
208.95 380.035 L
S
GR
GS
0.149 GC
2 setlinecap
1 LJ
0.5 LW
N
253.6 384.5 M
253.6 380.035 L
S
GR
GS
0.149 GC
2 setlinecap
1 LJ
0.5 LW
N
298.25 384.5 M
298.25 380.035 L
S
GR
GS
0.149 GC
2 setlinecap
1 LJ
0.5 LW
N
342.9 384.5 M
342.9 380.035 L
S
GR
GS
0.149 GC
2 setlinecap
1 LJ
0.5 LW
N
387.55 384.5 M
387.55 380.035 L
S
GR
GS
0.149 GC
2 setlinecap
1 LJ
0.5 LW
N
432.2 384.5 M
432.2 380.035 L
S
GR
GS
0.149 GC
2 setlinecap
1 LJ
0.5 LW
N
476.85 384.5 M
476.85 380.035 L
S
GR
GS
0.149 GC
2 setlinecap
1 LJ
0.5 LW
N
521.5 384.5 M
521.5 380.035 L
S
GR
GS
[1 0 0 1 75 388.5] CT
0.149 GC
/Helvetica 10 F
GS
[1 0 0 1 0 0] CT
-3 8 moveto 
1 -1 scale
(0) t 
GR
GR
GS
[1 0 0 1 119.65 388.5] CT
0.149 GC
/Helvetica 10 F
GS
[1 0 0 1 0 0] CT
-3 8 moveto 
1 -1 scale
(5) t 
GR
GR
GS
[1 0 0 1 164.3 388.5] CT
0.149 GC
/Helvetica 10 F
GS
[1 0 0 1 0 0] CT
-6 8 moveto 
1 -1 scale
(10) t 
GR
GR
GS
[1 0 0 1 208.95001 388.5] CT
0.149 GC
/Helvetica 10 F
GS
[1 0 0 1 0 0] CT
-6 8 moveto 
1 -1 scale
(15) t 
GR
GR
GS
[1 0 0 1 253.60001 388.5] CT
0.149 GC
/Helvetica 10 F
GS
[1 0 0 1 0 0] CT
-6 8 moveto 
1 -1 scale
(20) t 
GR
GR
GS
[1 0 0 1 298.25 388.5] CT
0.149 GC
/Helvetica 10 F
GS
[1 0 0 1 0 0] CT
-6 8 moveto 
1 -1 scale
(25) t 
GR
GR
GS
[1 0 0 1 342.90002 388.5] CT
0.149 GC
/Helvetica 10 F
GS
[1 0 0 1 0 0] CT
-6 8 moveto 
1 -1 scale
(30) t 
GR
GR
GS
[1 0 0 1 387.54999 388.5] CT
0.149 GC
/Helvetica 10 F
GS
[1 0 0 1 0 0] CT
-6 8 moveto 
1 -1 scale
(35) t 
GR
GR
GS
[1 0 0 1 432.20001 388.5] CT
0.149 GC
/Helvetica 10 F
GS
[1 0 0 1 0 0] CT
-6 8 moveto 
1 -1 scale
(40) t 
GR
GR
GS
[1 0 0 1 476.84998 388.5] CT
0.149 GC
/Helvetica 10 F
GS
[1 0 0 1 0 0] CT
-6 8 moveto 
1 -1 scale
(45) t 
GR
GR
GS
[1 0 0 1 521.5 388.5] CT
0.149 GC
/Helvetica 10 F
GS
[1 0 0 1 0 0] CT
-6 8 moveto 
1 -1 scale
(50) t 
GR
GR
GS
[1 0 0 1 298.25021 400] CT
0.149 GC
/Helvetica 10 F
GS
[1 0 0 1 0 0] CT
-21 8 moveto 
1 -1 scale
(Iterations) t 
GR
GR
GS
0.149 GC
2 setlinecap
1 LJ
0.5 LW
N
75 384.5 M
75 32.5 L
S
GR
GS
0.149 GC
2 setlinecap
1 LJ
0.5 LW
N
75 339.528 M
79.465 339.528 L
S
GR
GS
0.149 GC
2 setlinecap
1 LJ
0.5 LW
N
75 282.592 M
79.465 282.592 L
S
GR
GS
0.149 GC
2 setlinecap
1 LJ
0.5 LW
N
75 226.381 M
79.465 226.381 L
S
GR
GS
0.149 GC
2 setlinecap
1 LJ
0.5 LW
N
75 170.876 M
79.465 170.876 L
S
GR
GS
0.149 GC
2 setlinecap
1 LJ
0.5 LW
N
75 116.062 M
79.465 116.062 L
S
GR
GS
0.149 GC
2 setlinecap
1 LJ
0.5 LW
N
75 61.92 M
79.465 61.92 L
S
GR
GS
0.149 GC
2 setlinecap
1 LJ
0.5 LW
N
75 379.826 M
77.232 379.826 L
S
GR
GS
0.149 GC
2 setlinecap
1 LJ
0.5 LW
N
75 374.046 M
77.232 374.046 L
S
GR
GS
0.149 GC
2 setlinecap
1 LJ
0.5 LW
N
75 368.274 M
77.232 368.274 L
S
GR
GS
0.149 GC
2 setlinecap
1 LJ
0.5 LW
N
75 362.51 M
77.232 362.51 L
S
GR
GS
0.149 GC
2 setlinecap
1 LJ
0.5 LW
N
75 356.753 M
77.232 356.753 L
S
GR
GS
0.149 GC
2 setlinecap
1 LJ
0.5 LW
N
75 351.004 M
77.232 351.004 L
S
GR
GS
0.149 GC
2 setlinecap
1 LJ
0.5 LW
N
75 345.263 M
77.232 345.263 L
S
GR
GS
0.149 GC
2 setlinecap
1 LJ
0.5 LW
N
75 333.801 M
77.232 333.801 L
S
GR
GS
0.149 GC
2 setlinecap
1 LJ
0.5 LW
N
75 328.082 M
77.232 328.082 L
S
GR
GS
0.149 GC
2 setlinecap
1 LJ
0.5 LW
N
75 322.37 M
77.232 322.37 L
S
GR
GS
0.149 GC
2 setlinecap
1 LJ
0.5 LW
N
75 316.665 M
77.232 316.665 L
S
GR
GS
0.149 GC
2 setlinecap
1 LJ
0.5 LW
N
75 310.968 M
77.232 310.968 L
S
GR
GS
0.149 GC
2 setlinecap
1 LJ
0.5 LW
N
75 305.278 M
77.232 305.278 L
S
GR
GS
0.149 GC
2 setlinecap
1 LJ
0.5 LW
N
75 299.596 M
77.232 299.596 L
S
GR
GS
0.149 GC
2 setlinecap
1 LJ
0.5 LW
N
75 293.92 M
77.232 293.92 L
S
GR
GS
0.149 GC
2 setlinecap
1 LJ
0.5 LW
N
75 288.252 M
77.232 288.252 L
S
GR
GS
0.149 GC
2 setlinecap
1 LJ
0.5 LW
N
75 276.938 M
77.232 276.938 L
S
GR
GS
0.149 GC
2 setlinecap
1 LJ
0.5 LW
N
75 271.292 M
77.232 271.292 L
S
GR
GS
0.149 GC
2 setlinecap
1 LJ
0.5 LW
N
75 265.653 M
77.232 265.653 L
S
GR
GS
0.149 GC
2 setlinecap
1 LJ
0.5 LW
N
75 260.021 M
77.232 260.021 L
S
GR
GS
0.149 GC
2 setlinecap
1 LJ
0.5 LW
N
75 254.397 M
77.232 254.397 L
S
GR
GS
0.149 GC
2 setlinecap
1 LJ
0.5 LW
N
75 248.779 M
77.232 248.779 L
S
GR
GS
0.149 GC
2 setlinecap
1 LJ
0.5 LW
N
75 243.169 M
77.232 243.169 L
S
GR
GS
0.149 GC
2 setlinecap
1 LJ
0.5 LW
N
75 237.566 M
77.232 237.566 L
S
GR
GS
0.149 GC
2 setlinecap
1 LJ
0.5 LW
N
75 231.97 M
77.232 231.97 L
S
GR
GS
0.149 GC
2 setlinecap
1 LJ
0.5 LW
N
75 220.799 M
77.232 220.799 L
S
GR
GS
0.149 GC
2 setlinecap
1 LJ
0.5 LW
N
75 215.224 M
77.232 215.224 L
S
GR
GS
0.149 GC
2 setlinecap
1 LJ
0.5 LW
N
75 209.656 M
77.232 209.656 L
S
GR
GS
0.149 GC
2 setlinecap
1 LJ
0.5 LW
N
75 204.095 M
77.232 204.095 L
S
GR
GS
0.149 GC
2 setlinecap
1 LJ
0.5 LW
N
75 198.541 M
77.232 198.541 L
S
GR
GS
0.149 GC
2 setlinecap
1 LJ
0.5 LW
N
75 192.994 M
77.232 192.994 L
S
GR
GS
0.149 GC
2 setlinecap
1 LJ
0.5 LW
N
75 187.454 M
77.232 187.454 L
S
GR
GS
0.149 GC
2 setlinecap
1 LJ
0.5 LW
N
75 181.922 M
77.232 181.922 L
S
GR
GS
0.149 GC
2 setlinecap
1 LJ
0.5 LW
N
75 176.396 M
77.232 176.396 L
S
GR
GS
0.149 GC
2 setlinecap
1 LJ
0.5 LW
N
75 165.364 M
77.232 165.364 L
S
GR
GS
0.149 GC
2 setlinecap
1 LJ
0.5 LW
N
75 159.859 M
77.232 159.859 L
S
GR
GS
0.149 GC
2 setlinecap
1 LJ
0.5 LW
N
75 154.36 M
77.232 154.36 L
S
GR
GS
0.149 GC
2 setlinecap
1 LJ
0.5 LW
N
75 148.869 M
77.232 148.869 L
S
GR
GS
0.149 GC
2 setlinecap
1 LJ
0.5 LW
N
75 143.384 M
77.232 143.384 L
S
GR
GS
0.149 GC
2 setlinecap
1 LJ
0.5 LW
N
75 137.906 M
77.232 137.906 L
S
GR
GS
0.149 GC
2 setlinecap
1 LJ
0.5 LW
N
75 132.435 M
77.232 132.435 L
S
GR
GS
0.149 GC
2 setlinecap
1 LJ
0.5 LW
N
75 126.97 M
77.232 126.97 L
S
GR
GS
0.149 GC
2 setlinecap
1 LJ
0.5 LW
N
75 121.513 M
77.232 121.513 L
S
GR
GS
0.149 GC
2 setlinecap
1 LJ
0.5 LW
N
75 110.618 M
77.232 110.618 L
S
GR
GS
0.149 GC
2 setlinecap
1 LJ
0.5 LW
N
75 105.18 M
77.232 105.18 L
S
GR
GS
0.149 GC
2 setlinecap
1 LJ
0.5 LW
N
75 99.749 M
77.232 99.749 L
S
GR
GS
0.149 GC
2 setlinecap
1 LJ
0.5 LW
N
75 94.325 M
77.232 94.325 L
S
GR
GS
0.149 GC
2 setlinecap
1 LJ
0.5 LW
N
75 88.908 M
77.232 88.908 L
S
GR
GS
0.149 GC
2 setlinecap
1 LJ
0.5 LW
N
75 83.497 M
77.232 83.497 L
S
GR
GS
0.149 GC
2 setlinecap
1 LJ
0.5 LW
N
75 78.093 M
77.232 78.093 L
S
GR
GS
0.149 GC
2 setlinecap
1 LJ
0.5 LW
N
75 72.695 M
77.232 72.695 L
S
GR
GS
0.149 GC
2 setlinecap
1 LJ
0.5 LW
N
75 67.304 M
77.232 67.304 L
S
GR
GS
0.149 GC
2 setlinecap
1 LJ
0.5 LW
N
75 56.542 M
77.232 56.542 L
S
GR
GS
0.149 GC
2 setlinecap
1 LJ
0.5 LW
N
75 51.171 M
77.232 51.171 L
S
GR
GS
0.149 GC
2 setlinecap
1 LJ
0.5 LW
N
75 45.806 M
77.232 45.806 L
S
GR
GS
0.149 GC
2 setlinecap
1 LJ
0.5 LW
N
75 40.448 M
77.232 40.448 L
S
GR
GS
0.149 GC
2 setlinecap
1 LJ
0.5 LW
N
75 35.096 M
77.232 35.096 L
S
GR
GS
[1 0 0 1 71 339.52823] CT
0.149 GC
/Helvetica 10 F
GS
[1 0 0 1 0 0] CT
-20 2.5 moveto 
1 -1 scale
(3.85) t 
GR
GR
GS
[1 0 0 1 71 282.59174] CT
0.149 GC
/Helvetica 10 F
GS
[1 0 0 1 0 0] CT
-14 2.5 moveto 
1 -1 scale
(3.9) t 
GR
GR
GS
[1 0 0 1 71 226.38055] CT
0.149 GC
/Helvetica 10 F
GS
[1 0 0 1 0 0] CT
-20 2.5 moveto 
1 -1 scale
(3.95) t 
GR
GR
GS
[1 0 0 1 71 170.87643] CT
0.149 GC
/Helvetica 10 F
GS
[1 0 0 1 0 0] CT
-6 2.5 moveto 
1 -1 scale
(4) t 
GR
GR
GS
[1 0 0 1 71 116.06184] CT
0.149 GC
/Helvetica 10 F
GS
[1 0 0 1 0 0] CT
-20 2.5 moveto 
1 -1 scale
(4.05) t 
GR
GR
GS
[1 0 0 1 71 61.91983] CT
0.149 GC
/Helvetica 10 F
GS
[1 0 0 1 0 0] CT
-14 2.5 moveto 
1 -1 scale
(4.1) t 
GR
GR
GS
[0 -1 1 0 48.5 208.49983] CT
0.149 GC
/Helvetica 10 F
GS
[1 0 0 1 0 0] CT
-27.5 -3 moveto 
1 -1 scale
(Train RMSE) t 
GR
GR
GS
[1 0 0 1 298.25031 31.125] CT
/Helvetica-Bold 11 F
GS
[1 0 0 1 0 0] CT
-51 -3 moveto 
1 -1 scale
(A really nice Figure) t 
GR
GR
GS
0 0.447 0.741 RC
1 LJ
N
83.93 38.455 M
92.86 54.522 L
101.79 32.5 L
110.72 208.666 L
119.65 218.018 L
128.58 207.636 L
137.51 290.901 L
146.44 295.301 L
155.37 291.661 L
164.3 334.603 L
173.23 336.757 L
182.16 335.723 L
191.09 357.74 L
200.02 358.986 L
208.95 358.815 L
217.88 367.102 L
226.81 370.072 L
235.74 370.354 L
244.67 370.13 L
253.6 374.912 L
262.53 375.719 L
271.46 375.906 L
280.39 375.856 L
289.32 377.846 L
298.25 378.415 L
307.18 378.628 L
316.11 378.694 L
325.04 378.664 L
333.97 379.587 L
342.9 379.943 L
351.83 380.107 L
360.76 380.182 L
369.69 380.197 L
378.62 380.162 L
387.55 380.674 L
396.48 380.904 L
405.41 381.022 L
414.34 381.08 L
423.27 381.099 L
432.2 381.083 L
441.13 381.366 L
450.06 381.515 L
458.99 381.601 L
467.92 381.65 L
476.85 381.674 L
485.78 381.675 L
494.71 381.732 L
S
GR
GS
0 0.447 0.741 RC
1 LJ
N
86.5 38.5 M
85.621 36.379 L
83.5 35.5 L
81.379 36.379 L
80.5 38.5 L
81.379 40.621 L
83.5 41.5 L
85.621 40.621 L
cp
S
GR
GS
0 0.447 0.741 RC
1 LJ
N
95.5 54.5 M
94.621 52.379 L
92.5 51.5 L
90.379 52.379 L
89.5 54.5 L
90.379 56.621 L
92.5 57.5 L
94.621 56.621 L
cp
S
GR
GS
0 0.447 0.741 RC
1 LJ
N
104.5 32.5 M
103.621 30.379 L
101.5 29.5 L
99.379 30.379 L
98.5 32.5 L
99.379 34.621 L
101.5 35.5 L
103.621 34.621 L
cp
S
GR
GS
0 0.447 0.741 RC
1 LJ
N
113.5 208.5 M
112.621 206.379 L
110.5 205.5 L
108.379 206.379 L
107.5 208.5 L
108.379 210.621 L
110.5 211.5 L
112.621 210.621 L
cp
S
GR
GS
0 0.447 0.741 RC
1 LJ
N
122.5 218.5 M
121.621 216.379 L
119.5 215.5 L
117.379 216.379 L
116.5 218.5 L
117.379 220.621 L
119.5 221.5 L
121.621 220.621 L
cp
S
GR
GS
0 0.447 0.741 RC
1 LJ
N
131.5 207.5 M
130.621 205.379 L
128.5 204.5 L
126.379 205.379 L
125.5 207.5 L
126.379 209.621 L
128.5 210.5 L
130.621 209.621 L
cp
S
GR
GS
0 0.447 0.741 RC
1 LJ
N
140.5 290.5 M
139.621 288.379 L
137.5 287.5 L
135.379 288.379 L
134.5 290.5 L
135.379 292.621 L
137.5 293.5 L
139.621 292.621 L
cp
S
GR
GS
0 0.447 0.741 RC
1 LJ
N
149.5 295.5 M
148.621 293.379 L
146.5 292.5 L
144.379 293.379 L
143.5 295.5 L
144.379 297.621 L
146.5 298.5 L
148.621 297.621 L
cp
S
GR
GS
0 0.447 0.741 RC
1 LJ
N
158.5 291.5 M
157.621 289.379 L
155.5 288.5 L
153.379 289.379 L
152.5 291.5 L
153.379 293.621 L
155.5 294.5 L
157.621 293.621 L
cp
S
GR
GS
0 0.447 0.741 RC
1 LJ
N
167.5 334.5 M
166.621 332.379 L
164.5 331.5 L
162.379 332.379 L
161.5 334.5 L
162.379 336.621 L
164.5 337.5 L
166.621 336.621 L
cp
S
GR
GS
0 0.447 0.741 RC
1 LJ
N
176.5 336.5 M
175.621 334.379 L
173.5 333.5 L
171.379 334.379 L
170.5 336.5 L
171.379 338.621 L
173.5 339.5 L
175.621 338.621 L
cp
S
GR
GS
0 0.447 0.741 RC
1 LJ
N
185.5 335.5 M
184.621 333.379 L
182.5 332.5 L
180.379 333.379 L
179.5 335.5 L
180.379 337.621 L
182.5 338.5 L
184.621 337.621 L
cp
S
GR
GS
0 0.447 0.741 RC
1 LJ
N
194.5 357.5 M
193.621 355.379 L
191.5 354.5 L
189.379 355.379 L
188.5 357.5 L
189.379 359.621 L
191.5 360.5 L
193.621 359.621 L
cp
S
GR
GS
0 0.447 0.741 RC
1 LJ
N
203.5 358.5 M
202.621 356.379 L
200.5 355.5 L
198.379 356.379 L
197.5 358.5 L
198.379 360.621 L
200.5 361.5 L
202.621 360.621 L
cp
S
GR
GS
0 0.447 0.741 RC
1 LJ
N
211.5 358.5 M
210.621 356.379 L
208.5 355.5 L
206.379 356.379 L
205.5 358.5 L
206.379 360.621 L
208.5 361.5 L
210.621 360.621 L
cp
S
GR
GS
0 0.447 0.741 RC
1 LJ
N
220.5 367.5 M
219.621 365.379 L
217.5 364.5 L
215.379 365.379 L
214.5 367.5 L
215.379 369.621 L
217.5 370.5 L
219.621 369.621 L
cp
S
GR
GS
0 0.447 0.741 RC
1 LJ
N
229.5 370.5 M
228.621 368.379 L
226.5 367.5 L
224.379 368.379 L
223.5 370.5 L
224.379 372.621 L
226.5 373.5 L
228.621 372.621 L
cp
S
GR
GS
0 0.447 0.741 RC
1 LJ
N
238.5 370.5 M
237.621 368.379 L
235.5 367.5 L
233.379 368.379 L
232.5 370.5 L
233.379 372.621 L
235.5 373.5 L
237.621 372.621 L
cp
S
GR
GS
0 0.447 0.741 RC
1 LJ
N
247.5 370.5 M
246.621 368.379 L
244.5 367.5 L
242.379 368.379 L
241.5 370.5 L
242.379 372.621 L
244.5 373.5 L
246.621 372.621 L
cp
S
GR
GS
0 0.447 0.741 RC
1 LJ
N
256.5 374.5 M
255.621 372.379 L
253.5 371.5 L
251.379 372.379 L
250.5 374.5 L
251.379 376.621 L
253.5 377.5 L
255.621 376.621 L
cp
S
GR
GS
0 0.447 0.741 RC
1 LJ
N
265.5 375.5 M
264.621 373.379 L
262.5 372.5 L
260.379 373.379 L
259.5 375.5 L
260.379 377.621 L
262.5 378.5 L
264.621 377.621 L
cp
S
GR
GS
0 0.447 0.741 RC
1 LJ
N
274.5 375.5 M
273.621 373.379 L
271.5 372.5 L
269.379 373.379 L
268.5 375.5 L
269.379 377.621 L
271.5 378.5 L
273.621 377.621 L
cp
S
GR
GS
0 0.447 0.741 RC
1 LJ
N
283.5 375.5 M
282.621 373.379 L
280.5 372.5 L
278.379 373.379 L
277.5 375.5 L
278.379 377.621 L
280.5 378.5 L
282.621 377.621 L
cp
S
GR
GS
0 0.447 0.741 RC
1 LJ
N
292.5 377.5 M
291.621 375.379 L
289.5 374.5 L
287.379 375.379 L
286.5 377.5 L
287.379 379.621 L
289.5 380.5 L
291.621 379.621 L
cp
S
GR
GS
0 0.447 0.741 RC
1 LJ
N
301.5 378.5 M
300.621 376.379 L
298.5 375.5 L
296.379 376.379 L
295.5 378.5 L
296.379 380.621 L
298.5 381.5 L
300.621 380.621 L
cp
S
GR
GS
0 0.447 0.741 RC
1 LJ
N
310.5 378.5 M
309.621 376.379 L
307.5 375.5 L
305.379 376.379 L
304.5 378.5 L
305.379 380.621 L
307.5 381.5 L
309.621 380.621 L
cp
S
GR
GS
0 0.447 0.741 RC
1 LJ
N
319.5 378.5 M
318.621 376.379 L
316.5 375.5 L
314.379 376.379 L
313.5 378.5 L
314.379 380.621 L
316.5 381.5 L
318.621 380.621 L
cp
S
GR
GS
0 0.447 0.741 RC
1 LJ
N
328.5 378.5 M
327.621 376.379 L
325.5 375.5 L
323.379 376.379 L
322.5 378.5 L
323.379 380.621 L
325.5 381.5 L
327.621 380.621 L
cp
S
GR
GS
0 0.447 0.741 RC
1 LJ
N
336.5 379.5 M
335.621 377.379 L
333.5 376.5 L
331.379 377.379 L
330.5 379.5 L
331.379 381.621 L
333.5 382.5 L
335.621 381.621 L
cp
S
GR
GS
0 0.447 0.741 RC
1 LJ
N
345.5 379.5 M
344.621 377.379 L
342.5 376.5 L
340.379 377.379 L
339.5 379.5 L
340.379 381.621 L
342.5 382.5 L
344.621 381.621 L
cp
S
GR
GS
0 0.447 0.741 RC
1 LJ
N
354.5 380.5 M
353.621 378.379 L
351.5 377.5 L
349.379 378.379 L
348.5 380.5 L
349.379 382.621 L
351.5 383.5 L
353.621 382.621 L
cp
S
GR
GS
0 0.447 0.741 RC
1 LJ
N
363.5 380.5 M
362.621 378.379 L
360.5 377.5 L
358.379 378.379 L
357.5 380.5 L
358.379 382.621 L
360.5 383.5 L
362.621 382.621 L
cp
S
GR
GS
0 0.447 0.741 RC
1 LJ
N
372.5 380.5 M
371.621 378.379 L
369.5 377.5 L
367.379 378.379 L
366.5 380.5 L
367.379 382.621 L
369.5 383.5 L
371.621 382.621 L
cp
S
GR
GS
0 0.447 0.741 RC
1 LJ
N
381.5 380.5 M
380.621 378.379 L
378.5 377.5 L
376.379 378.379 L
375.5 380.5 L
376.379 382.621 L
378.5 383.5 L
380.621 382.621 L
cp
S
GR
GS
0 0.447 0.741 RC
1 LJ
N
390.5 380.5 M
389.621 378.379 L
387.5 377.5 L
385.379 378.379 L
384.5 380.5 L
385.379 382.621 L
387.5 383.5 L
389.621 382.621 L
cp
S
GR
GS
0 0.447 0.741 RC
1 LJ
N
399.5 380.5 M
398.621 378.379 L
396.5 377.5 L
394.379 378.379 L
393.5 380.5 L
394.379 382.621 L
396.5 383.5 L
398.621 382.621 L
cp
S
GR
GS
0 0.447 0.741 RC
1 LJ
N
408.5 381.5 M
407.621 379.379 L
405.5 378.5 L
403.379 379.379 L
402.5 381.5 L
403.379 383.621 L
405.5 384.5 L
407.621 383.621 L
cp
S
GR
GS
0 0.447 0.741 RC
1 LJ
N
417.5 381.5 M
416.621 379.379 L
414.5 378.5 L
412.379 379.379 L
411.5 381.5 L
412.379 383.621 L
414.5 384.5 L
416.621 383.621 L
cp
S
GR
GS
0 0.447 0.741 RC
1 LJ
N
426.5 381.5 M
425.621 379.379 L
423.5 378.5 L
421.379 379.379 L
420.5 381.5 L
421.379 383.621 L
423.5 384.5 L
425.621 383.621 L
cp
S
GR
GS
0 0.447 0.741 RC
1 LJ
N
435.5 381.5 M
434.621 379.379 L
432.5 378.5 L
430.379 379.379 L
429.5 381.5 L
430.379 383.621 L
432.5 384.5 L
434.621 383.621 L
cp
S
GR
GS
0 0.447 0.741 RC
1 LJ
N
444.5 381.5 M
443.621 379.379 L
441.5 378.5 L
439.379 379.379 L
438.5 381.5 L
439.379 383.621 L
441.5 384.5 L
443.621 383.621 L
cp
S
GR
GS
0 0.447 0.741 RC
1 LJ
N
453.5 381.5 M
452.621 379.379 L
450.5 378.5 L
448.379 379.379 L
447.5 381.5 L
448.379 383.621 L
450.5 384.5 L
452.621 383.621 L
cp
S
GR
GS
0 0.447 0.741 RC
1 LJ
N
461.5 381.5 M
460.621 379.379 L
458.5 378.5 L
456.379 379.379 L
455.5 381.5 L
456.379 383.621 L
458.5 384.5 L
460.621 383.621 L
cp
S
GR
GS
0 0.447 0.741 RC
1 LJ
N
470.5 381.5 M
469.621 379.379 L
467.5 378.5 L
465.379 379.379 L
464.5 381.5 L
465.379 383.621 L
467.5 384.5 L
469.621 383.621 L
cp
S
GR
GS
0 0.447 0.741 RC
1 LJ
N
479.5 381.5 M
478.621 379.379 L
476.5 378.5 L
474.379 379.379 L
473.5 381.5 L
474.379 383.621 L
476.5 384.5 L
478.621 383.621 L
cp
S
GR
GS
0 0.447 0.741 RC
1 LJ
N
488.5 381.5 M
487.621 379.379 L
485.5 378.5 L
483.379 379.379 L
482.5 381.5 L
483.379 383.621 L
485.5 384.5 L
487.621 383.621 L
cp
S
GR
GS
0 0.447 0.741 RC
1 LJ
N
497.5 381.5 M
496.621 379.379 L
494.5 378.5 L
492.379 379.379 L
491.5 381.5 L
492.379 383.621 L
494.5 384.5 L
496.621 383.621 L
cp
S
GR
GS
0.851 0.325 0.098 RC
1 LJ
N
83.93 82.687 M
92.86 86.947 L
101.79 141.523 L
110.72 265.61 L
119.65 257.994 L
128.58 315.669 L
137.51 330.345 L
146.44 346.033 L
155.37 362.445 L
164.3 361.072 L
173.23 369.784 L
182.16 375.925 L
191.09 377.314 L
200.02 381.684 L
208.95 382.223 L
217.88 382.48 L
226.81 383.539 L
235.74 383.84 L
244.67 383.799 L
253.6 384.049 L
262.53 384.03 L
271.46 384.244 L
280.39 384.274 L
289.32 384.356 L
298.25 384.34 L
307.18 384.398 L
316.11 384.409 L
325.04 384.45 L
333.97 384.435 L
342.9 384.453 L
351.83 384.463 L
360.76 384.471 L
369.69 384.473 L
378.62 384.476 L
387.55 384.485 L
396.48 384.49 L
405.41 384.49 L
414.34 384.489 L
423.27 384.491 L
432.2 384.491 L
441.13 384.493 L
450.06 384.493 L
458.99 384.494 L
467.92 384.496 L
476.85 384.497 L
485.78 384.498 L
494.71 384.5 L
S
GR
GS
0.851 0.325 0.098 RC
1 LJ
N
86.5 82.5 M
85.621 80.379 L
83.5 79.5 L
81.379 80.379 L
80.5 82.5 L
81.379 84.621 L
83.5 85.5 L
85.621 84.621 L
cp
S
GR
GS
0.851 0.325 0.098 RC
1 LJ
N
95.5 86.5 M
94.621 84.379 L
92.5 83.5 L
90.379 84.379 L
89.5 86.5 L
90.379 88.621 L
92.5 89.5 L
94.621 88.621 L
cp
S
GR
GS
0.851 0.325 0.098 RC
1 LJ
N
104.5 141.5 M
103.621 139.379 L
101.5 138.5 L
99.379 139.379 L
98.5 141.5 L
99.379 143.621 L
101.5 144.5 L
103.621 143.621 L
cp
S
GR
GS
0.851 0.325 0.098 RC
1 LJ
N
113.5 265.5 M
112.621 263.379 L
110.5 262.5 L
108.379 263.379 L
107.5 265.5 L
108.379 267.621 L
110.5 268.5 L
112.621 267.621 L
cp
S
GR
GS
0.851 0.325 0.098 RC
1 LJ
N
122.5 257.5 M
121.621 255.379 L
119.5 254.5 L
117.379 255.379 L
116.5 257.5 L
117.379 259.621 L
119.5 260.5 L
121.621 259.621 L
cp
S
GR
GS
0.851 0.325 0.098 RC
1 LJ
N
131.5 315.5 M
130.621 313.379 L
128.5 312.5 L
126.379 313.379 L
125.5 315.5 L
126.379 317.621 L
128.5 318.5 L
130.621 317.621 L
cp
S
GR
GS
0.851 0.325 0.098 RC
1 LJ
N
140.5 330.5 M
139.621 328.379 L
137.5 327.5 L
135.379 328.379 L
134.5 330.5 L
135.379 332.621 L
137.5 333.5 L
139.621 332.621 L
cp
S
GR
GS
0.851 0.325 0.098 RC
1 LJ
N
149.5 346.5 M
148.621 344.379 L
146.5 343.5 L
144.379 344.379 L
143.5 346.5 L
144.379 348.621 L
146.5 349.5 L
148.621 348.621 L
cp
S
GR
GS
0.851 0.325 0.098 RC
1 LJ
N
158.5 362.5 M
157.621 360.379 L
155.5 359.5 L
153.379 360.379 L
152.5 362.5 L
153.379 364.621 L
155.5 365.5 L
157.621 364.621 L
cp
S
GR
GS
0.851 0.325 0.098 RC
1 LJ
N
167.5 361.5 M
166.621 359.379 L
164.5 358.5 L
162.379 359.379 L
161.5 361.5 L
162.379 363.621 L
164.5 364.5 L
166.621 363.621 L
cp
S
GR
GS
0.851 0.325 0.098 RC
1 LJ
N
176.5 369.5 M
175.621 367.379 L
173.5 366.5 L
171.379 367.379 L
170.5 369.5 L
171.379 371.621 L
173.5 372.5 L
175.621 371.621 L
cp
S
GR
GS
0.851 0.325 0.098 RC
1 LJ
N
185.5 375.5 M
184.621 373.379 L
182.5 372.5 L
180.379 373.379 L
179.5 375.5 L
180.379 377.621 L
182.5 378.5 L
184.621 377.621 L
cp
S
GR
GS
0.851 0.325 0.098 RC
1 LJ
N
194.5 377.5 M
193.621 375.379 L
191.5 374.5 L
189.379 375.379 L
188.5 377.5 L
189.379 379.621 L
191.5 380.5 L
193.621 379.621 L
cp
S
GR
GS
0.851 0.325 0.098 RC
1 LJ
N
203.5 381.5 M
202.621 379.379 L
200.5 378.5 L
198.379 379.379 L
197.5 381.5 L
198.379 383.621 L
200.5 384.5 L
202.621 383.621 L
cp
S
GR
GS
0.851 0.325 0.098 RC
1 LJ
N
211.5 382.5 M
210.621 380.379 L
208.5 379.5 L
206.379 380.379 L
205.5 382.5 L
206.379 384.621 L
208.5 385.5 L
210.621 384.621 L
cp
S
GR
GS
0.851 0.325 0.098 RC
1 LJ
N
220.5 382.5 M
219.621 380.379 L
217.5 379.5 L
215.379 380.379 L
214.5 382.5 L
215.379 384.621 L
217.5 385.5 L
219.621 384.621 L
cp
S
GR
GS
0.851 0.325 0.098 RC
1 LJ
N
229.5 383.5 M
228.621 381.379 L
226.5 380.5 L
224.379 381.379 L
223.5 383.5 L
224.379 385.621 L
226.5 386.5 L
228.621 385.621 L
cp
S
GR
GS
0.851 0.325 0.098 RC
1 LJ
N
238.5 383.5 M
237.621 381.379 L
235.5 380.5 L
233.379 381.379 L
232.5 383.5 L
233.379 385.621 L
235.5 386.5 L
237.621 385.621 L
cp
S
GR
GS
0.851 0.325 0.098 RC
1 LJ
N
247.5 383.5 M
246.621 381.379 L
244.5 380.5 L
242.379 381.379 L
241.5 383.5 L
242.379 385.621 L
244.5 386.5 L
246.621 385.621 L
cp
S
GR
GS
0.851 0.325 0.098 RC
1 LJ
N
256.5 384.5 M
255.621 382.379 L
253.5 381.5 L
251.379 382.379 L
250.5 384.5 L
251.379 386.621 L
253.5 387.5 L
255.621 386.621 L
cp
S
GR
GS
0.851 0.325 0.098 RC
1 LJ
N
265.5 384.5 M
264.621 382.379 L
262.5 381.5 L
260.379 382.379 L
259.5 384.5 L
260.379 386.621 L
262.5 387.5 L
264.621 386.621 L
cp
S
GR
GS
0.851 0.325 0.098 RC
1 LJ
N
274.5 384.5 M
273.621 382.379 L
271.5 381.5 L
269.379 382.379 L
268.5 384.5 L
269.379 386.621 L
271.5 387.5 L
273.621 386.621 L
cp
S
GR
GS
0.851 0.325 0.098 RC
1 LJ
N
283.5 384.5 M
282.621 382.379 L
280.5 381.5 L
278.379 382.379 L
277.5 384.5 L
278.379 386.621 L
280.5 387.5 L
282.621 386.621 L
cp
S
GR
GS
0.851 0.325 0.098 RC
1 LJ
N
292.5 384.5 M
291.621 382.379 L
289.5 381.5 L
287.379 382.379 L
286.5 384.5 L
287.379 386.621 L
289.5 387.5 L
291.621 386.621 L
cp
S
GR
GS
0.851 0.325 0.098 RC
1 LJ
N
301.5 384.5 M
300.621 382.379 L
298.5 381.5 L
296.379 382.379 L
295.5 384.5 L
296.379 386.621 L
298.5 387.5 L
300.621 386.621 L
cp
S
GR
GS
0.851 0.325 0.098 RC
1 LJ
N
310.5 384.5 M
309.621 382.379 L
307.5 381.5 L
305.379 382.379 L
304.5 384.5 L
305.379 386.621 L
307.5 387.5 L
309.621 386.621 L
cp
S
GR
GS
0.851 0.325 0.098 RC
1 LJ
N
319.5 384.5 M
318.621 382.379 L
316.5 381.5 L
314.379 382.379 L
313.5 384.5 L
314.379 386.621 L
316.5 387.5 L
318.621 386.621 L
cp
S
GR
GS
0.851 0.325 0.098 RC
1 LJ
N
328.5 384.5 M
327.621 382.379 L
325.5 381.5 L
323.379 382.379 L
322.5 384.5 L
323.379 386.621 L
325.5 387.5 L
327.621 386.621 L
cp
S
GR
GS
0.851 0.325 0.098 RC
1 LJ
N
336.5 384.5 M
335.621 382.379 L
333.5 381.5 L
331.379 382.379 L
330.5 384.5 L
331.379 386.621 L
333.5 387.5 L
335.621 386.621 L
cp
S
GR
GS
0.851 0.325 0.098 RC
1 LJ
N
345.5 384.5 M
344.621 382.379 L
342.5 381.5 L
340.379 382.379 L
339.5 384.5 L
340.379 386.621 L
342.5 387.5 L
344.621 386.621 L
cp
S
GR
GS
0.851 0.325 0.098 RC
1 LJ
N
354.5 384.5 M
353.621 382.379 L
351.5 381.5 L
349.379 382.379 L
348.5 384.5 L
349.379 386.621 L
351.5 387.5 L
353.621 386.621 L
cp
S
GR
GS
0.851 0.325 0.098 RC
1 LJ
N
363.5 384.5 M
362.621 382.379 L
360.5 381.5 L
358.379 382.379 L
357.5 384.5 L
358.379 386.621 L
360.5 387.5 L
362.621 386.621 L
cp
S
GR
GS
0.851 0.325 0.098 RC
1 LJ
N
372.5 384.5 M
371.621 382.379 L
369.5 381.5 L
367.379 382.379 L
366.5 384.5 L
367.379 386.621 L
369.5 387.5 L
371.621 386.621 L
cp
S
GR
GS
0.851 0.325 0.098 RC
1 LJ
N
381.5 384.5 M
380.621 382.379 L
378.5 381.5 L
376.379 382.379 L
375.5 384.5 L
376.379 386.621 L
378.5 387.5 L
380.621 386.621 L
cp
S
GR
GS
0.851 0.325 0.098 RC
1 LJ
N
390.5 384.5 M
389.621 382.379 L
387.5 381.5 L
385.379 382.379 L
384.5 384.5 L
385.379 386.621 L
387.5 387.5 L
389.621 386.621 L
cp
S
GR
GS
0.851 0.325 0.098 RC
1 LJ
N
399.5 384.5 M
398.621 382.379 L
396.5 381.5 L
394.379 382.379 L
393.5 384.5 L
394.379 386.621 L
396.5 387.5 L
398.621 386.621 L
cp
S
GR
GS
0.851 0.325 0.098 RC
1 LJ
N
408.5 384.5 M
407.621 382.379 L
405.5 381.5 L
403.379 382.379 L
402.5 384.5 L
403.379 386.621 L
405.5 387.5 L
407.621 386.621 L
cp
S
GR
GS
0.851 0.325 0.098 RC
1 LJ
N
417.5 384.5 M
416.621 382.379 L
414.5 381.5 L
412.379 382.379 L
411.5 384.5 L
412.379 386.621 L
414.5 387.5 L
416.621 386.621 L
cp
S
GR
GS
0.851 0.325 0.098 RC
1 LJ
N
426.5 384.5 M
425.621 382.379 L
423.5 381.5 L
421.379 382.379 L
420.5 384.5 L
421.379 386.621 L
423.5 387.5 L
425.621 386.621 L
cp
S
GR
GS
0.851 0.325 0.098 RC
1 LJ
N
435.5 384.5 M
434.621 382.379 L
432.5 381.5 L
430.379 382.379 L
429.5 384.5 L
430.379 386.621 L
432.5 387.5 L
434.621 386.621 L
cp
S
GR
GS
0.851 0.325 0.098 RC
1 LJ
N
444.5 384.5 M
443.621 382.379 L
441.5 381.5 L
439.379 382.379 L
438.5 384.5 L
439.379 386.621 L
441.5 387.5 L
443.621 386.621 L
cp
S
GR
GS
0.851 0.325 0.098 RC
1 LJ
N
453.5 384.5 M
452.621 382.379 L
450.5 381.5 L
448.379 382.379 L
447.5 384.5 L
448.379 386.621 L
450.5 387.5 L
452.621 386.621 L
cp
S
GR
GS
0.851 0.325 0.098 RC
1 LJ
N
461.5 384.5 M
460.621 382.379 L
458.5 381.5 L
456.379 382.379 L
455.5 384.5 L
456.379 386.621 L
458.5 387.5 L
460.621 386.621 L
cp
S
GR
GS
0.851 0.325 0.098 RC
1 LJ
N
470.5 384.5 M
469.621 382.379 L
467.5 381.5 L
465.379 382.379 L
464.5 384.5 L
465.379 386.621 L
467.5 387.5 L
469.621 386.621 L
cp
S
GR
GS
0.851 0.325 0.098 RC
1 LJ
N
479.5 384.5 M
478.621 382.379 L
476.5 381.5 L
474.379 382.379 L
473.5 384.5 L
474.379 386.621 L
476.5 387.5 L
478.621 386.621 L
cp
S
GR
GS
0.851 0.325 0.098 RC
1 LJ
N
488.5 384.5 M
487.621 382.379 L
485.5 381.5 L
483.379 382.379 L
482.5 384.5 L
483.379 386.621 L
485.5 387.5 L
487.621 386.621 L
cp
S
GR
GS
0.851 0.325 0.098 RC
1 LJ
N
497.5 384.5 M
496.621 382.379 L
494.5 381.5 L
492.379 382.379 L
491.5 384.5 L
492.379 386.621 L
494.5 387.5 L
496.621 386.621 L
cp
S
GR
GS
0.929 0.694 0.125 RC
1 LJ
N
83.93 66.452 M
92.86 65.124 L
101.79 101.233 L
110.72 204.583 L
119.65 233.73 L
128.58 247.982 L
137.51 279.944 L
146.44 300.166 L
155.37 312.059 L
164.3 319.93 L
173.23 331.98 L
182.16 337.126 L
191.09 342.526 L
200.02 344.805 L
208.95 348.743 L
217.88 351.964 L
226.81 355.409 L
235.74 359.498 L
244.67 362.586 L
253.6 362.136 L
262.53 366.03 L
271.46 367.217 L
280.39 368.028 L
289.32 370.11 L
298.25 371.119 L
307.18 371.634 L
316.11 372.359 L
325.04 372.996 L
333.97 373.531 L
342.9 373.963 L
351.83 374.857 L
360.76 375.076 L
369.69 375.634 L
378.62 375.518 L
387.55 376.035 L
396.48 376.41 L
405.41 376.832 L
414.34 376.874 L
423.27 377.155 L
432.2 377.366 L
441.13 377.624 L
450.06 377.736 L
458.99 377.934 L
467.92 377.999 L
476.85 378.223 L
485.78 378.405 L
494.71 378.471 L
S
GR
GS
0.929 0.694 0.125 RC
1 LJ
N
86.5 66.5 M
85.621 64.379 L
83.5 63.5 L
81.379 64.379 L
80.5 66.5 L
81.379 68.621 L
83.5 69.5 L
85.621 68.621 L
cp
S
GR
GS
0.929 0.694 0.125 RC
1 LJ
N
95.5 65.5 M
94.621 63.379 L
92.5 62.5 L
90.379 63.379 L
89.5 65.5 L
90.379 67.621 L
92.5 68.5 L
94.621 67.621 L
cp
S
GR
GS
0.929 0.694 0.125 RC
1 LJ
N
104.5 101.5 M
103.621 99.379 L
101.5 98.5 L
99.379 99.379 L
98.5 101.5 L
99.379 103.621 L
101.5 104.5 L
103.621 103.621 L
cp
S
GR
GS
0.929 0.694 0.125 RC
1 LJ
N
113.5 204.5 M
112.621 202.379 L
110.5 201.5 L
108.379 202.379 L
107.5 204.5 L
108.379 206.621 L
110.5 207.5 L
112.621 206.621 L
cp
S
GR
GS
0.929 0.694 0.125 RC
1 LJ
N
122.5 233.5 M
121.621 231.379 L
119.5 230.5 L
117.379 231.379 L
116.5 233.5 L
117.379 235.621 L
119.5 236.5 L
121.621 235.621 L
cp
S
GR
GS
0.929 0.694 0.125 RC
1 LJ
N
131.5 247.5 M
130.621 245.379 L
128.5 244.5 L
126.379 245.379 L
125.5 247.5 L
126.379 249.621 L
128.5 250.5 L
130.621 249.621 L
cp
S
GR
GS
0.929 0.694 0.125 RC
1 LJ
N
140.5 279.5 M
139.621 277.379 L
137.5 276.5 L
135.379 277.379 L
134.5 279.5 L
135.379 281.621 L
137.5 282.5 L
139.621 281.621 L
cp
S
GR
GS
0.929 0.694 0.125 RC
1 LJ
N
149.5 300.5 M
148.621 298.379 L
146.5 297.5 L
144.379 298.379 L
143.5 300.5 L
144.379 302.621 L
146.5 303.5 L
148.621 302.621 L
cp
S
GR
GS
0.929 0.694 0.125 RC
1 LJ
N
158.5 312.5 M
157.621 310.379 L
155.5 309.5 L
153.379 310.379 L
152.5 312.5 L
153.379 314.621 L
155.5 315.5 L
157.621 314.621 L
cp
S
GR
GS
0.929 0.694 0.125 RC
1 LJ
N
167.5 319.5 M
166.621 317.379 L
164.5 316.5 L
162.379 317.379 L
161.5 319.5 L
162.379 321.621 L
164.5 322.5 L
166.621 321.621 L
cp
S
GR
GS
0.929 0.694 0.125 RC
1 LJ
N
176.5 331.5 M
175.621 329.379 L
173.5 328.5 L
171.379 329.379 L
170.5 331.5 L
171.379 333.621 L
173.5 334.5 L
175.621 333.621 L
cp
S
GR
GS
0.929 0.694 0.125 RC
1 LJ
N
185.5 337.5 M
184.621 335.379 L
182.5 334.5 L
180.379 335.379 L
179.5 337.5 L
180.379 339.621 L
182.5 340.5 L
184.621 339.621 L
cp
S
GR
GS
0.929 0.694 0.125 RC
1 LJ
N
194.5 342.5 M
193.621 340.379 L
191.5 339.5 L
189.379 340.379 L
188.5 342.5 L
189.379 344.621 L
191.5 345.5 L
193.621 344.621 L
cp
S
GR
GS
0.929 0.694 0.125 RC
1 LJ
N
203.5 344.5 M
202.621 342.379 L
200.5 341.5 L
198.379 342.379 L
197.5 344.5 L
198.379 346.621 L
200.5 347.5 L
202.621 346.621 L
cp
S
GR
GS
0.929 0.694 0.125 RC
1 LJ
N
211.5 348.5 M
210.621 346.379 L
208.5 345.5 L
206.379 346.379 L
205.5 348.5 L
206.379 350.621 L
208.5 351.5 L
210.621 350.621 L
cp
S
GR
GS
0.929 0.694 0.125 RC
1 LJ
N
220.5 351.5 M
219.621 349.379 L
217.5 348.5 L
215.379 349.379 L
214.5 351.5 L
215.379 353.621 L
217.5 354.5 L
219.621 353.621 L
cp
S
GR
GS
0.929 0.694 0.125 RC
1 LJ
N
229.5 355.5 M
228.621 353.379 L
226.5 352.5 L
224.379 353.379 L
223.5 355.5 L
224.379 357.621 L
226.5 358.5 L
228.621 357.621 L
cp
S
GR
GS
0.929 0.694 0.125 RC
1 LJ
N
238.5 359.5 M
237.621 357.379 L
235.5 356.5 L
233.379 357.379 L
232.5 359.5 L
233.379 361.621 L
235.5 362.5 L
237.621 361.621 L
cp
S
GR
GS
0.929 0.694 0.125 RC
1 LJ
N
247.5 362.5 M
246.621 360.379 L
244.5 359.5 L
242.379 360.379 L
241.5 362.5 L
242.379 364.621 L
244.5 365.5 L
246.621 364.621 L
cp
S
GR
GS
0.929 0.694 0.125 RC
1 LJ
N
256.5 362.5 M
255.621 360.379 L
253.5 359.5 L
251.379 360.379 L
250.5 362.5 L
251.379 364.621 L
253.5 365.5 L
255.621 364.621 L
cp
S
GR
GS
0.929 0.694 0.125 RC
1 LJ
N
265.5 366.5 M
264.621 364.379 L
262.5 363.5 L
260.379 364.379 L
259.5 366.5 L
260.379 368.621 L
262.5 369.5 L
264.621 368.621 L
cp
S
GR
GS
0.929 0.694 0.125 RC
1 LJ
N
274.5 367.5 M
273.621 365.379 L
271.5 364.5 L
269.379 365.379 L
268.5 367.5 L
269.379 369.621 L
271.5 370.5 L
273.621 369.621 L
cp
S
GR
GS
0.929 0.694 0.125 RC
1 LJ
N
283.5 368.5 M
282.621 366.379 L
280.5 365.5 L
278.379 366.379 L
277.5 368.5 L
278.379 370.621 L
280.5 371.5 L
282.621 370.621 L
cp
S
GR
GS
0.929 0.694 0.125 RC
1 LJ
N
292.5 370.5 M
291.621 368.379 L
289.5 367.5 L
287.379 368.379 L
286.5 370.5 L
287.379 372.621 L
289.5 373.5 L
291.621 372.621 L
cp
S
GR
GS
0.929 0.694 0.125 RC
1 LJ
N
301.5 371.5 M
300.621 369.379 L
298.5 368.5 L
296.379 369.379 L
295.5 371.5 L
296.379 373.621 L
298.5 374.5 L
300.621 373.621 L
cp
S
GR
GS
0.929 0.694 0.125 RC
1 LJ
N
310.5 371.5 M
309.621 369.379 L
307.5 368.5 L
305.379 369.379 L
304.5 371.5 L
305.379 373.621 L
307.5 374.5 L
309.621 373.621 L
cp
S
GR
GS
0.929 0.694 0.125 RC
1 LJ
N
319.5 372.5 M
318.621 370.379 L
316.5 369.5 L
314.379 370.379 L
313.5 372.5 L
314.379 374.621 L
316.5 375.5 L
318.621 374.621 L
cp
S
GR
GS
0.929 0.694 0.125 RC
1 LJ
N
328.5 372.5 M
327.621 370.379 L
325.5 369.5 L
323.379 370.379 L
322.5 372.5 L
323.379 374.621 L
325.5 375.5 L
327.621 374.621 L
cp
S
GR
GS
0.929 0.694 0.125 RC
1 LJ
N
336.5 373.5 M
335.621 371.379 L
333.5 370.5 L
331.379 371.379 L
330.5 373.5 L
331.379 375.621 L
333.5 376.5 L
335.621 375.621 L
cp
S
GR
GS
0.929 0.694 0.125 RC
1 LJ
N
345.5 373.5 M
344.621 371.379 L
342.5 370.5 L
340.379 371.379 L
339.5 373.5 L
340.379 375.621 L
342.5 376.5 L
344.621 375.621 L
cp
S
GR
GS
0.929 0.694 0.125 RC
1 LJ
N
354.5 374.5 M
353.621 372.379 L
351.5 371.5 L
349.379 372.379 L
348.5 374.5 L
349.379 376.621 L
351.5 377.5 L
353.621 376.621 L
cp
S
GR
GS
0.929 0.694 0.125 RC
1 LJ
N
363.5 375.5 M
362.621 373.379 L
360.5 372.5 L
358.379 373.379 L
357.5 375.5 L
358.379 377.621 L
360.5 378.5 L
362.621 377.621 L
cp
S
GR
GS
0.929 0.694 0.125 RC
1 LJ
N
372.5 375.5 M
371.621 373.379 L
369.5 372.5 L
367.379 373.379 L
366.5 375.5 L
367.379 377.621 L
369.5 378.5 L
371.621 377.621 L
cp
S
GR
GS
0.929 0.694 0.125 RC
1 LJ
N
381.5 375.5 M
380.621 373.379 L
378.5 372.5 L
376.379 373.379 L
375.5 375.5 L
376.379 377.621 L
378.5 378.5 L
380.621 377.621 L
cp
S
GR
GS
0.929 0.694 0.125 RC
1 LJ
N
390.5 376.5 M
389.621 374.379 L
387.5 373.5 L
385.379 374.379 L
384.5 376.5 L
385.379 378.621 L
387.5 379.5 L
389.621 378.621 L
cp
S
GR
GS
0.929 0.694 0.125 RC
1 LJ
N
399.5 376.5 M
398.621 374.379 L
396.5 373.5 L
394.379 374.379 L
393.5 376.5 L
394.379 378.621 L
396.5 379.5 L
398.621 378.621 L
cp
S
GR
GS
0.929 0.694 0.125 RC
1 LJ
N
408.5 376.5 M
407.621 374.379 L
405.5 373.5 L
403.379 374.379 L
402.5 376.5 L
403.379 378.621 L
405.5 379.5 L
407.621 378.621 L
cp
S
GR
GS
0.929 0.694 0.125 RC
1 LJ
N
417.5 376.5 M
416.621 374.379 L
414.5 373.5 L
412.379 374.379 L
411.5 376.5 L
412.379 378.621 L
414.5 379.5 L
416.621 378.621 L
cp
S
GR
GS
0.929 0.694 0.125 RC
1 LJ
N
426.5 377.5 M
425.621 375.379 L
423.5 374.5 L
421.379 375.379 L
420.5 377.5 L
421.379 379.621 L
423.5 380.5 L
425.621 379.621 L
cp
S
GR
GS
0.929 0.694 0.125 RC
1 LJ
N
435.5 377.5 M
434.621 375.379 L
432.5 374.5 L
430.379 375.379 L
429.5 377.5 L
430.379 379.621 L
432.5 380.5 L
434.621 379.621 L
cp
S
GR
GS
0.929 0.694 0.125 RC
1 LJ
N
444.5 377.5 M
443.621 375.379 L
441.5 374.5 L
439.379 375.379 L
438.5 377.5 L
439.379 379.621 L
441.5 380.5 L
443.621 379.621 L
cp
S
GR
GS
0.929 0.694 0.125 RC
1 LJ
N
453.5 377.5 M
452.621 375.379 L
450.5 374.5 L
448.379 375.379 L
447.5 377.5 L
448.379 379.621 L
450.5 380.5 L
452.621 379.621 L
cp
S
GR
GS
0.929 0.694 0.125 RC
1 LJ
N
461.5 377.5 M
460.621 375.379 L
458.5 374.5 L
456.379 375.379 L
455.5 377.5 L
456.379 379.621 L
458.5 380.5 L
460.621 379.621 L
cp
S
GR
GS
0.929 0.694 0.125 RC
1 LJ
N
470.5 377.5 M
469.621 375.379 L
467.5 374.5 L
465.379 375.379 L
464.5 377.5 L
465.379 379.621 L
467.5 380.5 L
469.621 379.621 L
cp
S
GR
GS
0.929 0.694 0.125 RC
1 LJ
N
479.5 378.5 M
478.621 376.379 L
476.5 375.5 L
474.379 376.379 L
473.5 378.5 L
474.379 380.621 L
476.5 381.5 L
478.621 380.621 L
cp
S
GR
GS
0.929 0.694 0.125 RC
1 LJ
N
488.5 378.5 M
487.621 376.379 L
485.5 375.5 L
483.379 376.379 L
482.5 378.5 L
483.379 380.621 L
485.5 381.5 L
487.621 380.621 L
cp
S
GR
GS
0.929 0.694 0.125 RC
1 LJ
N
497.5 378.5 M
496.621 376.379 L
494.5 375.5 L
492.379 376.379 L
491.5 378.5 L
492.379 380.621 L
494.5 381.5 L
496.621 380.621 L
cp
S
GR
GS
0.494 0.184 0.557 RC
1 LJ
N
83.93 73.278 M
92.86 66.52 L
101.79 168.603 L
110.72 247.18 L
119.65 259.479 L
128.58 290.871 L
137.51 296.155 L
146.44 341.28 L
155.37 335.873 L
164.3 360.008 L
173.23 359.869 L
182.16 374.402 L
191.09 376.145 L
200.02 381.094 L
208.95 381.634 L
217.88 382.986 L
226.81 383.212 L
235.74 383.438 L
244.67 383.478 L
253.6 383.624 L
262.53 383.73 L
271.46 383.715 L
280.39 383.814 L
289.32 383.858 L
298.25 383.94 L
307.18 383.95 L
316.11 383.981 L
325.04 383.996 L
333.97 384.02 L
342.9 384.035 L
351.83 384.053 L
360.76 384.062 L
369.69 384.08 L
378.62 384.077 L
387.55 384.101 L
396.48 384.106 L
405.41 384.125 L
414.34 384.132 L
423.27 384.147 L
432.2 384.165 L
441.13 384.163 L
450.06 384.172 L
458.99 384.187 L
467.92 384.188 L
476.85 384.21 L
485.78 384.209 L
494.71 384.227 L
S
GR
GS
0.494 0.184 0.557 RC
1 LJ
N
86.5 73.5 M
85.621 71.379 L
83.5 70.5 L
81.379 71.379 L
80.5 73.5 L
81.379 75.621 L
83.5 76.5 L
85.621 75.621 L
cp
S
GR
GS
0.494 0.184 0.557 RC
1 LJ
N
95.5 66.5 M
94.621 64.379 L
92.5 63.5 L
90.379 64.379 L
89.5 66.5 L
90.379 68.621 L
92.5 69.5 L
94.621 68.621 L
cp
S
GR
GS
0.494 0.184 0.557 RC
1 LJ
N
104.5 168.5 M
103.621 166.379 L
101.5 165.5 L
99.379 166.379 L
98.5 168.5 L
99.379 170.621 L
101.5 171.5 L
103.621 170.621 L
cp
S
GR
GS
0.494 0.184 0.557 RC
1 LJ
N
113.5 247.5 M
112.621 245.379 L
110.5 244.5 L
108.379 245.379 L
107.5 247.5 L
108.379 249.621 L
110.5 250.5 L
112.621 249.621 L
cp
S
GR
GS
0.494 0.184 0.557 RC
1 LJ
N
122.5 259.5 M
121.621 257.379 L
119.5 256.5 L
117.379 257.379 L
116.5 259.5 L
117.379 261.621 L
119.5 262.5 L
121.621 261.621 L
cp
S
GR
GS
0.494 0.184 0.557 RC
1 LJ
N
131.5 290.5 M
130.621 288.379 L
128.5 287.5 L
126.379 288.379 L
125.5 290.5 L
126.379 292.621 L
128.5 293.5 L
130.621 292.621 L
cp
S
GR
GS
0.494 0.184 0.557 RC
1 LJ
N
140.5 296.5 M
139.621 294.379 L
137.5 293.5 L
135.379 294.379 L
134.5 296.5 L
135.379 298.621 L
137.5 299.5 L
139.621 298.621 L
cp
S
GR
GS
0.494 0.184 0.557 RC
1 LJ
N
149.5 341.5 M
148.621 339.379 L
146.5 338.5 L
144.379 339.379 L
143.5 341.5 L
144.379 343.621 L
146.5 344.5 L
148.621 343.621 L
cp
S
GR
GS
0.494 0.184 0.557 RC
1 LJ
N
158.5 335.5 M
157.621 333.379 L
155.5 332.5 L
153.379 333.379 L
152.5 335.5 L
153.379 337.621 L
155.5 338.5 L
157.621 337.621 L
cp
S
GR
GS
0.494 0.184 0.557 RC
1 LJ
N
167.5 360.5 M
166.621 358.379 L
164.5 357.5 L
162.379 358.379 L
161.5 360.5 L
162.379 362.621 L
164.5 363.5 L
166.621 362.621 L
cp
S
GR
GS
0.494 0.184 0.557 RC
1 LJ
N
176.5 359.5 M
175.621 357.379 L
173.5 356.5 L
171.379 357.379 L
170.5 359.5 L
171.379 361.621 L
173.5 362.5 L
175.621 361.621 L
cp
S
GR
GS
0.494 0.184 0.557 RC
1 LJ
N
185.5 374.5 M
184.621 372.379 L
182.5 371.5 L
180.379 372.379 L
179.5 374.5 L
180.379 376.621 L
182.5 377.5 L
184.621 376.621 L
cp
S
GR
GS
0.494 0.184 0.557 RC
1 LJ
N
194.5 376.5 M
193.621 374.379 L
191.5 373.5 L
189.379 374.379 L
188.5 376.5 L
189.379 378.621 L
191.5 379.5 L
193.621 378.621 L
cp
S
GR
GS
0.494 0.184 0.557 RC
1 LJ
N
203.5 381.5 M
202.621 379.379 L
200.5 378.5 L
198.379 379.379 L
197.5 381.5 L
198.379 383.621 L
200.5 384.5 L
202.621 383.621 L
cp
S
GR
GS
0.494 0.184 0.557 RC
1 LJ
N
211.5 381.5 M
210.621 379.379 L
208.5 378.5 L
206.379 379.379 L
205.5 381.5 L
206.379 383.621 L
208.5 384.5 L
210.621 383.621 L
cp
S
GR
GS
0.494 0.184 0.557 RC
1 LJ
N
220.5 382.5 M
219.621 380.379 L
217.5 379.5 L
215.379 380.379 L
214.5 382.5 L
215.379 384.621 L
217.5 385.5 L
219.621 384.621 L
cp
S
GR
GS
0.494 0.184 0.557 RC
1 LJ
N
229.5 383.5 M
228.621 381.379 L
226.5 380.5 L
224.379 381.379 L
223.5 383.5 L
224.379 385.621 L
226.5 386.5 L
228.621 385.621 L
cp
S
GR
GS
0.494 0.184 0.557 RC
1 LJ
N
238.5 383.5 M
237.621 381.379 L
235.5 380.5 L
233.379 381.379 L
232.5 383.5 L
233.379 385.621 L
235.5 386.5 L
237.621 385.621 L
cp
S
GR
GS
0.494 0.184 0.557 RC
1 LJ
N
247.5 383.5 M
246.621 381.379 L
244.5 380.5 L
242.379 381.379 L
241.5 383.5 L
242.379 385.621 L
244.5 386.5 L
246.621 385.621 L
cp
S
GR
GS
0.494 0.184 0.557 RC
1 LJ
N
256.5 383.5 M
255.621 381.379 L
253.5 380.5 L
251.379 381.379 L
250.5 383.5 L
251.379 385.621 L
253.5 386.5 L
255.621 385.621 L
cp
S
GR
GS
0.494 0.184 0.557 RC
1 LJ
N
265.5 383.5 M
264.621 381.379 L
262.5 380.5 L
260.379 381.379 L
259.5 383.5 L
260.379 385.621 L
262.5 386.5 L
264.621 385.621 L
cp
S
GR
GS
0.494 0.184 0.557 RC
1 LJ
N
274.5 383.5 M
273.621 381.379 L
271.5 380.5 L
269.379 381.379 L
268.5 383.5 L
269.379 385.621 L
271.5 386.5 L
273.621 385.621 L
cp
S
GR
GS
0.494 0.184 0.557 RC
1 LJ
N
283.5 383.5 M
282.621 381.379 L
280.5 380.5 L
278.379 381.379 L
277.5 383.5 L
278.379 385.621 L
280.5 386.5 L
282.621 385.621 L
cp
S
GR
GS
0.494 0.184 0.557 RC
1 LJ
N
292.5 383.5 M
291.621 381.379 L
289.5 380.5 L
287.379 381.379 L
286.5 383.5 L
287.379 385.621 L
289.5 386.5 L
291.621 385.621 L
cp
S
GR
GS
0.494 0.184 0.557 RC
1 LJ
N
301.5 383.5 M
300.621 381.379 L
298.5 380.5 L
296.379 381.379 L
295.5 383.5 L
296.379 385.621 L
298.5 386.5 L
300.621 385.621 L
cp
S
GR
GS
0.494 0.184 0.557 RC
1 LJ
N
310.5 383.5 M
309.621 381.379 L
307.5 380.5 L
305.379 381.379 L
304.5 383.5 L
305.379 385.621 L
307.5 386.5 L
309.621 385.621 L
cp
S
GR
GS
0.494 0.184 0.557 RC
1 LJ
N
319.5 383.5 M
318.621 381.379 L
316.5 380.5 L
314.379 381.379 L
313.5 383.5 L
314.379 385.621 L
316.5 386.5 L
318.621 385.621 L
cp
S
GR
GS
0.494 0.184 0.557 RC
1 LJ
N
328.5 383.5 M
327.621 381.379 L
325.5 380.5 L
323.379 381.379 L
322.5 383.5 L
323.379 385.621 L
325.5 386.5 L
327.621 385.621 L
cp
S
GR
GS
0.494 0.184 0.557 RC
1 LJ
N
336.5 384.5 M
335.621 382.379 L
333.5 381.5 L
331.379 382.379 L
330.5 384.5 L
331.379 386.621 L
333.5 387.5 L
335.621 386.621 L
cp
S
GR
GS
0.494 0.184 0.557 RC
1 LJ
N
345.5 384.5 M
344.621 382.379 L
342.5 381.5 L
340.379 382.379 L
339.5 384.5 L
340.379 386.621 L
342.5 387.5 L
344.621 386.621 L
cp
S
GR
GS
0.494 0.184 0.557 RC
1 LJ
N
354.5 384.5 M
353.621 382.379 L
351.5 381.5 L
349.379 382.379 L
348.5 384.5 L
349.379 386.621 L
351.5 387.5 L
353.621 386.621 L
cp
S
GR
GS
0.494 0.184 0.557 RC
1 LJ
N
363.5 384.5 M
362.621 382.379 L
360.5 381.5 L
358.379 382.379 L
357.5 384.5 L
358.379 386.621 L
360.5 387.5 L
362.621 386.621 L
cp
S
GR
GS
0.494 0.184 0.557 RC
1 LJ
N
372.5 384.5 M
371.621 382.379 L
369.5 381.5 L
367.379 382.379 L
366.5 384.5 L
367.379 386.621 L
369.5 387.5 L
371.621 386.621 L
cp
S
GR
GS
0.494 0.184 0.557 RC
1 LJ
N
381.5 384.5 M
380.621 382.379 L
378.5 381.5 L
376.379 382.379 L
375.5 384.5 L
376.379 386.621 L
378.5 387.5 L
380.621 386.621 L
cp
S
GR
GS
0.494 0.184 0.557 RC
1 LJ
N
390.5 384.5 M
389.621 382.379 L
387.5 381.5 L
385.379 382.379 L
384.5 384.5 L
385.379 386.621 L
387.5 387.5 L
389.621 386.621 L
cp
S
GR
GS
0.494 0.184 0.557 RC
1 LJ
N
399.5 384.5 M
398.621 382.379 L
396.5 381.5 L
394.379 382.379 L
393.5 384.5 L
394.379 386.621 L
396.5 387.5 L
398.621 386.621 L
cp
S
GR
GS
0.494 0.184 0.557 RC
1 LJ
N
408.5 384.5 M
407.621 382.379 L
405.5 381.5 L
403.379 382.379 L
402.5 384.5 L
403.379 386.621 L
405.5 387.5 L
407.621 386.621 L
cp
S
GR
GS
0.494 0.184 0.557 RC
1 LJ
N
417.5 384.5 M
416.621 382.379 L
414.5 381.5 L
412.379 382.379 L
411.5 384.5 L
412.379 386.621 L
414.5 387.5 L
416.621 386.621 L
cp
S
GR
GS
0.494 0.184 0.557 RC
1 LJ
N
426.5 384.5 M
425.621 382.379 L
423.5 381.5 L
421.379 382.379 L
420.5 384.5 L
421.379 386.621 L
423.5 387.5 L
425.621 386.621 L
cp
S
GR
GS
0.494 0.184 0.557 RC
1 LJ
N
435.5 384.5 M
434.621 382.379 L
432.5 381.5 L
430.379 382.379 L
429.5 384.5 L
430.379 386.621 L
432.5 387.5 L
434.621 386.621 L
cp
S
GR
GS
0.494 0.184 0.557 RC
1 LJ
N
444.5 384.5 M
443.621 382.379 L
441.5 381.5 L
439.379 382.379 L
438.5 384.5 L
439.379 386.621 L
441.5 387.5 L
443.621 386.621 L
cp
S
GR
GS
0.494 0.184 0.557 RC
1 LJ
N
453.5 384.5 M
452.621 382.379 L
450.5 381.5 L
448.379 382.379 L
447.5 384.5 L
448.379 386.621 L
450.5 387.5 L
452.621 386.621 L
cp
S
GR
GS
0.494 0.184 0.557 RC
1 LJ
N
461.5 384.5 M
460.621 382.379 L
458.5 381.5 L
456.379 382.379 L
455.5 384.5 L
456.379 386.621 L
458.5 387.5 L
460.621 386.621 L
cp
S
GR
GS
0.494 0.184 0.557 RC
1 LJ
N
470.5 384.5 M
469.621 382.379 L
467.5 381.5 L
465.379 382.379 L
464.5 384.5 L
465.379 386.621 L
467.5 387.5 L
469.621 386.621 L
cp
S
GR
GS
0.494 0.184 0.557 RC
1 LJ
N
479.5 384.5 M
478.621 382.379 L
476.5 381.5 L
474.379 382.379 L
473.5 384.5 L
474.379 386.621 L
476.5 387.5 L
478.621 386.621 L
cp
S
GR
GS
0.494 0.184 0.557 RC
1 LJ
N
488.5 384.5 M
487.621 382.379 L
485.5 381.5 L
483.379 382.379 L
482.5 384.5 L
483.379 386.621 L
485.5 387.5 L
487.621 386.621 L
cp
S
GR
GS
0.494 0.184 0.557 RC
1 LJ
N
497.5 384.5 M
496.621 382.379 L
494.5 381.5 L
492.379 382.379 L
491.5 384.5 L
492.379 386.621 L
494.5 387.5 L
496.621 386.621 L
cp
S
GR
GS
[1 0 0 1 422 49.25] CT
/Helvetica 9 F
GS
[1 0 0 1 0 0] CT
0 2 moveto 
1 -1 scale
(No) t 
GR
GR
GS
0 0.447 0.741 RC
1 LJ
N
389 49.25 M
419 49.25 L
S
GR
GS
0 0.447 0.741 RC
1 LJ
N
406.5 49.5 M
405.621 47.379 L
403.5 46.5 L
401.379 47.379 L
400.5 49.5 L
401.379 51.621 L
403.5 52.5 L
405.621 51.621 L
cp
S
GR
GS
[1 0 0 1 422 59.25] CT
/Helvetica 9 F
GS
[1 0 0 1 0 0] CT
0 2 moveto 
1 -1 scale
(Random) t 
GR
GR
GS
0.851 0.325 0.098 RC
1 LJ
N
389 59.25 M
419 59.25 L
S
GR
GS
0.851 0.325 0.098 RC
1 LJ
N
406.5 59.5 M
405.621 57.379 L
403.5 56.5 L
401.379 57.379 L
400.5 59.5 L
401.379 61.621 L
403.5 62.5 L
405.621 61.621 L
cp
S
GR
GS
[1 0 0 1 422 69.25] CT
/Helvetica 9 F
GS
[1 0 0 1 0 0] CT
0 2 moveto 
1 -1 scale
(Random replacement) t 
GR
GR
GS
0.929 0.694 0.125 RC
1 LJ
N
389 69.25 M
419 69.25 L
S
GR
GS
0.929 0.694 0.125 RC
1 LJ
N
406.5 69.5 M
405.621 67.379 L
403.5 66.5 L
401.379 67.379 L
400.5 69.5 L
401.379 71.621 L
403.5 72.5 L
405.621 71.621 L
cp
S
GR
GS
[1 0 0 1 422 79.25] CT
/Helvetica 9 F
GS
[1 0 0 1 0 0] CT
0 2 moveto 
1 -1 scale
(Shuffling) t 
GR
GR
GS
0.494 0.184 0.557 RC
1 LJ
N
389 79.25 M
419 79.25 L
S
GR
GS
0.494 0.184 0.557 RC
1 LJ
N
406.5 79.5 M
405.621 77.379 L
403.5 76.5 L
401.379 77.379 L
400.5 79.5 L
401.379 81.621 L
403.5 82.5 L
405.621 81.621 L
cp
S
GR
%%Trailer
%%Pages: 1
%%EOF
