%!PS-Adobe-3.0 EPSF-3.0
%%Creator: (MATLAB, The Mathworks, Inc. Version 8.6.0.267246 \(R2015b\). Operating System: Mac OS X)
%%Title: /Users/gauthiermuguerza/Desktop/rsgd/report/images/jokesWeightsTest.eps
%%CreationDate: 2018-06-01T14:45:59
%%Pages: (atend)
%%BoundingBox:    17     0   538   410
%%LanguageLevel: 3
%%EndComments
%%BeginProlog
%%BeginResource: procset (Apache XML Graphics Std ProcSet) 1.2 0
%%Version: 1.2 0
%%Copyright: (Copyright 2001-2003,2010 The Apache Software Foundation. License terms: http://www.apache.org/licenses/LICENSE-2.0)
/bd{bind def}bind def
/ld{load def}bd
/GR/grestore ld
/M/moveto ld
/LJ/setlinejoin ld
/C/curveto ld
/f/fill ld
/LW/setlinewidth ld
/GC/setgray ld
/t/show ld
/N/newpath ld
/CT/concat ld
/cp/closepath ld
/S/stroke ld
/L/lineto ld
/CC/setcmykcolor ld
/A/ashow ld
/GS/gsave ld
/RC/setrgbcolor ld
/RM/rmoveto ld
/ML/setmiterlimit ld
/re {4 2 roll M
1 index 0 rlineto
0 exch rlineto
neg 0 rlineto
cp } bd
/_ctm matrix def
/_tm matrix def
/BT { _ctm currentmatrix pop matrix _tm copy pop 0 0 moveto } bd
/ET { _ctm setmatrix } bd
/iTm { _ctm setmatrix _tm concat } bd
/Tm { _tm astore pop iTm 0 0 moveto } bd
/ux 0.0 def
/uy 0.0 def
/F {
  /Tp exch def
  /Tf exch def
  Tf findfont Tp scalefont setfont
  /cf Tf def  /cs Tp def
} bd
/ULS {currentpoint /uy exch def /ux exch def} bd
/ULE {
  /Tcx currentpoint pop def
  gsave
  newpath
  cf findfont cs scalefont dup
  /FontMatrix get 0 get /Ts exch def /FontInfo get dup
  /UnderlinePosition get Ts mul /To exch def
  /UnderlineThickness get Ts mul /Tt exch def
  ux uy To add moveto  Tcx uy To add lineto
  Tt setlinewidth stroke
  grestore
} bd
/OLE {
  /Tcx currentpoint pop def
  gsave
  newpath
  cf findfont cs scalefont dup
  /FontMatrix get 0 get /Ts exch def /FontInfo get dup
  /UnderlinePosition get Ts mul /To exch def
  /UnderlineThickness get Ts mul /Tt exch def
  ux uy To add cs add moveto Tcx uy To add cs add lineto
  Tt setlinewidth stroke
  grestore
} bd
/SOE {
  /Tcx currentpoint pop def
  gsave
  newpath
  cf findfont cs scalefont dup
  /FontMatrix get 0 get /Ts exch def /FontInfo get dup
  /UnderlinePosition get Ts mul /To exch def
  /UnderlineThickness get Ts mul /Tt exch def
  ux uy To add cs 10 mul 26 idiv add moveto Tcx uy To add cs 10 mul 26 idiv add lineto
  Tt setlinewidth stroke
  grestore
} bd
/QT {
/Y22 exch store
/X22 exch store
/Y21 exch store
/X21 exch store
currentpoint
/Y21 load 2 mul add 3 div exch
/X21 load 2 mul add 3 div exch
/X21 load 2 mul /X22 load add 3 div
/Y21 load 2 mul /Y22 load add 3 div
/X22 load /Y22 load curveto
} bd
/SSPD {
dup length /d exch dict def
{
/v exch def
/k exch def
currentpagedevice k known {
/cpdv currentpagedevice k get def
v cpdv ne {
/upd false def
/nullv v type /nulltype eq def
/nullcpdv cpdv type /nulltype eq def
nullv nullcpdv or
{
/upd true def
} {
/sametype v type cpdv type eq def
sametype {
v type /arraytype eq {
/vlen v length def
/cpdvlen cpdv length def
vlen cpdvlen eq {
0 1 vlen 1 sub {
/i exch def
/obj v i get def
/cpdobj cpdv i get def
obj cpdobj ne {
/upd true def
exit
} if
} for
} {
/upd true def
} ifelse
} {
v type /dicttype eq {
v {
/dv exch def
/dk exch def
/cpddv cpdv dk get def
dv cpddv ne {
/upd true def
exit
} if
} forall
} {
/upd true def
} ifelse
} ifelse
} if
} ifelse
upd true eq {
d k v put
} if
} if
} if
} forall
d length 0 gt {
d setpagedevice
} if
} bd
%%EndResource
%%BeginResource: procset (Apache XML Graphics EPS ProcSet) 1.0 0
%%Version: 1.0 0
%%Copyright: (Copyright 2002-2003 The Apache Software Foundation. License terms: http://www.apache.org/licenses/LICENSE-2.0)
/BeginEPSF { %def
/b4_Inc_state save def         % Save state for cleanup
/dict_count countdictstack def % Count objects on dict stack
/op_count count 1 sub def      % Count objects on operand stack
userdict begin                 % Push userdict on dict stack
/showpage { } def              % Redefine showpage, { } = null proc
0 setgray 0 setlinecap         % Prepare graphics state
1 setlinewidth 0 setlinejoin
10 setmiterlimit [ ] 0 setdash newpath
/languagelevel where           % If level not equal to 1 then
{pop languagelevel             % set strokeadjust and
1 ne                           % overprint to their defaults.
{false setstrokeadjust false setoverprint
} if
} if
} bd
/EndEPSF { %def
count op_count sub {pop} repeat            % Clean up stacks
countdictstack dict_count sub {end} repeat
b4_Inc_state restore
} bd
%%EndResource
%FOPBeginFontDict
%%IncludeResource: font Courier-Bold
%%IncludeResource: font Helvetica
%%IncludeResource: font Courier-BoldOblique
%%IncludeResource: font Courier-Oblique
%%IncludeResource: font Times-Roman
%%IncludeResource: font Helvetica-BoldOblique
%%IncludeResource: font Helvetica-Bold
%%IncludeResource: font Helvetica-Oblique
%%IncludeResource: font Times-BoldItalic
%%IncludeResource: font Courier
%%IncludeResource: font Times-Italic
%%IncludeResource: font Times-Bold
%%IncludeResource: font Symbol
%%IncludeResource: font ZapfDingbats
%FOPEndFontDict
%%BeginResource: encoding WinAnsiEncoding
/WinAnsiEncoding [
/.notdef /.notdef /.notdef /.notdef /.notdef
/.notdef /.notdef /.notdef /.notdef /.notdef
/.notdef /.notdef /.notdef /.notdef /.notdef
/.notdef /.notdef /.notdef /.notdef /.notdef
/.notdef /.notdef /.notdef /.notdef /.notdef
/.notdef /.notdef /.notdef /.notdef /.notdef
/.notdef /.notdef /space /exclam /quotedbl
/numbersign /dollar /percent /ampersand /quotesingle
/parenleft /parenright /asterisk /plus /comma
/hyphen /period /slash /zero /one
/two /three /four /five /six
/seven /eight /nine /colon /semicolon
/less /equal /greater /question /at
/A /B /C /D /E
/F /G /H /I /J
/K /L /M /N /O
/P /Q /R /S /T
/U /V /W /X /Y
/Z /bracketleft /backslash /bracketright /asciicircum
/underscore /quoteleft /a /b /c
/d /e /f /g /h
/i /j /k /l /m
/n /o /p /q /r
/s /t /u /v /w
/x /y /z /braceleft /bar
/braceright /asciitilde /bullet /Euro /bullet
/quotesinglbase /florin /quotedblbase /ellipsis /dagger
/daggerdbl /circumflex /perthousand /Scaron /guilsinglleft
/OE /bullet /Zcaron /bullet /bullet
/quoteleft /quoteright /quotedblleft /quotedblright /bullet
/endash /emdash /asciitilde /trademark /scaron
/guilsinglright /oe /bullet /zcaron /Ydieresis
/space /exclamdown /cent /sterling /currency
/yen /brokenbar /section /dieresis /copyright
/ordfeminine /guillemotleft /logicalnot /sfthyphen /registered
/macron /degree /plusminus /twosuperior /threesuperior
/acute /mu /paragraph /middot /cedilla
/onesuperior /ordmasculine /guillemotright /onequarter /onehalf
/threequarters /questiondown /Agrave /Aacute /Acircumflex
/Atilde /Adieresis /Aring /AE /Ccedilla
/Egrave /Eacute /Ecircumflex /Edieresis /Igrave
/Iacute /Icircumflex /Idieresis /Eth /Ntilde
/Ograve /Oacute /Ocircumflex /Otilde /Odieresis
/multiply /Oslash /Ugrave /Uacute /Ucircumflex
/Udieresis /Yacute /Thorn /germandbls /agrave
/aacute /acircumflex /atilde /adieresis /aring
/ae /ccedilla /egrave /eacute /ecircumflex
/edieresis /igrave /iacute /icircumflex /idieresis
/eth /ntilde /ograve /oacute /ocircumflex
/otilde /odieresis /divide /oslash /ugrave
/uacute /ucircumflex /udieresis /yacute /thorn
/ydieresis
] def
%%EndResource
%FOPBeginFontReencode
/Courier-Bold findfont
dup length dict begin
  {1 index /FID ne {def} {pop pop} ifelse} forall
  /Encoding WinAnsiEncoding def
  currentdict
end
/Courier-Bold exch definefont pop
/Helvetica findfont
dup length dict begin
  {1 index /FID ne {def} {pop pop} ifelse} forall
  /Encoding WinAnsiEncoding def
  currentdict
end
/Helvetica exch definefont pop
/Courier-BoldOblique findfont
dup length dict begin
  {1 index /FID ne {def} {pop pop} ifelse} forall
  /Encoding WinAnsiEncoding def
  currentdict
end
/Courier-BoldOblique exch definefont pop
/Courier-Oblique findfont
dup length dict begin
  {1 index /FID ne {def} {pop pop} ifelse} forall
  /Encoding WinAnsiEncoding def
  currentdict
end
/Courier-Oblique exch definefont pop
/Times-Roman findfont
dup length dict begin
  {1 index /FID ne {def} {pop pop} ifelse} forall
  /Encoding WinAnsiEncoding def
  currentdict
end
/Times-Roman exch definefont pop
/Helvetica-BoldOblique findfont
dup length dict begin
  {1 index /FID ne {def} {pop pop} ifelse} forall
  /Encoding WinAnsiEncoding def
  currentdict
end
/Helvetica-BoldOblique exch definefont pop
/Helvetica-Bold findfont
dup length dict begin
  {1 index /FID ne {def} {pop pop} ifelse} forall
  /Encoding WinAnsiEncoding def
  currentdict
end
/Helvetica-Bold exch definefont pop
/Helvetica-Oblique findfont
dup length dict begin
  {1 index /FID ne {def} {pop pop} ifelse} forall
  /Encoding WinAnsiEncoding def
  currentdict
end
/Helvetica-Oblique exch definefont pop
/Times-BoldItalic findfont
dup length dict begin
  {1 index /FID ne {def} {pop pop} ifelse} forall
  /Encoding WinAnsiEncoding def
  currentdict
end
/Times-BoldItalic exch definefont pop
/Courier findfont
dup length dict begin
  {1 index /FID ne {def} {pop pop} ifelse} forall
  /Encoding WinAnsiEncoding def
  currentdict
end
/Courier exch definefont pop
/Times-Italic findfont
dup length dict begin
  {1 index /FID ne {def} {pop pop} ifelse} forall
  /Encoding WinAnsiEncoding def
  currentdict
end
/Times-Italic exch definefont pop
/Times-Bold findfont
dup length dict begin
  {1 index /FID ne {def} {pop pop} ifelse} forall
  /Encoding WinAnsiEncoding def
  currentdict
end
/Times-Bold exch definefont pop
%FOPEndFontReencode
%%EndProlog
%%Page: 1 1
%%PageBoundingBox: 0 0 576 432
%%BeginPageSetup
[1 0 0 -1 0 432] CT
%%EndPageSetup
GS
1 GC
N
0 0 576 432 re
f
GR
GS
1 GC
N
0 0 576 432 re
f
GR
GS
1 GC
N
75 384 M
521.5 384 L
521.5 32.5 L
75 32.5 L
cp
f
GR
GS
0.149 GC
2 setlinecap
1 LJ
0.5 LW
N
75 384 M
521.5 384 L
S
GR
GS
0.149 GC
2 setlinecap
1 LJ
0.5 LW
N
75 384 M
75 379.535 L
S
GR
GS
0.149 GC
2 setlinecap
1 LJ
0.5 LW
N
223.833 384 M
223.833 379.535 L
S
GR
GS
0.149 GC
2 setlinecap
1 LJ
0.5 LW
N
372.667 384 M
372.667 379.535 L
S
GR
GS
0.149 GC
2 setlinecap
1 LJ
0.5 LW
N
521.5 384 M
521.5 379.535 L
S
GR
GS
[1 0 0 1 75 390] CT
0.149 GC
/Helvetica 20 F
GS
[1 0 0 1 0 0] CT
-6 16 moveto 
1 -1 scale
(0) t 
GR
GR
GS
[1 0 0 1 223.83333 390] CT
0.149 GC
/Helvetica 20 F
GS
[1 0 0 1 0 0] CT
-11.5 16 moveto 
1 -1 scale
(50) t 
GR
GR
GS
[1 0 0 1 372.66666 390] CT
0.149 GC
/Helvetica 20 F
GS
[1 0 0 1 0 0] CT
-17 16 moveto 
1 -1 scale
(100) t 
GR
GR
GS
[1 0 0 1 521.5 390] CT
0.149 GC
/Helvetica 20 F
GS
[1 0 0 1 0 0] CT
-17 16 moveto 
1 -1 scale
(150) t 
GR
GR
GS
[1 0 0 1 298.25021 411.5] CT
0.149 GC
/Helvetica 20 F
GS
[1 0 0 1 0 0] CT
-37 16 moveto 
1 -1 scale
(Time \(s\)) t 
GR
GR
GS
0.149 GC
2 setlinecap
1 LJ
0.5 LW
N
75 384 M
75 32.5 L
S
GR
GS
0.149 GC
2 setlinecap
1 LJ
0.5 LW
N
75 384 M
79.465 384 L
S
GR
GS
0.149 GC
2 setlinecap
1 LJ
0.5 LW
N
75 313.7 M
79.465 313.7 L
S
GR
GS
0.149 GC
2 setlinecap
1 LJ
0.5 LW
N
75 243.4 M
79.465 243.4 L
S
GR
GS
0.149 GC
2 setlinecap
1 LJ
0.5 LW
N
75 173.1 M
79.465 173.1 L
S
GR
GS
0.149 GC
2 setlinecap
1 LJ
0.5 LW
N
75 102.8 M
79.465 102.8 L
S
GR
GS
0.149 GC
2 setlinecap
1 LJ
0.5 LW
N
75 32.5 M
79.465 32.5 L
S
GR
GS
[1 0 0 1 69 384] CT
0.149 GC
/Helvetica 20 F
GS
[1 0 0 1 0 0] CT
-12 5.5 moveto 
1 -1 scale
(4) t 
GR
GR
GS
[1 0 0 1 69 313.70001] CT
0.149 GC
/Helvetica 20 F
GS
[1 0 0 1 0 0] CT
-28 5.5 moveto 
1 -1 scale
(4.5) t 
GR
GR
GS
[1 0 0 1 69 243.39999] CT
0.149 GC
/Helvetica 20 F
GS
[1 0 0 1 0 0] CT
-12 5.5 moveto 
1 -1 scale
(5) t 
GR
GR
GS
[1 0 0 1 69 173.10001] CT
0.149 GC
/Helvetica 20 F
GS
[1 0 0 1 0 0] CT
-28 5.5 moveto 
1 -1 scale
(5.5) t 
GR
GR
GS
[1 0 0 1 69 102.8] CT
0.149 GC
/Helvetica 20 F
GS
[1 0 0 1 0 0] CT
-12 5.5 moveto 
1 -1 scale
(6) t 
GR
GR
GS
[1 0 0 1 69 32.5] CT
0.149 GC
/Helvetica 20 F
GS
[1 0 0 1 0 0] CT
-28 5.5 moveto 
1 -1 scale
(6.5) t 
GR
GR
GS
[0 -1 1 0 38 208.24986] CT
0.149 GC
/Helvetica 20 F
GS
[1 0 0 1 0 0] CT
-29 -5 moveto 
1 -1 scale
(RMSE) t 
GR
GR
GS
0 0.447 0.741 RC
1 LJ
N
75 100.137 M
85.168 310.262 L
95.345 311.455 L
105.365 307.115 L
115.347 333.468 L
125.38 341.174 L
135.287 346.054 L
145.153 347.961 L
155.03 349.975 L
165.069 353.347 L
174.96 353.284 L
184.849 354.052 L
194.699 353.762 L
204.521 353.803 L
214.362 352.743 L
224.248 353.32 L
234.123 352.748 L
243.925 352.804 L
253.763 353.024 L
263.614 352.668 L
273.633 352.535 L
283.529 352.258 L
293.753 352.011 L
303.759 351.804 L
314.248 351.673 L
324.448 351.594 L
335.073 351.596 L
345.283 351.689 L
355.461 351.522 L
365.586 351.379 L
375.979 351.316 L
386.112 351.294 L
396.161 351.256 L
406.426 351.139 L
416.446 351.197 L
426.52 351.175 L
436.649 351.11 L
446.79 351.032 L
456.946 350.981 L
467.231 350.948 L
S
GR
GS
0 0.447 0.741 RC
1 LJ
N
78.5 100.5 M
77.621 98.379 L
75.5 97.5 L
73.379 98.379 L
72.5 100.5 L
73.379 102.621 L
75.5 103.5 L
77.621 102.621 L
cp
S
GR
GS
0 0.447 0.741 RC
1 LJ
N
88.5 310.5 M
87.621 308.379 L
85.5 307.5 L
83.379 308.379 L
82.5 310.5 L
83.379 312.621 L
85.5 313.5 L
87.621 312.621 L
cp
S
GR
GS
0 0.447 0.741 RC
1 LJ
N
98.5 311.5 M
97.621 309.379 L
95.5 308.5 L
93.379 309.379 L
92.5 311.5 L
93.379 313.621 L
95.5 314.5 L
97.621 313.621 L
cp
S
GR
GS
0 0.447 0.741 RC
1 LJ
N
108.5 307.5 M
107.621 305.379 L
105.5 304.5 L
103.379 305.379 L
102.5 307.5 L
103.379 309.621 L
105.5 310.5 L
107.621 309.621 L
cp
S
GR
GS
0 0.447 0.741 RC
1 LJ
N
118.5 333.5 M
117.621 331.379 L
115.5 330.5 L
113.379 331.379 L
112.5 333.5 L
113.379 335.621 L
115.5 336.5 L
117.621 335.621 L
cp
S
GR
GS
0 0.447 0.741 RC
1 LJ
N
128.5 341.5 M
127.621 339.379 L
125.5 338.5 L
123.379 339.379 L
122.5 341.5 L
123.379 343.621 L
125.5 344.5 L
127.621 343.621 L
cp
S
GR
GS
0 0.447 0.741 RC
1 LJ
N
138.5 346.5 M
137.621 344.379 L
135.5 343.5 L
133.379 344.379 L
132.5 346.5 L
133.379 348.621 L
135.5 349.5 L
137.621 348.621 L
cp
S
GR
GS
0 0.447 0.741 RC
1 LJ
N
148.5 347.5 M
147.621 345.379 L
145.5 344.5 L
143.379 345.379 L
142.5 347.5 L
143.379 349.621 L
145.5 350.5 L
147.621 349.621 L
cp
S
GR
GS
0 0.447 0.741 RC
1 LJ
N
158.5 349.5 M
157.621 347.379 L
155.5 346.5 L
153.379 347.379 L
152.5 349.5 L
153.379 351.621 L
155.5 352.5 L
157.621 351.621 L
cp
S
GR
GS
0 0.447 0.741 RC
1 LJ
N
168.5 353.5 M
167.621 351.379 L
165.5 350.5 L
163.379 351.379 L
162.5 353.5 L
163.379 355.621 L
165.5 356.5 L
167.621 355.621 L
cp
S
GR
GS
0 0.447 0.741 RC
1 LJ
N
177.5 353.5 M
176.621 351.379 L
174.5 350.5 L
172.379 351.379 L
171.5 353.5 L
172.379 355.621 L
174.5 356.5 L
176.621 355.621 L
cp
S
GR
GS
0 0.447 0.741 RC
1 LJ
N
187.5 354.5 M
186.621 352.379 L
184.5 351.5 L
182.379 352.379 L
181.5 354.5 L
182.379 356.621 L
184.5 357.5 L
186.621 356.621 L
cp
S
GR
GS
0 0.447 0.741 RC
1 LJ
N
197.5 353.5 M
196.621 351.379 L
194.5 350.5 L
192.379 351.379 L
191.5 353.5 L
192.379 355.621 L
194.5 356.5 L
196.621 355.621 L
cp
S
GR
GS
0 0.447 0.741 RC
1 LJ
N
207.5 353.5 M
206.621 351.379 L
204.5 350.5 L
202.379 351.379 L
201.5 353.5 L
202.379 355.621 L
204.5 356.5 L
206.621 355.621 L
cp
S
GR
GS
0 0.447 0.741 RC
1 LJ
N
217.5 352.5 M
216.621 350.379 L
214.5 349.5 L
212.379 350.379 L
211.5 352.5 L
212.379 354.621 L
214.5 355.5 L
216.621 354.621 L
cp
S
GR
GS
0 0.447 0.741 RC
1 LJ
N
227.5 353.5 M
226.621 351.379 L
224.5 350.5 L
222.379 351.379 L
221.5 353.5 L
222.379 355.621 L
224.5 356.5 L
226.621 355.621 L
cp
S
GR
GS
0 0.447 0.741 RC
1 LJ
N
237.5 352.5 M
236.621 350.379 L
234.5 349.5 L
232.379 350.379 L
231.5 352.5 L
232.379 354.621 L
234.5 355.5 L
236.621 354.621 L
cp
S
GR
GS
0 0.447 0.741 RC
1 LJ
N
246.5 352.5 M
245.621 350.379 L
243.5 349.5 L
241.379 350.379 L
240.5 352.5 L
241.379 354.621 L
243.5 355.5 L
245.621 354.621 L
cp
S
GR
GS
0 0.447 0.741 RC
1 LJ
N
256.5 353.5 M
255.621 351.379 L
253.5 350.5 L
251.379 351.379 L
250.5 353.5 L
251.379 355.621 L
253.5 356.5 L
255.621 355.621 L
cp
S
GR
GS
0 0.447 0.741 RC
1 LJ
N
266.5 352.5 M
265.621 350.379 L
263.5 349.5 L
261.379 350.379 L
260.5 352.5 L
261.379 354.621 L
263.5 355.5 L
265.621 354.621 L
cp
S
GR
GS
0 0.447 0.741 RC
1 LJ
N
276.5 352.5 M
275.621 350.379 L
273.5 349.5 L
271.379 350.379 L
270.5 352.5 L
271.379 354.621 L
273.5 355.5 L
275.621 354.621 L
cp
S
GR
GS
0 0.447 0.741 RC
1 LJ
N
286.5 352.5 M
285.621 350.379 L
283.5 349.5 L
281.379 350.379 L
280.5 352.5 L
281.379 354.621 L
283.5 355.5 L
285.621 354.621 L
cp
S
GR
GS
0 0.447 0.741 RC
1 LJ
N
296.5 352.5 M
295.621 350.379 L
293.5 349.5 L
291.379 350.379 L
290.5 352.5 L
291.379 354.621 L
293.5 355.5 L
295.621 354.621 L
cp
S
GR
GS
0 0.447 0.741 RC
1 LJ
N
306.5 351.5 M
305.621 349.379 L
303.5 348.5 L
301.379 349.379 L
300.5 351.5 L
301.379 353.621 L
303.5 354.5 L
305.621 353.621 L
cp
S
GR
GS
0 0.447 0.741 RC
1 LJ
N
317.5 351.5 M
316.621 349.379 L
314.5 348.5 L
312.379 349.379 L
311.5 351.5 L
312.379 353.621 L
314.5 354.5 L
316.621 353.621 L
cp
S
GR
GS
0 0.447 0.741 RC
1 LJ
N
327.5 351.5 M
326.621 349.379 L
324.5 348.5 L
322.379 349.379 L
321.5 351.5 L
322.379 353.621 L
324.5 354.5 L
326.621 353.621 L
cp
S
GR
GS
0 0.447 0.741 RC
1 LJ
N
338.5 351.5 M
337.621 349.379 L
335.5 348.5 L
333.379 349.379 L
332.5 351.5 L
333.379 353.621 L
335.5 354.5 L
337.621 353.621 L
cp
S
GR
GS
0 0.447 0.741 RC
1 LJ
N
348.5 351.5 M
347.621 349.379 L
345.5 348.5 L
343.379 349.379 L
342.5 351.5 L
343.379 353.621 L
345.5 354.5 L
347.621 353.621 L
cp
S
GR
GS
0 0.447 0.741 RC
1 LJ
N
358.5 351.5 M
357.621 349.379 L
355.5 348.5 L
353.379 349.379 L
352.5 351.5 L
353.379 353.621 L
355.5 354.5 L
357.621 353.621 L
cp
S
GR
GS
0 0.447 0.741 RC
1 LJ
N
368.5 351.5 M
367.621 349.379 L
365.5 348.5 L
363.379 349.379 L
362.5 351.5 L
363.379 353.621 L
365.5 354.5 L
367.621 353.621 L
cp
S
GR
GS
0 0.447 0.741 RC
1 LJ
N
378.5 351.5 M
377.621 349.379 L
375.5 348.5 L
373.379 349.379 L
372.5 351.5 L
373.379 353.621 L
375.5 354.5 L
377.621 353.621 L
cp
S
GR
GS
0 0.447 0.741 RC
1 LJ
N
389.5 351.5 M
388.621 349.379 L
386.5 348.5 L
384.379 349.379 L
383.5 351.5 L
384.379 353.621 L
386.5 354.5 L
388.621 353.621 L
cp
S
GR
GS
0 0.447 0.741 RC
1 LJ
N
399.5 351.5 M
398.621 349.379 L
396.5 348.5 L
394.379 349.379 L
393.5 351.5 L
394.379 353.621 L
396.5 354.5 L
398.621 353.621 L
cp
S
GR
GS
0 0.447 0.741 RC
1 LJ
N
409.5 351.5 M
408.621 349.379 L
406.5 348.5 L
404.379 349.379 L
403.5 351.5 L
404.379 353.621 L
406.5 354.5 L
408.621 353.621 L
cp
S
GR
GS
0 0.447 0.741 RC
1 LJ
N
419.5 351.5 M
418.621 349.379 L
416.5 348.5 L
414.379 349.379 L
413.5 351.5 L
414.379 353.621 L
416.5 354.5 L
418.621 353.621 L
cp
S
GR
GS
0 0.447 0.741 RC
1 LJ
N
429.5 351.5 M
428.621 349.379 L
426.5 348.5 L
424.379 349.379 L
423.5 351.5 L
424.379 353.621 L
426.5 354.5 L
428.621 353.621 L
cp
S
GR
GS
0 0.447 0.741 RC
1 LJ
N
439.5 351.5 M
438.621 349.379 L
436.5 348.5 L
434.379 349.379 L
433.5 351.5 L
434.379 353.621 L
436.5 354.5 L
438.621 353.621 L
cp
S
GR
GS
0 0.447 0.741 RC
1 LJ
N
449.5 351.5 M
448.621 349.379 L
446.5 348.5 L
444.379 349.379 L
443.5 351.5 L
444.379 353.621 L
446.5 354.5 L
448.621 353.621 L
cp
S
GR
GS
0 0.447 0.741 RC
1 LJ
N
459.5 350.5 M
458.621 348.379 L
456.5 347.5 L
454.379 348.379 L
453.5 350.5 L
454.379 352.621 L
456.5 353.5 L
458.621 352.621 L
cp
S
GR
GS
0 0.447 0.741 RC
1 LJ
N
470.5 350.5 M
469.621 348.379 L
467.5 347.5 L
465.379 348.379 L
464.5 350.5 L
465.379 352.621 L
467.5 353.5 L
469.621 352.621 L
cp
S
GR
GS
0.851 0.325 0.098 RC
1 LJ
N
75 100.137 M
86.327 270.824 L
96.51 286.29 L
106.635 277.982 L
116.879 293.954 L
128.064 289.059 L
138.297 289.411 L
148.634 290.172 L
159.325 294.871 L
169.702 294.491 L
180.869 332.682 L
191.025 328.947 L
201.201 324.535 L
211.46 327.309 L
221.985 327.095 L
233.107 348.215 L
243.77 345.635 L
254.163 345.659 L
264.456 345.823 L
275.228 343.846 L
286.66 348.456 L
296.8 347.932 L
306.906 346.459 L
317.061 346.672 L
327.053 346.33 L
338.053 348.291 L
347.998 348.719 L
358.031 349.063 L
368.047 348.992 L
378.083 348.903 L
389.12 349.158 L
399.067 349.321 L
408.999 349.47 L
418.92 349.634 L
428.897 349.689 L
439.912 349.907 L
449.941 349.8 L
459.972 349.757 L
469.968 349.698 L
480.118 349.661 L
S
GR
GS
0.851 0.325 0.098 RC
1 LJ
N
78.5 100.5 M
77.621 98.379 L
75.5 97.5 L
73.379 98.379 L
72.5 100.5 L
73.379 102.621 L
75.5 103.5 L
77.621 102.621 L
cp
S
GR
GS
0.851 0.325 0.098 RC
1 LJ
N
89.5 270.5 M
88.621 268.379 L
86.5 267.5 L
84.379 268.379 L
83.5 270.5 L
84.379 272.621 L
86.5 273.5 L
88.621 272.621 L
cp
S
GR
GS
0.851 0.325 0.098 RC
1 LJ
N
99.5 286.5 M
98.621 284.379 L
96.5 283.5 L
94.379 284.379 L
93.5 286.5 L
94.379 288.621 L
96.5 289.5 L
98.621 288.621 L
cp
S
GR
GS
0.851 0.325 0.098 RC
1 LJ
N
109.5 277.5 M
108.621 275.379 L
106.5 274.5 L
104.379 275.379 L
103.5 277.5 L
104.379 279.621 L
106.5 280.5 L
108.621 279.621 L
cp
S
GR
GS
0.851 0.325 0.098 RC
1 LJ
N
119.5 293.5 M
118.621 291.379 L
116.5 290.5 L
114.379 291.379 L
113.5 293.5 L
114.379 295.621 L
116.5 296.5 L
118.621 295.621 L
cp
S
GR
GS
0.851 0.325 0.098 RC
1 LJ
N
131.5 289.5 M
130.621 287.379 L
128.5 286.5 L
126.379 287.379 L
125.5 289.5 L
126.379 291.621 L
128.5 292.5 L
130.621 291.621 L
cp
S
GR
GS
0.851 0.325 0.098 RC
1 LJ
N
141.5 289.5 M
140.621 287.379 L
138.5 286.5 L
136.379 287.379 L
135.5 289.5 L
136.379 291.621 L
138.5 292.5 L
140.621 291.621 L
cp
S
GR
GS
0.851 0.325 0.098 RC
1 LJ
N
151.5 290.5 M
150.621 288.379 L
148.5 287.5 L
146.379 288.379 L
145.5 290.5 L
146.379 292.621 L
148.5 293.5 L
150.621 292.621 L
cp
S
GR
GS
0.851 0.325 0.098 RC
1 LJ
N
162.5 294.5 M
161.621 292.379 L
159.5 291.5 L
157.379 292.379 L
156.5 294.5 L
157.379 296.621 L
159.5 297.5 L
161.621 296.621 L
cp
S
GR
GS
0.851 0.325 0.098 RC
1 LJ
N
172.5 294.5 M
171.621 292.379 L
169.5 291.5 L
167.379 292.379 L
166.5 294.5 L
167.379 296.621 L
169.5 297.5 L
171.621 296.621 L
cp
S
GR
GS
0.851 0.325 0.098 RC
1 LJ
N
183.5 332.5 M
182.621 330.379 L
180.5 329.5 L
178.379 330.379 L
177.5 332.5 L
178.379 334.621 L
180.5 335.5 L
182.621 334.621 L
cp
S
GR
GS
0.851 0.325 0.098 RC
1 LJ
N
194.5 328.5 M
193.621 326.379 L
191.5 325.5 L
189.379 326.379 L
188.5 328.5 L
189.379 330.621 L
191.5 331.5 L
193.621 330.621 L
cp
S
GR
GS
0.851 0.325 0.098 RC
1 LJ
N
204.5 324.5 M
203.621 322.379 L
201.5 321.5 L
199.379 322.379 L
198.5 324.5 L
199.379 326.621 L
201.5 327.5 L
203.621 326.621 L
cp
S
GR
GS
0.851 0.325 0.098 RC
1 LJ
N
214.5 327.5 M
213.621 325.379 L
211.5 324.5 L
209.379 325.379 L
208.5 327.5 L
209.379 329.621 L
211.5 330.5 L
213.621 329.621 L
cp
S
GR
GS
0.851 0.325 0.098 RC
1 LJ
N
224.5 327.5 M
223.621 325.379 L
221.5 324.5 L
219.379 325.379 L
218.5 327.5 L
219.379 329.621 L
221.5 330.5 L
223.621 329.621 L
cp
S
GR
GS
0.851 0.325 0.098 RC
1 LJ
N
236.5 348.5 M
235.621 346.379 L
233.5 345.5 L
231.379 346.379 L
230.5 348.5 L
231.379 350.621 L
233.5 351.5 L
235.621 350.621 L
cp
S
GR
GS
0.851 0.325 0.098 RC
1 LJ
N
246.5 345.5 M
245.621 343.379 L
243.5 342.5 L
241.379 343.379 L
240.5 345.5 L
241.379 347.621 L
243.5 348.5 L
245.621 347.621 L
cp
S
GR
GS
0.851 0.325 0.098 RC
1 LJ
N
257.5 345.5 M
256.621 343.379 L
254.5 342.5 L
252.379 343.379 L
251.5 345.5 L
252.379 347.621 L
254.5 348.5 L
256.621 347.621 L
cp
S
GR
GS
0.851 0.325 0.098 RC
1 LJ
N
267.5 345.5 M
266.621 343.379 L
264.5 342.5 L
262.379 343.379 L
261.5 345.5 L
262.379 347.621 L
264.5 348.5 L
266.621 347.621 L
cp
S
GR
GS
0.851 0.325 0.098 RC
1 LJ
N
278.5 343.5 M
277.621 341.379 L
275.5 340.5 L
273.379 341.379 L
272.5 343.5 L
273.379 345.621 L
275.5 346.5 L
277.621 345.621 L
cp
S
GR
GS
0.851 0.325 0.098 RC
1 LJ
N
289.5 348.5 M
288.621 346.379 L
286.5 345.5 L
284.379 346.379 L
283.5 348.5 L
284.379 350.621 L
286.5 351.5 L
288.621 350.621 L
cp
S
GR
GS
0.851 0.325 0.098 RC
1 LJ
N
299.5 347.5 M
298.621 345.379 L
296.5 344.5 L
294.379 345.379 L
293.5 347.5 L
294.379 349.621 L
296.5 350.5 L
298.621 349.621 L
cp
S
GR
GS
0.851 0.325 0.098 RC
1 LJ
N
309.5 346.5 M
308.621 344.379 L
306.5 343.5 L
304.379 344.379 L
303.5 346.5 L
304.379 348.621 L
306.5 349.5 L
308.621 348.621 L
cp
S
GR
GS
0.851 0.325 0.098 RC
1 LJ
N
320.5 346.5 M
319.621 344.379 L
317.5 343.5 L
315.379 344.379 L
314.5 346.5 L
315.379 348.621 L
317.5 349.5 L
319.621 348.621 L
cp
S
GR
GS
0.851 0.325 0.098 RC
1 LJ
N
330.5 346.5 M
329.621 344.379 L
327.5 343.5 L
325.379 344.379 L
324.5 346.5 L
325.379 348.621 L
327.5 349.5 L
329.621 348.621 L
cp
S
GR
GS
0.851 0.325 0.098 RC
1 LJ
N
341.5 348.5 M
340.621 346.379 L
338.5 345.5 L
336.379 346.379 L
335.5 348.5 L
336.379 350.621 L
338.5 351.5 L
340.621 350.621 L
cp
S
GR
GS
0.851 0.325 0.098 RC
1 LJ
N
350.5 348.5 M
349.621 346.379 L
347.5 345.5 L
345.379 346.379 L
344.5 348.5 L
345.379 350.621 L
347.5 351.5 L
349.621 350.621 L
cp
S
GR
GS
0.851 0.325 0.098 RC
1 LJ
N
361.5 349.5 M
360.621 347.379 L
358.5 346.5 L
356.379 347.379 L
355.5 349.5 L
356.379 351.621 L
358.5 352.5 L
360.621 351.621 L
cp
S
GR
GS
0.851 0.325 0.098 RC
1 LJ
N
371.5 348.5 M
370.621 346.379 L
368.5 345.5 L
366.379 346.379 L
365.5 348.5 L
366.379 350.621 L
368.5 351.5 L
370.621 350.621 L
cp
S
GR
GS
0.851 0.325 0.098 RC
1 LJ
N
381.5 348.5 M
380.621 346.379 L
378.5 345.5 L
376.379 346.379 L
375.5 348.5 L
376.379 350.621 L
378.5 351.5 L
380.621 350.621 L
cp
S
GR
GS
0.851 0.325 0.098 RC
1 LJ
N
392.5 349.5 M
391.621 347.379 L
389.5 346.5 L
387.379 347.379 L
386.5 349.5 L
387.379 351.621 L
389.5 352.5 L
391.621 351.621 L
cp
S
GR
GS
0.851 0.325 0.098 RC
1 LJ
N
402.5 349.5 M
401.621 347.379 L
399.5 346.5 L
397.379 347.379 L
396.5 349.5 L
397.379 351.621 L
399.5 352.5 L
401.621 351.621 L
cp
S
GR
GS
0.851 0.325 0.098 RC
1 LJ
N
411.5 349.5 M
410.621 347.379 L
408.5 346.5 L
406.379 347.379 L
405.5 349.5 L
406.379 351.621 L
408.5 352.5 L
410.621 351.621 L
cp
S
GR
GS
0.851 0.325 0.098 RC
1 LJ
N
421.5 349.5 M
420.621 347.379 L
418.5 346.5 L
416.379 347.379 L
415.5 349.5 L
416.379 351.621 L
418.5 352.5 L
420.621 351.621 L
cp
S
GR
GS
0.851 0.325 0.098 RC
1 LJ
N
431.5 349.5 M
430.621 347.379 L
428.5 346.5 L
426.379 347.379 L
425.5 349.5 L
426.379 351.621 L
428.5 352.5 L
430.621 351.621 L
cp
S
GR
GS
0.851 0.325 0.098 RC
1 LJ
N
442.5 349.5 M
441.621 347.379 L
439.5 346.5 L
437.379 347.379 L
436.5 349.5 L
437.379 351.621 L
439.5 352.5 L
441.621 351.621 L
cp
S
GR
GS
0.851 0.325 0.098 RC
1 LJ
N
452.5 349.5 M
451.621 347.379 L
449.5 346.5 L
447.379 347.379 L
446.5 349.5 L
447.379 351.621 L
449.5 352.5 L
451.621 351.621 L
cp
S
GR
GS
0.851 0.325 0.098 RC
1 LJ
N
462.5 349.5 M
461.621 347.379 L
459.5 346.5 L
457.379 347.379 L
456.5 349.5 L
457.379 351.621 L
459.5 352.5 L
461.621 351.621 L
cp
S
GR
GS
0.851 0.325 0.098 RC
1 LJ
N
472.5 349.5 M
471.621 347.379 L
469.5 346.5 L
467.379 347.379 L
466.5 349.5 L
467.379 351.621 L
469.5 352.5 L
471.621 351.621 L
cp
S
GR
GS
0.851 0.325 0.098 RC
1 LJ
N
483.5 349.5 M
482.621 347.379 L
480.5 346.5 L
478.379 347.379 L
477.5 349.5 L
478.379 351.621 L
480.5 352.5 L
482.621 351.621 L
cp
S
GR
GS
[1 0 0 1 360 53.75] CT
/Helvetica 18 F
GS
[1 0 0 1 0 0] CT
0 4.5 moveto 
1 -1 scale
(Random shuffling) t 
GR
GR
GS
0 0.447 0.741 RC
1 LJ
N
327 53.75 M
357 53.75 L
S
GR
GS
0 0.447 0.741 RC
1 LJ
N
344.5 53.5 M
343.621 51.379 L
341.5 50.5 L
339.379 51.379 L
338.5 53.5 L
339.379 55.621 L
341.5 56.5 L
343.621 55.621 L
cp
S
GR
GS
[1 0 0 1 360 72.75] CT
/Helvetica 18 F
GS
[1 0 0 1 0 0] CT
0 4.5 moveto 
1 -1 scale
(Weighted shuffling) t 
GR
GR
GS
0.851 0.325 0.098 RC
1 LJ
N
327 72.75 M
357 72.75 L
S
GR
GS
0.851 0.325 0.098 RC
1 LJ
N
344.5 72.5 M
343.621 70.379 L
341.5 69.5 L
339.379 70.379 L
338.5 72.5 L
339.379 74.621 L
341.5 75.5 L
343.621 74.621 L
cp
S
GR
%%Trailer
%%Pages: 1
%%EOF
