%!PS-Adobe-3.0 EPSF-3.0
%%Creator: (MATLAB, The Mathworks, Inc. Version 8.6.0.267246 \(R2015b\). Operating System: Mac OS X)
%%Title: /Users/gauthiermuguerza/Desktop/rsgd/report/images/jokesWeights1Train.eps
%%CreationDate: 2018-06-01T15:41:13
%%Pages: (atend)
%%BoundingBox:    17     0   533   410
%%LanguageLevel: 3
%%EndComments
%%BeginProlog
%%BeginResource: procset (Apache XML Graphics Std ProcSet) 1.2 0
%%Version: 1.2 0
%%Copyright: (Copyright 2001-2003,2010 The Apache Software Foundation. License terms: http://www.apache.org/licenses/LICENSE-2.0)
/bd{bind def}bind def
/ld{load def}bd
/GR/grestore ld
/M/moveto ld
/LJ/setlinejoin ld
/C/curveto ld
/f/fill ld
/LW/setlinewidth ld
/GC/setgray ld
/t/show ld
/N/newpath ld
/CT/concat ld
/cp/closepath ld
/S/stroke ld
/L/lineto ld
/CC/setcmykcolor ld
/A/ashow ld
/GS/gsave ld
/RC/setrgbcolor ld
/RM/rmoveto ld
/ML/setmiterlimit ld
/re {4 2 roll M
1 index 0 rlineto
0 exch rlineto
neg 0 rlineto
cp } bd
/_ctm matrix def
/_tm matrix def
/BT { _ctm currentmatrix pop matrix _tm copy pop 0 0 moveto } bd
/ET { _ctm setmatrix } bd
/iTm { _ctm setmatrix _tm concat } bd
/Tm { _tm astore pop iTm 0 0 moveto } bd
/ux 0.0 def
/uy 0.0 def
/F {
  /Tp exch def
  /Tf exch def
  Tf findfont Tp scalefont setfont
  /cf Tf def  /cs Tp def
} bd
/ULS {currentpoint /uy exch def /ux exch def} bd
/ULE {
  /Tcx currentpoint pop def
  gsave
  newpath
  cf findfont cs scalefont dup
  /FontMatrix get 0 get /Ts exch def /FontInfo get dup
  /UnderlinePosition get Ts mul /To exch def
  /UnderlineThickness get Ts mul /Tt exch def
  ux uy To add moveto  Tcx uy To add lineto
  Tt setlinewidth stroke
  grestore
} bd
/OLE {
  /Tcx currentpoint pop def
  gsave
  newpath
  cf findfont cs scalefont dup
  /FontMatrix get 0 get /Ts exch def /FontInfo get dup
  /UnderlinePosition get Ts mul /To exch def
  /UnderlineThickness get Ts mul /Tt exch def
  ux uy To add cs add moveto Tcx uy To add cs add lineto
  Tt setlinewidth stroke
  grestore
} bd
/SOE {
  /Tcx currentpoint pop def
  gsave
  newpath
  cf findfont cs scalefont dup
  /FontMatrix get 0 get /Ts exch def /FontInfo get dup
  /UnderlinePosition get Ts mul /To exch def
  /UnderlineThickness get Ts mul /Tt exch def
  ux uy To add cs 10 mul 26 idiv add moveto Tcx uy To add cs 10 mul 26 idiv add lineto
  Tt setlinewidth stroke
  grestore
} bd
/QT {
/Y22 exch store
/X22 exch store
/Y21 exch store
/X21 exch store
currentpoint
/Y21 load 2 mul add 3 div exch
/X21 load 2 mul add 3 div exch
/X21 load 2 mul /X22 load add 3 div
/Y21 load 2 mul /Y22 load add 3 div
/X22 load /Y22 load curveto
} bd
/SSPD {
dup length /d exch dict def
{
/v exch def
/k exch def
currentpagedevice k known {
/cpdv currentpagedevice k get def
v cpdv ne {
/upd false def
/nullv v type /nulltype eq def
/nullcpdv cpdv type /nulltype eq def
nullv nullcpdv or
{
/upd true def
} {
/sametype v type cpdv type eq def
sametype {
v type /arraytype eq {
/vlen v length def
/cpdvlen cpdv length def
vlen cpdvlen eq {
0 1 vlen 1 sub {
/i exch def
/obj v i get def
/cpdobj cpdv i get def
obj cpdobj ne {
/upd true def
exit
} if
} for
} {
/upd true def
} ifelse
} {
v type /dicttype eq {
v {
/dv exch def
/dk exch def
/cpddv cpdv dk get def
dv cpddv ne {
/upd true def
exit
} if
} forall
} {
/upd true def
} ifelse
} ifelse
} if
} ifelse
upd true eq {
d k v put
} if
} if
} if
} forall
d length 0 gt {
d setpagedevice
} if
} bd
%%EndResource
%%BeginResource: procset (Apache XML Graphics EPS ProcSet) 1.0 0
%%Version: 1.0 0
%%Copyright: (Copyright 2002-2003 The Apache Software Foundation. License terms: http://www.apache.org/licenses/LICENSE-2.0)
/BeginEPSF { %def
/b4_Inc_state save def         % Save state for cleanup
/dict_count countdictstack def % Count objects on dict stack
/op_count count 1 sub def      % Count objects on operand stack
userdict begin                 % Push userdict on dict stack
/showpage { } def              % Redefine showpage, { } = null proc
0 setgray 0 setlinecap         % Prepare graphics state
1 setlinewidth 0 setlinejoin
10 setmiterlimit [ ] 0 setdash newpath
/languagelevel where           % If level not equal to 1 then
{pop languagelevel             % set strokeadjust and
1 ne                           % overprint to their defaults.
{false setstrokeadjust false setoverprint
} if
} if
} bd
/EndEPSF { %def
count op_count sub {pop} repeat            % Clean up stacks
countdictstack dict_count sub {end} repeat
b4_Inc_state restore
} bd
%%EndResource
%FOPBeginFontDict
%%IncludeResource: font Courier-Bold
%%IncludeResource: font Helvetica
%%IncludeResource: font Courier-BoldOblique
%%IncludeResource: font Courier-Oblique
%%IncludeResource: font Times-Roman
%%IncludeResource: font Helvetica-BoldOblique
%%IncludeResource: font Helvetica-Bold
%%IncludeResource: font Helvetica-Oblique
%%IncludeResource: font Times-BoldItalic
%%IncludeResource: font Courier
%%IncludeResource: font Times-Italic
%%IncludeResource: font Times-Bold
%%IncludeResource: font Symbol
%%IncludeResource: font ZapfDingbats
%FOPEndFontDict
%%BeginResource: encoding WinAnsiEncoding
/WinAnsiEncoding [
/.notdef /.notdef /.notdef /.notdef /.notdef
/.notdef /.notdef /.notdef /.notdef /.notdef
/.notdef /.notdef /.notdef /.notdef /.notdef
/.notdef /.notdef /.notdef /.notdef /.notdef
/.notdef /.notdef /.notdef /.notdef /.notdef
/.notdef /.notdef /.notdef /.notdef /.notdef
/.notdef /.notdef /space /exclam /quotedbl
/numbersign /dollar /percent /ampersand /quotesingle
/parenleft /parenright /asterisk /plus /comma
/hyphen /period /slash /zero /one
/two /three /four /five /six
/seven /eight /nine /colon /semicolon
/less /equal /greater /question /at
/A /B /C /D /E
/F /G /H /I /J
/K /L /M /N /O
/P /Q /R /S /T
/U /V /W /X /Y
/Z /bracketleft /backslash /bracketright /asciicircum
/underscore /quoteleft /a /b /c
/d /e /f /g /h
/i /j /k /l /m
/n /o /p /q /r
/s /t /u /v /w
/x /y /z /braceleft /bar
/braceright /asciitilde /bullet /Euro /bullet
/quotesinglbase /florin /quotedblbase /ellipsis /dagger
/daggerdbl /circumflex /perthousand /Scaron /guilsinglleft
/OE /bullet /Zcaron /bullet /bullet
/quoteleft /quoteright /quotedblleft /quotedblright /bullet
/endash /emdash /asciitilde /trademark /scaron
/guilsinglright /oe /bullet /zcaron /Ydieresis
/space /exclamdown /cent /sterling /currency
/yen /brokenbar /section /dieresis /copyright
/ordfeminine /guillemotleft /logicalnot /sfthyphen /registered
/macron /degree /plusminus /twosuperior /threesuperior
/acute /mu /paragraph /middot /cedilla
/onesuperior /ordmasculine /guillemotright /onequarter /onehalf
/threequarters /questiondown /Agrave /Aacute /Acircumflex
/Atilde /Adieresis /Aring /AE /Ccedilla
/Egrave /Eacute /Ecircumflex /Edieresis /Igrave
/Iacute /Icircumflex /Idieresis /Eth /Ntilde
/Ograve /Oacute /Ocircumflex /Otilde /Odieresis
/multiply /Oslash /Ugrave /Uacute /Ucircumflex
/Udieresis /Yacute /Thorn /germandbls /agrave
/aacute /acircumflex /atilde /adieresis /aring
/ae /ccedilla /egrave /eacute /ecircumflex
/edieresis /igrave /iacute /icircumflex /idieresis
/eth /ntilde /ograve /oacute /ocircumflex
/otilde /odieresis /divide /oslash /ugrave
/uacute /ucircumflex /udieresis /yacute /thorn
/ydieresis
] def
%%EndResource
%FOPBeginFontReencode
/Courier-Bold findfont
dup length dict begin
  {1 index /FID ne {def} {pop pop} ifelse} forall
  /Encoding WinAnsiEncoding def
  currentdict
end
/Courier-Bold exch definefont pop
/Helvetica findfont
dup length dict begin
  {1 index /FID ne {def} {pop pop} ifelse} forall
  /Encoding WinAnsiEncoding def
  currentdict
end
/Helvetica exch definefont pop
/Courier-BoldOblique findfont
dup length dict begin
  {1 index /FID ne {def} {pop pop} ifelse} forall
  /Encoding WinAnsiEncoding def
  currentdict
end
/Courier-BoldOblique exch definefont pop
/Courier-Oblique findfont
dup length dict begin
  {1 index /FID ne {def} {pop pop} ifelse} forall
  /Encoding WinAnsiEncoding def
  currentdict
end
/Courier-Oblique exch definefont pop
/Times-Roman findfont
dup length dict begin
  {1 index /FID ne {def} {pop pop} ifelse} forall
  /Encoding WinAnsiEncoding def
  currentdict
end
/Times-Roman exch definefont pop
/Helvetica-BoldOblique findfont
dup length dict begin
  {1 index /FID ne {def} {pop pop} ifelse} forall
  /Encoding WinAnsiEncoding def
  currentdict
end
/Helvetica-BoldOblique exch definefont pop
/Helvetica-Bold findfont
dup length dict begin
  {1 index /FID ne {def} {pop pop} ifelse} forall
  /Encoding WinAnsiEncoding def
  currentdict
end
/Helvetica-Bold exch definefont pop
/Helvetica-Oblique findfont
dup length dict begin
  {1 index /FID ne {def} {pop pop} ifelse} forall
  /Encoding WinAnsiEncoding def
  currentdict
end
/Helvetica-Oblique exch definefont pop
/Times-BoldItalic findfont
dup length dict begin
  {1 index /FID ne {def} {pop pop} ifelse} forall
  /Encoding WinAnsiEncoding def
  currentdict
end
/Times-BoldItalic exch definefont pop
/Courier findfont
dup length dict begin
  {1 index /FID ne {def} {pop pop} ifelse} forall
  /Encoding WinAnsiEncoding def
  currentdict
end
/Courier exch definefont pop
/Times-Italic findfont
dup length dict begin
  {1 index /FID ne {def} {pop pop} ifelse} forall
  /Encoding WinAnsiEncoding def
  currentdict
end
/Times-Italic exch definefont pop
/Times-Bold findfont
dup length dict begin
  {1 index /FID ne {def} {pop pop} ifelse} forall
  /Encoding WinAnsiEncoding def
  currentdict
end
/Times-Bold exch definefont pop
%FOPEndFontReencode
%%EndProlog
%%Page: 1 1
%%PageBoundingBox: 0 0 576 432
%%BeginPageSetup
[1 0 0 -1 0 432] CT
%%EndPageSetup
GS
1 GC
N
0 0 576 432 re
f
GR
GS
1 GC
N
0 0 576 432 re
f
GR
GS
1 GC
N
75 384 M
521.5 384 L
521.5 32.5 L
75 32.5 L
cp
f
GR
GS
0.149 GC
2 setlinecap
1 LJ
0.5 LW
N
75 384 M
521.5 384 L
S
GR
GS
0.149 GC
2 setlinecap
1 LJ
0.5 LW
N
75 384 M
75 379.535 L
S
GR
GS
0.149 GC
2 setlinecap
1 LJ
0.5 LW
N
186.625 384 M
186.625 379.535 L
S
GR
GS
0.149 GC
2 setlinecap
1 LJ
0.5 LW
N
298.25 384 M
298.25 379.535 L
S
GR
GS
0.149 GC
2 setlinecap
1 LJ
0.5 LW
N
409.875 384 M
409.875 379.535 L
S
GR
GS
0.149 GC
2 setlinecap
1 LJ
0.5 LW
N
521.5 384 M
521.5 379.535 L
S
GR
GS
[1 0 0 1 75 390] CT
0.149 GC
/Helvetica 20 F
GS
[1 0 0 1 0 0] CT
-6 16 moveto 
1 -1 scale
(0) t 
GR
GR
GS
[1 0 0 1 186.625 390] CT
0.149 GC
/Helvetica 20 F
GS
[1 0 0 1 0 0] CT
-11.5 16 moveto 
1 -1 scale
(20) t 
GR
GR
GS
[1 0 0 1 298.25 390] CT
0.149 GC
/Helvetica 20 F
GS
[1 0 0 1 0 0] CT
-11.5 16 moveto 
1 -1 scale
(40) t 
GR
GR
GS
[1 0 0 1 409.875 390] CT
0.149 GC
/Helvetica 20 F
GS
[1 0 0 1 0 0] CT
-11.5 16 moveto 
1 -1 scale
(60) t 
GR
GR
GS
[1 0 0 1 521.5 390] CT
0.149 GC
/Helvetica 20 F
GS
[1 0 0 1 0 0] CT
-11.5 16 moveto 
1 -1 scale
(80) t 
GR
GR
GS
[1 0 0 1 298.25021 411.5] CT
0.149 GC
/Helvetica 20 F
GS
[1 0 0 1 0 0] CT
-37 16 moveto 
1 -1 scale
(Time \(s\)) t 
GR
GR
GS
0.149 GC
2 setlinecap
1 LJ
0.5 LW
N
75 384 M
75 32.5 L
S
GR
GS
0.149 GC
2 setlinecap
1 LJ
0.5 LW
N
75 384 M
79.465 384 L
S
GR
GS
0.149 GC
2 setlinecap
1 LJ
0.5 LW
N
75 325.417 M
79.465 325.417 L
S
GR
GS
0.149 GC
2 setlinecap
1 LJ
0.5 LW
N
75 266.833 M
79.465 266.833 L
S
GR
GS
0.149 GC
2 setlinecap
1 LJ
0.5 LW
N
75 208.25 M
79.465 208.25 L
S
GR
GS
0.149 GC
2 setlinecap
1 LJ
0.5 LW
N
75 149.667 M
79.465 149.667 L
S
GR
GS
0.149 GC
2 setlinecap
1 LJ
0.5 LW
N
75 91.083 M
79.465 91.083 L
S
GR
GS
0.149 GC
2 setlinecap
1 LJ
0.5 LW
N
75 32.5 M
79.465 32.5 L
S
GR
GS
[1 0 0 1 69 384] CT
0.149 GC
/Helvetica 20 F
GS
[1 0 0 1 0 0] CT
-28 5.5 moveto 
1 -1 scale
(3.5) t 
GR
GR
GS
[1 0 0 1 69 325.41666] CT
0.149 GC
/Helvetica 20 F
GS
[1 0 0 1 0 0] CT
-12 5.5 moveto 
1 -1 scale
(4) t 
GR
GR
GS
[1 0 0 1 69 266.83334] CT
0.149 GC
/Helvetica 20 F
GS
[1 0 0 1 0 0] CT
-28 5.5 moveto 
1 -1 scale
(4.5) t 
GR
GR
GS
[1 0 0 1 69 208.25] CT
0.149 GC
/Helvetica 20 F
GS
[1 0 0 1 0 0] CT
-12 5.5 moveto 
1 -1 scale
(5) t 
GR
GR
GS
[1 0 0 1 69 149.66667] CT
0.149 GC
/Helvetica 20 F
GS
[1 0 0 1 0 0] CT
-28 5.5 moveto 
1 -1 scale
(5.5) t 
GR
GR
GS
[1 0 0 1 69 91.08334] CT
0.149 GC
/Helvetica 20 F
GS
[1 0 0 1 0 0] CT
-12 5.5 moveto 
1 -1 scale
(6) t 
GR
GR
GS
[1 0 0 1 69 32.5] CT
0.149 GC
/Helvetica 20 F
GS
[1 0 0 1 0 0] CT
-28 5.5 moveto 
1 -1 scale
(6.5) t 
GR
GR
GS
[0 -1 1 0 38 208.24983] CT
0.149 GC
/Helvetica 20 F
GS
[1 0 0 1 0 0] CT
-54.5 -5 moveto 
1 -1 scale
(Train RMSE) t 
GR
GR
GS
0 0.447 0.741 RC
1 LJ
N
75 88.922 M
84.712 170.997 L
94.016 245.384 L
103.27 289.779 L
112.501 313.525 L
121.681 327.356 L
130.952 335.862 L
140.336 341.211 L
149.685 344.852 L
158.865 347.009 L
168.294 348.621 L
177.565 349.624 L
186.807 349.977 L
196.093 350.963 L
205.466 352.244 L
214.773 353.835 L
224.143 353.945 L
233.382 354.27 L
242.805 354.771 L
252.743 355.449 L
263.744 355.581 L
273.397 355.643 L
282.721 355.716 L
291.981 356.131 L
301.12 356.264 L
310.311 356.36 L
319.917 356.364 L
330.128 356.48 L
340.494 356.518 L
350.038 356.625 L
359.26 356.681 L
368.477 356.713 L
378.194 356.738 L
387.481 356.793 L
396.845 356.851 L
406.169 356.851 L
416.302 356.898 L
426.153 356.934 L
435.23 356.934 L
444.849 356.963 L
S
GR
GS
0 0.447 0.741 RC
1 LJ
N
78.5 88.5 M
77.621 86.379 L
75.5 85.5 L
73.379 86.379 L
72.5 88.5 L
73.379 90.621 L
75.5 91.5 L
77.621 90.621 L
cp
S
GR
GS
0 0.447 0.741 RC
1 LJ
N
87.5 170.5 M
86.621 168.379 L
84.5 167.5 L
82.379 168.379 L
81.5 170.5 L
82.379 172.621 L
84.5 173.5 L
86.621 172.621 L
cp
S
GR
GS
0 0.447 0.741 RC
1 LJ
N
97.5 245.5 M
96.621 243.379 L
94.5 242.5 L
92.379 243.379 L
91.5 245.5 L
92.379 247.621 L
94.5 248.5 L
96.621 247.621 L
cp
S
GR
GS
0 0.447 0.741 RC
1 LJ
N
106.5 289.5 M
105.621 287.379 L
103.5 286.5 L
101.379 287.379 L
100.5 289.5 L
101.379 291.621 L
103.5 292.5 L
105.621 291.621 L
cp
S
GR
GS
0 0.447 0.741 RC
1 LJ
N
115.5 313.5 M
114.621 311.379 L
112.5 310.5 L
110.379 311.379 L
109.5 313.5 L
110.379 315.621 L
112.5 316.5 L
114.621 315.621 L
cp
S
GR
GS
0 0.447 0.741 RC
1 LJ
N
124.5 327.5 M
123.621 325.379 L
121.5 324.5 L
119.379 325.379 L
118.5 327.5 L
119.379 329.621 L
121.5 330.5 L
123.621 329.621 L
cp
S
GR
GS
0 0.447 0.741 RC
1 LJ
N
133.5 335.5 M
132.621 333.379 L
130.5 332.5 L
128.379 333.379 L
127.5 335.5 L
128.379 337.621 L
130.5 338.5 L
132.621 337.621 L
cp
S
GR
GS
0 0.447 0.741 RC
1 LJ
N
143.5 341.5 M
142.621 339.379 L
140.5 338.5 L
138.379 339.379 L
137.5 341.5 L
138.379 343.621 L
140.5 344.5 L
142.621 343.621 L
cp
S
GR
GS
0 0.447 0.741 RC
1 LJ
N
152.5 344.5 M
151.621 342.379 L
149.5 341.5 L
147.379 342.379 L
146.5 344.5 L
147.379 346.621 L
149.5 347.5 L
151.621 346.621 L
cp
S
GR
GS
0 0.447 0.741 RC
1 LJ
N
161.5 347.5 M
160.621 345.379 L
158.5 344.5 L
156.379 345.379 L
155.5 347.5 L
156.379 349.621 L
158.5 350.5 L
160.621 349.621 L
cp
S
GR
GS
0 0.447 0.741 RC
1 LJ
N
171.5 348.5 M
170.621 346.379 L
168.5 345.5 L
166.379 346.379 L
165.5 348.5 L
166.379 350.621 L
168.5 351.5 L
170.621 350.621 L
cp
S
GR
GS
0 0.447 0.741 RC
1 LJ
N
180.5 349.5 M
179.621 347.379 L
177.5 346.5 L
175.379 347.379 L
174.5 349.5 L
175.379 351.621 L
177.5 352.5 L
179.621 351.621 L
cp
S
GR
GS
0 0.447 0.741 RC
1 LJ
N
189.5 349.5 M
188.621 347.379 L
186.5 346.5 L
184.379 347.379 L
183.5 349.5 L
184.379 351.621 L
186.5 352.5 L
188.621 351.621 L
cp
S
GR
GS
0 0.447 0.741 RC
1 LJ
N
199.5 350.5 M
198.621 348.379 L
196.5 347.5 L
194.379 348.379 L
193.5 350.5 L
194.379 352.621 L
196.5 353.5 L
198.621 352.621 L
cp
S
GR
GS
0 0.447 0.741 RC
1 LJ
N
208.5 352.5 M
207.621 350.379 L
205.5 349.5 L
203.379 350.379 L
202.5 352.5 L
203.379 354.621 L
205.5 355.5 L
207.621 354.621 L
cp
S
GR
GS
0 0.447 0.741 RC
1 LJ
N
217.5 353.5 M
216.621 351.379 L
214.5 350.5 L
212.379 351.379 L
211.5 353.5 L
212.379 355.621 L
214.5 356.5 L
216.621 355.621 L
cp
S
GR
GS
0 0.447 0.741 RC
1 LJ
N
227.5 353.5 M
226.621 351.379 L
224.5 350.5 L
222.379 351.379 L
221.5 353.5 L
222.379 355.621 L
224.5 356.5 L
226.621 355.621 L
cp
S
GR
GS
0 0.447 0.741 RC
1 LJ
N
236.5 354.5 M
235.621 352.379 L
233.5 351.5 L
231.379 352.379 L
230.5 354.5 L
231.379 356.621 L
233.5 357.5 L
235.621 356.621 L
cp
S
GR
GS
0 0.447 0.741 RC
1 LJ
N
245.5 354.5 M
244.621 352.379 L
242.5 351.5 L
240.379 352.379 L
239.5 354.5 L
240.379 356.621 L
242.5 357.5 L
244.621 356.621 L
cp
S
GR
GS
0 0.447 0.741 RC
1 LJ
N
255.5 355.5 M
254.621 353.379 L
252.5 352.5 L
250.379 353.379 L
249.5 355.5 L
250.379 357.621 L
252.5 358.5 L
254.621 357.621 L
cp
S
GR
GS
0 0.447 0.741 RC
1 LJ
N
266.5 355.5 M
265.621 353.379 L
263.5 352.5 L
261.379 353.379 L
260.5 355.5 L
261.379 357.621 L
263.5 358.5 L
265.621 357.621 L
cp
S
GR
GS
0 0.447 0.741 RC
1 LJ
N
276.5 355.5 M
275.621 353.379 L
273.5 352.5 L
271.379 353.379 L
270.5 355.5 L
271.379 357.621 L
273.5 358.5 L
275.621 357.621 L
cp
S
GR
GS
0 0.447 0.741 RC
1 LJ
N
285.5 355.5 M
284.621 353.379 L
282.5 352.5 L
280.379 353.379 L
279.5 355.5 L
280.379 357.621 L
282.5 358.5 L
284.621 357.621 L
cp
S
GR
GS
0 0.447 0.741 RC
1 LJ
N
294.5 356.5 M
293.621 354.379 L
291.5 353.5 L
289.379 354.379 L
288.5 356.5 L
289.379 358.621 L
291.5 359.5 L
293.621 358.621 L
cp
S
GR
GS
0 0.447 0.741 RC
1 LJ
N
304.5 356.5 M
303.621 354.379 L
301.5 353.5 L
299.379 354.379 L
298.5 356.5 L
299.379 358.621 L
301.5 359.5 L
303.621 358.621 L
cp
S
GR
GS
0 0.447 0.741 RC
1 LJ
N
313.5 356.5 M
312.621 354.379 L
310.5 353.5 L
308.379 354.379 L
307.5 356.5 L
308.379 358.621 L
310.5 359.5 L
312.621 358.621 L
cp
S
GR
GS
0 0.447 0.741 RC
1 LJ
N
322.5 356.5 M
321.621 354.379 L
319.5 353.5 L
317.379 354.379 L
316.5 356.5 L
317.379 358.621 L
319.5 359.5 L
321.621 358.621 L
cp
S
GR
GS
0 0.447 0.741 RC
1 LJ
N
333.5 356.5 M
332.621 354.379 L
330.5 353.5 L
328.379 354.379 L
327.5 356.5 L
328.379 358.621 L
330.5 359.5 L
332.621 358.621 L
cp
S
GR
GS
0 0.447 0.741 RC
1 LJ
N
343.5 356.5 M
342.621 354.379 L
340.5 353.5 L
338.379 354.379 L
337.5 356.5 L
338.379 358.621 L
340.5 359.5 L
342.621 358.621 L
cp
S
GR
GS
0 0.447 0.741 RC
1 LJ
N
353.5 356.5 M
352.621 354.379 L
350.5 353.5 L
348.379 354.379 L
347.5 356.5 L
348.379 358.621 L
350.5 359.5 L
352.621 358.621 L
cp
S
GR
GS
0 0.447 0.741 RC
1 LJ
N
362.5 356.5 M
361.621 354.379 L
359.5 353.5 L
357.379 354.379 L
356.5 356.5 L
357.379 358.621 L
359.5 359.5 L
361.621 358.621 L
cp
S
GR
GS
0 0.447 0.741 RC
1 LJ
N
371.5 356.5 M
370.621 354.379 L
368.5 353.5 L
366.379 354.379 L
365.5 356.5 L
366.379 358.621 L
368.5 359.5 L
370.621 358.621 L
cp
S
GR
GS
0 0.447 0.741 RC
1 LJ
N
381.5 356.5 M
380.621 354.379 L
378.5 353.5 L
376.379 354.379 L
375.5 356.5 L
376.379 358.621 L
378.5 359.5 L
380.621 358.621 L
cp
S
GR
GS
0 0.447 0.741 RC
1 LJ
N
390.5 356.5 M
389.621 354.379 L
387.5 353.5 L
385.379 354.379 L
384.5 356.5 L
385.379 358.621 L
387.5 359.5 L
389.621 358.621 L
cp
S
GR
GS
0 0.447 0.741 RC
1 LJ
N
399.5 356.5 M
398.621 354.379 L
396.5 353.5 L
394.379 354.379 L
393.5 356.5 L
394.379 358.621 L
396.5 359.5 L
398.621 358.621 L
cp
S
GR
GS
0 0.447 0.741 RC
1 LJ
N
409.5 356.5 M
408.621 354.379 L
406.5 353.5 L
404.379 354.379 L
403.5 356.5 L
404.379 358.621 L
406.5 359.5 L
408.621 358.621 L
cp
S
GR
GS
0 0.447 0.741 RC
1 LJ
N
419.5 356.5 M
418.621 354.379 L
416.5 353.5 L
414.379 354.379 L
413.5 356.5 L
414.379 358.621 L
416.5 359.5 L
418.621 358.621 L
cp
S
GR
GS
0 0.447 0.741 RC
1 LJ
N
429.5 356.5 M
428.621 354.379 L
426.5 353.5 L
424.379 354.379 L
423.5 356.5 L
424.379 358.621 L
426.5 359.5 L
428.621 358.621 L
cp
S
GR
GS
0 0.447 0.741 RC
1 LJ
N
438.5 356.5 M
437.621 354.379 L
435.5 353.5 L
433.379 354.379 L
432.5 356.5 L
433.379 358.621 L
435.5 359.5 L
437.621 358.621 L
cp
S
GR
GS
0 0.447 0.741 RC
1 LJ
N
447.5 356.5 M
446.621 354.379 L
444.5 353.5 L
442.379 354.379 L
441.5 356.5 L
442.379 358.621 L
444.5 359.5 L
446.621 358.621 L
cp
S
GR
GS
0.851 0.325 0.098 RC
1 LJ
N
75 88.922 M
85.145 186.449 L
94.315 257.838 L
103.486 287.001 L
113.188 301.397 L
123.849 319.281 L
133.864 326.757 L
144.391 331.4 L
155.076 333.592 L
164.797 335.18 L
175.8 338.2 L
185.332 337.756 L
194.667 341.093 L
204.118 343.367 L
213.845 343.749 L
224.577 346.507 L
234.199 346.405 L
243.524 348.475 L
253.144 348.945 L
263.094 348.859 L
273.571 350.869 L
283.066 351.154 L
292.431 351.825 L
301.603 351.962 L
310.896 351.979 L
321.325 352.965 L
330.785 352.932 L
340.221 353.214 L
349.534 353.57 L
358.632 353.554 L
369.38 354.174 L
379.209 354.465 L
388.612 354.508 L
397.953 354.566 L
407.321 354.428 L
418.181 354.726 L
427.493 354.795 L
436.86 354.983 L
446.374 355.056 L
455.483 355.141 L
S
GR
GS
0.851 0.325 0.098 RC
1 LJ
N
78.5 88.5 M
77.621 86.379 L
75.5 85.5 L
73.379 86.379 L
72.5 88.5 L
73.379 90.621 L
75.5 91.5 L
77.621 90.621 L
cp
S
GR
GS
0.851 0.325 0.098 RC
1 LJ
N
88.5 186.5 M
87.621 184.379 L
85.5 183.5 L
83.379 184.379 L
82.5 186.5 L
83.379 188.621 L
85.5 189.5 L
87.621 188.621 L
cp
S
GR
GS
0.851 0.325 0.098 RC
1 LJ
N
97.5 257.5 M
96.621 255.379 L
94.5 254.5 L
92.379 255.379 L
91.5 257.5 L
92.379 259.621 L
94.5 260.5 L
96.621 259.621 L
cp
S
GR
GS
0.851 0.325 0.098 RC
1 LJ
N
106.5 287.5 M
105.621 285.379 L
103.5 284.5 L
101.379 285.379 L
100.5 287.5 L
101.379 289.621 L
103.5 290.5 L
105.621 289.621 L
cp
S
GR
GS
0.851 0.325 0.098 RC
1 LJ
N
116.5 301.5 M
115.621 299.379 L
113.5 298.5 L
111.379 299.379 L
110.5 301.5 L
111.379 303.621 L
113.5 304.5 L
115.621 303.621 L
cp
S
GR
GS
0.851 0.325 0.098 RC
1 LJ
N
126.5 319.5 M
125.621 317.379 L
123.5 316.5 L
121.379 317.379 L
120.5 319.5 L
121.379 321.621 L
123.5 322.5 L
125.621 321.621 L
cp
S
GR
GS
0.851 0.325 0.098 RC
1 LJ
N
136.5 326.5 M
135.621 324.379 L
133.5 323.5 L
131.379 324.379 L
130.5 326.5 L
131.379 328.621 L
133.5 329.5 L
135.621 328.621 L
cp
S
GR
GS
0.851 0.325 0.098 RC
1 LJ
N
147.5 331.5 M
146.621 329.379 L
144.5 328.5 L
142.379 329.379 L
141.5 331.5 L
142.379 333.621 L
144.5 334.5 L
146.621 333.621 L
cp
S
GR
GS
0.851 0.325 0.098 RC
1 LJ
N
158.5 333.5 M
157.621 331.379 L
155.5 330.5 L
153.379 331.379 L
152.5 333.5 L
153.379 335.621 L
155.5 336.5 L
157.621 335.621 L
cp
S
GR
GS
0.851 0.325 0.098 RC
1 LJ
N
167.5 335.5 M
166.621 333.379 L
164.5 332.5 L
162.379 333.379 L
161.5 335.5 L
162.379 337.621 L
164.5 338.5 L
166.621 337.621 L
cp
S
GR
GS
0.851 0.325 0.098 RC
1 LJ
N
178.5 338.5 M
177.621 336.379 L
175.5 335.5 L
173.379 336.379 L
172.5 338.5 L
173.379 340.621 L
175.5 341.5 L
177.621 340.621 L
cp
S
GR
GS
0.851 0.325 0.098 RC
1 LJ
N
188.5 337.5 M
187.621 335.379 L
185.5 334.5 L
183.379 335.379 L
182.5 337.5 L
183.379 339.621 L
185.5 340.5 L
187.621 339.621 L
cp
S
GR
GS
0.851 0.325 0.098 RC
1 LJ
N
197.5 341.5 M
196.621 339.379 L
194.5 338.5 L
192.379 339.379 L
191.5 341.5 L
192.379 343.621 L
194.5 344.5 L
196.621 343.621 L
cp
S
GR
GS
0.851 0.325 0.098 RC
1 LJ
N
207.5 343.5 M
206.621 341.379 L
204.5 340.5 L
202.379 341.379 L
201.5 343.5 L
202.379 345.621 L
204.5 346.5 L
206.621 345.621 L
cp
S
GR
GS
0.851 0.325 0.098 RC
1 LJ
N
216.5 343.5 M
215.621 341.379 L
213.5 340.5 L
211.379 341.379 L
210.5 343.5 L
211.379 345.621 L
213.5 346.5 L
215.621 345.621 L
cp
S
GR
GS
0.851 0.325 0.098 RC
1 LJ
N
227.5 346.5 M
226.621 344.379 L
224.5 343.5 L
222.379 344.379 L
221.5 346.5 L
222.379 348.621 L
224.5 349.5 L
226.621 348.621 L
cp
S
GR
GS
0.851 0.325 0.098 RC
1 LJ
N
237.5 346.5 M
236.621 344.379 L
234.5 343.5 L
232.379 344.379 L
231.5 346.5 L
232.379 348.621 L
234.5 349.5 L
236.621 348.621 L
cp
S
GR
GS
0.851 0.325 0.098 RC
1 LJ
N
246.5 348.5 M
245.621 346.379 L
243.5 345.5 L
241.379 346.379 L
240.5 348.5 L
241.379 350.621 L
243.5 351.5 L
245.621 350.621 L
cp
S
GR
GS
0.851 0.325 0.098 RC
1 LJ
N
256.5 348.5 M
255.621 346.379 L
253.5 345.5 L
251.379 346.379 L
250.5 348.5 L
251.379 350.621 L
253.5 351.5 L
255.621 350.621 L
cp
S
GR
GS
0.851 0.325 0.098 RC
1 LJ
N
266.5 348.5 M
265.621 346.379 L
263.5 345.5 L
261.379 346.379 L
260.5 348.5 L
261.379 350.621 L
263.5 351.5 L
265.621 350.621 L
cp
S
GR
GS
0.851 0.325 0.098 RC
1 LJ
N
276.5 350.5 M
275.621 348.379 L
273.5 347.5 L
271.379 348.379 L
270.5 350.5 L
271.379 352.621 L
273.5 353.5 L
275.621 352.621 L
cp
S
GR
GS
0.851 0.325 0.098 RC
1 LJ
N
286.5 351.5 M
285.621 349.379 L
283.5 348.5 L
281.379 349.379 L
280.5 351.5 L
281.379 353.621 L
283.5 354.5 L
285.621 353.621 L
cp
S
GR
GS
0.851 0.325 0.098 RC
1 LJ
N
295.5 351.5 M
294.621 349.379 L
292.5 348.5 L
290.379 349.379 L
289.5 351.5 L
290.379 353.621 L
292.5 354.5 L
294.621 353.621 L
cp
S
GR
GS
0.851 0.325 0.098 RC
1 LJ
N
304.5 351.5 M
303.621 349.379 L
301.5 348.5 L
299.379 349.379 L
298.5 351.5 L
299.379 353.621 L
301.5 354.5 L
303.621 353.621 L
cp
S
GR
GS
0.851 0.325 0.098 RC
1 LJ
N
313.5 351.5 M
312.621 349.379 L
310.5 348.5 L
308.379 349.379 L
307.5 351.5 L
308.379 353.621 L
310.5 354.5 L
312.621 353.621 L
cp
S
GR
GS
0.851 0.325 0.098 RC
1 LJ
N
324.5 352.5 M
323.621 350.379 L
321.5 349.5 L
319.379 350.379 L
318.5 352.5 L
319.379 354.621 L
321.5 355.5 L
323.621 354.621 L
cp
S
GR
GS
0.851 0.325 0.098 RC
1 LJ
N
333.5 352.5 M
332.621 350.379 L
330.5 349.5 L
328.379 350.379 L
327.5 352.5 L
328.379 354.621 L
330.5 355.5 L
332.621 354.621 L
cp
S
GR
GS
0.851 0.325 0.098 RC
1 LJ
N
343.5 353.5 M
342.621 351.379 L
340.5 350.5 L
338.379 351.379 L
337.5 353.5 L
338.379 355.621 L
340.5 356.5 L
342.621 355.621 L
cp
S
GR
GS
0.851 0.325 0.098 RC
1 LJ
N
352.5 353.5 M
351.621 351.379 L
349.5 350.5 L
347.379 351.379 L
346.5 353.5 L
347.379 355.621 L
349.5 356.5 L
351.621 355.621 L
cp
S
GR
GS
0.851 0.325 0.098 RC
1 LJ
N
361.5 353.5 M
360.621 351.379 L
358.5 350.5 L
356.379 351.379 L
355.5 353.5 L
356.379 355.621 L
358.5 356.5 L
360.621 355.621 L
cp
S
GR
GS
0.851 0.325 0.098 RC
1 LJ
N
372.5 354.5 M
371.621 352.379 L
369.5 351.5 L
367.379 352.379 L
366.5 354.5 L
367.379 356.621 L
369.5 357.5 L
371.621 356.621 L
cp
S
GR
GS
0.851 0.325 0.098 RC
1 LJ
N
382.5 354.5 M
381.621 352.379 L
379.5 351.5 L
377.379 352.379 L
376.5 354.5 L
377.379 356.621 L
379.5 357.5 L
381.621 356.621 L
cp
S
GR
GS
0.851 0.325 0.098 RC
1 LJ
N
391.5 354.5 M
390.621 352.379 L
388.5 351.5 L
386.379 352.379 L
385.5 354.5 L
386.379 356.621 L
388.5 357.5 L
390.621 356.621 L
cp
S
GR
GS
0.851 0.325 0.098 RC
1 LJ
N
400.5 354.5 M
399.621 352.379 L
397.5 351.5 L
395.379 352.379 L
394.5 354.5 L
395.379 356.621 L
397.5 357.5 L
399.621 356.621 L
cp
S
GR
GS
0.851 0.325 0.098 RC
1 LJ
N
410.5 354.5 M
409.621 352.379 L
407.5 351.5 L
405.379 352.379 L
404.5 354.5 L
405.379 356.621 L
407.5 357.5 L
409.621 356.621 L
cp
S
GR
GS
0.851 0.325 0.098 RC
1 LJ
N
421.5 354.5 M
420.621 352.379 L
418.5 351.5 L
416.379 352.379 L
415.5 354.5 L
416.379 356.621 L
418.5 357.5 L
420.621 356.621 L
cp
S
GR
GS
0.851 0.325 0.098 RC
1 LJ
N
430.5 354.5 M
429.621 352.379 L
427.5 351.5 L
425.379 352.379 L
424.5 354.5 L
425.379 356.621 L
427.5 357.5 L
429.621 356.621 L
cp
S
GR
GS
0.851 0.325 0.098 RC
1 LJ
N
439.5 354.5 M
438.621 352.379 L
436.5 351.5 L
434.379 352.379 L
433.5 354.5 L
434.379 356.621 L
436.5 357.5 L
438.621 356.621 L
cp
S
GR
GS
0.851 0.325 0.098 RC
1 LJ
N
449.5 355.5 M
448.621 353.379 L
446.5 352.5 L
444.379 353.379 L
443.5 355.5 L
444.379 357.621 L
446.5 358.5 L
448.621 357.621 L
cp
S
GR
GS
0.851 0.325 0.098 RC
1 LJ
N
458.5 355.5 M
457.621 353.379 L
455.5 352.5 L
453.379 353.379 L
452.5 355.5 L
453.379 357.621 L
455.5 358.5 L
457.621 357.621 L
cp
S
GR
GS
[1 0 0 1 360 53.75] CT
/Helvetica 18 F
GS
[1 0 0 1 0 0] CT
0 4.5 moveto 
1 -1 scale
(Random shuffling) t 
GR
GR
GS
0 0.447 0.741 RC
1 LJ
N
327 53.75 M
357 53.75 L
S
GR
GS
0 0.447 0.741 RC
1 LJ
N
344.5 53.5 M
343.621 51.379 L
341.5 50.5 L
339.379 51.379 L
338.5 53.5 L
339.379 55.621 L
341.5 56.5 L
343.621 55.621 L
cp
S
GR
GS
[1 0 0 1 360 72.75] CT
/Helvetica 18 F
GS
[1 0 0 1 0 0] CT
0 4.5 moveto 
1 -1 scale
(Weighted shuffling) t 
GR
GR
GS
0.851 0.325 0.098 RC
1 LJ
N
327 72.75 M
357 72.75 L
S
GR
GS
0.851 0.325 0.098 RC
1 LJ
N
344.5 72.5 M
343.621 70.379 L
341.5 69.5 L
339.379 70.379 L
338.5 72.5 L
339.379 74.621 L
341.5 75.5 L
343.621 74.621 L
cp
S
GR
%%Trailer
%%Pages: 1
%%EOF
