%!PS-Adobe-3.0 EPSF-3.0
%%Creator: (MATLAB, The Mathworks, Inc. Version 8.6.0.267246 \(R2015b\). Operating System: Mac OS X)
%%Title: /Users/gauthiermuguerza/Desktop/rsgd/report/images/jokesWeightsoneTrain.eps
%%CreationDate: 2018-06-03T19:09:30
%%Pages: (atend)
%%BoundingBox:    17     0   533   410
%%LanguageLevel: 3
%%EndComments
%%BeginProlog
%%BeginResource: procset (Apache XML Graphics Std ProcSet) 1.2 0
%%Version: 1.2 0
%%Copyright: (Copyright 2001-2003,2010 The Apache Software Foundation. License terms: http://www.apache.org/licenses/LICENSE-2.0)
/bd{bind def}bind def
/ld{load def}bd
/GR/grestore ld
/M/moveto ld
/LJ/setlinejoin ld
/C/curveto ld
/f/fill ld
/LW/setlinewidth ld
/GC/setgray ld
/t/show ld
/N/newpath ld
/CT/concat ld
/cp/closepath ld
/S/stroke ld
/L/lineto ld
/CC/setcmykcolor ld
/A/ashow ld
/GS/gsave ld
/RC/setrgbcolor ld
/RM/rmoveto ld
/ML/setmiterlimit ld
/re {4 2 roll M
1 index 0 rlineto
0 exch rlineto
neg 0 rlineto
cp } bd
/_ctm matrix def
/_tm matrix def
/BT { _ctm currentmatrix pop matrix _tm copy pop 0 0 moveto } bd
/ET { _ctm setmatrix } bd
/iTm { _ctm setmatrix _tm concat } bd
/Tm { _tm astore pop iTm 0 0 moveto } bd
/ux 0.0 def
/uy 0.0 def
/F {
  /Tp exch def
  /Tf exch def
  Tf findfont Tp scalefont setfont
  /cf Tf def  /cs Tp def
} bd
/ULS {currentpoint /uy exch def /ux exch def} bd
/ULE {
  /Tcx currentpoint pop def
  gsave
  newpath
  cf findfont cs scalefont dup
  /FontMatrix get 0 get /Ts exch def /FontInfo get dup
  /UnderlinePosition get Ts mul /To exch def
  /UnderlineThickness get Ts mul /Tt exch def
  ux uy To add moveto  Tcx uy To add lineto
  Tt setlinewidth stroke
  grestore
} bd
/OLE {
  /Tcx currentpoint pop def
  gsave
  newpath
  cf findfont cs scalefont dup
  /FontMatrix get 0 get /Ts exch def /FontInfo get dup
  /UnderlinePosition get Ts mul /To exch def
  /UnderlineThickness get Ts mul /Tt exch def
  ux uy To add cs add moveto Tcx uy To add cs add lineto
  Tt setlinewidth stroke
  grestore
} bd
/SOE {
  /Tcx currentpoint pop def
  gsave
  newpath
  cf findfont cs scalefont dup
  /FontMatrix get 0 get /Ts exch def /FontInfo get dup
  /UnderlinePosition get Ts mul /To exch def
  /UnderlineThickness get Ts mul /Tt exch def
  ux uy To add cs 10 mul 26 idiv add moveto Tcx uy To add cs 10 mul 26 idiv add lineto
  Tt setlinewidth stroke
  grestore
} bd
/QT {
/Y22 exch store
/X22 exch store
/Y21 exch store
/X21 exch store
currentpoint
/Y21 load 2 mul add 3 div exch
/X21 load 2 mul add 3 div exch
/X21 load 2 mul /X22 load add 3 div
/Y21 load 2 mul /Y22 load add 3 div
/X22 load /Y22 load curveto
} bd
/SSPD {
dup length /d exch dict def
{
/v exch def
/k exch def
currentpagedevice k known {
/cpdv currentpagedevice k get def
v cpdv ne {
/upd false def
/nullv v type /nulltype eq def
/nullcpdv cpdv type /nulltype eq def
nullv nullcpdv or
{
/upd true def
} {
/sametype v type cpdv type eq def
sametype {
v type /arraytype eq {
/vlen v length def
/cpdvlen cpdv length def
vlen cpdvlen eq {
0 1 vlen 1 sub {
/i exch def
/obj v i get def
/cpdobj cpdv i get def
obj cpdobj ne {
/upd true def
exit
} if
} for
} {
/upd true def
} ifelse
} {
v type /dicttype eq {
v {
/dv exch def
/dk exch def
/cpddv cpdv dk get def
dv cpddv ne {
/upd true def
exit
} if
} forall
} {
/upd true def
} ifelse
} ifelse
} if
} ifelse
upd true eq {
d k v put
} if
} if
} if
} forall
d length 0 gt {
d setpagedevice
} if
} bd
%%EndResource
%%BeginResource: procset (Apache XML Graphics EPS ProcSet) 1.0 0
%%Version: 1.0 0
%%Copyright: (Copyright 2002-2003 The Apache Software Foundation. License terms: http://www.apache.org/licenses/LICENSE-2.0)
/BeginEPSF { %def
/b4_Inc_state save def         % Save state for cleanup
/dict_count countdictstack def % Count objects on dict stack
/op_count count 1 sub def      % Count objects on operand stack
userdict begin                 % Push userdict on dict stack
/showpage { } def              % Redefine showpage, { } = null proc
0 setgray 0 setlinecap         % Prepare graphics state
1 setlinewidth 0 setlinejoin
10 setmiterlimit [ ] 0 setdash newpath
/languagelevel where           % If level not equal to 1 then
{pop languagelevel             % set strokeadjust and
1 ne                           % overprint to their defaults.
{false setstrokeadjust false setoverprint
} if
} if
} bd
/EndEPSF { %def
count op_count sub {pop} repeat            % Clean up stacks
countdictstack dict_count sub {end} repeat
b4_Inc_state restore
} bd
%%EndResource
%FOPBeginFontDict
%%IncludeResource: font Courier-Bold
%%IncludeResource: font Helvetica
%%IncludeResource: font Courier-BoldOblique
%%IncludeResource: font Courier-Oblique
%%IncludeResource: font Times-Roman
%%IncludeResource: font Helvetica-BoldOblique
%%IncludeResource: font Helvetica-Bold
%%IncludeResource: font Helvetica-Oblique
%%IncludeResource: font Times-BoldItalic
%%IncludeResource: font Courier
%%IncludeResource: font Times-Italic
%%IncludeResource: font Times-Bold
%%IncludeResource: font Symbol
%%IncludeResource: font ZapfDingbats
%FOPEndFontDict
%%BeginResource: encoding WinAnsiEncoding
/WinAnsiEncoding [
/.notdef /.notdef /.notdef /.notdef /.notdef
/.notdef /.notdef /.notdef /.notdef /.notdef
/.notdef /.notdef /.notdef /.notdef /.notdef
/.notdef /.notdef /.notdef /.notdef /.notdef
/.notdef /.notdef /.notdef /.notdef /.notdef
/.notdef /.notdef /.notdef /.notdef /.notdef
/.notdef /.notdef /space /exclam /quotedbl
/numbersign /dollar /percent /ampersand /quotesingle
/parenleft /parenright /asterisk /plus /comma
/hyphen /period /slash /zero /one
/two /three /four /five /six
/seven /eight /nine /colon /semicolon
/less /equal /greater /question /at
/A /B /C /D /E
/F /G /H /I /J
/K /L /M /N /O
/P /Q /R /S /T
/U /V /W /X /Y
/Z /bracketleft /backslash /bracketright /asciicircum
/underscore /quoteleft /a /b /c
/d /e /f /g /h
/i /j /k /l /m
/n /o /p /q /r
/s /t /u /v /w
/x /y /z /braceleft /bar
/braceright /asciitilde /bullet /Euro /bullet
/quotesinglbase /florin /quotedblbase /ellipsis /dagger
/daggerdbl /circumflex /perthousand /Scaron /guilsinglleft
/OE /bullet /Zcaron /bullet /bullet
/quoteleft /quoteright /quotedblleft /quotedblright /bullet
/endash /emdash /asciitilde /trademark /scaron
/guilsinglright /oe /bullet /zcaron /Ydieresis
/space /exclamdown /cent /sterling /currency
/yen /brokenbar /section /dieresis /copyright
/ordfeminine /guillemotleft /logicalnot /sfthyphen /registered
/macron /degree /plusminus /twosuperior /threesuperior
/acute /mu /paragraph /middot /cedilla
/onesuperior /ordmasculine /guillemotright /onequarter /onehalf
/threequarters /questiondown /Agrave /Aacute /Acircumflex
/Atilde /Adieresis /Aring /AE /Ccedilla
/Egrave /Eacute /Ecircumflex /Edieresis /Igrave
/Iacute /Icircumflex /Idieresis /Eth /Ntilde
/Ograve /Oacute /Ocircumflex /Otilde /Odieresis
/multiply /Oslash /Ugrave /Uacute /Ucircumflex
/Udieresis /Yacute /Thorn /germandbls /agrave
/aacute /acircumflex /atilde /adieresis /aring
/ae /ccedilla /egrave /eacute /ecircumflex
/edieresis /igrave /iacute /icircumflex /idieresis
/eth /ntilde /ograve /oacute /ocircumflex
/otilde /odieresis /divide /oslash /ugrave
/uacute /ucircumflex /udieresis /yacute /thorn
/ydieresis
] def
%%EndResource
%FOPBeginFontReencode
/Courier-Bold findfont
dup length dict begin
  {1 index /FID ne {def} {pop pop} ifelse} forall
  /Encoding WinAnsiEncoding def
  currentdict
end
/Courier-Bold exch definefont pop
/Helvetica findfont
dup length dict begin
  {1 index /FID ne {def} {pop pop} ifelse} forall
  /Encoding WinAnsiEncoding def
  currentdict
end
/Helvetica exch definefont pop
/Courier-BoldOblique findfont
dup length dict begin
  {1 index /FID ne {def} {pop pop} ifelse} forall
  /Encoding WinAnsiEncoding def
  currentdict
end
/Courier-BoldOblique exch definefont pop
/Courier-Oblique findfont
dup length dict begin
  {1 index /FID ne {def} {pop pop} ifelse} forall
  /Encoding WinAnsiEncoding def
  currentdict
end
/Courier-Oblique exch definefont pop
/Times-Roman findfont
dup length dict begin
  {1 index /FID ne {def} {pop pop} ifelse} forall
  /Encoding WinAnsiEncoding def
  currentdict
end
/Times-Roman exch definefont pop
/Helvetica-BoldOblique findfont
dup length dict begin
  {1 index /FID ne {def} {pop pop} ifelse} forall
  /Encoding WinAnsiEncoding def
  currentdict
end
/Helvetica-BoldOblique exch definefont pop
/Helvetica-Bold findfont
dup length dict begin
  {1 index /FID ne {def} {pop pop} ifelse} forall
  /Encoding WinAnsiEncoding def
  currentdict
end
/Helvetica-Bold exch definefont pop
/Helvetica-Oblique findfont
dup length dict begin
  {1 index /FID ne {def} {pop pop} ifelse} forall
  /Encoding WinAnsiEncoding def
  currentdict
end
/Helvetica-Oblique exch definefont pop
/Times-BoldItalic findfont
dup length dict begin
  {1 index /FID ne {def} {pop pop} ifelse} forall
  /Encoding WinAnsiEncoding def
  currentdict
end
/Times-BoldItalic exch definefont pop
/Courier findfont
dup length dict begin
  {1 index /FID ne {def} {pop pop} ifelse} forall
  /Encoding WinAnsiEncoding def
  currentdict
end
/Courier exch definefont pop
/Times-Italic findfont
dup length dict begin
  {1 index /FID ne {def} {pop pop} ifelse} forall
  /Encoding WinAnsiEncoding def
  currentdict
end
/Times-Italic exch definefont pop
/Times-Bold findfont
dup length dict begin
  {1 index /FID ne {def} {pop pop} ifelse} forall
  /Encoding WinAnsiEncoding def
  currentdict
end
/Times-Bold exch definefont pop
%FOPEndFontReencode
%%EndProlog
%%Page: 1 1
%%PageBoundingBox: 0 0 576 432
%%BeginPageSetup
[1 0 0 -1 0 432] CT
%%EndPageSetup
GS
1 GC
N
0 0 576 432 re
f
GR
GS
1 GC
N
0 0 576 432 re
f
GR
GS
1 GC
N
75 384 M
521.5 384 L
521.5 32.5 L
75 32.5 L
cp
f
GR
GS
0.149 GC
2 setlinecap
1 LJ
0.5 LW
N
75 384 M
521.5 384 L
S
GR
GS
0.149 GC
2 setlinecap
1 LJ
0.5 LW
N
75 384 M
75 379.535 L
S
GR
GS
0.149 GC
2 setlinecap
1 LJ
0.5 LW
N
186.625 384 M
186.625 379.535 L
S
GR
GS
0.149 GC
2 setlinecap
1 LJ
0.5 LW
N
298.25 384 M
298.25 379.535 L
S
GR
GS
0.149 GC
2 setlinecap
1 LJ
0.5 LW
N
409.875 384 M
409.875 379.535 L
S
GR
GS
0.149 GC
2 setlinecap
1 LJ
0.5 LW
N
521.5 384 M
521.5 379.535 L
S
GR
GS
[1 0 0 1 75 390] CT
0.149 GC
/Helvetica 20 F
GS
[1 0 0 1 0 0] CT
-6 16 moveto 
1 -1 scale
(0) t 
GR
GR
GS
[1 0 0 1 186.625 390] CT
0.149 GC
/Helvetica 20 F
GS
[1 0 0 1 0 0] CT
-6 16 moveto 
1 -1 scale
(5) t 
GR
GR
GS
[1 0 0 1 298.25 390] CT
0.149 GC
/Helvetica 20 F
GS
[1 0 0 1 0 0] CT
-11.5 16 moveto 
1 -1 scale
(10) t 
GR
GR
GS
[1 0 0 1 409.875 390] CT
0.149 GC
/Helvetica 20 F
GS
[1 0 0 1 0 0] CT
-11.5 16 moveto 
1 -1 scale
(15) t 
GR
GR
GS
[1 0 0 1 521.5 390] CT
0.149 GC
/Helvetica 20 F
GS
[1 0 0 1 0 0] CT
-11.5 16 moveto 
1 -1 scale
(20) t 
GR
GR
GS
[1 0 0 1 298.25021 411.5] CT
0.149 GC
/Helvetica 20 F
GS
[1 0 0 1 0 0] CT
-37 16 moveto 
1 -1 scale
(Time \(s\)) t 
GR
GR
GS
0.149 GC
2 setlinecap
1 LJ
0.5 LW
N
75 384 M
75 32.5 L
S
GR
GS
0.149 GC
2 setlinecap
1 LJ
0.5 LW
N
75 384 M
79.465 384 L
S
GR
GS
0.149 GC
2 setlinecap
1 LJ
0.5 LW
N
75 313.7 M
79.465 313.7 L
S
GR
GS
0.149 GC
2 setlinecap
1 LJ
0.5 LW
N
75 243.4 M
79.465 243.4 L
S
GR
GS
0.149 GC
2 setlinecap
1 LJ
0.5 LW
N
75 173.1 M
79.465 173.1 L
S
GR
GS
0.149 GC
2 setlinecap
1 LJ
0.5 LW
N
75 102.8 M
79.465 102.8 L
S
GR
GS
0.149 GC
2 setlinecap
1 LJ
0.5 LW
N
75 32.5 M
79.465 32.5 L
S
GR
GS
[1 0 0 1 69 384] CT
0.149 GC
/Helvetica 20 F
GS
[1 0 0 1 0 0] CT
-28 5.5 moveto 
1 -1 scale
(3.5) t 
GR
GR
GS
[1 0 0 1 69 313.70001] CT
0.149 GC
/Helvetica 20 F
GS
[1 0 0 1 0 0] CT
-12 5.5 moveto 
1 -1 scale
(4) t 
GR
GR
GS
[1 0 0 1 69 243.39999] CT
0.149 GC
/Helvetica 20 F
GS
[1 0 0 1 0 0] CT
-28 5.5 moveto 
1 -1 scale
(4.5) t 
GR
GR
GS
[1 0 0 1 69 173.10001] CT
0.149 GC
/Helvetica 20 F
GS
[1 0 0 1 0 0] CT
-12 5.5 moveto 
1 -1 scale
(5) t 
GR
GR
GS
[1 0 0 1 69 102.8] CT
0.149 GC
/Helvetica 20 F
GS
[1 0 0 1 0 0] CT
-28 5.5 moveto 
1 -1 scale
(5.5) t 
GR
GR
GS
[1 0 0 1 69 32.5] CT
0.149 GC
/Helvetica 20 F
GS
[1 0 0 1 0 0] CT
-12 5.5 moveto 
1 -1 scale
(6) t 
GR
GR
GS
[0 -1 1 0 38 208.24986] CT
0.149 GC
/Helvetica 20 F
GS
[1 0 0 1 0 0] CT
-54.5 -5 moveto 
1 -1 scale
(Train RMSE) t 
GR
GR
GS
0 0.447 0.741 RC
1 LJ
N
75 49.279 M
82.936 101.165 L
90.411 157.529 L
97.671 227.217 L
105.295 274.716 L
112.271 301.929 L
119.449 317.255 L
126.629 326.7 L
134.195 332.964 L
141.395 337.387 L
148.866 340.59 L
156.409 342.898 L
163.914 344.59 L
171.889 345.814 L
180.265 346.562 L
187.523 347.318 L
194.882 347.271 L
202.017 347.802 L
208.973 348.687 L
215.847 350.945 L
222.707 351.545 L
229.713 351.276 L
236.674 352.072 L
243.641 352.138 L
250.525 352.805 L
257.399 353.103 L
264.257 353.128 L
271.198 353.207 L
278.167 353.425 L
285.276 353.763 L
292.598 353.918 L
299.857 353.923 L
306.96 353.973 L
314.096 354.068 L
321.198 354.11 L
328.137 354.133 L
335.21 354.332 L
342.884 354.385 L
349.829 354.431 L
357.55 354.505 L
364.58 354.513 L
372.261 354.505 L
379.115 354.574 L
385.942 354.619 L
392.748 354.655 L
399.674 354.669 L
406.486 354.686 L
413.473 354.724 L
420.504 354.758 L
427.398 354.765 L
S
GR
GS
0 0.447 0.741 RC
1 LJ
N
420.504 354.758 M
427.398 354.765 L
434.2 354.787 L
S
GR
GS
0 0.447 0.741 RC
1 LJ
N
78.5 49.5 M
77.621 47.379 L
75.5 46.5 L
73.379 47.379 L
72.5 49.5 L
73.379 51.621 L
75.5 52.5 L
77.621 51.621 L
cp
S
GR
GS
0 0.447 0.741 RC
1 LJ
N
85.5 101.5 M
84.621 99.379 L
82.5 98.5 L
80.379 99.379 L
79.5 101.5 L
80.379 103.621 L
82.5 104.5 L
84.621 103.621 L
cp
S
GR
GS
0 0.447 0.741 RC
1 LJ
N
93.5 157.5 M
92.621 155.379 L
90.5 154.5 L
88.379 155.379 L
87.5 157.5 L
88.379 159.621 L
90.5 160.5 L
92.621 159.621 L
cp
S
GR
GS
0 0.447 0.741 RC
1 LJ
N
100.5 227.5 M
99.621 225.379 L
97.5 224.5 L
95.379 225.379 L
94.5 227.5 L
95.379 229.621 L
97.5 230.5 L
99.621 229.621 L
cp
S
GR
GS
0 0.447 0.741 RC
1 LJ
N
108.5 274.5 M
107.621 272.379 L
105.5 271.5 L
103.379 272.379 L
102.5 274.5 L
103.379 276.621 L
105.5 277.5 L
107.621 276.621 L
cp
S
GR
GS
0 0.447 0.741 RC
1 LJ
N
115.5 301.5 M
114.621 299.379 L
112.5 298.5 L
110.379 299.379 L
109.5 301.5 L
110.379 303.621 L
112.5 304.5 L
114.621 303.621 L
cp
S
GR
GS
0 0.447 0.741 RC
1 LJ
N
122.5 317.5 M
121.621 315.379 L
119.5 314.5 L
117.379 315.379 L
116.5 317.5 L
117.379 319.621 L
119.5 320.5 L
121.621 319.621 L
cp
S
GR
GS
0 0.447 0.741 RC
1 LJ
N
129.5 326.5 M
128.621 324.379 L
126.5 323.5 L
124.379 324.379 L
123.5 326.5 L
124.379 328.621 L
126.5 329.5 L
128.621 328.621 L
cp
S
GR
GS
0 0.447 0.741 RC
1 LJ
N
137.5 332.5 M
136.621 330.379 L
134.5 329.5 L
132.379 330.379 L
131.5 332.5 L
132.379 334.621 L
134.5 335.5 L
136.621 334.621 L
cp
S
GR
GS
0 0.447 0.741 RC
1 LJ
N
144.5 337.5 M
143.621 335.379 L
141.5 334.5 L
139.379 335.379 L
138.5 337.5 L
139.379 339.621 L
141.5 340.5 L
143.621 339.621 L
cp
S
GR
GS
0 0.447 0.741 RC
1 LJ
N
151.5 340.5 M
150.621 338.379 L
148.5 337.5 L
146.379 338.379 L
145.5 340.5 L
146.379 342.621 L
148.5 343.5 L
150.621 342.621 L
cp
S
GR
GS
0 0.447 0.741 RC
1 LJ
N
159.5 342.5 M
158.621 340.379 L
156.5 339.5 L
154.379 340.379 L
153.5 342.5 L
154.379 344.621 L
156.5 345.5 L
158.621 344.621 L
cp
S
GR
GS
0 0.447 0.741 RC
1 LJ
N
166.5 344.5 M
165.621 342.379 L
163.5 341.5 L
161.379 342.379 L
160.5 344.5 L
161.379 346.621 L
163.5 347.5 L
165.621 346.621 L
cp
S
GR
GS
0 0.447 0.741 RC
1 LJ
N
174.5 345.5 M
173.621 343.379 L
171.5 342.5 L
169.379 343.379 L
168.5 345.5 L
169.379 347.621 L
171.5 348.5 L
173.621 347.621 L
cp
S
GR
GS
0 0.447 0.741 RC
1 LJ
N
183.5 346.5 M
182.621 344.379 L
180.5 343.5 L
178.379 344.379 L
177.5 346.5 L
178.379 348.621 L
180.5 349.5 L
182.621 348.621 L
cp
S
GR
GS
0 0.447 0.741 RC
1 LJ
N
190.5 347.5 M
189.621 345.379 L
187.5 344.5 L
185.379 345.379 L
184.5 347.5 L
185.379 349.621 L
187.5 350.5 L
189.621 349.621 L
cp
S
GR
GS
0 0.447 0.741 RC
1 LJ
N
197.5 347.5 M
196.621 345.379 L
194.5 344.5 L
192.379 345.379 L
191.5 347.5 L
192.379 349.621 L
194.5 350.5 L
196.621 349.621 L
cp
S
GR
GS
0 0.447 0.741 RC
1 LJ
N
205.5 347.5 M
204.621 345.379 L
202.5 344.5 L
200.379 345.379 L
199.5 347.5 L
200.379 349.621 L
202.5 350.5 L
204.621 349.621 L
cp
S
GR
GS
0 0.447 0.741 RC
1 LJ
N
211.5 348.5 M
210.621 346.379 L
208.5 345.5 L
206.379 346.379 L
205.5 348.5 L
206.379 350.621 L
208.5 351.5 L
210.621 350.621 L
cp
S
GR
GS
0 0.447 0.741 RC
1 LJ
N
218.5 350.5 M
217.621 348.379 L
215.5 347.5 L
213.379 348.379 L
212.5 350.5 L
213.379 352.621 L
215.5 353.5 L
217.621 352.621 L
cp
S
GR
GS
0 0.447 0.741 RC
1 LJ
N
225.5 351.5 M
224.621 349.379 L
222.5 348.5 L
220.379 349.379 L
219.5 351.5 L
220.379 353.621 L
222.5 354.5 L
224.621 353.621 L
cp
S
GR
GS
0 0.447 0.741 RC
1 LJ
N
232.5 351.5 M
231.621 349.379 L
229.5 348.5 L
227.379 349.379 L
226.5 351.5 L
227.379 353.621 L
229.5 354.5 L
231.621 353.621 L
cp
S
GR
GS
0 0.447 0.741 RC
1 LJ
N
239.5 352.5 M
238.621 350.379 L
236.5 349.5 L
234.379 350.379 L
233.5 352.5 L
234.379 354.621 L
236.5 355.5 L
238.621 354.621 L
cp
S
GR
GS
0 0.447 0.741 RC
1 LJ
N
246.5 352.5 M
245.621 350.379 L
243.5 349.5 L
241.379 350.379 L
240.5 352.5 L
241.379 354.621 L
243.5 355.5 L
245.621 354.621 L
cp
S
GR
GS
0 0.447 0.741 RC
1 LJ
N
253.5 352.5 M
252.621 350.379 L
250.5 349.5 L
248.379 350.379 L
247.5 352.5 L
248.379 354.621 L
250.5 355.5 L
252.621 354.621 L
cp
S
GR
GS
0 0.447 0.741 RC
1 LJ
N
260.5 353.5 M
259.621 351.379 L
257.5 350.5 L
255.379 351.379 L
254.5 353.5 L
255.379 355.621 L
257.5 356.5 L
259.621 355.621 L
cp
S
GR
GS
0 0.447 0.741 RC
1 LJ
N
267.5 353.5 M
266.621 351.379 L
264.5 350.5 L
262.379 351.379 L
261.5 353.5 L
262.379 355.621 L
264.5 356.5 L
266.621 355.621 L
cp
S
GR
GS
0 0.447 0.741 RC
1 LJ
N
274.5 353.5 M
273.621 351.379 L
271.5 350.5 L
269.379 351.379 L
268.5 353.5 L
269.379 355.621 L
271.5 356.5 L
273.621 355.621 L
cp
S
GR
GS
0 0.447 0.741 RC
1 LJ
N
281.5 353.5 M
280.621 351.379 L
278.5 350.5 L
276.379 351.379 L
275.5 353.5 L
276.379 355.621 L
278.5 356.5 L
280.621 355.621 L
cp
S
GR
GS
0 0.447 0.741 RC
1 LJ
N
288.5 353.5 M
287.621 351.379 L
285.5 350.5 L
283.379 351.379 L
282.5 353.5 L
283.379 355.621 L
285.5 356.5 L
287.621 355.621 L
cp
S
GR
GS
0 0.447 0.741 RC
1 LJ
N
295.5 353.5 M
294.621 351.379 L
292.5 350.5 L
290.379 351.379 L
289.5 353.5 L
290.379 355.621 L
292.5 356.5 L
294.621 355.621 L
cp
S
GR
GS
0 0.447 0.741 RC
1 LJ
N
302.5 353.5 M
301.621 351.379 L
299.5 350.5 L
297.379 351.379 L
296.5 353.5 L
297.379 355.621 L
299.5 356.5 L
301.621 355.621 L
cp
S
GR
GS
0 0.447 0.741 RC
1 LJ
N
309.5 353.5 M
308.621 351.379 L
306.5 350.5 L
304.379 351.379 L
303.5 353.5 L
304.379 355.621 L
306.5 356.5 L
308.621 355.621 L
cp
S
GR
GS
0 0.447 0.741 RC
1 LJ
N
317.5 354.5 M
316.621 352.379 L
314.5 351.5 L
312.379 352.379 L
311.5 354.5 L
312.379 356.621 L
314.5 357.5 L
316.621 356.621 L
cp
S
GR
GS
0 0.447 0.741 RC
1 LJ
N
324.5 354.5 M
323.621 352.379 L
321.5 351.5 L
319.379 352.379 L
318.5 354.5 L
319.379 356.621 L
321.5 357.5 L
323.621 356.621 L
cp
S
GR
GS
0 0.447 0.741 RC
1 LJ
N
331.5 354.5 M
330.621 352.379 L
328.5 351.5 L
326.379 352.379 L
325.5 354.5 L
326.379 356.621 L
328.5 357.5 L
330.621 356.621 L
cp
S
GR
GS
0 0.447 0.741 RC
1 LJ
N
338.5 354.5 M
337.621 352.379 L
335.5 351.5 L
333.379 352.379 L
332.5 354.5 L
333.379 356.621 L
335.5 357.5 L
337.621 356.621 L
cp
S
GR
GS
0 0.447 0.741 RC
1 LJ
N
345.5 354.5 M
344.621 352.379 L
342.5 351.5 L
340.379 352.379 L
339.5 354.5 L
340.379 356.621 L
342.5 357.5 L
344.621 356.621 L
cp
S
GR
GS
0 0.447 0.741 RC
1 LJ
N
352.5 354.5 M
351.621 352.379 L
349.5 351.5 L
347.379 352.379 L
346.5 354.5 L
347.379 356.621 L
349.5 357.5 L
351.621 356.621 L
cp
S
GR
GS
0 0.447 0.741 RC
1 LJ
N
360.5 354.5 M
359.621 352.379 L
357.5 351.5 L
355.379 352.379 L
354.5 354.5 L
355.379 356.621 L
357.5 357.5 L
359.621 356.621 L
cp
S
GR
GS
0 0.447 0.741 RC
1 LJ
N
367.5 354.5 M
366.621 352.379 L
364.5 351.5 L
362.379 352.379 L
361.5 354.5 L
362.379 356.621 L
364.5 357.5 L
366.621 356.621 L
cp
S
GR
GS
0 0.447 0.741 RC
1 LJ
N
375.5 354.5 M
374.621 352.379 L
372.5 351.5 L
370.379 352.379 L
369.5 354.5 L
370.379 356.621 L
372.5 357.5 L
374.621 356.621 L
cp
S
GR
GS
0 0.447 0.741 RC
1 LJ
N
382.5 354.5 M
381.621 352.379 L
379.5 351.5 L
377.379 352.379 L
376.5 354.5 L
377.379 356.621 L
379.5 357.5 L
381.621 356.621 L
cp
S
GR
GS
0 0.447 0.741 RC
1 LJ
N
388.5 354.5 M
387.621 352.379 L
385.5 351.5 L
383.379 352.379 L
382.5 354.5 L
383.379 356.621 L
385.5 357.5 L
387.621 356.621 L
cp
S
GR
GS
0 0.447 0.741 RC
1 LJ
N
395.5 354.5 M
394.621 352.379 L
392.5 351.5 L
390.379 352.379 L
389.5 354.5 L
390.379 356.621 L
392.5 357.5 L
394.621 356.621 L
cp
S
GR
GS
0 0.447 0.741 RC
1 LJ
N
402.5 354.5 M
401.621 352.379 L
399.5 351.5 L
397.379 352.379 L
396.5 354.5 L
397.379 356.621 L
399.5 357.5 L
401.621 356.621 L
cp
S
GR
GS
0 0.447 0.741 RC
1 LJ
N
409.5 354.5 M
408.621 352.379 L
406.5 351.5 L
404.379 352.379 L
403.5 354.5 L
404.379 356.621 L
406.5 357.5 L
408.621 356.621 L
cp
S
GR
GS
0 0.447 0.741 RC
1 LJ
N
416.5 354.5 M
415.621 352.379 L
413.5 351.5 L
411.379 352.379 L
410.5 354.5 L
411.379 356.621 L
413.5 357.5 L
415.621 356.621 L
cp
S
GR
GS
0 0.447 0.741 RC
1 LJ
N
423.5 354.5 M
422.621 352.379 L
420.5 351.5 L
418.379 352.379 L
417.5 354.5 L
418.379 356.621 L
420.5 357.5 L
422.621 356.621 L
cp
S
GR
GS
0 0.447 0.741 RC
1 LJ
N
430.5 354.5 M
429.621 352.379 L
427.5 351.5 L
425.379 352.379 L
424.5 354.5 L
425.379 356.621 L
427.5 357.5 L
429.621 356.621 L
cp
S
GR
GS
0 0.447 0.741 RC
1 LJ
N
437.5 354.5 M
436.621 352.379 L
434.5 351.5 L
432.379 352.379 L
431.5 354.5 L
432.379 356.621 L
434.5 357.5 L
436.621 356.621 L
cp
S
GR
GS
0.851 0.325 0.098 RC
1 LJ
N
75 49.279 M
83.098 110.622 L
90.306 181.634 L
97.484 245.767 L
105.09 279.631 L
113.204 301.139 L
120.426 313.613 L
127.705 320.177 L
134.946 322.581 L
142.18 324.716 L
150.22 329.993 L
157.706 330.763 L
166.421 331.941 L
173.862 335.329 L
181.844 336.461 L
190.098 339.061 L
197.89 338.826 L
205.634 340.388 L
213.156 342.143 L
220.437 342.86 L
229.13 344.728 L
236.87 344.583 L
245.022 345.854 L
252.724 346.397 L
260.059 346.524 L
268.253 347.348 L
275.559 347.695 L
283.008 348.314 L
290.733 348.574 L
298.627 348.642 L
307.483 348.939 L
315.139 349.223 L
323.47 349.21 L
332.186 349.47 L
340.123 349.586 L
348.58 349.954 L
356.003 350.108 L
363.531 350.341 L
370.88 350.524 L
378.208 350.659 L
386.496 350.6 L
393.989 350.746 L
402.882 350.905 L
411.241 350.952 L
419.089 350.997 L
427.964 351.076 L
436.099 351.154 L
444.524 351.198 L
452.736 351.308 L
460.794 351.348 L
S
GR
GS
0.851 0.325 0.098 RC
1 LJ
N
452.736 351.308 M
460.794 351.348 L
469.867 351.408 L
S
GR
GS
0.851 0.325 0.098 RC
1 LJ
N
78.5 49.5 M
77.621 47.379 L
75.5 46.5 L
73.379 47.379 L
72.5 49.5 L
73.379 51.621 L
75.5 52.5 L
77.621 51.621 L
cp
S
GR
GS
0.851 0.325 0.098 RC
1 LJ
N
86.5 110.5 M
85.621 108.379 L
83.5 107.5 L
81.379 108.379 L
80.5 110.5 L
81.379 112.621 L
83.5 113.5 L
85.621 112.621 L
cp
S
GR
GS
0.851 0.325 0.098 RC
1 LJ
N
93.5 181.5 M
92.621 179.379 L
90.5 178.5 L
88.379 179.379 L
87.5 181.5 L
88.379 183.621 L
90.5 184.5 L
92.621 183.621 L
cp
S
GR
GS
0.851 0.325 0.098 RC
1 LJ
N
100.5 245.5 M
99.621 243.379 L
97.5 242.5 L
95.379 243.379 L
94.5 245.5 L
95.379 247.621 L
97.5 248.5 L
99.621 247.621 L
cp
S
GR
GS
0.851 0.325 0.098 RC
1 LJ
N
108.5 279.5 M
107.621 277.379 L
105.5 276.5 L
103.379 277.379 L
102.5 279.5 L
103.379 281.621 L
105.5 282.5 L
107.621 281.621 L
cp
S
GR
GS
0.851 0.325 0.098 RC
1 LJ
N
116.5 301.5 M
115.621 299.379 L
113.5 298.5 L
111.379 299.379 L
110.5 301.5 L
111.379 303.621 L
113.5 304.5 L
115.621 303.621 L
cp
S
GR
GS
0.851 0.325 0.098 RC
1 LJ
N
123.5 313.5 M
122.621 311.379 L
120.5 310.5 L
118.379 311.379 L
117.5 313.5 L
118.379 315.621 L
120.5 316.5 L
122.621 315.621 L
cp
S
GR
GS
0.851 0.325 0.098 RC
1 LJ
N
130.5 320.5 M
129.621 318.379 L
127.5 317.5 L
125.379 318.379 L
124.5 320.5 L
125.379 322.621 L
127.5 323.5 L
129.621 322.621 L
cp
S
GR
GS
0.851 0.325 0.098 RC
1 LJ
N
137.5 322.5 M
136.621 320.379 L
134.5 319.5 L
132.379 320.379 L
131.5 322.5 L
132.379 324.621 L
134.5 325.5 L
136.621 324.621 L
cp
S
GR
GS
0.851 0.325 0.098 RC
1 LJ
N
145.5 324.5 M
144.621 322.379 L
142.5 321.5 L
140.379 322.379 L
139.5 324.5 L
140.379 326.621 L
142.5 327.5 L
144.621 326.621 L
cp
S
GR
GS
0.851 0.325 0.098 RC
1 LJ
N
153.5 329.5 M
152.621 327.379 L
150.5 326.5 L
148.379 327.379 L
147.5 329.5 L
148.379 331.621 L
150.5 332.5 L
152.621 331.621 L
cp
S
GR
GS
0.851 0.325 0.098 RC
1 LJ
N
160.5 330.5 M
159.621 328.379 L
157.5 327.5 L
155.379 328.379 L
154.5 330.5 L
155.379 332.621 L
157.5 333.5 L
159.621 332.621 L
cp
S
GR
GS
0.851 0.325 0.098 RC
1 LJ
N
169.5 331.5 M
168.621 329.379 L
166.5 328.5 L
164.379 329.379 L
163.5 331.5 L
164.379 333.621 L
166.5 334.5 L
168.621 333.621 L
cp
S
GR
GS
0.851 0.325 0.098 RC
1 LJ
N
176.5 335.5 M
175.621 333.379 L
173.5 332.5 L
171.379 333.379 L
170.5 335.5 L
171.379 337.621 L
173.5 338.5 L
175.621 337.621 L
cp
S
GR
GS
0.851 0.325 0.098 RC
1 LJ
N
184.5 336.5 M
183.621 334.379 L
181.5 333.5 L
179.379 334.379 L
178.5 336.5 L
179.379 338.621 L
181.5 339.5 L
183.621 338.621 L
cp
S
GR
GS
0.851 0.325 0.098 RC
1 LJ
N
193.5 339.5 M
192.621 337.379 L
190.5 336.5 L
188.379 337.379 L
187.5 339.5 L
188.379 341.621 L
190.5 342.5 L
192.621 341.621 L
cp
S
GR
GS
0.851 0.325 0.098 RC
1 LJ
N
200.5 338.5 M
199.621 336.379 L
197.5 335.5 L
195.379 336.379 L
194.5 338.5 L
195.379 340.621 L
197.5 341.5 L
199.621 340.621 L
cp
S
GR
GS
0.851 0.325 0.098 RC
1 LJ
N
208.5 340.5 M
207.621 338.379 L
205.5 337.5 L
203.379 338.379 L
202.5 340.5 L
203.379 342.621 L
205.5 343.5 L
207.621 342.621 L
cp
S
GR
GS
0.851 0.325 0.098 RC
1 LJ
N
216.5 342.5 M
215.621 340.379 L
213.5 339.5 L
211.379 340.379 L
210.5 342.5 L
211.379 344.621 L
213.5 345.5 L
215.621 344.621 L
cp
S
GR
GS
0.851 0.325 0.098 RC
1 LJ
N
223.5 342.5 M
222.621 340.379 L
220.5 339.5 L
218.379 340.379 L
217.5 342.5 L
218.379 344.621 L
220.5 345.5 L
222.621 344.621 L
cp
S
GR
GS
0.851 0.325 0.098 RC
1 LJ
N
232.5 344.5 M
231.621 342.379 L
229.5 341.5 L
227.379 342.379 L
226.5 344.5 L
227.379 346.621 L
229.5 347.5 L
231.621 346.621 L
cp
S
GR
GS
0.851 0.325 0.098 RC
1 LJ
N
239.5 344.5 M
238.621 342.379 L
236.5 341.5 L
234.379 342.379 L
233.5 344.5 L
234.379 346.621 L
236.5 347.5 L
238.621 346.621 L
cp
S
GR
GS
0.851 0.325 0.098 RC
1 LJ
N
248.5 345.5 M
247.621 343.379 L
245.5 342.5 L
243.379 343.379 L
242.5 345.5 L
243.379 347.621 L
245.5 348.5 L
247.621 347.621 L
cp
S
GR
GS
0.851 0.325 0.098 RC
1 LJ
N
255.5 346.5 M
254.621 344.379 L
252.5 343.5 L
250.379 344.379 L
249.5 346.5 L
250.379 348.621 L
252.5 349.5 L
254.621 348.621 L
cp
S
GR
GS
0.851 0.325 0.098 RC
1 LJ
N
263.5 346.5 M
262.621 344.379 L
260.5 343.5 L
258.379 344.379 L
257.5 346.5 L
258.379 348.621 L
260.5 349.5 L
262.621 348.621 L
cp
S
GR
GS
0.851 0.325 0.098 RC
1 LJ
N
271.5 347.5 M
270.621 345.379 L
268.5 344.5 L
266.379 345.379 L
265.5 347.5 L
266.379 349.621 L
268.5 350.5 L
270.621 349.621 L
cp
S
GR
GS
0.851 0.325 0.098 RC
1 LJ
N
278.5 347.5 M
277.621 345.379 L
275.5 344.5 L
273.379 345.379 L
272.5 347.5 L
273.379 349.621 L
275.5 350.5 L
277.621 349.621 L
cp
S
GR
GS
0.851 0.325 0.098 RC
1 LJ
N
286.5 348.5 M
285.621 346.379 L
283.5 345.5 L
281.379 346.379 L
280.5 348.5 L
281.379 350.621 L
283.5 351.5 L
285.621 350.621 L
cp
S
GR
GS
0.851 0.325 0.098 RC
1 LJ
N
293.5 348.5 M
292.621 346.379 L
290.5 345.5 L
288.379 346.379 L
287.5 348.5 L
288.379 350.621 L
290.5 351.5 L
292.621 350.621 L
cp
S
GR
GS
0.851 0.325 0.098 RC
1 LJ
N
301.5 348.5 M
300.621 346.379 L
298.5 345.5 L
296.379 346.379 L
295.5 348.5 L
296.379 350.621 L
298.5 351.5 L
300.621 350.621 L
cp
S
GR
GS
0.851 0.325 0.098 RC
1 LJ
N
310.5 348.5 M
309.621 346.379 L
307.5 345.5 L
305.379 346.379 L
304.5 348.5 L
305.379 350.621 L
307.5 351.5 L
309.621 350.621 L
cp
S
GR
GS
0.851 0.325 0.098 RC
1 LJ
N
318.5 349.5 M
317.621 347.379 L
315.5 346.5 L
313.379 347.379 L
312.5 349.5 L
313.379 351.621 L
315.5 352.5 L
317.621 351.621 L
cp
S
GR
GS
0.851 0.325 0.098 RC
1 LJ
N
326.5 349.5 M
325.621 347.379 L
323.5 346.5 L
321.379 347.379 L
320.5 349.5 L
321.379 351.621 L
323.5 352.5 L
325.621 351.621 L
cp
S
GR
GS
0.851 0.325 0.098 RC
1 LJ
N
335.5 349.5 M
334.621 347.379 L
332.5 346.5 L
330.379 347.379 L
329.5 349.5 L
330.379 351.621 L
332.5 352.5 L
334.621 351.621 L
cp
S
GR
GS
0.851 0.325 0.098 RC
1 LJ
N
343.5 349.5 M
342.621 347.379 L
340.5 346.5 L
338.379 347.379 L
337.5 349.5 L
338.379 351.621 L
340.5 352.5 L
342.621 351.621 L
cp
S
GR
GS
0.851 0.325 0.098 RC
1 LJ
N
351.5 349.5 M
350.621 347.379 L
348.5 346.5 L
346.379 347.379 L
345.5 349.5 L
346.379 351.621 L
348.5 352.5 L
350.621 351.621 L
cp
S
GR
GS
0.851 0.325 0.098 RC
1 LJ
N
359.5 350.5 M
358.621 348.379 L
356.5 347.5 L
354.379 348.379 L
353.5 350.5 L
354.379 352.621 L
356.5 353.5 L
358.621 352.621 L
cp
S
GR
GS
0.851 0.325 0.098 RC
1 LJ
N
366.5 350.5 M
365.621 348.379 L
363.5 347.5 L
361.379 348.379 L
360.5 350.5 L
361.379 352.621 L
363.5 353.5 L
365.621 352.621 L
cp
S
GR
GS
0.851 0.325 0.098 RC
1 LJ
N
373.5 350.5 M
372.621 348.379 L
370.5 347.5 L
368.379 348.379 L
367.5 350.5 L
368.379 352.621 L
370.5 353.5 L
372.621 352.621 L
cp
S
GR
GS
0.851 0.325 0.098 RC
1 LJ
N
381.5 350.5 M
380.621 348.379 L
378.5 347.5 L
376.379 348.379 L
375.5 350.5 L
376.379 352.621 L
378.5 353.5 L
380.621 352.621 L
cp
S
GR
GS
0.851 0.325 0.098 RC
1 LJ
N
389.5 350.5 M
388.621 348.379 L
386.5 347.5 L
384.379 348.379 L
383.5 350.5 L
384.379 352.621 L
386.5 353.5 L
388.621 352.621 L
cp
S
GR
GS
0.851 0.325 0.098 RC
1 LJ
N
396.5 350.5 M
395.621 348.379 L
393.5 347.5 L
391.379 348.379 L
390.5 350.5 L
391.379 352.621 L
393.5 353.5 L
395.621 352.621 L
cp
S
GR
GS
0.851 0.325 0.098 RC
1 LJ
N
405.5 350.5 M
404.621 348.379 L
402.5 347.5 L
400.379 348.379 L
399.5 350.5 L
400.379 352.621 L
402.5 353.5 L
404.621 352.621 L
cp
S
GR
GS
0.851 0.325 0.098 RC
1 LJ
N
414.5 350.5 M
413.621 348.379 L
411.5 347.5 L
409.379 348.379 L
408.5 350.5 L
409.379 352.621 L
411.5 353.5 L
413.621 352.621 L
cp
S
GR
GS
0.851 0.325 0.098 RC
1 LJ
N
422.5 350.5 M
421.621 348.379 L
419.5 347.5 L
417.379 348.379 L
416.5 350.5 L
417.379 352.621 L
419.5 353.5 L
421.621 352.621 L
cp
S
GR
GS
0.851 0.325 0.098 RC
1 LJ
N
430.5 351.5 M
429.621 349.379 L
427.5 348.5 L
425.379 349.379 L
424.5 351.5 L
425.379 353.621 L
427.5 354.5 L
429.621 353.621 L
cp
S
GR
GS
0.851 0.325 0.098 RC
1 LJ
N
439.5 351.5 M
438.621 349.379 L
436.5 348.5 L
434.379 349.379 L
433.5 351.5 L
434.379 353.621 L
436.5 354.5 L
438.621 353.621 L
cp
S
GR
GS
0.851 0.325 0.098 RC
1 LJ
N
447.5 351.5 M
446.621 349.379 L
444.5 348.5 L
442.379 349.379 L
441.5 351.5 L
442.379 353.621 L
444.5 354.5 L
446.621 353.621 L
cp
S
GR
GS
0.851 0.325 0.098 RC
1 LJ
N
455.5 351.5 M
454.621 349.379 L
452.5 348.5 L
450.379 349.379 L
449.5 351.5 L
450.379 353.621 L
452.5 354.5 L
454.621 353.621 L
cp
S
GR
GS
0.851 0.325 0.098 RC
1 LJ
N
463.5 351.5 M
462.621 349.379 L
460.5 348.5 L
458.379 349.379 L
457.5 351.5 L
458.379 353.621 L
460.5 354.5 L
462.621 353.621 L
cp
S
GR
GS
0.851 0.325 0.098 RC
1 LJ
N
472.5 351.5 M
471.621 349.379 L
469.5 348.5 L
467.379 349.379 L
466.5 351.5 L
467.379 353.621 L
469.5 354.5 L
471.621 353.621 L
cp
S
GR
GS
[1 0 0 1 360 53.75] CT
/Helvetica 18 F
GS
[1 0 0 1 0 0] CT
0 4.5 moveto 
1 -1 scale
(Random shuffling) t 
GR
GR
GS
0 0.447 0.741 RC
1 LJ
N
327 53.75 M
357 53.75 L
S
GR
GS
0 0.447 0.741 RC
1 LJ
N
344.5 53.5 M
343.621 51.379 L
341.5 50.5 L
339.379 51.379 L
338.5 53.5 L
339.379 55.621 L
341.5 56.5 L
343.621 55.621 L
cp
S
GR
GS
[1 0 0 1 360 72.75] CT
/Helvetica 18 F
GS
[1 0 0 1 0 0] CT
0 4.5 moveto 
1 -1 scale
(Weighted shuffling) t 
GR
GR
GS
0.851 0.325 0.098 RC
1 LJ
N
327 72.75 M
357 72.75 L
S
GR
GS
0.851 0.325 0.098 RC
1 LJ
N
344.5 72.5 M
343.621 70.379 L
341.5 69.5 L
339.379 70.379 L
338.5 72.5 L
339.379 74.621 L
341.5 75.5 L
343.621 74.621 L
cp
S
GR
%%Trailer
%%Pages: 1
%%EOF
