%!PS-Adobe-3.0 EPSF-3.0
%%Creator: (MATLAB, The Mathworks, Inc. Version 8.6.0.267246 \(R2015b\). Operating System: Mac OS X)
%%Title: /Users/gauthiermuguerza/Desktop/rsgd/report/images/jokesFourTest.eps
%%CreationDate: 2018-06-08T09:28:19
%%Pages: (atend)
%%BoundingBox:     6     0   533   409
%%LanguageLevel: 3
%%EndComments
%%BeginProlog
%%BeginResource: procset (Apache XML Graphics Std ProcSet) 1.2 0
%%Version: 1.2 0
%%Copyright: (Copyright 2001-2003,2010 The Apache Software Foundation. License terms: http://www.apache.org/licenses/LICENSE-2.0)
/bd{bind def}bind def
/ld{load def}bd
/GR/grestore ld
/M/moveto ld
/LJ/setlinejoin ld
/C/curveto ld
/f/fill ld
/LW/setlinewidth ld
/GC/setgray ld
/t/show ld
/N/newpath ld
/CT/concat ld
/cp/closepath ld
/S/stroke ld
/L/lineto ld
/CC/setcmykcolor ld
/A/ashow ld
/GS/gsave ld
/RC/setrgbcolor ld
/RM/rmoveto ld
/ML/setmiterlimit ld
/re {4 2 roll M
1 index 0 rlineto
0 exch rlineto
neg 0 rlineto
cp } bd
/_ctm matrix def
/_tm matrix def
/BT { _ctm currentmatrix pop matrix _tm copy pop 0 0 moveto } bd
/ET { _ctm setmatrix } bd
/iTm { _ctm setmatrix _tm concat } bd
/Tm { _tm astore pop iTm 0 0 moveto } bd
/ux 0.0 def
/uy 0.0 def
/F {
  /Tp exch def
  /Tf exch def
  Tf findfont Tp scalefont setfont
  /cf Tf def  /cs Tp def
} bd
/ULS {currentpoint /uy exch def /ux exch def} bd
/ULE {
  /Tcx currentpoint pop def
  gsave
  newpath
  cf findfont cs scalefont dup
  /FontMatrix get 0 get /Ts exch def /FontInfo get dup
  /UnderlinePosition get Ts mul /To exch def
  /UnderlineThickness get Ts mul /Tt exch def
  ux uy To add moveto  Tcx uy To add lineto
  Tt setlinewidth stroke
  grestore
} bd
/OLE {
  /Tcx currentpoint pop def
  gsave
  newpath
  cf findfont cs scalefont dup
  /FontMatrix get 0 get /Ts exch def /FontInfo get dup
  /UnderlinePosition get Ts mul /To exch def
  /UnderlineThickness get Ts mul /Tt exch def
  ux uy To add cs add moveto Tcx uy To add cs add lineto
  Tt setlinewidth stroke
  grestore
} bd
/SOE {
  /Tcx currentpoint pop def
  gsave
  newpath
  cf findfont cs scalefont dup
  /FontMatrix get 0 get /Ts exch def /FontInfo get dup
  /UnderlinePosition get Ts mul /To exch def
  /UnderlineThickness get Ts mul /Tt exch def
  ux uy To add cs 10 mul 26 idiv add moveto Tcx uy To add cs 10 mul 26 idiv add lineto
  Tt setlinewidth stroke
  grestore
} bd
/QT {
/Y22 exch store
/X22 exch store
/Y21 exch store
/X21 exch store
currentpoint
/Y21 load 2 mul add 3 div exch
/X21 load 2 mul add 3 div exch
/X21 load 2 mul /X22 load add 3 div
/Y21 load 2 mul /Y22 load add 3 div
/X22 load /Y22 load curveto
} bd
/SSPD {
dup length /d exch dict def
{
/v exch def
/k exch def
currentpagedevice k known {
/cpdv currentpagedevice k get def
v cpdv ne {
/upd false def
/nullv v type /nulltype eq def
/nullcpdv cpdv type /nulltype eq def
nullv nullcpdv or
{
/upd true def
} {
/sametype v type cpdv type eq def
sametype {
v type /arraytype eq {
/vlen v length def
/cpdvlen cpdv length def
vlen cpdvlen eq {
0 1 vlen 1 sub {
/i exch def
/obj v i get def
/cpdobj cpdv i get def
obj cpdobj ne {
/upd true def
exit
} if
} for
} {
/upd true def
} ifelse
} {
v type /dicttype eq {
v {
/dv exch def
/dk exch def
/cpddv cpdv dk get def
dv cpddv ne {
/upd true def
exit
} if
} forall
} {
/upd true def
} ifelse
} ifelse
} if
} ifelse
upd true eq {
d k v put
} if
} if
} if
} forall
d length 0 gt {
d setpagedevice
} if
} bd
%%EndResource
%%BeginResource: procset (Apache XML Graphics EPS ProcSet) 1.0 0
%%Version: 1.0 0
%%Copyright: (Copyright 2002-2003 The Apache Software Foundation. License terms: http://www.apache.org/licenses/LICENSE-2.0)
/BeginEPSF { %def
/b4_Inc_state save def         % Save state for cleanup
/dict_count countdictstack def % Count objects on dict stack
/op_count count 1 sub def      % Count objects on operand stack
userdict begin                 % Push userdict on dict stack
/showpage { } def              % Redefine showpage, { } = null proc
0 setgray 0 setlinecap         % Prepare graphics state
1 setlinewidth 0 setlinejoin
10 setmiterlimit [ ] 0 setdash newpath
/languagelevel where           % If level not equal to 1 then
{pop languagelevel             % set strokeadjust and
1 ne                           % overprint to their defaults.
{false setstrokeadjust false setoverprint
} if
} if
} bd
/EndEPSF { %def
count op_count sub {pop} repeat            % Clean up stacks
countdictstack dict_count sub {end} repeat
b4_Inc_state restore
} bd
%%EndResource
%FOPBeginFontDict
%%IncludeResource: font Courier-Bold
%%IncludeResource: font Helvetica
%%IncludeResource: font Courier-BoldOblique
%%IncludeResource: font Courier-Oblique
%%IncludeResource: font Times-Roman
%%IncludeResource: font Helvetica-BoldOblique
%%IncludeResource: font Helvetica-Bold
%%IncludeResource: font Helvetica-Oblique
%%IncludeResource: font Times-BoldItalic
%%IncludeResource: font Courier
%%IncludeResource: font Times-Italic
%%IncludeResource: font Times-Bold
%%IncludeResource: font Symbol
%%IncludeResource: font ZapfDingbats
%FOPEndFontDict
%%BeginResource: encoding WinAnsiEncoding
/WinAnsiEncoding [
/.notdef /.notdef /.notdef /.notdef /.notdef
/.notdef /.notdef /.notdef /.notdef /.notdef
/.notdef /.notdef /.notdef /.notdef /.notdef
/.notdef /.notdef /.notdef /.notdef /.notdef
/.notdef /.notdef /.notdef /.notdef /.notdef
/.notdef /.notdef /.notdef /.notdef /.notdef
/.notdef /.notdef /space /exclam /quotedbl
/numbersign /dollar /percent /ampersand /quotesingle
/parenleft /parenright /asterisk /plus /comma
/hyphen /period /slash /zero /one
/two /three /four /five /six
/seven /eight /nine /colon /semicolon
/less /equal /greater /question /at
/A /B /C /D /E
/F /G /H /I /J
/K /L /M /N /O
/P /Q /R /S /T
/U /V /W /X /Y
/Z /bracketleft /backslash /bracketright /asciicircum
/underscore /quoteleft /a /b /c
/d /e /f /g /h
/i /j /k /l /m
/n /o /p /q /r
/s /t /u /v /w
/x /y /z /braceleft /bar
/braceright /asciitilde /bullet /Euro /bullet
/quotesinglbase /florin /quotedblbase /ellipsis /dagger
/daggerdbl /circumflex /perthousand /Scaron /guilsinglleft
/OE /bullet /Zcaron /bullet /bullet
/quoteleft /quoteright /quotedblleft /quotedblright /bullet
/endash /emdash /asciitilde /trademark /scaron
/guilsinglright /oe /bullet /zcaron /Ydieresis
/space /exclamdown /cent /sterling /currency
/yen /brokenbar /section /dieresis /copyright
/ordfeminine /guillemotleft /logicalnot /sfthyphen /registered
/macron /degree /plusminus /twosuperior /threesuperior
/acute /mu /paragraph /middot /cedilla
/onesuperior /ordmasculine /guillemotright /onequarter /onehalf
/threequarters /questiondown /Agrave /Aacute /Acircumflex
/Atilde /Adieresis /Aring /AE /Ccedilla
/Egrave /Eacute /Ecircumflex /Edieresis /Igrave
/Iacute /Icircumflex /Idieresis /Eth /Ntilde
/Ograve /Oacute /Ocircumflex /Otilde /Odieresis
/multiply /Oslash /Ugrave /Uacute /Ucircumflex
/Udieresis /Yacute /Thorn /germandbls /agrave
/aacute /acircumflex /atilde /adieresis /aring
/ae /ccedilla /egrave /eacute /ecircumflex
/edieresis /igrave /iacute /icircumflex /idieresis
/eth /ntilde /ograve /oacute /ocircumflex
/otilde /odieresis /divide /oslash /ugrave
/uacute /ucircumflex /udieresis /yacute /thorn
/ydieresis
] def
%%EndResource
%FOPBeginFontReencode
/Courier-Bold findfont
dup length dict begin
  {1 index /FID ne {def} {pop pop} ifelse} forall
  /Encoding WinAnsiEncoding def
  currentdict
end
/Courier-Bold exch definefont pop
/Helvetica findfont
dup length dict begin
  {1 index /FID ne {def} {pop pop} ifelse} forall
  /Encoding WinAnsiEncoding def
  currentdict
end
/Helvetica exch definefont pop
/Courier-BoldOblique findfont
dup length dict begin
  {1 index /FID ne {def} {pop pop} ifelse} forall
  /Encoding WinAnsiEncoding def
  currentdict
end
/Courier-BoldOblique exch definefont pop
/Courier-Oblique findfont
dup length dict begin
  {1 index /FID ne {def} {pop pop} ifelse} forall
  /Encoding WinAnsiEncoding def
  currentdict
end
/Courier-Oblique exch definefont pop
/Times-Roman findfont
dup length dict begin
  {1 index /FID ne {def} {pop pop} ifelse} forall
  /Encoding WinAnsiEncoding def
  currentdict
end
/Times-Roman exch definefont pop
/Helvetica-BoldOblique findfont
dup length dict begin
  {1 index /FID ne {def} {pop pop} ifelse} forall
  /Encoding WinAnsiEncoding def
  currentdict
end
/Helvetica-BoldOblique exch definefont pop
/Helvetica-Bold findfont
dup length dict begin
  {1 index /FID ne {def} {pop pop} ifelse} forall
  /Encoding WinAnsiEncoding def
  currentdict
end
/Helvetica-Bold exch definefont pop
/Helvetica-Oblique findfont
dup length dict begin
  {1 index /FID ne {def} {pop pop} ifelse} forall
  /Encoding WinAnsiEncoding def
  currentdict
end
/Helvetica-Oblique exch definefont pop
/Times-BoldItalic findfont
dup length dict begin
  {1 index /FID ne {def} {pop pop} ifelse} forall
  /Encoding WinAnsiEncoding def
  currentdict
end
/Times-BoldItalic exch definefont pop
/Courier findfont
dup length dict begin
  {1 index /FID ne {def} {pop pop} ifelse} forall
  /Encoding WinAnsiEncoding def
  currentdict
end
/Courier exch definefont pop
/Times-Italic findfont
dup length dict begin
  {1 index /FID ne {def} {pop pop} ifelse} forall
  /Encoding WinAnsiEncoding def
  currentdict
end
/Times-Italic exch definefont pop
/Times-Bold findfont
dup length dict begin
  {1 index /FID ne {def} {pop pop} ifelse} forall
  /Encoding WinAnsiEncoding def
  currentdict
end
/Times-Bold exch definefont pop
%FOPEndFontReencode
%%EndProlog
%%Page: 1 1
%%PageBoundingBox: 0 0 576 432
%%BeginPageSetup
[1 0 0 -1 0 432] CT
%%EndPageSetup
GS
1 GC
N
0 0 576 432 re
f
GR
GS
1 GC
N
0 0 576 432 re
f
GR
GS
1 GC
N
75 384 M
521.5 384 L
521.5 32.5 L
75 32.5 L
cp
f
GR
GS
0.149 GC
2 setlinecap
1 LJ
0.5 LW
N
75 384 M
521.5 384 L
S
GR
GS
0.149 GC
2 setlinecap
1 LJ
0.5 LW
N
75 384 M
75 379.535 L
S
GR
GS
0.149 GC
2 setlinecap
1 LJ
0.5 LW
N
164.3 384 M
164.3 379.535 L
S
GR
GS
0.149 GC
2 setlinecap
1 LJ
0.5 LW
N
253.6 384 M
253.6 379.535 L
S
GR
GS
0.149 GC
2 setlinecap
1 LJ
0.5 LW
N
342.9 384 M
342.9 379.535 L
S
GR
GS
0.149 GC
2 setlinecap
1 LJ
0.5 LW
N
432.2 384 M
432.2 379.535 L
S
GR
GS
0.149 GC
2 setlinecap
1 LJ
0.5 LW
N
521.5 384 M
521.5 379.535 L
S
GR
GS
[1 0 0 1 75 390] CT
0.149 GC
/Helvetica 20 F
GS
[1 0 0 1 0 0] CT
-6 16 moveto 
1 -1 scale
(0) t 
GR
GR
GS
[1 0 0 1 164.3 390] CT
0.149 GC
/Helvetica 20 F
GS
[1 0 0 1 0 0] CT
-11.5 16 moveto 
1 -1 scale
(10) t 
GR
GR
GS
[1 0 0 1 253.60001 390] CT
0.149 GC
/Helvetica 20 F
GS
[1 0 0 1 0 0] CT
-11.5 16 moveto 
1 -1 scale
(20) t 
GR
GR
GS
[1 0 0 1 342.90002 390] CT
0.149 GC
/Helvetica 20 F
GS
[1 0 0 1 0 0] CT
-11.5 16 moveto 
1 -1 scale
(30) t 
GR
GR
GS
[1 0 0 1 432.20001 390] CT
0.149 GC
/Helvetica 20 F
GS
[1 0 0 1 0 0] CT
-11.5 16 moveto 
1 -1 scale
(40) t 
GR
GR
GS
[1 0 0 1 521.5 390] CT
0.149 GC
/Helvetica 20 F
GS
[1 0 0 1 0 0] CT
-11.5 16 moveto 
1 -1 scale
(50) t 
GR
GR
GS
[1 0 0 1 298.25021 411.5] CT
0.149 GC
/Helvetica 20 F
GS
[1 0 0 1 0 0] CT
-41.5 16 moveto 
1 -1 scale
(Iterations) t 
GR
GR
GS
0.149 GC
2 setlinecap
1 LJ
0.5 LW
N
75 384 M
75 32.5 L
S
GR
GS
0.149 GC
2 setlinecap
1 LJ
0.5 LW
N
75 380.936 M
79.465 380.936 L
S
GR
GS
0.149 GC
2 setlinecap
1 LJ
0.5 LW
N
75 321.279 M
79.465 321.279 L
S
GR
GS
0.149 GC
2 setlinecap
1 LJ
0.5 LW
N
75 262.321 M
79.465 262.321 L
S
GR
GS
0.149 GC
2 setlinecap
1 LJ
0.5 LW
N
75 204.044 M
79.465 204.044 L
S
GR
GS
0.149 GC
2 setlinecap
1 LJ
0.5 LW
N
75 146.433 M
79.465 146.433 L
S
GR
GS
0.149 GC
2 setlinecap
1 LJ
0.5 LW
N
75 89.473 M
79.465 89.473 L
S
GR
GS
0.149 GC
2 setlinecap
1 LJ
0.5 LW
N
75 33.15 M
79.465 33.15 L
S
GR
GS
0.149 GC
2 setlinecap
1 LJ
0.5 LW
N
75 374.938 M
77.232 374.938 L
S
GR
GS
0.149 GC
2 setlinecap
1 LJ
0.5 LW
N
75 368.948 M
77.232 368.948 L
S
GR
GS
0.149 GC
2 setlinecap
1 LJ
0.5 LW
N
75 362.965 M
77.232 362.965 L
S
GR
GS
0.149 GC
2 setlinecap
1 LJ
0.5 LW
N
75 356.988 M
77.232 356.988 L
S
GR
GS
0.149 GC
2 setlinecap
1 LJ
0.5 LW
N
75 351.019 M
77.232 351.019 L
S
GR
GS
0.149 GC
2 setlinecap
1 LJ
0.5 LW
N
75 345.057 M
77.232 345.057 L
S
GR
GS
0.149 GC
2 setlinecap
1 LJ
0.5 LW
N
75 339.102 M
77.232 339.102 L
S
GR
GS
0.149 GC
2 setlinecap
1 LJ
0.5 LW
N
75 333.154 M
77.232 333.154 L
S
GR
GS
0.149 GC
2 setlinecap
1 LJ
0.5 LW
N
75 327.213 M
77.232 327.213 L
S
GR
GS
0.149 GC
2 setlinecap
1 LJ
0.5 LW
N
75 315.352 M
77.232 315.352 L
S
GR
GS
0.149 GC
2 setlinecap
1 LJ
0.5 LW
N
75 309.432 M
77.232 309.432 L
S
GR
GS
0.149 GC
2 setlinecap
1 LJ
0.5 LW
N
75 303.519 M
77.232 303.519 L
S
GR
GS
0.149 GC
2 setlinecap
1 LJ
0.5 LW
N
75 297.613 M
77.232 297.613 L
S
GR
GS
0.149 GC
2 setlinecap
1 LJ
0.5 LW
N
75 291.714 M
77.232 291.714 L
S
GR
GS
0.149 GC
2 setlinecap
1 LJ
0.5 LW
N
75 285.822 M
77.232 285.822 L
S
GR
GS
0.149 GC
2 setlinecap
1 LJ
0.5 LW
N
75 279.936 M
77.232 279.936 L
S
GR
GS
0.149 GC
2 setlinecap
1 LJ
0.5 LW
N
75 274.057 M
77.232 274.057 L
S
GR
GS
0.149 GC
2 setlinecap
1 LJ
0.5 LW
N
75 268.186 M
77.232 268.186 L
S
GR
GS
0.149 GC
2 setlinecap
1 LJ
0.5 LW
N
75 256.463 M
77.232 256.463 L
S
GR
GS
0.149 GC
2 setlinecap
1 LJ
0.5 LW
N
75 250.611 M
77.232 250.611 L
S
GR
GS
0.149 GC
2 setlinecap
1 LJ
0.5 LW
N
75 244.767 M
77.232 244.767 L
S
GR
GS
0.149 GC
2 setlinecap
1 LJ
0.5 LW
N
75 238.929 M
77.232 238.929 L
S
GR
GS
0.149 GC
2 setlinecap
1 LJ
0.5 LW
N
75 233.098 M
77.232 233.098 L
S
GR
GS
0.149 GC
2 setlinecap
1 LJ
0.5 LW
N
75 227.274 M
77.232 227.274 L
S
GR
GS
0.149 GC
2 setlinecap
1 LJ
0.5 LW
N
75 221.456 M
77.232 221.456 L
S
GR
GS
0.149 GC
2 setlinecap
1 LJ
0.5 LW
N
75 215.646 M
77.232 215.646 L
S
GR
GS
0.149 GC
2 setlinecap
1 LJ
0.5 LW
N
75 209.841 M
77.232 209.841 L
S
GR
GS
0.149 GC
2 setlinecap
1 LJ
0.5 LW
N
75 198.253 M
77.232 198.253 L
S
GR
GS
0.149 GC
2 setlinecap
1 LJ
0.5 LW
N
75 192.469 M
77.232 192.469 L
S
GR
GS
0.149 GC
2 setlinecap
1 LJ
0.5 LW
N
75 186.691 M
77.232 186.691 L
S
GR
GS
0.149 GC
2 setlinecap
1 LJ
0.5 LW
N
75 180.92 M
77.232 180.92 L
S
GR
GS
0.149 GC
2 setlinecap
1 LJ
0.5 LW
N
75 175.156 M
77.232 175.156 L
S
GR
GS
0.149 GC
2 setlinecap
1 LJ
0.5 LW
N
75 169.398 M
77.232 169.398 L
S
GR
GS
0.149 GC
2 setlinecap
1 LJ
0.5 LW
N
75 163.647 M
77.232 163.647 L
S
GR
GS
0.149 GC
2 setlinecap
1 LJ
0.5 LW
N
75 157.903 M
77.232 157.903 L
S
GR
GS
0.149 GC
2 setlinecap
1 LJ
0.5 LW
N
75 152.165 M
77.232 152.165 L
S
GR
GS
0.149 GC
2 setlinecap
1 LJ
0.5 LW
N
75 140.708 M
77.232 140.708 L
S
GR
GS
0.149 GC
2 setlinecap
1 LJ
0.5 LW
N
75 134.989 M
77.232 134.989 L
S
GR
GS
0.149 GC
2 setlinecap
1 LJ
0.5 LW
N
75 129.277 M
77.232 129.277 L
S
GR
GS
0.149 GC
2 setlinecap
1 LJ
0.5 LW
N
75 123.572 M
77.232 123.572 L
S
GR
GS
0.149 GC
2 setlinecap
1 LJ
0.5 LW
N
75 117.873 M
77.232 117.873 L
S
GR
GS
0.149 GC
2 setlinecap
1 LJ
0.5 LW
N
75 112.18 M
77.232 112.18 L
S
GR
GS
0.149 GC
2 setlinecap
1 LJ
0.5 LW
N
75 106.494 M
77.232 106.494 L
S
GR
GS
0.149 GC
2 setlinecap
1 LJ
0.5 LW
N
75 100.814 M
77.232 100.814 L
S
GR
GS
0.149 GC
2 setlinecap
1 LJ
0.5 LW
N
75 95.14 M
77.232 95.14 L
S
GR
GS
0.149 GC
2 setlinecap
1 LJ
0.5 LW
N
75 83.812 M
77.232 83.812 L
S
GR
GS
0.149 GC
2 setlinecap
1 LJ
0.5 LW
N
75 78.158 M
77.232 78.158 L
S
GR
GS
0.149 GC
2 setlinecap
1 LJ
0.5 LW
N
75 72.51 M
77.232 72.51 L
S
GR
GS
0.149 GC
2 setlinecap
1 LJ
0.5 LW
N
75 66.868 M
77.232 66.868 L
S
GR
GS
0.149 GC
2 setlinecap
1 LJ
0.5 LW
N
75 61.233 M
77.232 61.233 L
S
GR
GS
0.149 GC
2 setlinecap
1 LJ
0.5 LW
N
75 55.604 M
77.232 55.604 L
S
GR
GS
0.149 GC
2 setlinecap
1 LJ
0.5 LW
N
75 49.981 M
77.232 49.981 L
S
GR
GS
0.149 GC
2 setlinecap
1 LJ
0.5 LW
N
75 44.364 M
77.232 44.364 L
S
GR
GS
0.149 GC
2 setlinecap
1 LJ
0.5 LW
N
75 38.754 M
77.232 38.754 L
S
GR
GS
[1 0 0 1 69 380.93564] CT
0.149 GC
/Helvetica 20 F
GS
[1 0 0 1 0 0] CT
-28 5.5 moveto 
1 -1 scale
(4.2) t 
GR
GR
GS
[1 0 0 1 69 321.27936] CT
0.149 GC
/Helvetica 20 F
GS
[1 0 0 1 0 0] CT
-39 5.5 moveto 
1 -1 scale
(4.25) t 
GR
GR
GS
[1 0 0 1 69 262.3208] CT
0.149 GC
/Helvetica 20 F
GS
[1 0 0 1 0 0] CT
-28 5.5 moveto 
1 -1 scale
(4.3) t 
GR
GR
GS
[1 0 0 1 69 204.04391] CT
0.149 GC
/Helvetica 20 F
GS
[1 0 0 1 0 0] CT
-39 5.5 moveto 
1 -1 scale
(4.35) t 
GR
GR
GS
[1 0 0 1 69 146.43303] CT
0.149 GC
/Helvetica 20 F
GS
[1 0 0 1 0 0] CT
-28 5.5 moveto 
1 -1 scale
(4.4) t 
GR
GR
GS
[1 0 0 1 69 89.47313] CT
0.149 GC
/Helvetica 20 F
GS
[1 0 0 1 0 0] CT
-39 5.5 moveto 
1 -1 scale
(4.45) t 
GR
GR
GS
[1 0 0 1 69 33.14967] CT
0.149 GC
/Helvetica 20 F
GS
[1 0 0 1 0 0] CT
-28 5.5 moveto 
1 -1 scale
(4.5) t 
GR
GR
GS
[0 -1 1 0 27 208.24983] CT
0.149 GC
/Helvetica 20 F
GS
[1 0 0 1 0 0] CT
-51.5 -5 moveto 
1 -1 scale
(Test RMSE) t 
GR
GR
GS
0 0.447 0.741 RC
1 LJ
N
119.65 32.5 M
128.58 134.411 L
137.51 104.609 L
146.44 232.37 L
155.37 246.25 L
164.3 238.252 L
173.23 283.762 L
182.16 294.395 L
191.09 296.875 L
200.02 313.144 L
208.95 322.773 L
217.88 326.504 L
226.81 334.849 L
235.74 337.02 L
244.67 341.663 L
253.6 344.482 L
262.53 346.435 L
271.46 347.164 L
280.39 350.081 L
289.32 351.131 L
298.25 351.596 L
307.18 351.799 L
316.11 353.653 L
325.04 354.03 L
333.97 353.984 L
342.9 353.985 L
351.83 354.98 L
360.76 355.21 L
369.69 355.304 L
378.62 355.121 L
387.55 355.05 L
396.48 355.534 L
405.41 355.703 L
414.34 355.839 L
423.27 355.86 L
432.2 355.658 L
441.13 355.57 L
S
GR
GS
0 0.447 0.741 RC
1 LJ
N
122.5 32.5 M
121.621 30.379 L
119.5 29.5 L
117.379 30.379 L
116.5 32.5 L
117.379 34.621 L
119.5 35.5 L
121.621 34.621 L
cp
S
GR
GS
0 0.447 0.741 RC
1 LJ
N
131.5 134.5 M
130.621 132.379 L
128.5 131.5 L
126.379 132.379 L
125.5 134.5 L
126.379 136.621 L
128.5 137.5 L
130.621 136.621 L
cp
S
GR
GS
0 0.447 0.741 RC
1 LJ
N
140.5 104.5 M
139.621 102.379 L
137.5 101.5 L
135.379 102.379 L
134.5 104.5 L
135.379 106.621 L
137.5 107.5 L
139.621 106.621 L
cp
S
GR
GS
0 0.447 0.741 RC
1 LJ
N
149.5 232.5 M
148.621 230.379 L
146.5 229.5 L
144.379 230.379 L
143.5 232.5 L
144.379 234.621 L
146.5 235.5 L
148.621 234.621 L
cp
S
GR
GS
0 0.447 0.741 RC
1 LJ
N
158.5 246.5 M
157.621 244.379 L
155.5 243.5 L
153.379 244.379 L
152.5 246.5 L
153.379 248.621 L
155.5 249.5 L
157.621 248.621 L
cp
S
GR
GS
0 0.447 0.741 RC
1 LJ
N
167.5 238.5 M
166.621 236.379 L
164.5 235.5 L
162.379 236.379 L
161.5 238.5 L
162.379 240.621 L
164.5 241.5 L
166.621 240.621 L
cp
S
GR
GS
0 0.447 0.741 RC
1 LJ
N
176.5 283.5 M
175.621 281.379 L
173.5 280.5 L
171.379 281.379 L
170.5 283.5 L
171.379 285.621 L
173.5 286.5 L
175.621 285.621 L
cp
S
GR
GS
0 0.447 0.741 RC
1 LJ
N
185.5 294.5 M
184.621 292.379 L
182.5 291.5 L
180.379 292.379 L
179.5 294.5 L
180.379 296.621 L
182.5 297.5 L
184.621 296.621 L
cp
S
GR
GS
0 0.447 0.741 RC
1 LJ
N
194.5 296.5 M
193.621 294.379 L
191.5 293.5 L
189.379 294.379 L
188.5 296.5 L
189.379 298.621 L
191.5 299.5 L
193.621 298.621 L
cp
S
GR
GS
0 0.447 0.741 RC
1 LJ
N
203.5 313.5 M
202.621 311.379 L
200.5 310.5 L
198.379 311.379 L
197.5 313.5 L
198.379 315.621 L
200.5 316.5 L
202.621 315.621 L
cp
S
GR
GS
0 0.447 0.741 RC
1 LJ
N
211.5 322.5 M
210.621 320.379 L
208.5 319.5 L
206.379 320.379 L
205.5 322.5 L
206.379 324.621 L
208.5 325.5 L
210.621 324.621 L
cp
S
GR
GS
0 0.447 0.741 RC
1 LJ
N
220.5 326.5 M
219.621 324.379 L
217.5 323.5 L
215.379 324.379 L
214.5 326.5 L
215.379 328.621 L
217.5 329.5 L
219.621 328.621 L
cp
S
GR
GS
0 0.447 0.741 RC
1 LJ
N
229.5 334.5 M
228.621 332.379 L
226.5 331.5 L
224.379 332.379 L
223.5 334.5 L
224.379 336.621 L
226.5 337.5 L
228.621 336.621 L
cp
S
GR
GS
0 0.447 0.741 RC
1 LJ
N
238.5 337.5 M
237.621 335.379 L
235.5 334.5 L
233.379 335.379 L
232.5 337.5 L
233.379 339.621 L
235.5 340.5 L
237.621 339.621 L
cp
S
GR
GS
0 0.447 0.741 RC
1 LJ
N
247.5 341.5 M
246.621 339.379 L
244.5 338.5 L
242.379 339.379 L
241.5 341.5 L
242.379 343.621 L
244.5 344.5 L
246.621 343.621 L
cp
S
GR
GS
0 0.447 0.741 RC
1 LJ
N
256.5 344.5 M
255.621 342.379 L
253.5 341.5 L
251.379 342.379 L
250.5 344.5 L
251.379 346.621 L
253.5 347.5 L
255.621 346.621 L
cp
S
GR
GS
0 0.447 0.741 RC
1 LJ
N
265.5 346.5 M
264.621 344.379 L
262.5 343.5 L
260.379 344.379 L
259.5 346.5 L
260.379 348.621 L
262.5 349.5 L
264.621 348.621 L
cp
S
GR
GS
0 0.447 0.741 RC
1 LJ
N
274.5 347.5 M
273.621 345.379 L
271.5 344.5 L
269.379 345.379 L
268.5 347.5 L
269.379 349.621 L
271.5 350.5 L
273.621 349.621 L
cp
S
GR
GS
0 0.447 0.741 RC
1 LJ
N
283.5 350.5 M
282.621 348.379 L
280.5 347.5 L
278.379 348.379 L
277.5 350.5 L
278.379 352.621 L
280.5 353.5 L
282.621 352.621 L
cp
S
GR
GS
0 0.447 0.741 RC
1 LJ
N
292.5 351.5 M
291.621 349.379 L
289.5 348.5 L
287.379 349.379 L
286.5 351.5 L
287.379 353.621 L
289.5 354.5 L
291.621 353.621 L
cp
S
GR
GS
0 0.447 0.741 RC
1 LJ
N
301.5 351.5 M
300.621 349.379 L
298.5 348.5 L
296.379 349.379 L
295.5 351.5 L
296.379 353.621 L
298.5 354.5 L
300.621 353.621 L
cp
S
GR
GS
0 0.447 0.741 RC
1 LJ
N
310.5 351.5 M
309.621 349.379 L
307.5 348.5 L
305.379 349.379 L
304.5 351.5 L
305.379 353.621 L
307.5 354.5 L
309.621 353.621 L
cp
S
GR
GS
0 0.447 0.741 RC
1 LJ
N
319.5 353.5 M
318.621 351.379 L
316.5 350.5 L
314.379 351.379 L
313.5 353.5 L
314.379 355.621 L
316.5 356.5 L
318.621 355.621 L
cp
S
GR
GS
0 0.447 0.741 RC
1 LJ
N
328.5 354.5 M
327.621 352.379 L
325.5 351.5 L
323.379 352.379 L
322.5 354.5 L
323.379 356.621 L
325.5 357.5 L
327.621 356.621 L
cp
S
GR
GS
0 0.447 0.741 RC
1 LJ
N
336.5 353.5 M
335.621 351.379 L
333.5 350.5 L
331.379 351.379 L
330.5 353.5 L
331.379 355.621 L
333.5 356.5 L
335.621 355.621 L
cp
S
GR
GS
0 0.447 0.741 RC
1 LJ
N
345.5 353.5 M
344.621 351.379 L
342.5 350.5 L
340.379 351.379 L
339.5 353.5 L
340.379 355.621 L
342.5 356.5 L
344.621 355.621 L
cp
S
GR
GS
0 0.447 0.741 RC
1 LJ
N
354.5 354.5 M
353.621 352.379 L
351.5 351.5 L
349.379 352.379 L
348.5 354.5 L
349.379 356.621 L
351.5 357.5 L
353.621 356.621 L
cp
S
GR
GS
0 0.447 0.741 RC
1 LJ
N
363.5 355.5 M
362.621 353.379 L
360.5 352.5 L
358.379 353.379 L
357.5 355.5 L
358.379 357.621 L
360.5 358.5 L
362.621 357.621 L
cp
S
GR
GS
0 0.447 0.741 RC
1 LJ
N
372.5 355.5 M
371.621 353.379 L
369.5 352.5 L
367.379 353.379 L
366.5 355.5 L
367.379 357.621 L
369.5 358.5 L
371.621 357.621 L
cp
S
GR
GS
0 0.447 0.741 RC
1 LJ
N
381.5 355.5 M
380.621 353.379 L
378.5 352.5 L
376.379 353.379 L
375.5 355.5 L
376.379 357.621 L
378.5 358.5 L
380.621 357.621 L
cp
S
GR
GS
0 0.447 0.741 RC
1 LJ
N
390.5 355.5 M
389.621 353.379 L
387.5 352.5 L
385.379 353.379 L
384.5 355.5 L
385.379 357.621 L
387.5 358.5 L
389.621 357.621 L
cp
S
GR
GS
0 0.447 0.741 RC
1 LJ
N
399.5 355.5 M
398.621 353.379 L
396.5 352.5 L
394.379 353.379 L
393.5 355.5 L
394.379 357.621 L
396.5 358.5 L
398.621 357.621 L
cp
S
GR
GS
0 0.447 0.741 RC
1 LJ
N
408.5 355.5 M
407.621 353.379 L
405.5 352.5 L
403.379 353.379 L
402.5 355.5 L
403.379 357.621 L
405.5 358.5 L
407.621 357.621 L
cp
S
GR
GS
0 0.447 0.741 RC
1 LJ
N
417.5 355.5 M
416.621 353.379 L
414.5 352.5 L
412.379 353.379 L
411.5 355.5 L
412.379 357.621 L
414.5 358.5 L
416.621 357.621 L
cp
S
GR
GS
0 0.447 0.741 RC
1 LJ
N
426.5 355.5 M
425.621 353.379 L
423.5 352.5 L
421.379 353.379 L
420.5 355.5 L
421.379 357.621 L
423.5 358.5 L
425.621 357.621 L
cp
S
GR
GS
0 0.447 0.741 RC
1 LJ
N
435.5 355.5 M
434.621 353.379 L
432.5 352.5 L
430.379 353.379 L
429.5 355.5 L
430.379 357.621 L
432.5 358.5 L
434.621 357.621 L
cp
S
GR
GS
0 0.447 0.741 RC
1 LJ
N
444.5 355.5 M
443.621 353.379 L
441.5 352.5 L
439.379 353.379 L
438.5 355.5 L
439.379 357.621 L
441.5 358.5 L
443.621 357.621 L
cp
S
GR
GS
0.851 0.325 0.098 RC
1 LJ
N
119.65 192.792 M
128.58 179.356 L
137.51 277.07 L
146.44 308.084 L
155.37 339.966 L
164.3 324.275 L
173.23 361.074 L
182.16 350.932 L
191.09 367.205 L
200.02 380.115 L
208.95 376.107 L
217.88 370.923 L
226.81 371.774 L
235.74 373.461 L
244.67 374.132 L
253.6 372.729 L
262.53 372.748 L
271.46 373.657 L
280.39 372.168 L
289.32 371.925 L
298.25 371.435 L
307.18 371.474 L
316.11 371.027 L
325.04 370.97 L
333.97 370.791 L
342.9 370.59 L
351.83 370.341 L
360.76 370.131 L
369.69 370.244 L
378.62 370.196 L
387.55 370.409 L
396.48 370.114 L
405.41 370.148 L
414.34 369.777 L
423.27 369.951 L
432.2 369.989 L
441.13 369.721 L
S
GR
GS
0.851 0.325 0.098 RC
1 LJ
N
122.5 192.5 M
121.621 190.379 L
119.5 189.5 L
117.379 190.379 L
116.5 192.5 L
117.379 194.621 L
119.5 195.5 L
121.621 194.621 L
cp
S
GR
GS
0.851 0.325 0.098 RC
1 LJ
N
131.5 179.5 M
130.621 177.379 L
128.5 176.5 L
126.379 177.379 L
125.5 179.5 L
126.379 181.621 L
128.5 182.5 L
130.621 181.621 L
cp
S
GR
GS
0.851 0.325 0.098 RC
1 LJ
N
140.5 277.5 M
139.621 275.379 L
137.5 274.5 L
135.379 275.379 L
134.5 277.5 L
135.379 279.621 L
137.5 280.5 L
139.621 279.621 L
cp
S
GR
GS
0.851 0.325 0.098 RC
1 LJ
N
149.5 308.5 M
148.621 306.379 L
146.5 305.5 L
144.379 306.379 L
143.5 308.5 L
144.379 310.621 L
146.5 311.5 L
148.621 310.621 L
cp
S
GR
GS
0.851 0.325 0.098 RC
1 LJ
N
158.5 339.5 M
157.621 337.379 L
155.5 336.5 L
153.379 337.379 L
152.5 339.5 L
153.379 341.621 L
155.5 342.5 L
157.621 341.621 L
cp
S
GR
GS
0.851 0.325 0.098 RC
1 LJ
N
167.5 324.5 M
166.621 322.379 L
164.5 321.5 L
162.379 322.379 L
161.5 324.5 L
162.379 326.621 L
164.5 327.5 L
166.621 326.621 L
cp
S
GR
GS
0.851 0.325 0.098 RC
1 LJ
N
176.5 361.5 M
175.621 359.379 L
173.5 358.5 L
171.379 359.379 L
170.5 361.5 L
171.379 363.621 L
173.5 364.5 L
175.621 363.621 L
cp
S
GR
GS
0.851 0.325 0.098 RC
1 LJ
N
185.5 350.5 M
184.621 348.379 L
182.5 347.5 L
180.379 348.379 L
179.5 350.5 L
180.379 352.621 L
182.5 353.5 L
184.621 352.621 L
cp
S
GR
GS
0.851 0.325 0.098 RC
1 LJ
N
194.5 367.5 M
193.621 365.379 L
191.5 364.5 L
189.379 365.379 L
188.5 367.5 L
189.379 369.621 L
191.5 370.5 L
193.621 369.621 L
cp
S
GR
GS
0.851 0.325 0.098 RC
1 LJ
N
203.5 380.5 M
202.621 378.379 L
200.5 377.5 L
198.379 378.379 L
197.5 380.5 L
198.379 382.621 L
200.5 383.5 L
202.621 382.621 L
cp
S
GR
GS
0.851 0.325 0.098 RC
1 LJ
N
211.5 376.5 M
210.621 374.379 L
208.5 373.5 L
206.379 374.379 L
205.5 376.5 L
206.379 378.621 L
208.5 379.5 L
210.621 378.621 L
cp
S
GR
GS
0.851 0.325 0.098 RC
1 LJ
N
220.5 370.5 M
219.621 368.379 L
217.5 367.5 L
215.379 368.379 L
214.5 370.5 L
215.379 372.621 L
217.5 373.5 L
219.621 372.621 L
cp
S
GR
GS
0.851 0.325 0.098 RC
1 LJ
N
229.5 371.5 M
228.621 369.379 L
226.5 368.5 L
224.379 369.379 L
223.5 371.5 L
224.379 373.621 L
226.5 374.5 L
228.621 373.621 L
cp
S
GR
GS
0.851 0.325 0.098 RC
1 LJ
N
238.5 373.5 M
237.621 371.379 L
235.5 370.5 L
233.379 371.379 L
232.5 373.5 L
233.379 375.621 L
235.5 376.5 L
237.621 375.621 L
cp
S
GR
GS
0.851 0.325 0.098 RC
1 LJ
N
247.5 374.5 M
246.621 372.379 L
244.5 371.5 L
242.379 372.379 L
241.5 374.5 L
242.379 376.621 L
244.5 377.5 L
246.621 376.621 L
cp
S
GR
GS
0.851 0.325 0.098 RC
1 LJ
N
256.5 372.5 M
255.621 370.379 L
253.5 369.5 L
251.379 370.379 L
250.5 372.5 L
251.379 374.621 L
253.5 375.5 L
255.621 374.621 L
cp
S
GR
GS
0.851 0.325 0.098 RC
1 LJ
N
265.5 372.5 M
264.621 370.379 L
262.5 369.5 L
260.379 370.379 L
259.5 372.5 L
260.379 374.621 L
262.5 375.5 L
264.621 374.621 L
cp
S
GR
GS
0.851 0.325 0.098 RC
1 LJ
N
274.5 373.5 M
273.621 371.379 L
271.5 370.5 L
269.379 371.379 L
268.5 373.5 L
269.379 375.621 L
271.5 376.5 L
273.621 375.621 L
cp
S
GR
GS
0.851 0.325 0.098 RC
1 LJ
N
283.5 372.5 M
282.621 370.379 L
280.5 369.5 L
278.379 370.379 L
277.5 372.5 L
278.379 374.621 L
280.5 375.5 L
282.621 374.621 L
cp
S
GR
GS
0.851 0.325 0.098 RC
1 LJ
N
292.5 371.5 M
291.621 369.379 L
289.5 368.5 L
287.379 369.379 L
286.5 371.5 L
287.379 373.621 L
289.5 374.5 L
291.621 373.621 L
cp
S
GR
GS
0.851 0.325 0.098 RC
1 LJ
N
301.5 371.5 M
300.621 369.379 L
298.5 368.5 L
296.379 369.379 L
295.5 371.5 L
296.379 373.621 L
298.5 374.5 L
300.621 373.621 L
cp
S
GR
GS
0.851 0.325 0.098 RC
1 LJ
N
310.5 371.5 M
309.621 369.379 L
307.5 368.5 L
305.379 369.379 L
304.5 371.5 L
305.379 373.621 L
307.5 374.5 L
309.621 373.621 L
cp
S
GR
GS
0.851 0.325 0.098 RC
1 LJ
N
319.5 371.5 M
318.621 369.379 L
316.5 368.5 L
314.379 369.379 L
313.5 371.5 L
314.379 373.621 L
316.5 374.5 L
318.621 373.621 L
cp
S
GR
GS
0.851 0.325 0.098 RC
1 LJ
N
328.5 370.5 M
327.621 368.379 L
325.5 367.5 L
323.379 368.379 L
322.5 370.5 L
323.379 372.621 L
325.5 373.5 L
327.621 372.621 L
cp
S
GR
GS
0.851 0.325 0.098 RC
1 LJ
N
336.5 370.5 M
335.621 368.379 L
333.5 367.5 L
331.379 368.379 L
330.5 370.5 L
331.379 372.621 L
333.5 373.5 L
335.621 372.621 L
cp
S
GR
GS
0.851 0.325 0.098 RC
1 LJ
N
345.5 370.5 M
344.621 368.379 L
342.5 367.5 L
340.379 368.379 L
339.5 370.5 L
340.379 372.621 L
342.5 373.5 L
344.621 372.621 L
cp
S
GR
GS
0.851 0.325 0.098 RC
1 LJ
N
354.5 370.5 M
353.621 368.379 L
351.5 367.5 L
349.379 368.379 L
348.5 370.5 L
349.379 372.621 L
351.5 373.5 L
353.621 372.621 L
cp
S
GR
GS
0.851 0.325 0.098 RC
1 LJ
N
363.5 370.5 M
362.621 368.379 L
360.5 367.5 L
358.379 368.379 L
357.5 370.5 L
358.379 372.621 L
360.5 373.5 L
362.621 372.621 L
cp
S
GR
GS
0.851 0.325 0.098 RC
1 LJ
N
372.5 370.5 M
371.621 368.379 L
369.5 367.5 L
367.379 368.379 L
366.5 370.5 L
367.379 372.621 L
369.5 373.5 L
371.621 372.621 L
cp
S
GR
GS
0.851 0.325 0.098 RC
1 LJ
N
381.5 370.5 M
380.621 368.379 L
378.5 367.5 L
376.379 368.379 L
375.5 370.5 L
376.379 372.621 L
378.5 373.5 L
380.621 372.621 L
cp
S
GR
GS
0.851 0.325 0.098 RC
1 LJ
N
390.5 370.5 M
389.621 368.379 L
387.5 367.5 L
385.379 368.379 L
384.5 370.5 L
385.379 372.621 L
387.5 373.5 L
389.621 372.621 L
cp
S
GR
GS
0.851 0.325 0.098 RC
1 LJ
N
399.5 370.5 M
398.621 368.379 L
396.5 367.5 L
394.379 368.379 L
393.5 370.5 L
394.379 372.621 L
396.5 373.5 L
398.621 372.621 L
cp
S
GR
GS
0.851 0.325 0.098 RC
1 LJ
N
408.5 370.5 M
407.621 368.379 L
405.5 367.5 L
403.379 368.379 L
402.5 370.5 L
403.379 372.621 L
405.5 373.5 L
407.621 372.621 L
cp
S
GR
GS
0.851 0.325 0.098 RC
1 LJ
N
417.5 369.5 M
416.621 367.379 L
414.5 366.5 L
412.379 367.379 L
411.5 369.5 L
412.379 371.621 L
414.5 372.5 L
416.621 371.621 L
cp
S
GR
GS
0.851 0.325 0.098 RC
1 LJ
N
426.5 369.5 M
425.621 367.379 L
423.5 366.5 L
421.379 367.379 L
420.5 369.5 L
421.379 371.621 L
423.5 372.5 L
425.621 371.621 L
cp
S
GR
GS
0.851 0.325 0.098 RC
1 LJ
N
435.5 369.5 M
434.621 367.379 L
432.5 366.5 L
430.379 367.379 L
429.5 369.5 L
430.379 371.621 L
432.5 372.5 L
434.621 371.621 L
cp
S
GR
GS
0.851 0.325 0.098 RC
1 LJ
N
444.5 369.5 M
443.621 367.379 L
441.5 366.5 L
439.379 367.379 L
438.5 369.5 L
439.379 371.621 L
441.5 372.5 L
443.621 371.621 L
cp
S
GR
GS
0.929 0.694 0.125 RC
1 LJ
N
119.65 53.886 M
128.58 141.954 L
137.51 161.81 L
146.44 216.868 L
155.37 222.745 L
164.3 263.679 L
173.23 291.399 L
182.16 301.625 L
191.09 310.57 L
200.02 330.249 L
208.95 330.445 L
217.88 327.772 L
226.81 338.605 L
235.74 347.024 L
244.67 344.425 L
253.6 337.592 L
262.53 346.508 L
271.46 343.864 L
280.39 356.641 L
289.32 351.165 L
298.25 351.373 L
307.18 347.352 L
316.11 351.828 L
325.04 351.419 L
333.97 356.655 L
342.9 356.485 L
351.83 354.332 L
360.76 357.7 L
369.69 359.442 L
378.62 359.125 L
387.55 356.504 L
396.48 354.997 L
405.41 353.744 L
414.34 358.631 L
423.27 358.614 L
432.2 361.407 L
441.13 360.734 L
S
GR
GS
0.929 0.694 0.125 RC
1 LJ
N
122.5 53.5 M
121.621 51.379 L
119.5 50.5 L
117.379 51.379 L
116.5 53.5 L
117.379 55.621 L
119.5 56.5 L
121.621 55.621 L
cp
S
GR
GS
0.929 0.694 0.125 RC
1 LJ
N
131.5 141.5 M
130.621 139.379 L
128.5 138.5 L
126.379 139.379 L
125.5 141.5 L
126.379 143.621 L
128.5 144.5 L
130.621 143.621 L
cp
S
GR
GS
0.929 0.694 0.125 RC
1 LJ
N
140.5 161.5 M
139.621 159.379 L
137.5 158.5 L
135.379 159.379 L
134.5 161.5 L
135.379 163.621 L
137.5 164.5 L
139.621 163.621 L
cp
S
GR
GS
0.929 0.694 0.125 RC
1 LJ
N
149.5 216.5 M
148.621 214.379 L
146.5 213.5 L
144.379 214.379 L
143.5 216.5 L
144.379 218.621 L
146.5 219.5 L
148.621 218.621 L
cp
S
GR
GS
0.929 0.694 0.125 RC
1 LJ
N
158.5 222.5 M
157.621 220.379 L
155.5 219.5 L
153.379 220.379 L
152.5 222.5 L
153.379 224.621 L
155.5 225.5 L
157.621 224.621 L
cp
S
GR
GS
0.929 0.694 0.125 RC
1 LJ
N
167.5 263.5 M
166.621 261.379 L
164.5 260.5 L
162.379 261.379 L
161.5 263.5 L
162.379 265.621 L
164.5 266.5 L
166.621 265.621 L
cp
S
GR
GS
0.929 0.694 0.125 RC
1 LJ
N
176.5 291.5 M
175.621 289.379 L
173.5 288.5 L
171.379 289.379 L
170.5 291.5 L
171.379 293.621 L
173.5 294.5 L
175.621 293.621 L
cp
S
GR
GS
0.929 0.694 0.125 RC
1 LJ
N
185.5 301.5 M
184.621 299.379 L
182.5 298.5 L
180.379 299.379 L
179.5 301.5 L
180.379 303.621 L
182.5 304.5 L
184.621 303.621 L
cp
S
GR
GS
0.929 0.694 0.125 RC
1 LJ
N
194.5 310.5 M
193.621 308.379 L
191.5 307.5 L
189.379 308.379 L
188.5 310.5 L
189.379 312.621 L
191.5 313.5 L
193.621 312.621 L
cp
S
GR
GS
0.929 0.694 0.125 RC
1 LJ
N
203.5 330.5 M
202.621 328.379 L
200.5 327.5 L
198.379 328.379 L
197.5 330.5 L
198.379 332.621 L
200.5 333.5 L
202.621 332.621 L
cp
S
GR
GS
0.929 0.694 0.125 RC
1 LJ
N
211.5 330.5 M
210.621 328.379 L
208.5 327.5 L
206.379 328.379 L
205.5 330.5 L
206.379 332.621 L
208.5 333.5 L
210.621 332.621 L
cp
S
GR
GS
0.929 0.694 0.125 RC
1 LJ
N
220.5 327.5 M
219.621 325.379 L
217.5 324.5 L
215.379 325.379 L
214.5 327.5 L
215.379 329.621 L
217.5 330.5 L
219.621 329.621 L
cp
S
GR
GS
0.929 0.694 0.125 RC
1 LJ
N
229.5 338.5 M
228.621 336.379 L
226.5 335.5 L
224.379 336.379 L
223.5 338.5 L
224.379 340.621 L
226.5 341.5 L
228.621 340.621 L
cp
S
GR
GS
0.929 0.694 0.125 RC
1 LJ
N
238.5 347.5 M
237.621 345.379 L
235.5 344.5 L
233.379 345.379 L
232.5 347.5 L
233.379 349.621 L
235.5 350.5 L
237.621 349.621 L
cp
S
GR
GS
0.929 0.694 0.125 RC
1 LJ
N
247.5 344.5 M
246.621 342.379 L
244.5 341.5 L
242.379 342.379 L
241.5 344.5 L
242.379 346.621 L
244.5 347.5 L
246.621 346.621 L
cp
S
GR
GS
0.929 0.694 0.125 RC
1 LJ
N
256.5 337.5 M
255.621 335.379 L
253.5 334.5 L
251.379 335.379 L
250.5 337.5 L
251.379 339.621 L
253.5 340.5 L
255.621 339.621 L
cp
S
GR
GS
0.929 0.694 0.125 RC
1 LJ
N
265.5 346.5 M
264.621 344.379 L
262.5 343.5 L
260.379 344.379 L
259.5 346.5 L
260.379 348.621 L
262.5 349.5 L
264.621 348.621 L
cp
S
GR
GS
0.929 0.694 0.125 RC
1 LJ
N
274.5 343.5 M
273.621 341.379 L
271.5 340.5 L
269.379 341.379 L
268.5 343.5 L
269.379 345.621 L
271.5 346.5 L
273.621 345.621 L
cp
S
GR
GS
0.929 0.694 0.125 RC
1 LJ
N
283.5 356.5 M
282.621 354.379 L
280.5 353.5 L
278.379 354.379 L
277.5 356.5 L
278.379 358.621 L
280.5 359.5 L
282.621 358.621 L
cp
S
GR
GS
0.929 0.694 0.125 RC
1 LJ
N
292.5 351.5 M
291.621 349.379 L
289.5 348.5 L
287.379 349.379 L
286.5 351.5 L
287.379 353.621 L
289.5 354.5 L
291.621 353.621 L
cp
S
GR
GS
0.929 0.694 0.125 RC
1 LJ
N
301.5 351.5 M
300.621 349.379 L
298.5 348.5 L
296.379 349.379 L
295.5 351.5 L
296.379 353.621 L
298.5 354.5 L
300.621 353.621 L
cp
S
GR
GS
0.929 0.694 0.125 RC
1 LJ
N
310.5 347.5 M
309.621 345.379 L
307.5 344.5 L
305.379 345.379 L
304.5 347.5 L
305.379 349.621 L
307.5 350.5 L
309.621 349.621 L
cp
S
GR
GS
0.929 0.694 0.125 RC
1 LJ
N
319.5 351.5 M
318.621 349.379 L
316.5 348.5 L
314.379 349.379 L
313.5 351.5 L
314.379 353.621 L
316.5 354.5 L
318.621 353.621 L
cp
S
GR
GS
0.929 0.694 0.125 RC
1 LJ
N
328.5 351.5 M
327.621 349.379 L
325.5 348.5 L
323.379 349.379 L
322.5 351.5 L
323.379 353.621 L
325.5 354.5 L
327.621 353.621 L
cp
S
GR
GS
0.929 0.694 0.125 RC
1 LJ
N
336.5 356.5 M
335.621 354.379 L
333.5 353.5 L
331.379 354.379 L
330.5 356.5 L
331.379 358.621 L
333.5 359.5 L
335.621 358.621 L
cp
S
GR
GS
0.929 0.694 0.125 RC
1 LJ
N
345.5 356.5 M
344.621 354.379 L
342.5 353.5 L
340.379 354.379 L
339.5 356.5 L
340.379 358.621 L
342.5 359.5 L
344.621 358.621 L
cp
S
GR
GS
0.929 0.694 0.125 RC
1 LJ
N
354.5 354.5 M
353.621 352.379 L
351.5 351.5 L
349.379 352.379 L
348.5 354.5 L
349.379 356.621 L
351.5 357.5 L
353.621 356.621 L
cp
S
GR
GS
0.929 0.694 0.125 RC
1 LJ
N
363.5 357.5 M
362.621 355.379 L
360.5 354.5 L
358.379 355.379 L
357.5 357.5 L
358.379 359.621 L
360.5 360.5 L
362.621 359.621 L
cp
S
GR
GS
0.929 0.694 0.125 RC
1 LJ
N
372.5 359.5 M
371.621 357.379 L
369.5 356.5 L
367.379 357.379 L
366.5 359.5 L
367.379 361.621 L
369.5 362.5 L
371.621 361.621 L
cp
S
GR
GS
0.929 0.694 0.125 RC
1 LJ
N
381.5 359.5 M
380.621 357.379 L
378.5 356.5 L
376.379 357.379 L
375.5 359.5 L
376.379 361.621 L
378.5 362.5 L
380.621 361.621 L
cp
S
GR
GS
0.929 0.694 0.125 RC
1 LJ
N
390.5 356.5 M
389.621 354.379 L
387.5 353.5 L
385.379 354.379 L
384.5 356.5 L
385.379 358.621 L
387.5 359.5 L
389.621 358.621 L
cp
S
GR
GS
0.929 0.694 0.125 RC
1 LJ
N
399.5 354.5 M
398.621 352.379 L
396.5 351.5 L
394.379 352.379 L
393.5 354.5 L
394.379 356.621 L
396.5 357.5 L
398.621 356.621 L
cp
S
GR
GS
0.929 0.694 0.125 RC
1 LJ
N
408.5 353.5 M
407.621 351.379 L
405.5 350.5 L
403.379 351.379 L
402.5 353.5 L
403.379 355.621 L
405.5 356.5 L
407.621 355.621 L
cp
S
GR
GS
0.929 0.694 0.125 RC
1 LJ
N
417.5 358.5 M
416.621 356.379 L
414.5 355.5 L
412.379 356.379 L
411.5 358.5 L
412.379 360.621 L
414.5 361.5 L
416.621 360.621 L
cp
S
GR
GS
0.929 0.694 0.125 RC
1 LJ
N
426.5 358.5 M
425.621 356.379 L
423.5 355.5 L
421.379 356.379 L
420.5 358.5 L
421.379 360.621 L
423.5 361.5 L
425.621 360.621 L
cp
S
GR
GS
0.929 0.694 0.125 RC
1 LJ
N
435.5 361.5 M
434.621 359.379 L
432.5 358.5 L
430.379 359.379 L
429.5 361.5 L
430.379 363.621 L
432.5 364.5 L
434.621 363.621 L
cp
S
GR
GS
0.929 0.694 0.125 RC
1 LJ
N
444.5 360.5 M
443.621 358.379 L
441.5 357.5 L
439.379 358.379 L
438.5 360.5 L
439.379 362.621 L
441.5 363.5 L
443.621 362.621 L
cp
S
GR
GS
0.494 0.184 0.557 RC
1 LJ
N
119.65 220.958 M
128.58 184.382 L
137.51 218.615 L
146.44 319.215 L
155.37 331.942 L
164.3 344.394 L
173.23 360.6 L
182.16 370.829 L
191.09 368.902 L
200.02 368.364 L
208.95 384 L
217.88 373.113 L
226.81 382.938 L
235.74 381.096 L
244.67 382.496 L
253.6 379.137 L
262.53 381.049 L
271.46 380.648 L
280.39 380.381 L
289.32 380.226 L
298.25 380.144 L
307.18 379.58 L
316.11 379.701 L
325.04 379.329 L
333.97 379.631 L
342.9 379.321 L
351.83 379.396 L
360.76 379.402 L
369.69 379.33 L
378.62 379.059 L
387.55 379.186 L
396.48 378.683 L
405.41 378.801 L
414.34 378.567 L
423.27 378.671 L
432.2 378.575 L
441.13 378.486 L
S
GR
GS
0.494 0.184 0.557 RC
1 LJ
N
122.5 220.5 M
121.621 218.379 L
119.5 217.5 L
117.379 218.379 L
116.5 220.5 L
117.379 222.621 L
119.5 223.5 L
121.621 222.621 L
cp
S
GR
GS
0.494 0.184 0.557 RC
1 LJ
N
131.5 184.5 M
130.621 182.379 L
128.5 181.5 L
126.379 182.379 L
125.5 184.5 L
126.379 186.621 L
128.5 187.5 L
130.621 186.621 L
cp
S
GR
GS
0.494 0.184 0.557 RC
1 LJ
N
140.5 218.5 M
139.621 216.379 L
137.5 215.5 L
135.379 216.379 L
134.5 218.5 L
135.379 220.621 L
137.5 221.5 L
139.621 220.621 L
cp
S
GR
GS
0.494 0.184 0.557 RC
1 LJ
N
149.5 319.5 M
148.621 317.379 L
146.5 316.5 L
144.379 317.379 L
143.5 319.5 L
144.379 321.621 L
146.5 322.5 L
148.621 321.621 L
cp
S
GR
GS
0.494 0.184 0.557 RC
1 LJ
N
158.5 331.5 M
157.621 329.379 L
155.5 328.5 L
153.379 329.379 L
152.5 331.5 L
153.379 333.621 L
155.5 334.5 L
157.621 333.621 L
cp
S
GR
GS
0.494 0.184 0.557 RC
1 LJ
N
167.5 344.5 M
166.621 342.379 L
164.5 341.5 L
162.379 342.379 L
161.5 344.5 L
162.379 346.621 L
164.5 347.5 L
166.621 346.621 L
cp
S
GR
GS
0.494 0.184 0.557 RC
1 LJ
N
176.5 360.5 M
175.621 358.379 L
173.5 357.5 L
171.379 358.379 L
170.5 360.5 L
171.379 362.621 L
173.5 363.5 L
175.621 362.621 L
cp
S
GR
GS
0.494 0.184 0.557 RC
1 LJ
N
185.5 370.5 M
184.621 368.379 L
182.5 367.5 L
180.379 368.379 L
179.5 370.5 L
180.379 372.621 L
182.5 373.5 L
184.621 372.621 L
cp
S
GR
GS
0.494 0.184 0.557 RC
1 LJ
N
194.5 368.5 M
193.621 366.379 L
191.5 365.5 L
189.379 366.379 L
188.5 368.5 L
189.379 370.621 L
191.5 371.5 L
193.621 370.621 L
cp
S
GR
GS
0.494 0.184 0.557 RC
1 LJ
N
203.5 368.5 M
202.621 366.379 L
200.5 365.5 L
198.379 366.379 L
197.5 368.5 L
198.379 370.621 L
200.5 371.5 L
202.621 370.621 L
cp
S
GR
GS
0.494 0.184 0.557 RC
1 LJ
N
211.5 383.5 M
210.621 381.379 L
208.5 380.5 L
206.379 381.379 L
205.5 383.5 L
206.379 385.621 L
208.5 386.5 L
210.621 385.621 L
cp
S
GR
GS
0.494 0.184 0.557 RC
1 LJ
N
220.5 373.5 M
219.621 371.379 L
217.5 370.5 L
215.379 371.379 L
214.5 373.5 L
215.379 375.621 L
217.5 376.5 L
219.621 375.621 L
cp
S
GR
GS
0.494 0.184 0.557 RC
1 LJ
N
229.5 382.5 M
228.621 380.379 L
226.5 379.5 L
224.379 380.379 L
223.5 382.5 L
224.379 384.621 L
226.5 385.5 L
228.621 384.621 L
cp
S
GR
GS
0.494 0.184 0.557 RC
1 LJ
N
238.5 381.5 M
237.621 379.379 L
235.5 378.5 L
233.379 379.379 L
232.5 381.5 L
233.379 383.621 L
235.5 384.5 L
237.621 383.621 L
cp
S
GR
GS
0.494 0.184 0.557 RC
1 LJ
N
247.5 382.5 M
246.621 380.379 L
244.5 379.5 L
242.379 380.379 L
241.5 382.5 L
242.379 384.621 L
244.5 385.5 L
246.621 384.621 L
cp
S
GR
GS
0.494 0.184 0.557 RC
1 LJ
N
256.5 379.5 M
255.621 377.379 L
253.5 376.5 L
251.379 377.379 L
250.5 379.5 L
251.379 381.621 L
253.5 382.5 L
255.621 381.621 L
cp
S
GR
GS
0.494 0.184 0.557 RC
1 LJ
N
265.5 381.5 M
264.621 379.379 L
262.5 378.5 L
260.379 379.379 L
259.5 381.5 L
260.379 383.621 L
262.5 384.5 L
264.621 383.621 L
cp
S
GR
GS
0.494 0.184 0.557 RC
1 LJ
N
274.5 380.5 M
273.621 378.379 L
271.5 377.5 L
269.379 378.379 L
268.5 380.5 L
269.379 382.621 L
271.5 383.5 L
273.621 382.621 L
cp
S
GR
GS
0.494 0.184 0.557 RC
1 LJ
N
283.5 380.5 M
282.621 378.379 L
280.5 377.5 L
278.379 378.379 L
277.5 380.5 L
278.379 382.621 L
280.5 383.5 L
282.621 382.621 L
cp
S
GR
GS
0.494 0.184 0.557 RC
1 LJ
N
292.5 380.5 M
291.621 378.379 L
289.5 377.5 L
287.379 378.379 L
286.5 380.5 L
287.379 382.621 L
289.5 383.5 L
291.621 382.621 L
cp
S
GR
GS
0.494 0.184 0.557 RC
1 LJ
N
301.5 380.5 M
300.621 378.379 L
298.5 377.5 L
296.379 378.379 L
295.5 380.5 L
296.379 382.621 L
298.5 383.5 L
300.621 382.621 L
cp
S
GR
GS
0.494 0.184 0.557 RC
1 LJ
N
310.5 379.5 M
309.621 377.379 L
307.5 376.5 L
305.379 377.379 L
304.5 379.5 L
305.379 381.621 L
307.5 382.5 L
309.621 381.621 L
cp
S
GR
GS
0.494 0.184 0.557 RC
1 LJ
N
319.5 379.5 M
318.621 377.379 L
316.5 376.5 L
314.379 377.379 L
313.5 379.5 L
314.379 381.621 L
316.5 382.5 L
318.621 381.621 L
cp
S
GR
GS
0.494 0.184 0.557 RC
1 LJ
N
328.5 379.5 M
327.621 377.379 L
325.5 376.5 L
323.379 377.379 L
322.5 379.5 L
323.379 381.621 L
325.5 382.5 L
327.621 381.621 L
cp
S
GR
GS
0.494 0.184 0.557 RC
1 LJ
N
336.5 379.5 M
335.621 377.379 L
333.5 376.5 L
331.379 377.379 L
330.5 379.5 L
331.379 381.621 L
333.5 382.5 L
335.621 381.621 L
cp
S
GR
GS
0.494 0.184 0.557 RC
1 LJ
N
345.5 379.5 M
344.621 377.379 L
342.5 376.5 L
340.379 377.379 L
339.5 379.5 L
340.379 381.621 L
342.5 382.5 L
344.621 381.621 L
cp
S
GR
GS
0.494 0.184 0.557 RC
1 LJ
N
354.5 379.5 M
353.621 377.379 L
351.5 376.5 L
349.379 377.379 L
348.5 379.5 L
349.379 381.621 L
351.5 382.5 L
353.621 381.621 L
cp
S
GR
GS
0.494 0.184 0.557 RC
1 LJ
N
363.5 379.5 M
362.621 377.379 L
360.5 376.5 L
358.379 377.379 L
357.5 379.5 L
358.379 381.621 L
360.5 382.5 L
362.621 381.621 L
cp
S
GR
GS
0.494 0.184 0.557 RC
1 LJ
N
372.5 379.5 M
371.621 377.379 L
369.5 376.5 L
367.379 377.379 L
366.5 379.5 L
367.379 381.621 L
369.5 382.5 L
371.621 381.621 L
cp
S
GR
GS
0.494 0.184 0.557 RC
1 LJ
N
381.5 379.5 M
380.621 377.379 L
378.5 376.5 L
376.379 377.379 L
375.5 379.5 L
376.379 381.621 L
378.5 382.5 L
380.621 381.621 L
cp
S
GR
GS
0.494 0.184 0.557 RC
1 LJ
N
390.5 379.5 M
389.621 377.379 L
387.5 376.5 L
385.379 377.379 L
384.5 379.5 L
385.379 381.621 L
387.5 382.5 L
389.621 381.621 L
cp
S
GR
GS
0.494 0.184 0.557 RC
1 LJ
N
399.5 378.5 M
398.621 376.379 L
396.5 375.5 L
394.379 376.379 L
393.5 378.5 L
394.379 380.621 L
396.5 381.5 L
398.621 380.621 L
cp
S
GR
GS
0.494 0.184 0.557 RC
1 LJ
N
408.5 378.5 M
407.621 376.379 L
405.5 375.5 L
403.379 376.379 L
402.5 378.5 L
403.379 380.621 L
405.5 381.5 L
407.621 380.621 L
cp
S
GR
GS
0.494 0.184 0.557 RC
1 LJ
N
417.5 378.5 M
416.621 376.379 L
414.5 375.5 L
412.379 376.379 L
411.5 378.5 L
412.379 380.621 L
414.5 381.5 L
416.621 380.621 L
cp
S
GR
GS
0.494 0.184 0.557 RC
1 LJ
N
426.5 378.5 M
425.621 376.379 L
423.5 375.5 L
421.379 376.379 L
420.5 378.5 L
421.379 380.621 L
423.5 381.5 L
425.621 380.621 L
cp
S
GR
GS
0.494 0.184 0.557 RC
1 LJ
N
435.5 378.5 M
434.621 376.379 L
432.5 375.5 L
430.379 376.379 L
429.5 378.5 L
430.379 380.621 L
432.5 381.5 L
434.621 380.621 L
cp
S
GR
GS
0.494 0.184 0.557 RC
1 LJ
N
444.5 378.5 M
443.621 376.379 L
441.5 375.5 L
439.379 376.379 L
438.5 378.5 L
439.379 380.621 L
441.5 381.5 L
443.621 380.621 L
cp
S
GR
GS
[1 0 0 1 338 53.75] CT
/Helvetica 20 F
GS
[1 0 0 1 0 0] CT
0 4.5 moveto 
1 -1 scale
(No shuffling) t 
GR
GR
GS
0 0.447 0.741 RC
1 LJ
N
305 53.75 M
335 53.75 L
S
GR
GS
0 0.447 0.741 RC
1 LJ
N
323.5 53.5 M
322.621 51.379 L
320.5 50.5 L
318.379 51.379 L
317.5 53.5 L
318.379 55.621 L
320.5 56.5 L
322.621 55.621 L
cp
S
GR
GS
[1 0 0 1 338 72.75] CT
/Helvetica 20 F
GS
[1 0 0 1 0 0] CT
0 4.5 moveto 
1 -1 scale
(Random without repl.) t 
GR
GR
GS
0.851 0.325 0.098 RC
1 LJ
N
305 72.75 M
335 72.75 L
S
GR
GS
0.851 0.325 0.098 RC
1 LJ
N
323.5 72.5 M
322.621 70.379 L
320.5 69.5 L
318.379 70.379 L
317.5 72.5 L
318.379 74.621 L
320.5 75.5 L
322.621 74.621 L
cp
S
GR
GS
[1 0 0 1 338 91.75] CT
/Helvetica 20 F
GS
[1 0 0 1 0 0] CT
0 4.5 moveto 
1 -1 scale
(Random with repl.) t 
GR
GR
GS
0.929 0.694 0.125 RC
1 LJ
N
305 91.75 M
335 91.75 L
S
GR
GS
0.929 0.694 0.125 RC
1 LJ
N
323.5 91.5 M
322.621 89.379 L
320.5 88.5 L
318.379 89.379 L
317.5 91.5 L
318.379 93.621 L
320.5 94.5 L
322.621 93.621 L
cp
S
GR
GS
[1 0 0 1 338 110.75] CT
/Helvetica 20 F
GS
[1 0 0 1 0 0] CT
0 4.5 moveto 
1 -1 scale
(Smart shuffling) t 
GR
GR
GS
0.494 0.184 0.557 RC
1 LJ
N
305 110.75 M
335 110.75 L
S
GR
GS
0.494 0.184 0.557 RC
1 LJ
N
323.5 110.5 M
322.621 108.379 L
320.5 107.5 L
318.379 108.379 L
317.5 110.5 L
318.379 112.621 L
320.5 113.5 L
322.621 112.621 L
cp
S
GR
%%Trailer
%%Pages: 1
%%EOF
