%!PS-Adobe-3.0 EPSF-3.0
%%Creator: (MATLAB, The Mathworks, Inc. Version 8.6.0.267246 \(R2015b\). Operating System: Mac OS X)
%%Title: /Users/gauthiermuguerza/Desktop/rsgd/report/images/jokesWeightsDeltaTest.eps
%%CreationDate: 2018-06-03T19:12:16
%%Pages: (atend)
%%BoundingBox:    17     0   533   410
%%LanguageLevel: 3
%%EndComments
%%BeginProlog
%%BeginResource: procset (Apache XML Graphics Std ProcSet) 1.2 0
%%Version: 1.2 0
%%Copyright: (Copyright 2001-2003,2010 The Apache Software Foundation. License terms: http://www.apache.org/licenses/LICENSE-2.0)
/bd{bind def}bind def
/ld{load def}bd
/GR/grestore ld
/M/moveto ld
/LJ/setlinejoin ld
/C/curveto ld
/f/fill ld
/LW/setlinewidth ld
/GC/setgray ld
/t/show ld
/N/newpath ld
/CT/concat ld
/cp/closepath ld
/S/stroke ld
/L/lineto ld
/CC/setcmykcolor ld
/A/ashow ld
/GS/gsave ld
/RC/setrgbcolor ld
/RM/rmoveto ld
/ML/setmiterlimit ld
/re {4 2 roll M
1 index 0 rlineto
0 exch rlineto
neg 0 rlineto
cp } bd
/_ctm matrix def
/_tm matrix def
/BT { _ctm currentmatrix pop matrix _tm copy pop 0 0 moveto } bd
/ET { _ctm setmatrix } bd
/iTm { _ctm setmatrix _tm concat } bd
/Tm { _tm astore pop iTm 0 0 moveto } bd
/ux 0.0 def
/uy 0.0 def
/F {
  /Tp exch def
  /Tf exch def
  Tf findfont Tp scalefont setfont
  /cf Tf def  /cs Tp def
} bd
/ULS {currentpoint /uy exch def /ux exch def} bd
/ULE {
  /Tcx currentpoint pop def
  gsave
  newpath
  cf findfont cs scalefont dup
  /FontMatrix get 0 get /Ts exch def /FontInfo get dup
  /UnderlinePosition get Ts mul /To exch def
  /UnderlineThickness get Ts mul /Tt exch def
  ux uy To add moveto  Tcx uy To add lineto
  Tt setlinewidth stroke
  grestore
} bd
/OLE {
  /Tcx currentpoint pop def
  gsave
  newpath
  cf findfont cs scalefont dup
  /FontMatrix get 0 get /Ts exch def /FontInfo get dup
  /UnderlinePosition get Ts mul /To exch def
  /UnderlineThickness get Ts mul /Tt exch def
  ux uy To add cs add moveto Tcx uy To add cs add lineto
  Tt setlinewidth stroke
  grestore
} bd
/SOE {
  /Tcx currentpoint pop def
  gsave
  newpath
  cf findfont cs scalefont dup
  /FontMatrix get 0 get /Ts exch def /FontInfo get dup
  /UnderlinePosition get Ts mul /To exch def
  /UnderlineThickness get Ts mul /Tt exch def
  ux uy To add cs 10 mul 26 idiv add moveto Tcx uy To add cs 10 mul 26 idiv add lineto
  Tt setlinewidth stroke
  grestore
} bd
/QT {
/Y22 exch store
/X22 exch store
/Y21 exch store
/X21 exch store
currentpoint
/Y21 load 2 mul add 3 div exch
/X21 load 2 mul add 3 div exch
/X21 load 2 mul /X22 load add 3 div
/Y21 load 2 mul /Y22 load add 3 div
/X22 load /Y22 load curveto
} bd
/SSPD {
dup length /d exch dict def
{
/v exch def
/k exch def
currentpagedevice k known {
/cpdv currentpagedevice k get def
v cpdv ne {
/upd false def
/nullv v type /nulltype eq def
/nullcpdv cpdv type /nulltype eq def
nullv nullcpdv or
{
/upd true def
} {
/sametype v type cpdv type eq def
sametype {
v type /arraytype eq {
/vlen v length def
/cpdvlen cpdv length def
vlen cpdvlen eq {
0 1 vlen 1 sub {
/i exch def
/obj v i get def
/cpdobj cpdv i get def
obj cpdobj ne {
/upd true def
exit
} if
} for
} {
/upd true def
} ifelse
} {
v type /dicttype eq {
v {
/dv exch def
/dk exch def
/cpddv cpdv dk get def
dv cpddv ne {
/upd true def
exit
} if
} forall
} {
/upd true def
} ifelse
} ifelse
} if
} ifelse
upd true eq {
d k v put
} if
} if
} if
} forall
d length 0 gt {
d setpagedevice
} if
} bd
%%EndResource
%%BeginResource: procset (Apache XML Graphics EPS ProcSet) 1.0 0
%%Version: 1.0 0
%%Copyright: (Copyright 2002-2003 The Apache Software Foundation. License terms: http://www.apache.org/licenses/LICENSE-2.0)
/BeginEPSF { %def
/b4_Inc_state save def         % Save state for cleanup
/dict_count countdictstack def % Count objects on dict stack
/op_count count 1 sub def      % Count objects on operand stack
userdict begin                 % Push userdict on dict stack
/showpage { } def              % Redefine showpage, { } = null proc
0 setgray 0 setlinecap         % Prepare graphics state
1 setlinewidth 0 setlinejoin
10 setmiterlimit [ ] 0 setdash newpath
/languagelevel where           % If level not equal to 1 then
{pop languagelevel             % set strokeadjust and
1 ne                           % overprint to their defaults.
{false setstrokeadjust false setoverprint
} if
} if
} bd
/EndEPSF { %def
count op_count sub {pop} repeat            % Clean up stacks
countdictstack dict_count sub {end} repeat
b4_Inc_state restore
} bd
%%EndResource
%FOPBeginFontDict
%%IncludeResource: font Courier-Bold
%%IncludeResource: font Helvetica
%%IncludeResource: font Courier-BoldOblique
%%IncludeResource: font Courier-Oblique
%%IncludeResource: font Times-Roman
%%IncludeResource: font Helvetica-BoldOblique
%%IncludeResource: font Helvetica-Bold
%%IncludeResource: font Helvetica-Oblique
%%IncludeResource: font Times-BoldItalic
%%IncludeResource: font Courier
%%IncludeResource: font Times-Italic
%%IncludeResource: font Times-Bold
%%IncludeResource: font Symbol
%%IncludeResource: font ZapfDingbats
%FOPEndFontDict
%%BeginResource: encoding WinAnsiEncoding
/WinAnsiEncoding [
/.notdef /.notdef /.notdef /.notdef /.notdef
/.notdef /.notdef /.notdef /.notdef /.notdef
/.notdef /.notdef /.notdef /.notdef /.notdef
/.notdef /.notdef /.notdef /.notdef /.notdef
/.notdef /.notdef /.notdef /.notdef /.notdef
/.notdef /.notdef /.notdef /.notdef /.notdef
/.notdef /.notdef /space /exclam /quotedbl
/numbersign /dollar /percent /ampersand /quotesingle
/parenleft /parenright /asterisk /plus /comma
/hyphen /period /slash /zero /one
/two /three /four /five /six
/seven /eight /nine /colon /semicolon
/less /equal /greater /question /at
/A /B /C /D /E
/F /G /H /I /J
/K /L /M /N /O
/P /Q /R /S /T
/U /V /W /X /Y
/Z /bracketleft /backslash /bracketright /asciicircum
/underscore /quoteleft /a /b /c
/d /e /f /g /h
/i /j /k /l /m
/n /o /p /q /r
/s /t /u /v /w
/x /y /z /braceleft /bar
/braceright /asciitilde /bullet /Euro /bullet
/quotesinglbase /florin /quotedblbase /ellipsis /dagger
/daggerdbl /circumflex /perthousand /Scaron /guilsinglleft
/OE /bullet /Zcaron /bullet /bullet
/quoteleft /quoteright /quotedblleft /quotedblright /bullet
/endash /emdash /asciitilde /trademark /scaron
/guilsinglright /oe /bullet /zcaron /Ydieresis
/space /exclamdown /cent /sterling /currency
/yen /brokenbar /section /dieresis /copyright
/ordfeminine /guillemotleft /logicalnot /sfthyphen /registered
/macron /degree /plusminus /twosuperior /threesuperior
/acute /mu /paragraph /middot /cedilla
/onesuperior /ordmasculine /guillemotright /onequarter /onehalf
/threequarters /questiondown /Agrave /Aacute /Acircumflex
/Atilde /Adieresis /Aring /AE /Ccedilla
/Egrave /Eacute /Ecircumflex /Edieresis /Igrave
/Iacute /Icircumflex /Idieresis /Eth /Ntilde
/Ograve /Oacute /Ocircumflex /Otilde /Odieresis
/multiply /Oslash /Ugrave /Uacute /Ucircumflex
/Udieresis /Yacute /Thorn /germandbls /agrave
/aacute /acircumflex /atilde /adieresis /aring
/ae /ccedilla /egrave /eacute /ecircumflex
/edieresis /igrave /iacute /icircumflex /idieresis
/eth /ntilde /ograve /oacute /ocircumflex
/otilde /odieresis /divide /oslash /ugrave
/uacute /ucircumflex /udieresis /yacute /thorn
/ydieresis
] def
%%EndResource
%FOPBeginFontReencode
/Courier-Bold findfont
dup length dict begin
  {1 index /FID ne {def} {pop pop} ifelse} forall
  /Encoding WinAnsiEncoding def
  currentdict
end
/Courier-Bold exch definefont pop
/Helvetica findfont
dup length dict begin
  {1 index /FID ne {def} {pop pop} ifelse} forall
  /Encoding WinAnsiEncoding def
  currentdict
end
/Helvetica exch definefont pop
/Courier-BoldOblique findfont
dup length dict begin
  {1 index /FID ne {def} {pop pop} ifelse} forall
  /Encoding WinAnsiEncoding def
  currentdict
end
/Courier-BoldOblique exch definefont pop
/Courier-Oblique findfont
dup length dict begin
  {1 index /FID ne {def} {pop pop} ifelse} forall
  /Encoding WinAnsiEncoding def
  currentdict
end
/Courier-Oblique exch definefont pop
/Times-Roman findfont
dup length dict begin
  {1 index /FID ne {def} {pop pop} ifelse} forall
  /Encoding WinAnsiEncoding def
  currentdict
end
/Times-Roman exch definefont pop
/Helvetica-BoldOblique findfont
dup length dict begin
  {1 index /FID ne {def} {pop pop} ifelse} forall
  /Encoding WinAnsiEncoding def
  currentdict
end
/Helvetica-BoldOblique exch definefont pop
/Helvetica-Bold findfont
dup length dict begin
  {1 index /FID ne {def} {pop pop} ifelse} forall
  /Encoding WinAnsiEncoding def
  currentdict
end
/Helvetica-Bold exch definefont pop
/Helvetica-Oblique findfont
dup length dict begin
  {1 index /FID ne {def} {pop pop} ifelse} forall
  /Encoding WinAnsiEncoding def
  currentdict
end
/Helvetica-Oblique exch definefont pop
/Times-BoldItalic findfont
dup length dict begin
  {1 index /FID ne {def} {pop pop} ifelse} forall
  /Encoding WinAnsiEncoding def
  currentdict
end
/Times-BoldItalic exch definefont pop
/Courier findfont
dup length dict begin
  {1 index /FID ne {def} {pop pop} ifelse} forall
  /Encoding WinAnsiEncoding def
  currentdict
end
/Courier exch definefont pop
/Times-Italic findfont
dup length dict begin
  {1 index /FID ne {def} {pop pop} ifelse} forall
  /Encoding WinAnsiEncoding def
  currentdict
end
/Times-Italic exch definefont pop
/Times-Bold findfont
dup length dict begin
  {1 index /FID ne {def} {pop pop} ifelse} forall
  /Encoding WinAnsiEncoding def
  currentdict
end
/Times-Bold exch definefont pop
%FOPEndFontReencode
%%EndProlog
%%Page: 1 1
%%PageBoundingBox: 0 0 576 432
%%BeginPageSetup
[1 0 0 -1 0 432] CT
%%EndPageSetup
GS
1 GC
N
0 0 576 432 re
f
GR
GS
1 GC
N
0 0 576 432 re
f
GR
GS
1 GC
N
75 384 M
521.5 384 L
521.5 32.5 L
75 32.5 L
cp
f
GR
GS
0.149 GC
2 setlinecap
1 LJ
0.5 LW
N
75 384 M
521.5 384 L
S
GR
GS
0.149 GC
2 setlinecap
1 LJ
0.5 LW
N
75 384 M
75 379.535 L
S
GR
GS
0.149 GC
2 setlinecap
1 LJ
0.5 LW
N
186.625 384 M
186.625 379.535 L
S
GR
GS
0.149 GC
2 setlinecap
1 LJ
0.5 LW
N
298.25 384 M
298.25 379.535 L
S
GR
GS
0.149 GC
2 setlinecap
1 LJ
0.5 LW
N
409.875 384 M
409.875 379.535 L
S
GR
GS
0.149 GC
2 setlinecap
1 LJ
0.5 LW
N
521.5 384 M
521.5 379.535 L
S
GR
GS
[1 0 0 1 75 390.00003] CT
0.149 GC
/Helvetica 20 F
GS
[1 0 0 1 0 0] CT
-6 16 moveto 
1 -1 scale
(0) t 
GR
GR
GS
[1 0 0 1 186.625 390.00003] CT
0.149 GC
/Helvetica 20 F
GS
[1 0 0 1 0 0] CT
-6 16 moveto 
1 -1 scale
(5) t 
GR
GR
GS
[1 0 0 1 298.25 390.00003] CT
0.149 GC
/Helvetica 20 F
GS
[1 0 0 1 0 0] CT
-11.5 16 moveto 
1 -1 scale
(10) t 
GR
GR
GS
[1 0 0 1 409.875 390.00003] CT
0.149 GC
/Helvetica 20 F
GS
[1 0 0 1 0 0] CT
-11.5 16 moveto 
1 -1 scale
(15) t 
GR
GR
GS
[1 0 0 1 521.5 390.00003] CT
0.149 GC
/Helvetica 20 F
GS
[1 0 0 1 0 0] CT
-11.5 16 moveto 
1 -1 scale
(20) t 
GR
GR
GS
[1 0 0 1 298.25021 411.5] CT
0.149 GC
/Helvetica 20 F
GS
[1 0 0 1 0 0] CT
-37 16 moveto 
1 -1 scale
(Time \(s\)) t 
GR
GR
GS
0.149 GC
2 setlinecap
1 LJ
0.5 LW
N
75 384 M
75 32.5 L
S
GR
GS
0.149 GC
2 setlinecap
1 LJ
0.5 LW
N
75 384 M
79.465 384 L
S
GR
GS
0.149 GC
2 setlinecap
1 LJ
0.5 LW
N
75 344.944 M
79.465 344.944 L
S
GR
GS
0.149 GC
2 setlinecap
1 LJ
0.5 LW
N
75 305.889 M
79.465 305.889 L
S
GR
GS
0.149 GC
2 setlinecap
1 LJ
0.5 LW
N
75 266.833 M
79.465 266.833 L
S
GR
GS
0.149 GC
2 setlinecap
1 LJ
0.5 LW
N
75 227.778 M
79.465 227.778 L
S
GR
GS
0.149 GC
2 setlinecap
1 LJ
0.5 LW
N
75 188.722 M
79.465 188.722 L
S
GR
GS
0.149 GC
2 setlinecap
1 LJ
0.5 LW
N
75 149.667 M
79.465 149.667 L
S
GR
GS
0.149 GC
2 setlinecap
1 LJ
0.5 LW
N
75 110.611 M
79.465 110.611 L
S
GR
GS
0.149 GC
2 setlinecap
1 LJ
0.5 LW
N
75 71.556 M
79.465 71.556 L
S
GR
GS
0.149 GC
2 setlinecap
1 LJ
0.5 LW
N
75 32.5 M
79.465 32.5 L
S
GR
GS
[1 0 0 1 69 384.00003] CT
0.149 GC
/Helvetica 20 F
GS
[1 0 0 1 0 0] CT
-28 5.5 moveto 
1 -1 scale
(4.2) t 
GR
GR
GS
[1 0 0 1 69 344.94443] CT
0.149 GC
/Helvetica 20 F
GS
[1 0 0 1 0 0] CT
-28 5.5 moveto 
1 -1 scale
(4.4) t 
GR
GR
GS
[1 0 0 1 69 305.88892] CT
0.149 GC
/Helvetica 20 F
GS
[1 0 0 1 0 0] CT
-28 5.5 moveto 
1 -1 scale
(4.6) t 
GR
GR
GS
[1 0 0 1 69 266.83328] CT
0.149 GC
/Helvetica 20 F
GS
[1 0 0 1 0 0] CT
-28 5.5 moveto 
1 -1 scale
(4.8) t 
GR
GR
GS
[1 0 0 1 69 227.77777] CT
0.149 GC
/Helvetica 20 F
GS
[1 0 0 1 0 0] CT
-12 5.5 moveto 
1 -1 scale
(5) t 
GR
GR
GS
[1 0 0 1 69 188.72226] CT
0.149 GC
/Helvetica 20 F
GS
[1 0 0 1 0 0] CT
-28 5.5 moveto 
1 -1 scale
(5.2) t 
GR
GR
GS
[1 0 0 1 69 149.66664] CT
0.149 GC
/Helvetica 20 F
GS
[1 0 0 1 0 0] CT
-28 5.5 moveto 
1 -1 scale
(5.4) t 
GR
GR
GS
[1 0 0 1 69 110.61113] CT
0.149 GC
/Helvetica 20 F
GS
[1 0 0 1 0 0] CT
-28 5.5 moveto 
1 -1 scale
(5.6) t 
GR
GR
GS
[1 0 0 1 69 71.55552] CT
0.149 GC
/Helvetica 20 F
GS
[1 0 0 1 0 0] CT
-28 5.5 moveto 
1 -1 scale
(5.8) t 
GR
GR
GS
[1 0 0 1 69 32.5] CT
0.149 GC
/Helvetica 20 F
GS
[1 0 0 1 0 0] CT
-12 5.5 moveto 
1 -1 scale
(6) t 
GR
GR
GS
[0 -1 1 0 38 208.24983] CT
0.149 GC
/Helvetica 20 F
GS
[1 0 0 1 0 0] CT
-51.5 -5 moveto 
1 -1 scale
(Test RMSE) t 
GR
GR
GS
0 0.447 0.741 RC
1 LJ
N
75 38.847 M
82.003 83.417 L
88.765 144.556 L
95.588 223.592 L
102.368 273.34 L
109.131 301.53 L
115.903 315.639 L
122.672 323.302 L
129.49 328.586 L
136.368 333.518 L
143.13 338.944 L
149.92 337.233 L
156.701 337.554 L
163.58 339.585 L
170.381 335.198 L
177.222 338.596 L
184.074 336.561 L
190.916 333.686 L
197.773 330.072 L
204.64 330.409 L
211.613 334.406 L
218.411 333.429 L
225.236 328.419 L
232.137 329.826 L
239.072 329.911 L
245.897 330.479 L
252.843 330.967 L
259.791 330.561 L
266.622 330.105 L
273.88 329.077 L
281.08 328.702 L
287.968 328.597 L
294.995 327.652 L
301.896 326.673 L
308.823 327.038 L
316.233 326.725 L
323.543 326.603 L
330.512 327.524 L
337.835 326.538 L
345.207 326.521 L
352.155 325.52 L
358.999 325.58 L
365.919 325.179 L
372.87 325.186 L
379.804 324.803 L
386.714 324.749 L
393.528 324.588 L
400.4 324.269 L
407.315 324.012 L
414.146 323.762 L
S
GR
GS
0 0.447 0.741 RC
1 LJ
N
407.315 324.012 M
414.146 323.762 L
420.995 323.68 L
S
GR
GS
0 0.447 0.741 RC
1 LJ
N
78.5 38.5 M
77.621 36.379 L
75.5 35.5 L
73.379 36.379 L
72.5 38.5 L
73.379 40.621 L
75.5 41.5 L
77.621 40.621 L
cp
S
GR
GS
0 0.447 0.741 RC
1 LJ
N
85.5 83.5 M
84.621 81.379 L
82.5 80.5 L
80.379 81.379 L
79.5 83.5 L
80.379 85.621 L
82.5 86.5 L
84.621 85.621 L
cp
S
GR
GS
0 0.447 0.741 RC
1 LJ
N
91.5 144.5 M
90.621 142.379 L
88.5 141.5 L
86.379 142.379 L
85.5 144.5 L
86.379 146.621 L
88.5 147.5 L
90.621 146.621 L
cp
S
GR
GS
0 0.447 0.741 RC
1 LJ
N
98.5 223.5 M
97.621 221.379 L
95.5 220.5 L
93.379 221.379 L
92.5 223.5 L
93.379 225.621 L
95.5 226.5 L
97.621 225.621 L
cp
S
GR
GS
0 0.447 0.741 RC
1 LJ
N
105.5 273.5 M
104.621 271.379 L
102.5 270.5 L
100.379 271.379 L
99.5 273.5 L
100.379 275.621 L
102.5 276.5 L
104.621 275.621 L
cp
S
GR
GS
0 0.447 0.741 RC
1 LJ
N
112.5 301.5 M
111.621 299.379 L
109.5 298.5 L
107.379 299.379 L
106.5 301.5 L
107.379 303.621 L
109.5 304.5 L
111.621 303.621 L
cp
S
GR
GS
0 0.447 0.741 RC
1 LJ
N
118.5 315.5 M
117.621 313.379 L
115.5 312.5 L
113.379 313.379 L
112.5 315.5 L
113.379 317.621 L
115.5 318.5 L
117.621 317.621 L
cp
S
GR
GS
0 0.447 0.741 RC
1 LJ
N
125.5 323.5 M
124.621 321.379 L
122.5 320.5 L
120.379 321.379 L
119.5 323.5 L
120.379 325.621 L
122.5 326.5 L
124.621 325.621 L
cp
S
GR
GS
0 0.447 0.741 RC
1 LJ
N
132.5 328.5 M
131.621 326.379 L
129.5 325.5 L
127.379 326.379 L
126.5 328.5 L
127.379 330.621 L
129.5 331.5 L
131.621 330.621 L
cp
S
GR
GS
0 0.447 0.741 RC
1 LJ
N
139.5 333.5 M
138.621 331.379 L
136.5 330.5 L
134.379 331.379 L
133.5 333.5 L
134.379 335.621 L
136.5 336.5 L
138.621 335.621 L
cp
S
GR
GS
0 0.447 0.741 RC
1 LJ
N
146.5 338.5 M
145.621 336.379 L
143.5 335.5 L
141.379 336.379 L
140.5 338.5 L
141.379 340.621 L
143.5 341.5 L
145.621 340.621 L
cp
S
GR
GS
0 0.447 0.741 RC
1 LJ
N
152.5 337.5 M
151.621 335.379 L
149.5 334.5 L
147.379 335.379 L
146.5 337.5 L
147.379 339.621 L
149.5 340.5 L
151.621 339.621 L
cp
S
GR
GS
0 0.447 0.741 RC
1 LJ
N
159.5 337.5 M
158.621 335.379 L
156.5 334.5 L
154.379 335.379 L
153.5 337.5 L
154.379 339.621 L
156.5 340.5 L
158.621 339.621 L
cp
S
GR
GS
0 0.447 0.741 RC
1 LJ
N
166.5 339.5 M
165.621 337.379 L
163.5 336.5 L
161.379 337.379 L
160.5 339.5 L
161.379 341.621 L
163.5 342.5 L
165.621 341.621 L
cp
S
GR
GS
0 0.447 0.741 RC
1 LJ
N
173.5 335.5 M
172.621 333.379 L
170.5 332.5 L
168.379 333.379 L
167.5 335.5 L
168.379 337.621 L
170.5 338.5 L
172.621 337.621 L
cp
S
GR
GS
0 0.447 0.741 RC
1 LJ
N
180.5 338.5 M
179.621 336.379 L
177.5 335.5 L
175.379 336.379 L
174.5 338.5 L
175.379 340.621 L
177.5 341.5 L
179.621 340.621 L
cp
S
GR
GS
0 0.447 0.741 RC
1 LJ
N
187.5 336.5 M
186.621 334.379 L
184.5 333.5 L
182.379 334.379 L
181.5 336.5 L
182.379 338.621 L
184.5 339.5 L
186.621 338.621 L
cp
S
GR
GS
0 0.447 0.741 RC
1 LJ
N
193.5 333.5 M
192.621 331.379 L
190.5 330.5 L
188.379 331.379 L
187.5 333.5 L
188.379 335.621 L
190.5 336.5 L
192.621 335.621 L
cp
S
GR
GS
0 0.447 0.741 RC
1 LJ
N
200.5 330.5 M
199.621 328.379 L
197.5 327.5 L
195.379 328.379 L
194.5 330.5 L
195.379 332.621 L
197.5 333.5 L
199.621 332.621 L
cp
S
GR
GS
0 0.447 0.741 RC
1 LJ
N
207.5 330.5 M
206.621 328.379 L
204.5 327.5 L
202.379 328.379 L
201.5 330.5 L
202.379 332.621 L
204.5 333.5 L
206.621 332.621 L
cp
S
GR
GS
0 0.447 0.741 RC
1 LJ
N
214.5 334.5 M
213.621 332.379 L
211.5 331.5 L
209.379 332.379 L
208.5 334.5 L
209.379 336.621 L
211.5 337.5 L
213.621 336.621 L
cp
S
GR
GS
0 0.447 0.741 RC
1 LJ
N
221.5 333.5 M
220.621 331.379 L
218.5 330.5 L
216.379 331.379 L
215.5 333.5 L
216.379 335.621 L
218.5 336.5 L
220.621 335.621 L
cp
S
GR
GS
0 0.447 0.741 RC
1 LJ
N
228.5 328.5 M
227.621 326.379 L
225.5 325.5 L
223.379 326.379 L
222.5 328.5 L
223.379 330.621 L
225.5 331.5 L
227.621 330.621 L
cp
S
GR
GS
0 0.447 0.741 RC
1 LJ
N
235.5 329.5 M
234.621 327.379 L
232.5 326.5 L
230.379 327.379 L
229.5 329.5 L
230.379 331.621 L
232.5 332.5 L
234.621 331.621 L
cp
S
GR
GS
0 0.447 0.741 RC
1 LJ
N
242.5 329.5 M
241.621 327.379 L
239.5 326.5 L
237.379 327.379 L
236.5 329.5 L
237.379 331.621 L
239.5 332.5 L
241.621 331.621 L
cp
S
GR
GS
0 0.447 0.741 RC
1 LJ
N
248.5 330.5 M
247.621 328.379 L
245.5 327.5 L
243.379 328.379 L
242.5 330.5 L
243.379 332.621 L
245.5 333.5 L
247.621 332.621 L
cp
S
GR
GS
0 0.447 0.741 RC
1 LJ
N
255.5 330.5 M
254.621 328.379 L
252.5 327.5 L
250.379 328.379 L
249.5 330.5 L
250.379 332.621 L
252.5 333.5 L
254.621 332.621 L
cp
S
GR
GS
0 0.447 0.741 RC
1 LJ
N
262.5 330.5 M
261.621 328.379 L
259.5 327.5 L
257.379 328.379 L
256.5 330.5 L
257.379 332.621 L
259.5 333.5 L
261.621 332.621 L
cp
S
GR
GS
0 0.447 0.741 RC
1 LJ
N
269.5 330.5 M
268.621 328.379 L
266.5 327.5 L
264.379 328.379 L
263.5 330.5 L
264.379 332.621 L
266.5 333.5 L
268.621 332.621 L
cp
S
GR
GS
0 0.447 0.741 RC
1 LJ
N
276.5 329.5 M
275.621 327.379 L
273.5 326.5 L
271.379 327.379 L
270.5 329.5 L
271.379 331.621 L
273.5 332.5 L
275.621 331.621 L
cp
S
GR
GS
0 0.447 0.741 RC
1 LJ
N
284.5 328.5 M
283.621 326.379 L
281.5 325.5 L
279.379 326.379 L
278.5 328.5 L
279.379 330.621 L
281.5 331.5 L
283.621 330.621 L
cp
S
GR
GS
0 0.447 0.741 RC
1 LJ
N
290.5 328.5 M
289.621 326.379 L
287.5 325.5 L
285.379 326.379 L
284.5 328.5 L
285.379 330.621 L
287.5 331.5 L
289.621 330.621 L
cp
S
GR
GS
0 0.447 0.741 RC
1 LJ
N
297.5 327.5 M
296.621 325.379 L
294.5 324.5 L
292.379 325.379 L
291.5 327.5 L
292.379 329.621 L
294.5 330.5 L
296.621 329.621 L
cp
S
GR
GS
0 0.447 0.741 RC
1 LJ
N
304.5 326.5 M
303.621 324.379 L
301.5 323.5 L
299.379 324.379 L
298.5 326.5 L
299.379 328.621 L
301.5 329.5 L
303.621 328.621 L
cp
S
GR
GS
0 0.447 0.741 RC
1 LJ
N
311.5 327.5 M
310.621 325.379 L
308.5 324.5 L
306.379 325.379 L
305.5 327.5 L
306.379 329.621 L
308.5 330.5 L
310.621 329.621 L
cp
S
GR
GS
0 0.447 0.741 RC
1 LJ
N
319.5 326.5 M
318.621 324.379 L
316.5 323.5 L
314.379 324.379 L
313.5 326.5 L
314.379 328.621 L
316.5 329.5 L
318.621 328.621 L
cp
S
GR
GS
0 0.447 0.741 RC
1 LJ
N
326.5 326.5 M
325.621 324.379 L
323.5 323.5 L
321.379 324.379 L
320.5 326.5 L
321.379 328.621 L
323.5 329.5 L
325.621 328.621 L
cp
S
GR
GS
0 0.447 0.741 RC
1 LJ
N
333.5 327.5 M
332.621 325.379 L
330.5 324.5 L
328.379 325.379 L
327.5 327.5 L
328.379 329.621 L
330.5 330.5 L
332.621 329.621 L
cp
S
GR
GS
0 0.447 0.741 RC
1 LJ
N
340.5 326.5 M
339.621 324.379 L
337.5 323.5 L
335.379 324.379 L
334.5 326.5 L
335.379 328.621 L
337.5 329.5 L
339.621 328.621 L
cp
S
GR
GS
0 0.447 0.741 RC
1 LJ
N
348.5 326.5 M
347.621 324.379 L
345.5 323.5 L
343.379 324.379 L
342.5 326.5 L
343.379 328.621 L
345.5 329.5 L
347.621 328.621 L
cp
S
GR
GS
0 0.447 0.741 RC
1 LJ
N
355.5 325.5 M
354.621 323.379 L
352.5 322.5 L
350.379 323.379 L
349.5 325.5 L
350.379 327.621 L
352.5 328.5 L
354.621 327.621 L
cp
S
GR
GS
0 0.447 0.741 RC
1 LJ
N
361.5 325.5 M
360.621 323.379 L
358.5 322.5 L
356.379 323.379 L
355.5 325.5 L
356.379 327.621 L
358.5 328.5 L
360.621 327.621 L
cp
S
GR
GS
0 0.447 0.741 RC
1 LJ
N
368.5 325.5 M
367.621 323.379 L
365.5 322.5 L
363.379 323.379 L
362.5 325.5 L
363.379 327.621 L
365.5 328.5 L
367.621 327.621 L
cp
S
GR
GS
0 0.447 0.741 RC
1 LJ
N
375.5 325.5 M
374.621 323.379 L
372.5 322.5 L
370.379 323.379 L
369.5 325.5 L
370.379 327.621 L
372.5 328.5 L
374.621 327.621 L
cp
S
GR
GS
0 0.447 0.741 RC
1 LJ
N
382.5 324.5 M
381.621 322.379 L
379.5 321.5 L
377.379 322.379 L
376.5 324.5 L
377.379 326.621 L
379.5 327.5 L
381.621 326.621 L
cp
S
GR
GS
0 0.447 0.741 RC
1 LJ
N
389.5 324.5 M
388.621 322.379 L
386.5 321.5 L
384.379 322.379 L
383.5 324.5 L
384.379 326.621 L
386.5 327.5 L
388.621 326.621 L
cp
S
GR
GS
0 0.447 0.741 RC
1 LJ
N
396.5 324.5 M
395.621 322.379 L
393.5 321.5 L
391.379 322.379 L
390.5 324.5 L
391.379 326.621 L
393.5 327.5 L
395.621 326.621 L
cp
S
GR
GS
0 0.447 0.741 RC
1 LJ
N
403.5 324.5 M
402.621 322.379 L
400.5 321.5 L
398.379 322.379 L
397.5 324.5 L
398.379 326.621 L
400.5 327.5 L
402.621 326.621 L
cp
S
GR
GS
0 0.447 0.741 RC
1 LJ
N
410.5 324.5 M
409.621 322.379 L
407.5 321.5 L
405.379 322.379 L
404.5 324.5 L
405.379 326.621 L
407.5 327.5 L
409.621 326.621 L
cp
S
GR
GS
0 0.447 0.741 RC
1 LJ
N
417.5 323.5 M
416.621 321.379 L
414.5 320.5 L
412.379 321.379 L
411.5 323.5 L
412.379 325.621 L
414.5 326.5 L
416.621 325.621 L
cp
S
GR
GS
0 0.447 0.741 RC
1 LJ
N
423.5 323.5 M
422.621 321.379 L
420.5 320.5 L
418.379 321.379 L
417.5 323.5 L
418.379 325.621 L
420.5 326.5 L
422.621 325.621 L
cp
S
GR
GS
0.851 0.325 0.098 RC
1 LJ
N
75 38.847 M
83.264 95.722 L
90.465 194.393 L
97.618 257.71 L
105.125 274.429 L
113.117 311.23 L
120.292 328.031 L
127.495 326.566 L
134.71 327.439 L
141.824 321.574 L
149.941 341.984 L
157.105 344.993 L
164.236 338.353 L
171.51 333.805 L
178.664 329.427 L
186.682 335.125 L
193.957 328.77 L
201.185 335.841 L
208.367 343.521 L
215.534 345.022 L
223.569 350.126 L
230.716 349.496 L
237.879 347.764 L
245.038 348.598 L
252.135 347.186 L
260.151 345.519 L
267.373 345.226 L
274.533 343.595 L
281.746 338.471 L
288.902 335.228 L
297.119 335.987 L
304.295 334.673 L
311.472 335.598 L
318.685 335.79 L
325.85 334.764 L
334.038 335.038 L
341.28 335.228 L
348.457 336.329 L
355.745 337.858 L
363.008 338.149 L
371.084 336.919 L
378.218 337.159 L
385.364 336.18 L
392.915 335.553 L
400.108 335.462 L
408.193 335.383 L
415.313 336.381 L
422.441 335.291 L
429.701 335.951 L
437.184 335.136 L
S
GR
GS
0.851 0.325 0.098 RC
1 LJ
N
429.701 335.951 M
437.184 335.136 L
445.207 334.379 L
S
GR
GS
0.851 0.325 0.098 RC
1 LJ
N
78.5 38.5 M
77.621 36.379 L
75.5 35.5 L
73.379 36.379 L
72.5 38.5 L
73.379 40.621 L
75.5 41.5 L
77.621 40.621 L
cp
S
GR
GS
0.851 0.325 0.098 RC
1 LJ
N
86.5 95.5 M
85.621 93.379 L
83.5 92.5 L
81.379 93.379 L
80.5 95.5 L
81.379 97.621 L
83.5 98.5 L
85.621 97.621 L
cp
S
GR
GS
0.851 0.325 0.098 RC
1 LJ
N
93.5 194.5 M
92.621 192.379 L
90.5 191.5 L
88.379 192.379 L
87.5 194.5 L
88.379 196.621 L
90.5 197.5 L
92.621 196.621 L
cp
S
GR
GS
0.851 0.325 0.098 RC
1 LJ
N
100.5 257.5 M
99.621 255.379 L
97.5 254.5 L
95.379 255.379 L
94.5 257.5 L
95.379 259.621 L
97.5 260.5 L
99.621 259.621 L
cp
S
GR
GS
0.851 0.325 0.098 RC
1 LJ
N
108.5 274.5 M
107.621 272.379 L
105.5 271.5 L
103.379 272.379 L
102.5 274.5 L
103.379 276.621 L
105.5 277.5 L
107.621 276.621 L
cp
S
GR
GS
0.851 0.325 0.098 RC
1 LJ
N
116.5 311.5 M
115.621 309.379 L
113.5 308.5 L
111.379 309.379 L
110.5 311.5 L
111.379 313.621 L
113.5 314.5 L
115.621 313.621 L
cp
S
GR
GS
0.851 0.325 0.098 RC
1 LJ
N
123.5 328.5 M
122.621 326.379 L
120.5 325.5 L
118.379 326.379 L
117.5 328.5 L
118.379 330.621 L
120.5 331.5 L
122.621 330.621 L
cp
S
GR
GS
0.851 0.325 0.098 RC
1 LJ
N
130.5 326.5 M
129.621 324.379 L
127.5 323.5 L
125.379 324.379 L
124.5 326.5 L
125.379 328.621 L
127.5 329.5 L
129.621 328.621 L
cp
S
GR
GS
0.851 0.325 0.098 RC
1 LJ
N
137.5 327.5 M
136.621 325.379 L
134.5 324.5 L
132.379 325.379 L
131.5 327.5 L
132.379 329.621 L
134.5 330.5 L
136.621 329.621 L
cp
S
GR
GS
0.851 0.325 0.098 RC
1 LJ
N
144.5 321.5 M
143.621 319.379 L
141.5 318.5 L
139.379 319.379 L
138.5 321.5 L
139.379 323.621 L
141.5 324.5 L
143.621 323.621 L
cp
S
GR
GS
0.851 0.325 0.098 RC
1 LJ
N
152.5 341.5 M
151.621 339.379 L
149.5 338.5 L
147.379 339.379 L
146.5 341.5 L
147.379 343.621 L
149.5 344.5 L
151.621 343.621 L
cp
S
GR
GS
0.851 0.325 0.098 RC
1 LJ
N
160.5 344.5 M
159.621 342.379 L
157.5 341.5 L
155.379 342.379 L
154.5 344.5 L
155.379 346.621 L
157.5 347.5 L
159.621 346.621 L
cp
S
GR
GS
0.851 0.325 0.098 RC
1 LJ
N
167.5 338.5 M
166.621 336.379 L
164.5 335.5 L
162.379 336.379 L
161.5 338.5 L
162.379 340.621 L
164.5 341.5 L
166.621 340.621 L
cp
S
GR
GS
0.851 0.325 0.098 RC
1 LJ
N
174.5 333.5 M
173.621 331.379 L
171.5 330.5 L
169.379 331.379 L
168.5 333.5 L
169.379 335.621 L
171.5 336.5 L
173.621 335.621 L
cp
S
GR
GS
0.851 0.325 0.098 RC
1 LJ
N
181.5 329.5 M
180.621 327.379 L
178.5 326.5 L
176.379 327.379 L
175.5 329.5 L
176.379 331.621 L
178.5 332.5 L
180.621 331.621 L
cp
S
GR
GS
0.851 0.325 0.098 RC
1 LJ
N
189.5 335.5 M
188.621 333.379 L
186.5 332.5 L
184.379 333.379 L
183.5 335.5 L
184.379 337.621 L
186.5 338.5 L
188.621 337.621 L
cp
S
GR
GS
0.851 0.325 0.098 RC
1 LJ
N
196.5 328.5 M
195.621 326.379 L
193.5 325.5 L
191.379 326.379 L
190.5 328.5 L
191.379 330.621 L
193.5 331.5 L
195.621 330.621 L
cp
S
GR
GS
0.851 0.325 0.098 RC
1 LJ
N
204.5 335.5 M
203.621 333.379 L
201.5 332.5 L
199.379 333.379 L
198.5 335.5 L
199.379 337.621 L
201.5 338.5 L
203.621 337.621 L
cp
S
GR
GS
0.851 0.325 0.098 RC
1 LJ
N
211.5 343.5 M
210.621 341.379 L
208.5 340.5 L
206.379 341.379 L
205.5 343.5 L
206.379 345.621 L
208.5 346.5 L
210.621 345.621 L
cp
S
GR
GS
0.851 0.325 0.098 RC
1 LJ
N
218.5 345.5 M
217.621 343.379 L
215.5 342.5 L
213.379 343.379 L
212.5 345.5 L
213.379 347.621 L
215.5 348.5 L
217.621 347.621 L
cp
S
GR
GS
0.851 0.325 0.098 RC
1 LJ
N
226.5 350.5 M
225.621 348.379 L
223.5 347.5 L
221.379 348.379 L
220.5 350.5 L
221.379 352.621 L
223.5 353.5 L
225.621 352.621 L
cp
S
GR
GS
0.851 0.325 0.098 RC
1 LJ
N
233.5 349.5 M
232.621 347.379 L
230.5 346.5 L
228.379 347.379 L
227.5 349.5 L
228.379 351.621 L
230.5 352.5 L
232.621 351.621 L
cp
S
GR
GS
0.851 0.325 0.098 RC
1 LJ
N
240.5 347.5 M
239.621 345.379 L
237.5 344.5 L
235.379 345.379 L
234.5 347.5 L
235.379 349.621 L
237.5 350.5 L
239.621 349.621 L
cp
S
GR
GS
0.851 0.325 0.098 RC
1 LJ
N
248.5 348.5 M
247.621 346.379 L
245.5 345.5 L
243.379 346.379 L
242.5 348.5 L
243.379 350.621 L
245.5 351.5 L
247.621 350.621 L
cp
S
GR
GS
0.851 0.325 0.098 RC
1 LJ
N
255.5 347.5 M
254.621 345.379 L
252.5 344.5 L
250.379 345.379 L
249.5 347.5 L
250.379 349.621 L
252.5 350.5 L
254.621 349.621 L
cp
S
GR
GS
0.851 0.325 0.098 RC
1 LJ
N
263.5 345.5 M
262.621 343.379 L
260.5 342.5 L
258.379 343.379 L
257.5 345.5 L
258.379 347.621 L
260.5 348.5 L
262.621 347.621 L
cp
S
GR
GS
0.851 0.325 0.098 RC
1 LJ
N
270.5 345.5 M
269.621 343.379 L
267.5 342.5 L
265.379 343.379 L
264.5 345.5 L
265.379 347.621 L
267.5 348.5 L
269.621 347.621 L
cp
S
GR
GS
0.851 0.325 0.098 RC
1 LJ
N
277.5 343.5 M
276.621 341.379 L
274.5 340.5 L
272.379 341.379 L
271.5 343.5 L
272.379 345.621 L
274.5 346.5 L
276.621 345.621 L
cp
S
GR
GS
0.851 0.325 0.098 RC
1 LJ
N
284.5 338.5 M
283.621 336.379 L
281.5 335.5 L
279.379 336.379 L
278.5 338.5 L
279.379 340.621 L
281.5 341.5 L
283.621 340.621 L
cp
S
GR
GS
0.851 0.325 0.098 RC
1 LJ
N
291.5 335.5 M
290.621 333.379 L
288.5 332.5 L
286.379 333.379 L
285.5 335.5 L
286.379 337.621 L
288.5 338.5 L
290.621 337.621 L
cp
S
GR
GS
0.851 0.325 0.098 RC
1 LJ
N
300.5 335.5 M
299.621 333.379 L
297.5 332.5 L
295.379 333.379 L
294.5 335.5 L
295.379 337.621 L
297.5 338.5 L
299.621 337.621 L
cp
S
GR
GS
0.851 0.325 0.098 RC
1 LJ
N
307.5 334.5 M
306.621 332.379 L
304.5 331.5 L
302.379 332.379 L
301.5 334.5 L
302.379 336.621 L
304.5 337.5 L
306.621 336.621 L
cp
S
GR
GS
0.851 0.325 0.098 RC
1 LJ
N
314.5 335.5 M
313.621 333.379 L
311.5 332.5 L
309.379 333.379 L
308.5 335.5 L
309.379 337.621 L
311.5 338.5 L
313.621 337.621 L
cp
S
GR
GS
0.851 0.325 0.098 RC
1 LJ
N
321.5 335.5 M
320.621 333.379 L
318.5 332.5 L
316.379 333.379 L
315.5 335.5 L
316.379 337.621 L
318.5 338.5 L
320.621 337.621 L
cp
S
GR
GS
0.851 0.325 0.098 RC
1 LJ
N
328.5 334.5 M
327.621 332.379 L
325.5 331.5 L
323.379 332.379 L
322.5 334.5 L
323.379 336.621 L
325.5 337.5 L
327.621 336.621 L
cp
S
GR
GS
0.851 0.325 0.098 RC
1 LJ
N
337.5 335.5 M
336.621 333.379 L
334.5 332.5 L
332.379 333.379 L
331.5 335.5 L
332.379 337.621 L
334.5 338.5 L
336.621 337.621 L
cp
S
GR
GS
0.851 0.325 0.098 RC
1 LJ
N
344.5 335.5 M
343.621 333.379 L
341.5 332.5 L
339.379 333.379 L
338.5 335.5 L
339.379 337.621 L
341.5 338.5 L
343.621 337.621 L
cp
S
GR
GS
0.851 0.325 0.098 RC
1 LJ
N
351.5 336.5 M
350.621 334.379 L
348.5 333.5 L
346.379 334.379 L
345.5 336.5 L
346.379 338.621 L
348.5 339.5 L
350.621 338.621 L
cp
S
GR
GS
0.851 0.325 0.098 RC
1 LJ
N
358.5 337.5 M
357.621 335.379 L
355.5 334.5 L
353.379 335.379 L
352.5 337.5 L
353.379 339.621 L
355.5 340.5 L
357.621 339.621 L
cp
S
GR
GS
0.851 0.325 0.098 RC
1 LJ
N
366.5 338.5 M
365.621 336.379 L
363.5 335.5 L
361.379 336.379 L
360.5 338.5 L
361.379 340.621 L
363.5 341.5 L
365.621 340.621 L
cp
S
GR
GS
0.851 0.325 0.098 RC
1 LJ
N
374.5 336.5 M
373.621 334.379 L
371.5 333.5 L
369.379 334.379 L
368.5 336.5 L
369.379 338.621 L
371.5 339.5 L
373.621 338.621 L
cp
S
GR
GS
0.851 0.325 0.098 RC
1 LJ
N
381.5 337.5 M
380.621 335.379 L
378.5 334.5 L
376.379 335.379 L
375.5 337.5 L
376.379 339.621 L
378.5 340.5 L
380.621 339.621 L
cp
S
GR
GS
0.851 0.325 0.098 RC
1 LJ
N
388.5 336.5 M
387.621 334.379 L
385.5 333.5 L
383.379 334.379 L
382.5 336.5 L
383.379 338.621 L
385.5 339.5 L
387.621 338.621 L
cp
S
GR
GS
0.851 0.325 0.098 RC
1 LJ
N
395.5 335.5 M
394.621 333.379 L
392.5 332.5 L
390.379 333.379 L
389.5 335.5 L
390.379 337.621 L
392.5 338.5 L
394.621 337.621 L
cp
S
GR
GS
0.851 0.325 0.098 RC
1 LJ
N
403.5 335.5 M
402.621 333.379 L
400.5 332.5 L
398.379 333.379 L
397.5 335.5 L
398.379 337.621 L
400.5 338.5 L
402.621 337.621 L
cp
S
GR
GS
0.851 0.325 0.098 RC
1 LJ
N
411.5 335.5 M
410.621 333.379 L
408.5 332.5 L
406.379 333.379 L
405.5 335.5 L
406.379 337.621 L
408.5 338.5 L
410.621 337.621 L
cp
S
GR
GS
0.851 0.325 0.098 RC
1 LJ
N
418.5 336.5 M
417.621 334.379 L
415.5 333.5 L
413.379 334.379 L
412.5 336.5 L
413.379 338.621 L
415.5 339.5 L
417.621 338.621 L
cp
S
GR
GS
0.851 0.325 0.098 RC
1 LJ
N
425.5 335.5 M
424.621 333.379 L
422.5 332.5 L
420.379 333.379 L
419.5 335.5 L
420.379 337.621 L
422.5 338.5 L
424.621 337.621 L
cp
S
GR
GS
0.851 0.325 0.098 RC
1 LJ
N
432.5 335.5 M
431.621 333.379 L
429.5 332.5 L
427.379 333.379 L
426.5 335.5 L
427.379 337.621 L
429.5 338.5 L
431.621 337.621 L
cp
S
GR
GS
0.851 0.325 0.098 RC
1 LJ
N
440.5 335.5 M
439.621 333.379 L
437.5 332.5 L
435.379 333.379 L
434.5 335.5 L
435.379 337.621 L
437.5 338.5 L
439.621 337.621 L
cp
S
GR
GS
0.851 0.325 0.098 RC
1 LJ
N
448.5 334.5 M
447.621 332.379 L
445.5 331.5 L
443.379 332.379 L
442.5 334.5 L
443.379 336.621 L
445.5 337.5 L
447.621 336.621 L
cp
S
GR
GS
[1 0 0 1 360 53.75] CT
/Helvetica 18 F
GS
[1 0 0 1 0 0] CT
0 4.5 moveto 
1 -1 scale
(Random shuffling) t 
GR
GR
GS
0 0.447 0.741 RC
1 LJ
N
327 53.75 M
357 53.75 L
S
GR
GS
0 0.447 0.741 RC
1 LJ
N
344.5 53.5 M
343.621 51.379 L
341.5 50.5 L
339.379 51.379 L
338.5 53.5 L
339.379 55.621 L
341.5 56.5 L
343.621 55.621 L
cp
S
GR
GS
[1 0 0 1 360 72.75] CT
/Helvetica 18 F
GS
[1 0 0 1 0 0] CT
0 4.5 moveto 
1 -1 scale
(Weighted shuffling) t 
GR
GR
GS
0.851 0.325 0.098 RC
1 LJ
N
327 72.75 M
357 72.75 L
S
GR
GS
0.851 0.325 0.098 RC
1 LJ
N
344.5 72.5 M
343.621 70.379 L
341.5 69.5 L
339.379 70.379 L
338.5 72.5 L
339.379 74.621 L
341.5 75.5 L
343.621 74.621 L
cp
S
GR
%%Trailer
%%Pages: 1
%%EOF
