%!PS-Adobe-3.0 EPSF-3.0
%%Creator: (MATLAB, The Mathworks, Inc. Version 8.6.0.267246 \(R2015b\). Operating System: Mac OS X)
%%Title: /Users/gauthiermuguerza/Desktop/rsgd/report/images/jokesWeightsOne.eps
%%CreationDate: 2018-06-09T23:05:33
%%Pages: (atend)
%%BoundingBox:    17     0   538   404
%%LanguageLevel: 3
%%EndComments
%%BeginProlog
%%BeginResource: procset (Apache XML Graphics Std ProcSet) 1.2 0
%%Version: 1.2 0
%%Copyright: (Copyright 2001-2003,2010 The Apache Software Foundation. License terms: http://www.apache.org/licenses/LICENSE-2.0)
/bd{bind def}bind def
/ld{load def}bd
/GR/grestore ld
/M/moveto ld
/LJ/setlinejoin ld
/C/curveto ld
/f/fill ld
/LW/setlinewidth ld
/GC/setgray ld
/t/show ld
/N/newpath ld
/CT/concat ld
/cp/closepath ld
/S/stroke ld
/L/lineto ld
/CC/setcmykcolor ld
/A/ashow ld
/GS/gsave ld
/RC/setrgbcolor ld
/RM/rmoveto ld
/ML/setmiterlimit ld
/re {4 2 roll M
1 index 0 rlineto
0 exch rlineto
neg 0 rlineto
cp } bd
/_ctm matrix def
/_tm matrix def
/BT { _ctm currentmatrix pop matrix _tm copy pop 0 0 moveto } bd
/ET { _ctm setmatrix } bd
/iTm { _ctm setmatrix _tm concat } bd
/Tm { _tm astore pop iTm 0 0 moveto } bd
/ux 0.0 def
/uy 0.0 def
/F {
  /Tp exch def
  /Tf exch def
  Tf findfont Tp scalefont setfont
  /cf Tf def  /cs Tp def
} bd
/ULS {currentpoint /uy exch def /ux exch def} bd
/ULE {
  /Tcx currentpoint pop def
  gsave
  newpath
  cf findfont cs scalefont dup
  /FontMatrix get 0 get /Ts exch def /FontInfo get dup
  /UnderlinePosition get Ts mul /To exch def
  /UnderlineThickness get Ts mul /Tt exch def
  ux uy To add moveto  Tcx uy To add lineto
  Tt setlinewidth stroke
  grestore
} bd
/OLE {
  /Tcx currentpoint pop def
  gsave
  newpath
  cf findfont cs scalefont dup
  /FontMatrix get 0 get /Ts exch def /FontInfo get dup
  /UnderlinePosition get Ts mul /To exch def
  /UnderlineThickness get Ts mul /Tt exch def
  ux uy To add cs add moveto Tcx uy To add cs add lineto
  Tt setlinewidth stroke
  grestore
} bd
/SOE {
  /Tcx currentpoint pop def
  gsave
  newpath
  cf findfont cs scalefont dup
  /FontMatrix get 0 get /Ts exch def /FontInfo get dup
  /UnderlinePosition get Ts mul /To exch def
  /UnderlineThickness get Ts mul /Tt exch def
  ux uy To add cs 10 mul 26 idiv add moveto Tcx uy To add cs 10 mul 26 idiv add lineto
  Tt setlinewidth stroke
  grestore
} bd
/QT {
/Y22 exch store
/X22 exch store
/Y21 exch store
/X21 exch store
currentpoint
/Y21 load 2 mul add 3 div exch
/X21 load 2 mul add 3 div exch
/X21 load 2 mul /X22 load add 3 div
/Y21 load 2 mul /Y22 load add 3 div
/X22 load /Y22 load curveto
} bd
/SSPD {
dup length /d exch dict def
{
/v exch def
/k exch def
currentpagedevice k known {
/cpdv currentpagedevice k get def
v cpdv ne {
/upd false def
/nullv v type /nulltype eq def
/nullcpdv cpdv type /nulltype eq def
nullv nullcpdv or
{
/upd true def
} {
/sametype v type cpdv type eq def
sametype {
v type /arraytype eq {
/vlen v length def
/cpdvlen cpdv length def
vlen cpdvlen eq {
0 1 vlen 1 sub {
/i exch def
/obj v i get def
/cpdobj cpdv i get def
obj cpdobj ne {
/upd true def
exit
} if
} for
} {
/upd true def
} ifelse
} {
v type /dicttype eq {
v {
/dv exch def
/dk exch def
/cpddv cpdv dk get def
dv cpddv ne {
/upd true def
exit
} if
} forall
} {
/upd true def
} ifelse
} ifelse
} if
} ifelse
upd true eq {
d k v put
} if
} if
} if
} forall
d length 0 gt {
d setpagedevice
} if
} bd
%%EndResource
%%BeginResource: procset (Apache XML Graphics EPS ProcSet) 1.0 0
%%Version: 1.0 0
%%Copyright: (Copyright 2002-2003 The Apache Software Foundation. License terms: http://www.apache.org/licenses/LICENSE-2.0)
/BeginEPSF { %def
/b4_Inc_state save def         % Save state for cleanup
/dict_count countdictstack def % Count objects on dict stack
/op_count count 1 sub def      % Count objects on operand stack
userdict begin                 % Push userdict on dict stack
/showpage { } def              % Redefine showpage, { } = null proc
0 setgray 0 setlinecap         % Prepare graphics state
1 setlinewidth 0 setlinejoin
10 setmiterlimit [ ] 0 setdash newpath
/languagelevel where           % If level not equal to 1 then
{pop languagelevel             % set strokeadjust and
1 ne                           % overprint to their defaults.
{false setstrokeadjust false setoverprint
} if
} if
} bd
/EndEPSF { %def
count op_count sub {pop} repeat            % Clean up stacks
countdictstack dict_count sub {end} repeat
b4_Inc_state restore
} bd
%%EndResource
%FOPBeginFontDict
%%IncludeResource: font Courier-Bold
%%IncludeResource: font Helvetica
%%IncludeResource: font Courier-BoldOblique
%%IncludeResource: font Courier-Oblique
%%IncludeResource: font Times-Roman
%%IncludeResource: font Helvetica-BoldOblique
%%IncludeResource: font Helvetica-Bold
%%IncludeResource: font Helvetica-Oblique
%%IncludeResource: font Times-BoldItalic
%%IncludeResource: font Courier
%%IncludeResource: font Times-Italic
%%IncludeResource: font Times-Bold
%%IncludeResource: font Symbol
%%IncludeResource: font ZapfDingbats
%FOPEndFontDict
%%BeginResource: encoding WinAnsiEncoding
/WinAnsiEncoding [
/.notdef /.notdef /.notdef /.notdef /.notdef
/.notdef /.notdef /.notdef /.notdef /.notdef
/.notdef /.notdef /.notdef /.notdef /.notdef
/.notdef /.notdef /.notdef /.notdef /.notdef
/.notdef /.notdef /.notdef /.notdef /.notdef
/.notdef /.notdef /.notdef /.notdef /.notdef
/.notdef /.notdef /space /exclam /quotedbl
/numbersign /dollar /percent /ampersand /quotesingle
/parenleft /parenright /asterisk /plus /comma
/hyphen /period /slash /zero /one
/two /three /four /five /six
/seven /eight /nine /colon /semicolon
/less /equal /greater /question /at
/A /B /C /D /E
/F /G /H /I /J
/K /L /M /N /O
/P /Q /R /S /T
/U /V /W /X /Y
/Z /bracketleft /backslash /bracketright /asciicircum
/underscore /quoteleft /a /b /c
/d /e /f /g /h
/i /j /k /l /m
/n /o /p /q /r
/s /t /u /v /w
/x /y /z /braceleft /bar
/braceright /asciitilde /bullet /Euro /bullet
/quotesinglbase /florin /quotedblbase /ellipsis /dagger
/daggerdbl /circumflex /perthousand /Scaron /guilsinglleft
/OE /bullet /Zcaron /bullet /bullet
/quoteleft /quoteright /quotedblleft /quotedblright /bullet
/endash /emdash /asciitilde /trademark /scaron
/guilsinglright /oe /bullet /zcaron /Ydieresis
/space /exclamdown /cent /sterling /currency
/yen /brokenbar /section /dieresis /copyright
/ordfeminine /guillemotleft /logicalnot /sfthyphen /registered
/macron /degree /plusminus /twosuperior /threesuperior
/acute /mu /paragraph /middot /cedilla
/onesuperior /ordmasculine /guillemotright /onequarter /onehalf
/threequarters /questiondown /Agrave /Aacute /Acircumflex
/Atilde /Adieresis /Aring /AE /Ccedilla
/Egrave /Eacute /Ecircumflex /Edieresis /Igrave
/Iacute /Icircumflex /Idieresis /Eth /Ntilde
/Ograve /Oacute /Ocircumflex /Otilde /Odieresis
/multiply /Oslash /Ugrave /Uacute /Ucircumflex
/Udieresis /Yacute /Thorn /germandbls /agrave
/aacute /acircumflex /atilde /adieresis /aring
/ae /ccedilla /egrave /eacute /ecircumflex
/edieresis /igrave /iacute /icircumflex /idieresis
/eth /ntilde /ograve /oacute /ocircumflex
/otilde /odieresis /divide /oslash /ugrave
/uacute /ucircumflex /udieresis /yacute /thorn
/ydieresis
] def
%%EndResource
%FOPBeginFontReencode
/Courier-Bold findfont
dup length dict begin
  {1 index /FID ne {def} {pop pop} ifelse} forall
  /Encoding WinAnsiEncoding def
  currentdict
end
/Courier-Bold exch definefont pop
/Helvetica findfont
dup length dict begin
  {1 index /FID ne {def} {pop pop} ifelse} forall
  /Encoding WinAnsiEncoding def
  currentdict
end
/Helvetica exch definefont pop
/Courier-BoldOblique findfont
dup length dict begin
  {1 index /FID ne {def} {pop pop} ifelse} forall
  /Encoding WinAnsiEncoding def
  currentdict
end
/Courier-BoldOblique exch definefont pop
/Courier-Oblique findfont
dup length dict begin
  {1 index /FID ne {def} {pop pop} ifelse} forall
  /Encoding WinAnsiEncoding def
  currentdict
end
/Courier-Oblique exch definefont pop
/Times-Roman findfont
dup length dict begin
  {1 index /FID ne {def} {pop pop} ifelse} forall
  /Encoding WinAnsiEncoding def
  currentdict
end
/Times-Roman exch definefont pop
/Helvetica-BoldOblique findfont
dup length dict begin
  {1 index /FID ne {def} {pop pop} ifelse} forall
  /Encoding WinAnsiEncoding def
  currentdict
end
/Helvetica-BoldOblique exch definefont pop
/Helvetica-Bold findfont
dup length dict begin
  {1 index /FID ne {def} {pop pop} ifelse} forall
  /Encoding WinAnsiEncoding def
  currentdict
end
/Helvetica-Bold exch definefont pop
/Helvetica-Oblique findfont
dup length dict begin
  {1 index /FID ne {def} {pop pop} ifelse} forall
  /Encoding WinAnsiEncoding def
  currentdict
end
/Helvetica-Oblique exch definefont pop
/Times-BoldItalic findfont
dup length dict begin
  {1 index /FID ne {def} {pop pop} ifelse} forall
  /Encoding WinAnsiEncoding def
  currentdict
end
/Times-BoldItalic exch definefont pop
/Courier findfont
dup length dict begin
  {1 index /FID ne {def} {pop pop} ifelse} forall
  /Encoding WinAnsiEncoding def
  currentdict
end
/Courier exch definefont pop
/Times-Italic findfont
dup length dict begin
  {1 index /FID ne {def} {pop pop} ifelse} forall
  /Encoding WinAnsiEncoding def
  currentdict
end
/Times-Italic exch definefont pop
/Times-Bold findfont
dup length dict begin
  {1 index /FID ne {def} {pop pop} ifelse} forall
  /Encoding WinAnsiEncoding def
  currentdict
end
/Times-Bold exch definefont pop
%FOPEndFontReencode
%%EndProlog
%%Page: 1 1
%%PageBoundingBox: 0 0 576 432
%%BeginPageSetup
[1 0 0 -1 0 432] CT
%%EndPageSetup
GS
1 GC
N
0 0 576 432 re
f
GR
GS
1 GC
N
0 0 576 432 re
f
GR
GS
1 GC
N
75 384 M
521.5 384 L
521.5 32.5 L
75 32.5 L
cp
f
GR
GS
0.149 GC
2 setlinecap
1 LJ
0.5 LW
N
75 384 M
521.5 384 L
S
GR
GS
0.149 GC
2 setlinecap
1 LJ
0.5 LW
N
75 384 M
75 379.535 L
S
GR
GS
0.149 GC
2 setlinecap
1 LJ
0.5 LW
N
186.625 384 M
186.625 379.535 L
S
GR
GS
0.149 GC
2 setlinecap
1 LJ
0.5 LW
N
298.25 384 M
298.25 379.535 L
S
GR
GS
0.149 GC
2 setlinecap
1 LJ
0.5 LW
N
409.875 384 M
409.875 379.535 L
S
GR
GS
0.149 GC
2 setlinecap
1 LJ
0.5 LW
N
521.5 384 M
521.5 379.535 L
S
GR
GS
[1 0 0 1 75 390] CT
0.149 GC
/Helvetica 20 F
GS
[1 0 0 1 0 0] CT
-6 16 moveto 
1 -1 scale
(0) t 
GR
GR
GS
[1 0 0 1 186.625 390] CT
0.149 GC
/Helvetica 20 F
GS
[1 0 0 1 0 0] CT
-17 16 moveto 
1 -1 scale
(100) t 
GR
GR
GS
[1 0 0 1 298.25 390] CT
0.149 GC
/Helvetica 20 F
GS
[1 0 0 1 0 0] CT
-17 16 moveto 
1 -1 scale
(200) t 
GR
GR
GS
[1 0 0 1 409.875 390] CT
0.149 GC
/Helvetica 20 F
GS
[1 0 0 1 0 0] CT
-17 16 moveto 
1 -1 scale
(300) t 
GR
GR
GS
[1 0 0 1 521.5 390] CT
0.149 GC
/Helvetica 20 F
GS
[1 0 0 1 0 0] CT
-17 16 moveto 
1 -1 scale
(400) t 
GR
GR
GS
[1 0 0 1 298.25021 411.5] CT
0.149 GC
/Helvetica 20 F
GS
[1 0 0 1 0 0] CT
-37 16 moveto 
1 -1 scale
(Time \(s\)) t 
GR
GR
GS
0.149 GC
2 setlinecap
1 LJ
0.5 LW
N
75 384 M
75 32.5 L
S
GR
GS
0.149 GC
2 setlinecap
1 LJ
0.5 LW
N
75 340.292 M
79.465 340.292 L
S
GR
GS
0.149 GC
2 setlinecap
1 LJ
0.5 LW
N
75 297.957 M
79.465 297.957 L
S
GR
GS
0.149 GC
2 setlinecap
1 LJ
0.5 LW
N
75 257.592 M
79.465 257.592 L
S
GR
GS
0.149 GC
2 setlinecap
1 LJ
0.5 LW
N
75 219.022 M
79.465 219.022 L
S
GR
GS
0.149 GC
2 setlinecap
1 LJ
0.5 LW
N
75 182.094 M
79.465 182.094 L
S
GR
GS
0.149 GC
2 setlinecap
1 LJ
0.5 LW
N
75 146.673 M
79.465 146.673 L
S
GR
GS
0.149 GC
2 setlinecap
1 LJ
0.5 LW
N
75 112.642 M
79.465 112.642 L
S
GR
GS
0.149 GC
2 setlinecap
1 LJ
0.5 LW
N
75 79.895 M
79.465 79.895 L
S
GR
GS
0.149 GC
2 setlinecap
1 LJ
0.5 LW
N
75 48.339 M
79.465 48.339 L
S
GR
GS
0.149 GC
2 setlinecap
1 LJ
0.5 LW
N
75 375.713 M
77.232 375.713 L
S
GR
GS
0.149 GC
2 setlinecap
1 LJ
0.5 LW
N
75 366.721 M
77.232 366.721 L
S
GR
GS
0.149 GC
2 setlinecap
1 LJ
0.5 LW
N
75 357.821 M
77.232 357.821 L
S
GR
GS
0.149 GC
2 setlinecap
1 LJ
0.5 LW
N
75 349.012 M
77.232 349.012 L
S
GR
GS
0.149 GC
2 setlinecap
1 LJ
0.5 LW
N
75 331.658 M
77.232 331.658 L
S
GR
GS
0.149 GC
2 setlinecap
1 LJ
0.5 LW
N
75 323.109 M
77.232 323.109 L
S
GR
GS
0.149 GC
2 setlinecap
1 LJ
0.5 LW
N
75 314.644 M
77.232 314.644 L
S
GR
GS
0.149 GC
2 setlinecap
1 LJ
0.5 LW
N
75 306.26 M
77.232 306.26 L
S
GR
GS
0.149 GC
2 setlinecap
1 LJ
0.5 LW
N
75 289.733 M
77.232 289.733 L
S
GR
GS
0.149 GC
2 setlinecap
1 LJ
0.5 LW
N
75 281.585 M
77.232 281.585 L
S
GR
GS
0.149 GC
2 setlinecap
1 LJ
0.5 LW
N
75 273.514 M
77.232 273.514 L
S
GR
GS
0.149 GC
2 setlinecap
1 LJ
0.5 LW
N
75 265.517 M
77.232 265.517 L
S
GR
GS
0.149 GC
2 setlinecap
1 LJ
0.5 LW
N
75 249.74 M
77.232 249.74 L
S
GR
GS
0.149 GC
2 setlinecap
1 LJ
0.5 LW
N
75 241.958 M
77.232 241.958 L
S
GR
GS
0.149 GC
2 setlinecap
1 LJ
0.5 LW
N
75 234.245 M
77.232 234.245 L
S
GR
GS
0.149 GC
2 setlinecap
1 LJ
0.5 LW
N
75 226.6 M
77.232 226.6 L
S
GR
GS
0.149 GC
2 setlinecap
1 LJ
0.5 LW
N
75 211.51 M
77.232 211.51 L
S
GR
GS
0.149 GC
2 setlinecap
1 LJ
0.5 LW
N
75 204.062 M
77.232 204.062 L
S
GR
GS
0.149 GC
2 setlinecap
1 LJ
0.5 LW
N
75 196.677 M
77.232 196.677 L
S
GR
GS
0.149 GC
2 setlinecap
1 LJ
0.5 LW
N
75 189.355 M
77.232 189.355 L
S
GR
GS
0.149 GC
2 setlinecap
1 LJ
0.5 LW
N
75 174.893 M
77.232 174.893 L
S
GR
GS
0.149 GC
2 setlinecap
1 LJ
0.5 LW
N
75 167.751 M
77.232 167.751 L
S
GR
GS
0.149 GC
2 setlinecap
1 LJ
0.5 LW
N
75 160.668 M
77.232 160.668 L
S
GR
GS
0.149 GC
2 setlinecap
1 LJ
0.5 LW
N
75 153.642 M
77.232 153.642 L
S
GR
GS
0.149 GC
2 setlinecap
1 LJ
0.5 LW
N
75 139.759 M
77.232 139.759 L
S
GR
GS
0.149 GC
2 setlinecap
1 LJ
0.5 LW
N
75 132.9 M
77.232 132.9 L
S
GR
GS
0.149 GC
2 setlinecap
1 LJ
0.5 LW
N
75 126.094 M
77.232 126.094 L
S
GR
GS
0.149 GC
2 setlinecap
1 LJ
0.5 LW
N
75 119.342 M
77.232 119.342 L
S
GR
GS
0.149 GC
2 setlinecap
1 LJ
0.5 LW
N
75 105.993 M
77.232 105.993 L
S
GR
GS
0.149 GC
2 setlinecap
1 LJ
0.5 LW
N
75 99.394 M
77.232 99.394 L
S
GR
GS
0.149 GC
2 setlinecap
1 LJ
0.5 LW
N
75 92.846 M
77.232 92.846 L
S
GR
GS
0.149 GC
2 setlinecap
1 LJ
0.5 LW
N
75 86.346 M
77.232 86.346 L
S
GR
GS
0.149 GC
2 setlinecap
1 LJ
0.5 LW
N
75 73.491 M
77.232 73.491 L
S
GR
GS
0.149 GC
2 setlinecap
1 LJ
0.5 LW
N
75 67.134 M
77.232 67.134 L
S
GR
GS
0.149 GC
2 setlinecap
1 LJ
0.5 LW
N
75 60.824 M
77.232 60.824 L
S
GR
GS
0.149 GC
2 setlinecap
1 LJ
0.5 LW
N
75 54.559 M
77.232 54.559 L
S
GR
GS
0.149 GC
2 setlinecap
1 LJ
0.5 LW
N
75 42.163 M
77.232 42.163 L
S
GR
GS
0.149 GC
2 setlinecap
1 LJ
0.5 LW
N
75 36.031 M
77.232 36.031 L
S
GR
GS
[1 0 0 1 69 340.29184] CT
0.149 GC
/Helvetica 20 F
GS
[1 0 0 1 0 0] CT
-12 5.5 moveto 
1 -1 scale
(4) t 
GR
GR
GS
[1 0 0 1 69 297.95721] CT
0.149 GC
/Helvetica 20 F
GS
[1 0 0 1 0 0] CT
-28 5.5 moveto 
1 -1 scale
(4.2) t 
GR
GR
GS
[1 0 0 1 69 257.59238] CT
0.149 GC
/Helvetica 20 F
GS
[1 0 0 1 0 0] CT
-28 5.5 moveto 
1 -1 scale
(4.4) t 
GR
GR
GS
[1 0 0 1 69 219.02214] CT
0.149 GC
/Helvetica 20 F
GS
[1 0 0 1 0 0] CT
-28 5.5 moveto 
1 -1 scale
(4.6) t 
GR
GR
GS
[1 0 0 1 69 182.0937] CT
0.149 GC
/Helvetica 20 F
GS
[1 0 0 1 0 0] CT
-28 5.5 moveto 
1 -1 scale
(4.8) t 
GR
GR
GS
[1 0 0 1 69 146.67297] CT
0.149 GC
/Helvetica 20 F
GS
[1 0 0 1 0 0] CT
-12 5.5 moveto 
1 -1 scale
(5) t 
GR
GR
GS
[1 0 0 1 69 112.64164] CT
0.149 GC
/Helvetica 20 F
GS
[1 0 0 1 0 0] CT
-28 5.5 moveto 
1 -1 scale
(5.2) t 
GR
GR
GS
[1 0 0 1 69 79.89484] CT
0.149 GC
/Helvetica 20 F
GS
[1 0 0 1 0 0] CT
-28 5.5 moveto 
1 -1 scale
(5.4) t 
GR
GR
GS
[1 0 0 1 69 48.33908] CT
0.149 GC
/Helvetica 20 F
GS
[1 0 0 1 0 0] CT
-28 5.5 moveto 
1 -1 scale
(5.6) t 
GR
GR
GS
[0 -1 1 0 38 208.24983] CT
0.149 GC
/Helvetica 20 F
GS
[1 0 0 1 0 0] CT
-29 -5 moveto 
1 -1 scale
(RMSE) t 
GR
GR
GS
0 0.447 0.741 RC
1 LJ
N
75 32.5 M
82.017 200.143 L
88.762 282.477 L
95.681 323.988 L
102.495 343.592 L
109.558 353.724 L
116.491 359.674 L
123.21 362.879 L
130.153 365.683 L
136.961 367.42 L
143.809 368.62 L
150.614 368.307 L
157.391 371.803 L
164.268 376.042 L
171.097 378.253 L
178.312 380.068 L
185.658 380.92 L
192.698 380.876 L
199.665 381.839 L
206.526 381.791 L
213.666 382.13 L
220.892 382.521 L
227.743 382.54 L
234.416 382.465 L
241.252 382.686 L
248.062 382.687 L
254.787 382.883 L
261.864 382.897 L
269.243 382.974 L
276.375 382.961 L
283.399 383.038 L
290.252 383.071 L
297.104 383.095 L
303.989 383.114 L
310.878 383.151 L
317.946 383.163 L
324.905 383.149 L
331.833 383.197 L
338.698 383.222 L
345.665 383.236 L
352.527 383.23 L
359.42 383.258 L
366.298 383.278 L
373.259 383.298 L
380.169 383.306 L
387.189 383.319 L
394.257 383.323 L
401.153 383.339 L
408.132 383.35 L
414.943 383.361 L
S
GR
GS
0 0.447 0.741 RC
1 LJ
N
408.132 383.35 M
414.943 383.361 L
421.732 383.368 L
S
GR
GS
0 0.447 0.741 RC
1 LJ
N
78.5 32.5 M
77.621 30.379 L
75.5 29.5 L
73.379 30.379 L
72.5 32.5 L
73.379 34.621 L
75.5 35.5 L
77.621 34.621 L
cp
S
GR
GS
0 0.447 0.741 RC
1 LJ
N
85.5 200.5 M
84.621 198.379 L
82.5 197.5 L
80.379 198.379 L
79.5 200.5 L
80.379 202.621 L
82.5 203.5 L
84.621 202.621 L
cp
S
GR
GS
0 0.447 0.741 RC
1 LJ
N
91.5 282.5 M
90.621 280.379 L
88.5 279.5 L
86.379 280.379 L
85.5 282.5 L
86.379 284.621 L
88.5 285.5 L
90.621 284.621 L
cp
S
GR
GS
0 0.447 0.741 RC
1 LJ
N
98.5 323.5 M
97.621 321.379 L
95.5 320.5 L
93.379 321.379 L
92.5 323.5 L
93.379 325.621 L
95.5 326.5 L
97.621 325.621 L
cp
S
GR
GS
0 0.447 0.741 RC
1 LJ
N
105.5 343.5 M
104.621 341.379 L
102.5 340.5 L
100.379 341.379 L
99.5 343.5 L
100.379 345.621 L
102.5 346.5 L
104.621 345.621 L
cp
S
GR
GS
0 0.447 0.741 RC
1 LJ
N
112.5 353.5 M
111.621 351.379 L
109.5 350.5 L
107.379 351.379 L
106.5 353.5 L
107.379 355.621 L
109.5 356.5 L
111.621 355.621 L
cp
S
GR
GS
0 0.447 0.741 RC
1 LJ
N
119.5 359.5 M
118.621 357.379 L
116.5 356.5 L
114.379 357.379 L
113.5 359.5 L
114.379 361.621 L
116.5 362.5 L
118.621 361.621 L
cp
S
GR
GS
0 0.447 0.741 RC
1 LJ
N
126.5 362.5 M
125.621 360.379 L
123.5 359.5 L
121.379 360.379 L
120.5 362.5 L
121.379 364.621 L
123.5 365.5 L
125.621 364.621 L
cp
S
GR
GS
0 0.447 0.741 RC
1 LJ
N
133.5 365.5 M
132.621 363.379 L
130.5 362.5 L
128.379 363.379 L
127.5 365.5 L
128.379 367.621 L
130.5 368.5 L
132.621 367.621 L
cp
S
GR
GS
0 0.447 0.741 RC
1 LJ
N
139.5 367.5 M
138.621 365.379 L
136.5 364.5 L
134.379 365.379 L
133.5 367.5 L
134.379 369.621 L
136.5 370.5 L
138.621 369.621 L
cp
S
GR
GS
0 0.447 0.741 RC
1 LJ
N
146.5 368.5 M
145.621 366.379 L
143.5 365.5 L
141.379 366.379 L
140.5 368.5 L
141.379 370.621 L
143.5 371.5 L
145.621 370.621 L
cp
S
GR
GS
0 0.447 0.741 RC
1 LJ
N
153.5 368.5 M
152.621 366.379 L
150.5 365.5 L
148.379 366.379 L
147.5 368.5 L
148.379 370.621 L
150.5 371.5 L
152.621 370.621 L
cp
S
GR
GS
0 0.447 0.741 RC
1 LJ
N
160.5 371.5 M
159.621 369.379 L
157.5 368.5 L
155.379 369.379 L
154.5 371.5 L
155.379 373.621 L
157.5 374.5 L
159.621 373.621 L
cp
S
GR
GS
0 0.447 0.741 RC
1 LJ
N
167.5 376.5 M
166.621 374.379 L
164.5 373.5 L
162.379 374.379 L
161.5 376.5 L
162.379 378.621 L
164.5 379.5 L
166.621 378.621 L
cp
S
GR
GS
0 0.447 0.741 RC
1 LJ
N
174.5 378.5 M
173.621 376.379 L
171.5 375.5 L
169.379 376.379 L
168.5 378.5 L
169.379 380.621 L
171.5 381.5 L
173.621 380.621 L
cp
S
GR
GS
0 0.447 0.741 RC
1 LJ
N
181.5 380.5 M
180.621 378.379 L
178.5 377.5 L
176.379 378.379 L
175.5 380.5 L
176.379 382.621 L
178.5 383.5 L
180.621 382.621 L
cp
S
GR
GS
0 0.447 0.741 RC
1 LJ
N
188.5 380.5 M
187.621 378.379 L
185.5 377.5 L
183.379 378.379 L
182.5 380.5 L
183.379 382.621 L
185.5 383.5 L
187.621 382.621 L
cp
S
GR
GS
0 0.447 0.741 RC
1 LJ
N
195.5 380.5 M
194.621 378.379 L
192.5 377.5 L
190.379 378.379 L
189.5 380.5 L
190.379 382.621 L
192.5 383.5 L
194.621 382.621 L
cp
S
GR
GS
0 0.447 0.741 RC
1 LJ
N
202.5 381.5 M
201.621 379.379 L
199.5 378.5 L
197.379 379.379 L
196.5 381.5 L
197.379 383.621 L
199.5 384.5 L
201.621 383.621 L
cp
S
GR
GS
0 0.447 0.741 RC
1 LJ
N
209.5 381.5 M
208.621 379.379 L
206.5 378.5 L
204.379 379.379 L
203.5 381.5 L
204.379 383.621 L
206.5 384.5 L
208.621 383.621 L
cp
S
GR
GS
0 0.447 0.741 RC
1 LJ
N
216.5 382.5 M
215.621 380.379 L
213.5 379.5 L
211.379 380.379 L
210.5 382.5 L
211.379 384.621 L
213.5 385.5 L
215.621 384.621 L
cp
S
GR
GS
0 0.447 0.741 RC
1 LJ
N
223.5 382.5 M
222.621 380.379 L
220.5 379.5 L
218.379 380.379 L
217.5 382.5 L
218.379 384.621 L
220.5 385.5 L
222.621 384.621 L
cp
S
GR
GS
0 0.447 0.741 RC
1 LJ
N
230.5 382.5 M
229.621 380.379 L
227.5 379.5 L
225.379 380.379 L
224.5 382.5 L
225.379 384.621 L
227.5 385.5 L
229.621 384.621 L
cp
S
GR
GS
0 0.447 0.741 RC
1 LJ
N
237.5 382.5 M
236.621 380.379 L
234.5 379.5 L
232.379 380.379 L
231.5 382.5 L
232.379 384.621 L
234.5 385.5 L
236.621 384.621 L
cp
S
GR
GS
0 0.447 0.741 RC
1 LJ
N
244.5 382.5 M
243.621 380.379 L
241.5 379.5 L
239.379 380.379 L
238.5 382.5 L
239.379 384.621 L
241.5 385.5 L
243.621 384.621 L
cp
S
GR
GS
0 0.447 0.741 RC
1 LJ
N
251.5 382.5 M
250.621 380.379 L
248.5 379.5 L
246.379 380.379 L
245.5 382.5 L
246.379 384.621 L
248.5 385.5 L
250.621 384.621 L
cp
S
GR
GS
0 0.447 0.741 RC
1 LJ
N
257.5 382.5 M
256.621 380.379 L
254.5 379.5 L
252.379 380.379 L
251.5 382.5 L
252.379 384.621 L
254.5 385.5 L
256.621 384.621 L
cp
S
GR
GS
0 0.447 0.741 RC
1 LJ
N
264.5 382.5 M
263.621 380.379 L
261.5 379.5 L
259.379 380.379 L
258.5 382.5 L
259.379 384.621 L
261.5 385.5 L
263.621 384.621 L
cp
S
GR
GS
0 0.447 0.741 RC
1 LJ
N
272.5 382.5 M
271.621 380.379 L
269.5 379.5 L
267.379 380.379 L
266.5 382.5 L
267.379 384.621 L
269.5 385.5 L
271.621 384.621 L
cp
S
GR
GS
0 0.447 0.741 RC
1 LJ
N
279.5 382.5 M
278.621 380.379 L
276.5 379.5 L
274.379 380.379 L
273.5 382.5 L
274.379 384.621 L
276.5 385.5 L
278.621 384.621 L
cp
S
GR
GS
0 0.447 0.741 RC
1 LJ
N
286.5 383.5 M
285.621 381.379 L
283.5 380.5 L
281.379 381.379 L
280.5 383.5 L
281.379 385.621 L
283.5 386.5 L
285.621 385.621 L
cp
S
GR
GS
0 0.447 0.741 RC
1 LJ
N
293.5 383.5 M
292.621 381.379 L
290.5 380.5 L
288.379 381.379 L
287.5 383.5 L
288.379 385.621 L
290.5 386.5 L
292.621 385.621 L
cp
S
GR
GS
0 0.447 0.741 RC
1 LJ
N
300.5 383.5 M
299.621 381.379 L
297.5 380.5 L
295.379 381.379 L
294.5 383.5 L
295.379 385.621 L
297.5 386.5 L
299.621 385.621 L
cp
S
GR
GS
0 0.447 0.741 RC
1 LJ
N
306.5 383.5 M
305.621 381.379 L
303.5 380.5 L
301.379 381.379 L
300.5 383.5 L
301.379 385.621 L
303.5 386.5 L
305.621 385.621 L
cp
S
GR
GS
0 0.447 0.741 RC
1 LJ
N
313.5 383.5 M
312.621 381.379 L
310.5 380.5 L
308.379 381.379 L
307.5 383.5 L
308.379 385.621 L
310.5 386.5 L
312.621 385.621 L
cp
S
GR
GS
0 0.447 0.741 RC
1 LJ
N
320.5 383.5 M
319.621 381.379 L
317.5 380.5 L
315.379 381.379 L
314.5 383.5 L
315.379 385.621 L
317.5 386.5 L
319.621 385.621 L
cp
S
GR
GS
0 0.447 0.741 RC
1 LJ
N
327.5 383.5 M
326.621 381.379 L
324.5 380.5 L
322.379 381.379 L
321.5 383.5 L
322.379 385.621 L
324.5 386.5 L
326.621 385.621 L
cp
S
GR
GS
0 0.447 0.741 RC
1 LJ
N
334.5 383.5 M
333.621 381.379 L
331.5 380.5 L
329.379 381.379 L
328.5 383.5 L
329.379 385.621 L
331.5 386.5 L
333.621 385.621 L
cp
S
GR
GS
0 0.447 0.741 RC
1 LJ
N
341.5 383.5 M
340.621 381.379 L
338.5 380.5 L
336.379 381.379 L
335.5 383.5 L
336.379 385.621 L
338.5 386.5 L
340.621 385.621 L
cp
S
GR
GS
0 0.447 0.741 RC
1 LJ
N
348.5 383.5 M
347.621 381.379 L
345.5 380.5 L
343.379 381.379 L
342.5 383.5 L
343.379 385.621 L
345.5 386.5 L
347.621 385.621 L
cp
S
GR
GS
0 0.447 0.741 RC
1 LJ
N
355.5 383.5 M
354.621 381.379 L
352.5 380.5 L
350.379 381.379 L
349.5 383.5 L
350.379 385.621 L
352.5 386.5 L
354.621 385.621 L
cp
S
GR
GS
0 0.447 0.741 RC
1 LJ
N
362.5 383.5 M
361.621 381.379 L
359.5 380.5 L
357.379 381.379 L
356.5 383.5 L
357.379 385.621 L
359.5 386.5 L
361.621 385.621 L
cp
S
GR
GS
0 0.447 0.741 RC
1 LJ
N
369.5 383.5 M
368.621 381.379 L
366.5 380.5 L
364.379 381.379 L
363.5 383.5 L
364.379 385.621 L
366.5 386.5 L
368.621 385.621 L
cp
S
GR
GS
0 0.447 0.741 RC
1 LJ
N
376.5 383.5 M
375.621 381.379 L
373.5 380.5 L
371.379 381.379 L
370.5 383.5 L
371.379 385.621 L
373.5 386.5 L
375.621 385.621 L
cp
S
GR
GS
0 0.447 0.741 RC
1 LJ
N
383.5 383.5 M
382.621 381.379 L
380.5 380.5 L
378.379 381.379 L
377.5 383.5 L
378.379 385.621 L
380.5 386.5 L
382.621 385.621 L
cp
S
GR
GS
0 0.447 0.741 RC
1 LJ
N
390.5 383.5 M
389.621 381.379 L
387.5 380.5 L
385.379 381.379 L
384.5 383.5 L
385.379 385.621 L
387.5 386.5 L
389.621 385.621 L
cp
S
GR
GS
0 0.447 0.741 RC
1 LJ
N
397.5 383.5 M
396.621 381.379 L
394.5 380.5 L
392.379 381.379 L
391.5 383.5 L
392.379 385.621 L
394.5 386.5 L
396.621 385.621 L
cp
S
GR
GS
0 0.447 0.741 RC
1 LJ
N
404.5 383.5 M
403.621 381.379 L
401.5 380.5 L
399.379 381.379 L
398.5 383.5 L
399.379 385.621 L
401.5 386.5 L
403.621 385.621 L
cp
S
GR
GS
0 0.447 0.741 RC
1 LJ
N
411.5 383.5 M
410.621 381.379 L
408.5 380.5 L
406.379 381.379 L
405.5 383.5 L
406.379 385.621 L
408.5 386.5 L
410.621 385.621 L
cp
S
GR
GS
0 0.447 0.741 RC
1 LJ
N
417.5 383.5 M
416.621 381.379 L
414.5 380.5 L
412.379 381.379 L
411.5 383.5 L
412.379 385.621 L
414.5 386.5 L
416.621 385.621 L
cp
S
GR
GS
0 0.447 0.741 RC
1 LJ
N
424.5 383.5 M
423.621 381.379 L
421.5 380.5 L
419.379 381.379 L
418.5 383.5 L
419.379 385.621 L
421.5 386.5 L
423.621 385.621 L
cp
S
GR
GS
0 0.447 0.741 RC
1 LJ
N
75 33.162 M
82.017 178.617 L
88.762 238.265 L
95.681 267.652 L
102.495 280.528 L
109.558 286.308 L
116.491 289.835 L
123.21 292.91 L
130.153 295.76 L
136.961 298.783 L
143.809 298.04 L
150.614 299.916 L
157.391 299.653 L
164.268 304.559 L
171.097 305.368 L
178.312 306.22 L
185.658 304.836 L
192.698 305.833 L
199.665 306.518 L
206.526 305.861 L
213.666 305.9 L
220.892 306.342 L
227.743 306.245 L
234.416 306.547 L
241.252 306.35 L
248.062 306.067 L
254.787 306.502 L
261.864 306.423 L
269.243 306.496 L
276.375 306.286 L
283.399 306.344 L
290.252 306.421 L
297.104 306.383 L
303.989 306.314 L
310.878 306.465 L
317.946 306.609 L
324.905 306.566 L
331.833 306.464 L
338.698 306.529 L
345.665 306.599 L
352.527 306.501 L
359.42 306.489 L
366.298 306.437 L
373.259 306.479 L
380.169 306.427 L
387.189 306.538 L
394.257 306.561 L
401.153 306.417 L
408.132 306.513 L
414.943 306.473 L
S
GR
GS
0 0.447 0.741 RC
1 LJ
N
408.132 306.513 M
414.943 306.473 L
421.732 306.536 L
S
GR
GS
0 0.447 0.741 RC
1 LJ
N
72 33.5 M
79 33.5 L
S
GR
GS
0 0.447 0.741 RC
1 LJ
N
75.5 37 M
75.5 30 L
S
GR
GS
0 0.447 0.741 RC
1 LJ
N
73 36 M
78 31 L
S
GR
GS
0 0.447 0.741 RC
1 LJ
N
73 31 M
78 36 L
S
GR
GS
0 0.447 0.741 RC
1 LJ
N
79 178.5 M
86 178.5 L
S
GR
GS
0 0.447 0.741 RC
1 LJ
N
82.5 182 M
82.5 175 L
S
GR
GS
0 0.447 0.741 RC
1 LJ
N
80 181 M
85 176 L
S
GR
GS
0 0.447 0.741 RC
1 LJ
N
80 176 M
85 181 L
S
GR
GS
0 0.447 0.741 RC
1 LJ
N
85 238.5 M
92 238.5 L
S
GR
GS
0 0.447 0.741 RC
1 LJ
N
88.5 242 M
88.5 235 L
S
GR
GS
0 0.447 0.741 RC
1 LJ
N
86 241 M
91 236 L
S
GR
GS
0 0.447 0.741 RC
1 LJ
N
86 236 M
91 241 L
S
GR
GS
0 0.447 0.741 RC
1 LJ
N
92 267.5 M
99 267.5 L
S
GR
GS
0 0.447 0.741 RC
1 LJ
N
95.5 271 M
95.5 264 L
S
GR
GS
0 0.447 0.741 RC
1 LJ
N
93 270 M
98 265 L
S
GR
GS
0 0.447 0.741 RC
1 LJ
N
93 265 M
98 270 L
S
GR
GS
0 0.447 0.741 RC
1 LJ
N
99 280.5 M
106 280.5 L
S
GR
GS
0 0.447 0.741 RC
1 LJ
N
102.5 284 M
102.5 277 L
S
GR
GS
0 0.447 0.741 RC
1 LJ
N
100 283 M
105 278 L
S
GR
GS
0 0.447 0.741 RC
1 LJ
N
100 278 M
105 283 L
S
GR
GS
0 0.447 0.741 RC
1 LJ
N
106 286.5 M
113 286.5 L
S
GR
GS
0 0.447 0.741 RC
1 LJ
N
109.5 290 M
109.5 283 L
S
GR
GS
0 0.447 0.741 RC
1 LJ
N
107 289 M
112 284 L
S
GR
GS
0 0.447 0.741 RC
1 LJ
N
107 284 M
112 289 L
S
GR
GS
0 0.447 0.741 RC
1 LJ
N
113 289.5 M
120 289.5 L
S
GR
GS
0 0.447 0.741 RC
1 LJ
N
116.5 293 M
116.5 286 L
S
GR
GS
0 0.447 0.741 RC
1 LJ
N
114 292 M
119 287 L
S
GR
GS
0 0.447 0.741 RC
1 LJ
N
114 287 M
119 292 L
S
GR
GS
0 0.447 0.741 RC
1 LJ
N
120 292.5 M
127 292.5 L
S
GR
GS
0 0.447 0.741 RC
1 LJ
N
123.5 296 M
123.5 289 L
S
GR
GS
0 0.447 0.741 RC
1 LJ
N
121 295 M
126 290 L
S
GR
GS
0 0.447 0.741 RC
1 LJ
N
121 290 M
126 295 L
S
GR
GS
0 0.447 0.741 RC
1 LJ
N
127 295.5 M
134 295.5 L
S
GR
GS
0 0.447 0.741 RC
1 LJ
N
130.5 299 M
130.5 292 L
S
GR
GS
0 0.447 0.741 RC
1 LJ
N
128 298 M
133 293 L
S
GR
GS
0 0.447 0.741 RC
1 LJ
N
128 293 M
133 298 L
S
GR
GS
0 0.447 0.741 RC
1 LJ
N
133 298.5 M
140 298.5 L
S
GR
GS
0 0.447 0.741 RC
1 LJ
N
136.5 302 M
136.5 295 L
S
GR
GS
0 0.447 0.741 RC
1 LJ
N
134 301 M
139 296 L
S
GR
GS
0 0.447 0.741 RC
1 LJ
N
134 296 M
139 301 L
S
GR
GS
0 0.447 0.741 RC
1 LJ
N
140 298.5 M
147 298.5 L
S
GR
GS
0 0.447 0.741 RC
1 LJ
N
143.5 302 M
143.5 295 L
S
GR
GS
0 0.447 0.741 RC
1 LJ
N
141 301 M
146 296 L
S
GR
GS
0 0.447 0.741 RC
1 LJ
N
141 296 M
146 301 L
S
GR
GS
0 0.447 0.741 RC
1 LJ
N
147 299.5 M
154 299.5 L
S
GR
GS
0 0.447 0.741 RC
1 LJ
N
150.5 303 M
150.5 296 L
S
GR
GS
0 0.447 0.741 RC
1 LJ
N
148 302 M
153 297 L
S
GR
GS
0 0.447 0.741 RC
1 LJ
N
148 297 M
153 302 L
S
GR
GS
0 0.447 0.741 RC
1 LJ
N
154 299.5 M
161 299.5 L
S
GR
GS
0 0.447 0.741 RC
1 LJ
N
157.5 303 M
157.5 296 L
S
GR
GS
0 0.447 0.741 RC
1 LJ
N
155 302 M
160 297 L
S
GR
GS
0 0.447 0.741 RC
1 LJ
N
155 297 M
160 302 L
S
GR
GS
0 0.447 0.741 RC
1 LJ
N
161 304.5 M
168 304.5 L
S
GR
GS
0 0.447 0.741 RC
1 LJ
N
164.5 308 M
164.5 301 L
S
GR
GS
0 0.447 0.741 RC
1 LJ
N
162 307 M
167 302 L
S
GR
GS
0 0.447 0.741 RC
1 LJ
N
162 302 M
167 307 L
S
GR
GS
0 0.447 0.741 RC
1 LJ
N
168 305.5 M
175 305.5 L
S
GR
GS
0 0.447 0.741 RC
1 LJ
N
171.5 309 M
171.5 302 L
S
GR
GS
0 0.447 0.741 RC
1 LJ
N
169 308 M
174 303 L
S
GR
GS
0 0.447 0.741 RC
1 LJ
N
169 303 M
174 308 L
S
GR
GS
0 0.447 0.741 RC
1 LJ
N
175 306.5 M
182 306.5 L
S
GR
GS
0 0.447 0.741 RC
1 LJ
N
178.5 310 M
178.5 303 L
S
GR
GS
0 0.447 0.741 RC
1 LJ
N
176 309 M
181 304 L
S
GR
GS
0 0.447 0.741 RC
1 LJ
N
176 304 M
181 309 L
S
GR
GS
0 0.447 0.741 RC
1 LJ
N
182 304.5 M
189 304.5 L
S
GR
GS
0 0.447 0.741 RC
1 LJ
N
185.5 308 M
185.5 301 L
S
GR
GS
0 0.447 0.741 RC
1 LJ
N
183 307 M
188 302 L
S
GR
GS
0 0.447 0.741 RC
1 LJ
N
183 302 M
188 307 L
S
GR
GS
0 0.447 0.741 RC
1 LJ
N
189 305.5 M
196 305.5 L
S
GR
GS
0 0.447 0.741 RC
1 LJ
N
192.5 309 M
192.5 302 L
S
GR
GS
0 0.447 0.741 RC
1 LJ
N
190 308 M
195 303 L
S
GR
GS
0 0.447 0.741 RC
1 LJ
N
190 303 M
195 308 L
S
GR
GS
0 0.447 0.741 RC
1 LJ
N
196 306.5 M
203 306.5 L
S
GR
GS
0 0.447 0.741 RC
1 LJ
N
199.5 310 M
199.5 303 L
S
GR
GS
0 0.447 0.741 RC
1 LJ
N
197 309 M
202 304 L
S
GR
GS
0 0.447 0.741 RC
1 LJ
N
197 304 M
202 309 L
S
GR
GS
0 0.447 0.741 RC
1 LJ
N
203 305.5 M
210 305.5 L
S
GR
GS
0 0.447 0.741 RC
1 LJ
N
206.5 309 M
206.5 302 L
S
GR
GS
0 0.447 0.741 RC
1 LJ
N
204 308 M
209 303 L
S
GR
GS
0 0.447 0.741 RC
1 LJ
N
204 303 M
209 308 L
S
GR
GS
0 0.447 0.741 RC
1 LJ
N
210 305.5 M
217 305.5 L
S
GR
GS
0 0.447 0.741 RC
1 LJ
N
213.5 309 M
213.5 302 L
S
GR
GS
0 0.447 0.741 RC
1 LJ
N
211 308 M
216 303 L
S
GR
GS
0 0.447 0.741 RC
1 LJ
N
211 303 M
216 308 L
S
GR
GS
0 0.447 0.741 RC
1 LJ
N
217 306.5 M
224 306.5 L
S
GR
GS
0 0.447 0.741 RC
1 LJ
N
220.5 310 M
220.5 303 L
S
GR
GS
0 0.447 0.741 RC
1 LJ
N
218 309 M
223 304 L
S
GR
GS
0 0.447 0.741 RC
1 LJ
N
218 304 M
223 309 L
S
GR
GS
0 0.447 0.741 RC
1 LJ
N
224 306.5 M
231 306.5 L
S
GR
GS
0 0.447 0.741 RC
1 LJ
N
227.5 310 M
227.5 303 L
S
GR
GS
0 0.447 0.741 RC
1 LJ
N
225 309 M
230 304 L
S
GR
GS
0 0.447 0.741 RC
1 LJ
N
225 304 M
230 309 L
S
GR
GS
0 0.447 0.741 RC
1 LJ
N
231 306.5 M
238 306.5 L
S
GR
GS
0 0.447 0.741 RC
1 LJ
N
234.5 310 M
234.5 303 L
S
GR
GS
0 0.447 0.741 RC
1 LJ
N
232 309 M
237 304 L
S
GR
GS
0 0.447 0.741 RC
1 LJ
N
232 304 M
237 309 L
S
GR
GS
0 0.447 0.741 RC
1 LJ
N
238 306.5 M
245 306.5 L
S
GR
GS
0 0.447 0.741 RC
1 LJ
N
241.5 310 M
241.5 303 L
S
GR
GS
0 0.447 0.741 RC
1 LJ
N
239 309 M
244 304 L
S
GR
GS
0 0.447 0.741 RC
1 LJ
N
239 304 M
244 309 L
S
GR
GS
0 0.447 0.741 RC
1 LJ
N
245 306.5 M
252 306.5 L
S
GR
GS
0 0.447 0.741 RC
1 LJ
N
248.5 310 M
248.5 303 L
S
GR
GS
0 0.447 0.741 RC
1 LJ
N
246 309 M
251 304 L
S
GR
GS
0 0.447 0.741 RC
1 LJ
N
246 304 M
251 309 L
S
GR
GS
0 0.447 0.741 RC
1 LJ
N
251 306.5 M
258 306.5 L
S
GR
GS
0 0.447 0.741 RC
1 LJ
N
254.5 310 M
254.5 303 L
S
GR
GS
0 0.447 0.741 RC
1 LJ
N
252 309 M
257 304 L
S
GR
GS
0 0.447 0.741 RC
1 LJ
N
252 304 M
257 309 L
S
GR
GS
0 0.447 0.741 RC
1 LJ
N
258 306.5 M
265 306.5 L
S
GR
GS
0 0.447 0.741 RC
1 LJ
N
261.5 310 M
261.5 303 L
S
GR
GS
0 0.447 0.741 RC
1 LJ
N
259 309 M
264 304 L
S
GR
GS
0 0.447 0.741 RC
1 LJ
N
259 304 M
264 309 L
S
GR
GS
0 0.447 0.741 RC
1 LJ
N
266 306.5 M
273 306.5 L
S
GR
GS
0 0.447 0.741 RC
1 LJ
N
269.5 310 M
269.5 303 L
S
GR
GS
0 0.447 0.741 RC
1 LJ
N
267 309 M
272 304 L
S
GR
GS
0 0.447 0.741 RC
1 LJ
N
267 304 M
272 309 L
S
GR
GS
0 0.447 0.741 RC
1 LJ
N
273 306.5 M
280 306.5 L
S
GR
GS
0 0.447 0.741 RC
1 LJ
N
276.5 310 M
276.5 303 L
S
GR
GS
0 0.447 0.741 RC
1 LJ
N
274 309 M
279 304 L
S
GR
GS
0 0.447 0.741 RC
1 LJ
N
274 304 M
279 309 L
S
GR
GS
0 0.447 0.741 RC
1 LJ
N
280 306.5 M
287 306.5 L
S
GR
GS
0 0.447 0.741 RC
1 LJ
N
283.5 310 M
283.5 303 L
S
GR
GS
0 0.447 0.741 RC
1 LJ
N
281 309 M
286 304 L
S
GR
GS
0 0.447 0.741 RC
1 LJ
N
281 304 M
286 309 L
S
GR
GS
0 0.447 0.741 RC
1 LJ
N
287 306.5 M
294 306.5 L
S
GR
GS
0 0.447 0.741 RC
1 LJ
N
290.5 310 M
290.5 303 L
S
GR
GS
0 0.447 0.741 RC
1 LJ
N
288 309 M
293 304 L
S
GR
GS
0 0.447 0.741 RC
1 LJ
N
288 304 M
293 309 L
S
GR
GS
0 0.447 0.741 RC
1 LJ
N
294 306.5 M
301 306.5 L
S
GR
GS
0 0.447 0.741 RC
1 LJ
N
297.5 310 M
297.5 303 L
S
GR
GS
0 0.447 0.741 RC
1 LJ
N
295 309 M
300 304 L
S
GR
GS
0 0.447 0.741 RC
1 LJ
N
295 304 M
300 309 L
S
GR
GS
0 0.447 0.741 RC
1 LJ
N
300 306.5 M
307 306.5 L
S
GR
GS
0 0.447 0.741 RC
1 LJ
N
303.5 310 M
303.5 303 L
S
GR
GS
0 0.447 0.741 RC
1 LJ
N
301 309 M
306 304 L
S
GR
GS
0 0.447 0.741 RC
1 LJ
N
301 304 M
306 309 L
S
GR
GS
0 0.447 0.741 RC
1 LJ
N
307 306.5 M
314 306.5 L
S
GR
GS
0 0.447 0.741 RC
1 LJ
N
310.5 310 M
310.5 303 L
S
GR
GS
0 0.447 0.741 RC
1 LJ
N
308 309 M
313 304 L
S
GR
GS
0 0.447 0.741 RC
1 LJ
N
308 304 M
313 309 L
S
GR
GS
0 0.447 0.741 RC
1 LJ
N
314 306.5 M
321 306.5 L
S
GR
GS
0 0.447 0.741 RC
1 LJ
N
317.5 310 M
317.5 303 L
S
GR
GS
0 0.447 0.741 RC
1 LJ
N
315 309 M
320 304 L
S
GR
GS
0 0.447 0.741 RC
1 LJ
N
315 304 M
320 309 L
S
GR
GS
0 0.447 0.741 RC
1 LJ
N
321 306.5 M
328 306.5 L
S
GR
GS
0 0.447 0.741 RC
1 LJ
N
324.5 310 M
324.5 303 L
S
GR
GS
0 0.447 0.741 RC
1 LJ
N
322 309 M
327 304 L
S
GR
GS
0 0.447 0.741 RC
1 LJ
N
322 304 M
327 309 L
S
GR
GS
0 0.447 0.741 RC
1 LJ
N
328 306.5 M
335 306.5 L
S
GR
GS
0 0.447 0.741 RC
1 LJ
N
331.5 310 M
331.5 303 L
S
GR
GS
0 0.447 0.741 RC
1 LJ
N
329 309 M
334 304 L
S
GR
GS
0 0.447 0.741 RC
1 LJ
N
329 304 M
334 309 L
S
GR
GS
0 0.447 0.741 RC
1 LJ
N
335 306.5 M
342 306.5 L
S
GR
GS
0 0.447 0.741 RC
1 LJ
N
338.5 310 M
338.5 303 L
S
GR
GS
0 0.447 0.741 RC
1 LJ
N
336 309 M
341 304 L
S
GR
GS
0 0.447 0.741 RC
1 LJ
N
336 304 M
341 309 L
S
GR
GS
0 0.447 0.741 RC
1 LJ
N
342 306.5 M
349 306.5 L
S
GR
GS
0 0.447 0.741 RC
1 LJ
N
345.5 310 M
345.5 303 L
S
GR
GS
0 0.447 0.741 RC
1 LJ
N
343 309 M
348 304 L
S
GR
GS
0 0.447 0.741 RC
1 LJ
N
343 304 M
348 309 L
S
GR
GS
0 0.447 0.741 RC
1 LJ
N
349 306.5 M
356 306.5 L
S
GR
GS
0 0.447 0.741 RC
1 LJ
N
352.5 310 M
352.5 303 L
S
GR
GS
0 0.447 0.741 RC
1 LJ
N
350 309 M
355 304 L
S
GR
GS
0 0.447 0.741 RC
1 LJ
N
350 304 M
355 309 L
S
GR
GS
0 0.447 0.741 RC
1 LJ
N
356 306.5 M
363 306.5 L
S
GR
GS
0 0.447 0.741 RC
1 LJ
N
359.5 310 M
359.5 303 L
S
GR
GS
0 0.447 0.741 RC
1 LJ
N
357 309 M
362 304 L
S
GR
GS
0 0.447 0.741 RC
1 LJ
N
357 304 M
362 309 L
S
GR
GS
0 0.447 0.741 RC
1 LJ
N
363 306.5 M
370 306.5 L
S
GR
GS
0 0.447 0.741 RC
1 LJ
N
366.5 310 M
366.5 303 L
S
GR
GS
0 0.447 0.741 RC
1 LJ
N
364 309 M
369 304 L
S
GR
GS
0 0.447 0.741 RC
1 LJ
N
364 304 M
369 309 L
S
GR
GS
0 0.447 0.741 RC
1 LJ
N
370 306.5 M
377 306.5 L
S
GR
GS
0 0.447 0.741 RC
1 LJ
N
373.5 310 M
373.5 303 L
S
GR
GS
0 0.447 0.741 RC
1 LJ
N
371 309 M
376 304 L
S
GR
GS
0 0.447 0.741 RC
1 LJ
N
371 304 M
376 309 L
S
GR
GS
0 0.447 0.741 RC
1 LJ
N
377 306.5 M
384 306.5 L
S
GR
GS
0 0.447 0.741 RC
1 LJ
N
380.5 310 M
380.5 303 L
S
GR
GS
0 0.447 0.741 RC
1 LJ
N
378 309 M
383 304 L
S
GR
GS
0 0.447 0.741 RC
1 LJ
N
378 304 M
383 309 L
S
GR
GS
0 0.447 0.741 RC
1 LJ
N
384 306.5 M
391 306.5 L
S
GR
GS
0 0.447 0.741 RC
1 LJ
N
387.5 310 M
387.5 303 L
S
GR
GS
0 0.447 0.741 RC
1 LJ
N
385 309 M
390 304 L
S
GR
GS
0 0.447 0.741 RC
1 LJ
N
385 304 M
390 309 L
S
GR
GS
0 0.447 0.741 RC
1 LJ
N
391 306.5 M
398 306.5 L
S
GR
GS
0 0.447 0.741 RC
1 LJ
N
394.5 310 M
394.5 303 L
S
GR
GS
0 0.447 0.741 RC
1 LJ
N
392 309 M
397 304 L
S
GR
GS
0 0.447 0.741 RC
1 LJ
N
392 304 M
397 309 L
S
GR
GS
0 0.447 0.741 RC
1 LJ
N
398 306.5 M
405 306.5 L
S
GR
GS
0 0.447 0.741 RC
1 LJ
N
401.5 310 M
401.5 303 L
S
GR
GS
0 0.447 0.741 RC
1 LJ
N
399 309 M
404 304 L
S
GR
GS
0 0.447 0.741 RC
1 LJ
N
399 304 M
404 309 L
S
GR
GS
0 0.447 0.741 RC
1 LJ
N
405 306.5 M
412 306.5 L
S
GR
GS
0 0.447 0.741 RC
1 LJ
N
408.5 310 M
408.5 303 L
S
GR
GS
0 0.447 0.741 RC
1 LJ
N
406 309 M
411 304 L
S
GR
GS
0 0.447 0.741 RC
1 LJ
N
406 304 M
411 309 L
S
GR
GS
0 0.447 0.741 RC
1 LJ
N
411 306.5 M
418 306.5 L
S
GR
GS
0 0.447 0.741 RC
1 LJ
N
414.5 310 M
414.5 303 L
S
GR
GS
0 0.447 0.741 RC
1 LJ
N
412 309 M
417 304 L
S
GR
GS
0 0.447 0.741 RC
1 LJ
N
412 304 M
417 309 L
S
GR
GS
0 0.447 0.741 RC
1 LJ
N
418 306.5 M
425 306.5 L
S
GR
GS
0 0.447 0.741 RC
1 LJ
N
421.5 310 M
421.5 303 L
S
GR
GS
0 0.447 0.741 RC
1 LJ
N
419 309 M
424 304 L
S
GR
GS
0 0.447 0.741 RC
1 LJ
N
419 304 M
424 309 L
S
GR
GS
0.851 0.325 0.098 RC
1 LJ
N
75 32.5 M
82.705 195.693 L
89.54 259.193 L
96.349 296.934 L
103.288 316.603 L
110.952 339.672 L
117.765 347.594 L
124.519 352.205 L
131.354 353.059 L
138.146 357.606 L
145.543 362.064 L
152.23 362.118 L
158.987 366.899 L
165.826 369.536 L
172.844 369.488 L
180.29 371.153 L
186.916 375.039 L
193.516 375.949 L
200.324 375.512 L
207.057 377.886 L
214.595 379.128 L
221.386 379.521 L
228.009 379.127 L
234.754 380.624 L
241.621 380.92 L
249.242 381.061 L
256.42 380.972 L
263.796 381.773 L
270.789 381.896 L
277.75 381.978 L
285.384 382.242 L
292.113 381.993 L
298.809 382.463 L
306.226 382.705 L
313.376 382.687 L
321.088 383.135 L
328.001 383.284 L
334.932 383.224 L
341.813 383.335 L
348.732 383.396 L
357.31 383.624 L
364.836 383.67 L
371.958 383.705 L
379.017 383.789 L
386.062 383.817 L
393.815 383.899 L
400.899 383.873 L
408.356 383.904 L
415.153 383.939 L
421.842 383.983 L
S
GR
GS
0.851 0.325 0.098 RC
1 LJ
N
415.153 383.939 M
421.842 383.983 L
429.288 384 L
S
GR
GS
0.851 0.325 0.098 RC
1 LJ
N
78.5 32.5 M
77.621 30.379 L
75.5 29.5 L
73.379 30.379 L
72.5 32.5 L
73.379 34.621 L
75.5 35.5 L
77.621 34.621 L
cp
S
GR
GS
0.851 0.325 0.098 RC
1 LJ
N
85.5 195.5 M
84.621 193.379 L
82.5 192.5 L
80.379 193.379 L
79.5 195.5 L
80.379 197.621 L
82.5 198.5 L
84.621 197.621 L
cp
S
GR
GS
0.851 0.325 0.098 RC
1 LJ
N
92.5 259.5 M
91.621 257.379 L
89.5 256.5 L
87.379 257.379 L
86.5 259.5 L
87.379 261.621 L
89.5 262.5 L
91.621 261.621 L
cp
S
GR
GS
0.851 0.325 0.098 RC
1 LJ
N
99.5 296.5 M
98.621 294.379 L
96.5 293.5 L
94.379 294.379 L
93.5 296.5 L
94.379 298.621 L
96.5 299.5 L
98.621 298.621 L
cp
S
GR
GS
0.851 0.325 0.098 RC
1 LJ
N
106.5 316.5 M
105.621 314.379 L
103.5 313.5 L
101.379 314.379 L
100.5 316.5 L
101.379 318.621 L
103.5 319.5 L
105.621 318.621 L
cp
S
GR
GS
0.851 0.325 0.098 RC
1 LJ
N
113.5 339.5 M
112.621 337.379 L
110.5 336.5 L
108.379 337.379 L
107.5 339.5 L
108.379 341.621 L
110.5 342.5 L
112.621 341.621 L
cp
S
GR
GS
0.851 0.325 0.098 RC
1 LJ
N
120.5 347.5 M
119.621 345.379 L
117.5 344.5 L
115.379 345.379 L
114.5 347.5 L
115.379 349.621 L
117.5 350.5 L
119.621 349.621 L
cp
S
GR
GS
0.851 0.325 0.098 RC
1 LJ
N
127.5 352.5 M
126.621 350.379 L
124.5 349.5 L
122.379 350.379 L
121.5 352.5 L
122.379 354.621 L
124.5 355.5 L
126.621 354.621 L
cp
S
GR
GS
0.851 0.325 0.098 RC
1 LJ
N
134.5 353.5 M
133.621 351.379 L
131.5 350.5 L
129.379 351.379 L
128.5 353.5 L
129.379 355.621 L
131.5 356.5 L
133.621 355.621 L
cp
S
GR
GS
0.851 0.325 0.098 RC
1 LJ
N
141.5 357.5 M
140.621 355.379 L
138.5 354.5 L
136.379 355.379 L
135.5 357.5 L
136.379 359.621 L
138.5 360.5 L
140.621 359.621 L
cp
S
GR
GS
0.851 0.325 0.098 RC
1 LJ
N
148.5 362.5 M
147.621 360.379 L
145.5 359.5 L
143.379 360.379 L
142.5 362.5 L
143.379 364.621 L
145.5 365.5 L
147.621 364.621 L
cp
S
GR
GS
0.851 0.325 0.098 RC
1 LJ
N
155.5 362.5 M
154.621 360.379 L
152.5 359.5 L
150.379 360.379 L
149.5 362.5 L
150.379 364.621 L
152.5 365.5 L
154.621 364.621 L
cp
S
GR
GS
0.851 0.325 0.098 RC
1 LJ
N
161.5 366.5 M
160.621 364.379 L
158.5 363.5 L
156.379 364.379 L
155.5 366.5 L
156.379 368.621 L
158.5 369.5 L
160.621 368.621 L
cp
S
GR
GS
0.851 0.325 0.098 RC
1 LJ
N
168.5 369.5 M
167.621 367.379 L
165.5 366.5 L
163.379 367.379 L
162.5 369.5 L
163.379 371.621 L
165.5 372.5 L
167.621 371.621 L
cp
S
GR
GS
0.851 0.325 0.098 RC
1 LJ
N
175.5 369.5 M
174.621 367.379 L
172.5 366.5 L
170.379 367.379 L
169.5 369.5 L
170.379 371.621 L
172.5 372.5 L
174.621 371.621 L
cp
S
GR
GS
0.851 0.325 0.098 RC
1 LJ
N
183.5 371.5 M
182.621 369.379 L
180.5 368.5 L
178.379 369.379 L
177.5 371.5 L
178.379 373.621 L
180.5 374.5 L
182.621 373.621 L
cp
S
GR
GS
0.851 0.325 0.098 RC
1 LJ
N
189.5 375.5 M
188.621 373.379 L
186.5 372.5 L
184.379 373.379 L
183.5 375.5 L
184.379 377.621 L
186.5 378.5 L
188.621 377.621 L
cp
S
GR
GS
0.851 0.325 0.098 RC
1 LJ
N
196.5 375.5 M
195.621 373.379 L
193.5 372.5 L
191.379 373.379 L
190.5 375.5 L
191.379 377.621 L
193.5 378.5 L
195.621 377.621 L
cp
S
GR
GS
0.851 0.325 0.098 RC
1 LJ
N
203.5 375.5 M
202.621 373.379 L
200.5 372.5 L
198.379 373.379 L
197.5 375.5 L
198.379 377.621 L
200.5 378.5 L
202.621 377.621 L
cp
S
GR
GS
0.851 0.325 0.098 RC
1 LJ
N
210.5 377.5 M
209.621 375.379 L
207.5 374.5 L
205.379 375.379 L
204.5 377.5 L
205.379 379.621 L
207.5 380.5 L
209.621 379.621 L
cp
S
GR
GS
0.851 0.325 0.098 RC
1 LJ
N
217.5 379.5 M
216.621 377.379 L
214.5 376.5 L
212.379 377.379 L
211.5 379.5 L
212.379 381.621 L
214.5 382.5 L
216.621 381.621 L
cp
S
GR
GS
0.851 0.325 0.098 RC
1 LJ
N
224.5 379.5 M
223.621 377.379 L
221.5 376.5 L
219.379 377.379 L
218.5 379.5 L
219.379 381.621 L
221.5 382.5 L
223.621 381.621 L
cp
S
GR
GS
0.851 0.325 0.098 RC
1 LJ
N
231.5 379.5 M
230.621 377.379 L
228.5 376.5 L
226.379 377.379 L
225.5 379.5 L
226.379 381.621 L
228.5 382.5 L
230.621 381.621 L
cp
S
GR
GS
0.851 0.325 0.098 RC
1 LJ
N
237.5 380.5 M
236.621 378.379 L
234.5 377.5 L
232.379 378.379 L
231.5 380.5 L
232.379 382.621 L
234.5 383.5 L
236.621 382.621 L
cp
S
GR
GS
0.851 0.325 0.098 RC
1 LJ
N
244.5 380.5 M
243.621 378.379 L
241.5 377.5 L
239.379 378.379 L
238.5 380.5 L
239.379 382.621 L
241.5 383.5 L
243.621 382.621 L
cp
S
GR
GS
0.851 0.325 0.098 RC
1 LJ
N
252.5 381.5 M
251.621 379.379 L
249.5 378.5 L
247.379 379.379 L
246.5 381.5 L
247.379 383.621 L
249.5 384.5 L
251.621 383.621 L
cp
S
GR
GS
0.851 0.325 0.098 RC
1 LJ
N
259.5 380.5 M
258.621 378.379 L
256.5 377.5 L
254.379 378.379 L
253.5 380.5 L
254.379 382.621 L
256.5 383.5 L
258.621 382.621 L
cp
S
GR
GS
0.851 0.325 0.098 RC
1 LJ
N
266.5 381.5 M
265.621 379.379 L
263.5 378.5 L
261.379 379.379 L
260.5 381.5 L
261.379 383.621 L
263.5 384.5 L
265.621 383.621 L
cp
S
GR
GS
0.851 0.325 0.098 RC
1 LJ
N
273.5 381.5 M
272.621 379.379 L
270.5 378.5 L
268.379 379.379 L
267.5 381.5 L
268.379 383.621 L
270.5 384.5 L
272.621 383.621 L
cp
S
GR
GS
0.851 0.325 0.098 RC
1 LJ
N
280.5 381.5 M
279.621 379.379 L
277.5 378.5 L
275.379 379.379 L
274.5 381.5 L
275.379 383.621 L
277.5 384.5 L
279.621 383.621 L
cp
S
GR
GS
0.851 0.325 0.098 RC
1 LJ
N
288.5 382.5 M
287.621 380.379 L
285.5 379.5 L
283.379 380.379 L
282.5 382.5 L
283.379 384.621 L
285.5 385.5 L
287.621 384.621 L
cp
S
GR
GS
0.851 0.325 0.098 RC
1 LJ
N
295.5 381.5 M
294.621 379.379 L
292.5 378.5 L
290.379 379.379 L
289.5 381.5 L
290.379 383.621 L
292.5 384.5 L
294.621 383.621 L
cp
S
GR
GS
0.851 0.325 0.098 RC
1 LJ
N
301.5 382.5 M
300.621 380.379 L
298.5 379.5 L
296.379 380.379 L
295.5 382.5 L
296.379 384.621 L
298.5 385.5 L
300.621 384.621 L
cp
S
GR
GS
0.851 0.325 0.098 RC
1 LJ
N
309.5 382.5 M
308.621 380.379 L
306.5 379.5 L
304.379 380.379 L
303.5 382.5 L
304.379 384.621 L
306.5 385.5 L
308.621 384.621 L
cp
S
GR
GS
0.851 0.325 0.098 RC
1 LJ
N
316.5 382.5 M
315.621 380.379 L
313.5 379.5 L
311.379 380.379 L
310.5 382.5 L
311.379 384.621 L
313.5 385.5 L
315.621 384.621 L
cp
S
GR
GS
0.851 0.325 0.098 RC
1 LJ
N
324.5 383.5 M
323.621 381.379 L
321.5 380.5 L
319.379 381.379 L
318.5 383.5 L
319.379 385.621 L
321.5 386.5 L
323.621 385.621 L
cp
S
GR
GS
0.851 0.325 0.098 RC
1 LJ
N
331.5 383.5 M
330.621 381.379 L
328.5 380.5 L
326.379 381.379 L
325.5 383.5 L
326.379 385.621 L
328.5 386.5 L
330.621 385.621 L
cp
S
GR
GS
0.851 0.325 0.098 RC
1 LJ
N
337.5 383.5 M
336.621 381.379 L
334.5 380.5 L
332.379 381.379 L
331.5 383.5 L
332.379 385.621 L
334.5 386.5 L
336.621 385.621 L
cp
S
GR
GS
0.851 0.325 0.098 RC
1 LJ
N
344.5 383.5 M
343.621 381.379 L
341.5 380.5 L
339.379 381.379 L
338.5 383.5 L
339.379 385.621 L
341.5 386.5 L
343.621 385.621 L
cp
S
GR
GS
0.851 0.325 0.098 RC
1 LJ
N
351.5 383.5 M
350.621 381.379 L
348.5 380.5 L
346.379 381.379 L
345.5 383.5 L
346.379 385.621 L
348.5 386.5 L
350.621 385.621 L
cp
S
GR
GS
0.851 0.325 0.098 RC
1 LJ
N
360.5 383.5 M
359.621 381.379 L
357.5 380.5 L
355.379 381.379 L
354.5 383.5 L
355.379 385.621 L
357.5 386.5 L
359.621 385.621 L
cp
S
GR
GS
0.851 0.325 0.098 RC
1 LJ
N
367.5 383.5 M
366.621 381.379 L
364.5 380.5 L
362.379 381.379 L
361.5 383.5 L
362.379 385.621 L
364.5 386.5 L
366.621 385.621 L
cp
S
GR
GS
0.851 0.325 0.098 RC
1 LJ
N
374.5 383.5 M
373.621 381.379 L
371.5 380.5 L
369.379 381.379 L
368.5 383.5 L
369.379 385.621 L
371.5 386.5 L
373.621 385.621 L
cp
S
GR
GS
0.851 0.325 0.098 RC
1 LJ
N
382.5 383.5 M
381.621 381.379 L
379.5 380.5 L
377.379 381.379 L
376.5 383.5 L
377.379 385.621 L
379.5 386.5 L
381.621 385.621 L
cp
S
GR
GS
0.851 0.325 0.098 RC
1 LJ
N
389.5 383.5 M
388.621 381.379 L
386.5 380.5 L
384.379 381.379 L
383.5 383.5 L
384.379 385.621 L
386.5 386.5 L
388.621 385.621 L
cp
S
GR
GS
0.851 0.325 0.098 RC
1 LJ
N
396.5 383.5 M
395.621 381.379 L
393.5 380.5 L
391.379 381.379 L
390.5 383.5 L
391.379 385.621 L
393.5 386.5 L
395.621 385.621 L
cp
S
GR
GS
0.851 0.325 0.098 RC
1 LJ
N
403.5 383.5 M
402.621 381.379 L
400.5 380.5 L
398.379 381.379 L
397.5 383.5 L
398.379 385.621 L
400.5 386.5 L
402.621 385.621 L
cp
S
GR
GS
0.851 0.325 0.098 RC
1 LJ
N
411.5 383.5 M
410.621 381.379 L
408.5 380.5 L
406.379 381.379 L
405.5 383.5 L
406.379 385.621 L
408.5 386.5 L
410.621 385.621 L
cp
S
GR
GS
0.851 0.325 0.098 RC
1 LJ
N
418.5 383.5 M
417.621 381.379 L
415.5 380.5 L
413.379 381.379 L
412.5 383.5 L
413.379 385.621 L
415.5 386.5 L
417.621 385.621 L
cp
S
GR
GS
0.851 0.325 0.098 RC
1 LJ
N
424.5 383.5 M
423.621 381.379 L
421.5 380.5 L
419.379 381.379 L
418.5 383.5 L
419.379 385.621 L
421.5 386.5 L
423.621 385.621 L
cp
S
GR
GS
0.851 0.325 0.098 RC
1 LJ
N
432.5 383.5 M
431.621 381.379 L
429.5 380.5 L
427.379 381.379 L
426.5 383.5 L
427.379 385.621 L
429.5 386.5 L
431.621 385.621 L
cp
S
GR
GS
0.851 0.325 0.098 RC
1 LJ
N
75 33.162 M
82.705 165.117 L
89.54 207.424 L
96.349 237.712 L
103.288 250.184 L
110.952 277.171 L
117.765 282.77 L
124.519 287.505 L
131.354 285.48 L
138.146 288.041 L
145.543 298.776 L
152.23 296.307 L
158.987 300.079 L
165.826 302.299 L
172.844 298.067 L
180.29 301.69 L
186.916 301.498 L
193.516 302.16 L
200.324 300.957 L
207.057 303.823 L
214.595 303.794 L
221.386 302.155 L
228.009 303.013 L
234.754 305.062 L
241.621 304.126 L
249.242 305.044 L
256.42 305.212 L
263.796 306.205 L
270.789 305.307 L
277.75 305.213 L
285.384 306.176 L
292.113 306.152 L
298.809 306.471 L
306.226 306.47 L
313.376 306.917 L
321.088 307.12 L
328.001 307.461 L
334.932 306.885 L
341.813 306.604 L
348.732 306.496 L
357.31 306.11 L
364.836 305.81 L
371.958 305.98 L
379.017 305.672 L
386.062 305.967 L
393.815 306.015 L
400.899 306.003 L
408.356 305.974 L
415.153 305.784 L
421.842 306.059 L
S
GR
GS
0.851 0.325 0.098 RC
1 LJ
N
415.153 305.784 M
421.842 306.059 L
429.288 305.967 L
S
GR
GS
0.851 0.325 0.098 RC
1 LJ
N
72 33.5 M
79 33.5 L
S
GR
GS
0.851 0.325 0.098 RC
1 LJ
N
75.5 37 M
75.5 30 L
S
GR
GS
0.851 0.325 0.098 RC
1 LJ
N
73 36 M
78 31 L
S
GR
GS
0.851 0.325 0.098 RC
1 LJ
N
73 31 M
78 36 L
S
GR
GS
0.851 0.325 0.098 RC
1 LJ
N
79 165.5 M
86 165.5 L
S
GR
GS
0.851 0.325 0.098 RC
1 LJ
N
82.5 169 M
82.5 162 L
S
GR
GS
0.851 0.325 0.098 RC
1 LJ
N
80 168 M
85 163 L
S
GR
GS
0.851 0.325 0.098 RC
1 LJ
N
80 163 M
85 168 L
S
GR
GS
0.851 0.325 0.098 RC
1 LJ
N
86 207.5 M
93 207.5 L
S
GR
GS
0.851 0.325 0.098 RC
1 LJ
N
89.5 211 M
89.5 204 L
S
GR
GS
0.851 0.325 0.098 RC
1 LJ
N
87 210 M
92 205 L
S
GR
GS
0.851 0.325 0.098 RC
1 LJ
N
87 205 M
92 210 L
S
GR
GS
0.851 0.325 0.098 RC
1 LJ
N
93 237.5 M
100 237.5 L
S
GR
GS
0.851 0.325 0.098 RC
1 LJ
N
96.5 241 M
96.5 234 L
S
GR
GS
0.851 0.325 0.098 RC
1 LJ
N
94 240 M
99 235 L
S
GR
GS
0.851 0.325 0.098 RC
1 LJ
N
94 235 M
99 240 L
S
GR
GS
0.851 0.325 0.098 RC
1 LJ
N
100 250.5 M
107 250.5 L
S
GR
GS
0.851 0.325 0.098 RC
1 LJ
N
103.5 254 M
103.5 247 L
S
GR
GS
0.851 0.325 0.098 RC
1 LJ
N
101 253 M
106 248 L
S
GR
GS
0.851 0.325 0.098 RC
1 LJ
N
101 248 M
106 253 L
S
GR
GS
0.851 0.325 0.098 RC
1 LJ
N
107 277.5 M
114 277.5 L
S
GR
GS
0.851 0.325 0.098 RC
1 LJ
N
110.5 281 M
110.5 274 L
S
GR
GS
0.851 0.325 0.098 RC
1 LJ
N
108 280 M
113 275 L
S
GR
GS
0.851 0.325 0.098 RC
1 LJ
N
108 275 M
113 280 L
S
GR
GS
0.851 0.325 0.098 RC
1 LJ
N
114 282.5 M
121 282.5 L
S
GR
GS
0.851 0.325 0.098 RC
1 LJ
N
117.5 286 M
117.5 279 L
S
GR
GS
0.851 0.325 0.098 RC
1 LJ
N
115 285 M
120 280 L
S
GR
GS
0.851 0.325 0.098 RC
1 LJ
N
115 280 M
120 285 L
S
GR
GS
0.851 0.325 0.098 RC
1 LJ
N
121 287.5 M
128 287.5 L
S
GR
GS
0.851 0.325 0.098 RC
1 LJ
N
124.5 291 M
124.5 284 L
S
GR
GS
0.851 0.325 0.098 RC
1 LJ
N
122 290 M
127 285 L
S
GR
GS
0.851 0.325 0.098 RC
1 LJ
N
122 285 M
127 290 L
S
GR
GS
0.851 0.325 0.098 RC
1 LJ
N
128 285.5 M
135 285.5 L
S
GR
GS
0.851 0.325 0.098 RC
1 LJ
N
131.5 289 M
131.5 282 L
S
GR
GS
0.851 0.325 0.098 RC
1 LJ
N
129 288 M
134 283 L
S
GR
GS
0.851 0.325 0.098 RC
1 LJ
N
129 283 M
134 288 L
S
GR
GS
0.851 0.325 0.098 RC
1 LJ
N
135 288.5 M
142 288.5 L
S
GR
GS
0.851 0.325 0.098 RC
1 LJ
N
138.5 292 M
138.5 285 L
S
GR
GS
0.851 0.325 0.098 RC
1 LJ
N
136 291 M
141 286 L
S
GR
GS
0.851 0.325 0.098 RC
1 LJ
N
136 286 M
141 291 L
S
GR
GS
0.851 0.325 0.098 RC
1 LJ
N
142 298.5 M
149 298.5 L
S
GR
GS
0.851 0.325 0.098 RC
1 LJ
N
145.5 302 M
145.5 295 L
S
GR
GS
0.851 0.325 0.098 RC
1 LJ
N
143 301 M
148 296 L
S
GR
GS
0.851 0.325 0.098 RC
1 LJ
N
143 296 M
148 301 L
S
GR
GS
0.851 0.325 0.098 RC
1 LJ
N
149 296.5 M
156 296.5 L
S
GR
GS
0.851 0.325 0.098 RC
1 LJ
N
152.5 300 M
152.5 293 L
S
GR
GS
0.851 0.325 0.098 RC
1 LJ
N
150 299 M
155 294 L
S
GR
GS
0.851 0.325 0.098 RC
1 LJ
N
150 294 M
155 299 L
S
GR
GS
0.851 0.325 0.098 RC
1 LJ
N
155 300.5 M
162 300.5 L
S
GR
GS
0.851 0.325 0.098 RC
1 LJ
N
158.5 304 M
158.5 297 L
S
GR
GS
0.851 0.325 0.098 RC
1 LJ
N
156 303 M
161 298 L
S
GR
GS
0.851 0.325 0.098 RC
1 LJ
N
156 298 M
161 303 L
S
GR
GS
0.851 0.325 0.098 RC
1 LJ
N
162 302.5 M
169 302.5 L
S
GR
GS
0.851 0.325 0.098 RC
1 LJ
N
165.5 306 M
165.5 299 L
S
GR
GS
0.851 0.325 0.098 RC
1 LJ
N
163 305 M
168 300 L
S
GR
GS
0.851 0.325 0.098 RC
1 LJ
N
163 300 M
168 305 L
S
GR
GS
0.851 0.325 0.098 RC
1 LJ
N
169 298.5 M
176 298.5 L
S
GR
GS
0.851 0.325 0.098 RC
1 LJ
N
172.5 302 M
172.5 295 L
S
GR
GS
0.851 0.325 0.098 RC
1 LJ
N
170 301 M
175 296 L
S
GR
GS
0.851 0.325 0.098 RC
1 LJ
N
170 296 M
175 301 L
S
GR
GS
0.851 0.325 0.098 RC
1 LJ
N
177 301.5 M
184 301.5 L
S
GR
GS
0.851 0.325 0.098 RC
1 LJ
N
180.5 305 M
180.5 298 L
S
GR
GS
0.851 0.325 0.098 RC
1 LJ
N
178 304 M
183 299 L
S
GR
GS
0.851 0.325 0.098 RC
1 LJ
N
178 299 M
183 304 L
S
GR
GS
0.851 0.325 0.098 RC
1 LJ
N
183 301.5 M
190 301.5 L
S
GR
GS
0.851 0.325 0.098 RC
1 LJ
N
186.5 305 M
186.5 298 L
S
GR
GS
0.851 0.325 0.098 RC
1 LJ
N
184 304 M
189 299 L
S
GR
GS
0.851 0.325 0.098 RC
1 LJ
N
184 299 M
189 304 L
S
GR
GS
0.851 0.325 0.098 RC
1 LJ
N
190 302.5 M
197 302.5 L
S
GR
GS
0.851 0.325 0.098 RC
1 LJ
N
193.5 306 M
193.5 299 L
S
GR
GS
0.851 0.325 0.098 RC
1 LJ
N
191 305 M
196 300 L
S
GR
GS
0.851 0.325 0.098 RC
1 LJ
N
191 300 M
196 305 L
S
GR
GS
0.851 0.325 0.098 RC
1 LJ
N
197 300.5 M
204 300.5 L
S
GR
GS
0.851 0.325 0.098 RC
1 LJ
N
200.5 304 M
200.5 297 L
S
GR
GS
0.851 0.325 0.098 RC
1 LJ
N
198 303 M
203 298 L
S
GR
GS
0.851 0.325 0.098 RC
1 LJ
N
198 298 M
203 303 L
S
GR
GS
0.851 0.325 0.098 RC
1 LJ
N
204 303.5 M
211 303.5 L
S
GR
GS
0.851 0.325 0.098 RC
1 LJ
N
207.5 307 M
207.5 300 L
S
GR
GS
0.851 0.325 0.098 RC
1 LJ
N
205 306 M
210 301 L
S
GR
GS
0.851 0.325 0.098 RC
1 LJ
N
205 301 M
210 306 L
S
GR
GS
0.851 0.325 0.098 RC
1 LJ
N
211 303.5 M
218 303.5 L
S
GR
GS
0.851 0.325 0.098 RC
1 LJ
N
214.5 307 M
214.5 300 L
S
GR
GS
0.851 0.325 0.098 RC
1 LJ
N
212 306 M
217 301 L
S
GR
GS
0.851 0.325 0.098 RC
1 LJ
N
212 301 M
217 306 L
S
GR
GS
0.851 0.325 0.098 RC
1 LJ
N
218 302.5 M
225 302.5 L
S
GR
GS
0.851 0.325 0.098 RC
1 LJ
N
221.5 306 M
221.5 299 L
S
GR
GS
0.851 0.325 0.098 RC
1 LJ
N
219 305 M
224 300 L
S
GR
GS
0.851 0.325 0.098 RC
1 LJ
N
219 300 M
224 305 L
S
GR
GS
0.851 0.325 0.098 RC
1 LJ
N
225 303.5 M
232 303.5 L
S
GR
GS
0.851 0.325 0.098 RC
1 LJ
N
228.5 307 M
228.5 300 L
S
GR
GS
0.851 0.325 0.098 RC
1 LJ
N
226 306 M
231 301 L
S
GR
GS
0.851 0.325 0.098 RC
1 LJ
N
226 301 M
231 306 L
S
GR
GS
0.851 0.325 0.098 RC
1 LJ
N
231 305.5 M
238 305.5 L
S
GR
GS
0.851 0.325 0.098 RC
1 LJ
N
234.5 309 M
234.5 302 L
S
GR
GS
0.851 0.325 0.098 RC
1 LJ
N
232 308 M
237 303 L
S
GR
GS
0.851 0.325 0.098 RC
1 LJ
N
232 303 M
237 308 L
S
GR
GS
0.851 0.325 0.098 RC
1 LJ
N
238 304.5 M
245 304.5 L
S
GR
GS
0.851 0.325 0.098 RC
1 LJ
N
241.5 308 M
241.5 301 L
S
GR
GS
0.851 0.325 0.098 RC
1 LJ
N
239 307 M
244 302 L
S
GR
GS
0.851 0.325 0.098 RC
1 LJ
N
239 302 M
244 307 L
S
GR
GS
0.851 0.325 0.098 RC
1 LJ
N
246 305.5 M
253 305.5 L
S
GR
GS
0.851 0.325 0.098 RC
1 LJ
N
249.5 309 M
249.5 302 L
S
GR
GS
0.851 0.325 0.098 RC
1 LJ
N
247 308 M
252 303 L
S
GR
GS
0.851 0.325 0.098 RC
1 LJ
N
247 303 M
252 308 L
S
GR
GS
0.851 0.325 0.098 RC
1 LJ
N
253 305.5 M
260 305.5 L
S
GR
GS
0.851 0.325 0.098 RC
1 LJ
N
256.5 309 M
256.5 302 L
S
GR
GS
0.851 0.325 0.098 RC
1 LJ
N
254 308 M
259 303 L
S
GR
GS
0.851 0.325 0.098 RC
1 LJ
N
254 303 M
259 308 L
S
GR
GS
0.851 0.325 0.098 RC
1 LJ
N
260 306.5 M
267 306.5 L
S
GR
GS
0.851 0.325 0.098 RC
1 LJ
N
263.5 310 M
263.5 303 L
S
GR
GS
0.851 0.325 0.098 RC
1 LJ
N
261 309 M
266 304 L
S
GR
GS
0.851 0.325 0.098 RC
1 LJ
N
261 304 M
266 309 L
S
GR
GS
0.851 0.325 0.098 RC
1 LJ
N
267 305.5 M
274 305.5 L
S
GR
GS
0.851 0.325 0.098 RC
1 LJ
N
270.5 309 M
270.5 302 L
S
GR
GS
0.851 0.325 0.098 RC
1 LJ
N
268 308 M
273 303 L
S
GR
GS
0.851 0.325 0.098 RC
1 LJ
N
268 303 M
273 308 L
S
GR
GS
0.851 0.325 0.098 RC
1 LJ
N
274 305.5 M
281 305.5 L
S
GR
GS
0.851 0.325 0.098 RC
1 LJ
N
277.5 309 M
277.5 302 L
S
GR
GS
0.851 0.325 0.098 RC
1 LJ
N
275 308 M
280 303 L
S
GR
GS
0.851 0.325 0.098 RC
1 LJ
N
275 303 M
280 308 L
S
GR
GS
0.851 0.325 0.098 RC
1 LJ
N
282 306.5 M
289 306.5 L
S
GR
GS
0.851 0.325 0.098 RC
1 LJ
N
285.5 310 M
285.5 303 L
S
GR
GS
0.851 0.325 0.098 RC
1 LJ
N
283 309 M
288 304 L
S
GR
GS
0.851 0.325 0.098 RC
1 LJ
N
283 304 M
288 309 L
S
GR
GS
0.851 0.325 0.098 RC
1 LJ
N
289 306.5 M
296 306.5 L
S
GR
GS
0.851 0.325 0.098 RC
1 LJ
N
292.5 310 M
292.5 303 L
S
GR
GS
0.851 0.325 0.098 RC
1 LJ
N
290 309 M
295 304 L
S
GR
GS
0.851 0.325 0.098 RC
1 LJ
N
290 304 M
295 309 L
S
GR
GS
0.851 0.325 0.098 RC
1 LJ
N
295 306.5 M
302 306.5 L
S
GR
GS
0.851 0.325 0.098 RC
1 LJ
N
298.5 310 M
298.5 303 L
S
GR
GS
0.851 0.325 0.098 RC
1 LJ
N
296 309 M
301 304 L
S
GR
GS
0.851 0.325 0.098 RC
1 LJ
N
296 304 M
301 309 L
S
GR
GS
0.851 0.325 0.098 RC
1 LJ
N
303 306.5 M
310 306.5 L
S
GR
GS
0.851 0.325 0.098 RC
1 LJ
N
306.5 310 M
306.5 303 L
S
GR
GS
0.851 0.325 0.098 RC
1 LJ
N
304 309 M
309 304 L
S
GR
GS
0.851 0.325 0.098 RC
1 LJ
N
304 304 M
309 309 L
S
GR
GS
0.851 0.325 0.098 RC
1 LJ
N
310 306.5 M
317 306.5 L
S
GR
GS
0.851 0.325 0.098 RC
1 LJ
N
313.5 310 M
313.5 303 L
S
GR
GS
0.851 0.325 0.098 RC
1 LJ
N
311 309 M
316 304 L
S
GR
GS
0.851 0.325 0.098 RC
1 LJ
N
311 304 M
316 309 L
S
GR
GS
0.851 0.325 0.098 RC
1 LJ
N
318 307.5 M
325 307.5 L
S
GR
GS
0.851 0.325 0.098 RC
1 LJ
N
321.5 311 M
321.5 304 L
S
GR
GS
0.851 0.325 0.098 RC
1 LJ
N
319 310 M
324 305 L
S
GR
GS
0.851 0.325 0.098 RC
1 LJ
N
319 305 M
324 310 L
S
GR
GS
0.851 0.325 0.098 RC
1 LJ
N
325 307.5 M
332 307.5 L
S
GR
GS
0.851 0.325 0.098 RC
1 LJ
N
328.5 311 M
328.5 304 L
S
GR
GS
0.851 0.325 0.098 RC
1 LJ
N
326 310 M
331 305 L
S
GR
GS
0.851 0.325 0.098 RC
1 LJ
N
326 305 M
331 310 L
S
GR
GS
0.851 0.325 0.098 RC
1 LJ
N
331 306.5 M
338 306.5 L
S
GR
GS
0.851 0.325 0.098 RC
1 LJ
N
334.5 310 M
334.5 303 L
S
GR
GS
0.851 0.325 0.098 RC
1 LJ
N
332 309 M
337 304 L
S
GR
GS
0.851 0.325 0.098 RC
1 LJ
N
332 304 M
337 309 L
S
GR
GS
0.851 0.325 0.098 RC
1 LJ
N
338 306.5 M
345 306.5 L
S
GR
GS
0.851 0.325 0.098 RC
1 LJ
N
341.5 310 M
341.5 303 L
S
GR
GS
0.851 0.325 0.098 RC
1 LJ
N
339 309 M
344 304 L
S
GR
GS
0.851 0.325 0.098 RC
1 LJ
N
339 304 M
344 309 L
S
GR
GS
0.851 0.325 0.098 RC
1 LJ
N
345 306.5 M
352 306.5 L
S
GR
GS
0.851 0.325 0.098 RC
1 LJ
N
348.5 310 M
348.5 303 L
S
GR
GS
0.851 0.325 0.098 RC
1 LJ
N
346 309 M
351 304 L
S
GR
GS
0.851 0.325 0.098 RC
1 LJ
N
346 304 M
351 309 L
S
GR
GS
0.851 0.325 0.098 RC
1 LJ
N
354 306.5 M
361 306.5 L
S
GR
GS
0.851 0.325 0.098 RC
1 LJ
N
357.5 310 M
357.5 303 L
S
GR
GS
0.851 0.325 0.098 RC
1 LJ
N
355 309 M
360 304 L
S
GR
GS
0.851 0.325 0.098 RC
1 LJ
N
355 304 M
360 309 L
S
GR
GS
0.851 0.325 0.098 RC
1 LJ
N
361 305.5 M
368 305.5 L
S
GR
GS
0.851 0.325 0.098 RC
1 LJ
N
364.5 309 M
364.5 302 L
S
GR
GS
0.851 0.325 0.098 RC
1 LJ
N
362 308 M
367 303 L
S
GR
GS
0.851 0.325 0.098 RC
1 LJ
N
362 303 M
367 308 L
S
GR
GS
0.851 0.325 0.098 RC
1 LJ
N
368 305.5 M
375 305.5 L
S
GR
GS
0.851 0.325 0.098 RC
1 LJ
N
371.5 309 M
371.5 302 L
S
GR
GS
0.851 0.325 0.098 RC
1 LJ
N
369 308 M
374 303 L
S
GR
GS
0.851 0.325 0.098 RC
1 LJ
N
369 303 M
374 308 L
S
GR
GS
0.851 0.325 0.098 RC
1 LJ
N
376 305.5 M
383 305.5 L
S
GR
GS
0.851 0.325 0.098 RC
1 LJ
N
379.5 309 M
379.5 302 L
S
GR
GS
0.851 0.325 0.098 RC
1 LJ
N
377 308 M
382 303 L
S
GR
GS
0.851 0.325 0.098 RC
1 LJ
N
377 303 M
382 308 L
S
GR
GS
0.851 0.325 0.098 RC
1 LJ
N
383 305.5 M
390 305.5 L
S
GR
GS
0.851 0.325 0.098 RC
1 LJ
N
386.5 309 M
386.5 302 L
S
GR
GS
0.851 0.325 0.098 RC
1 LJ
N
384 308 M
389 303 L
S
GR
GS
0.851 0.325 0.098 RC
1 LJ
N
384 303 M
389 308 L
S
GR
GS
0.851 0.325 0.098 RC
1 LJ
N
390 306.5 M
397 306.5 L
S
GR
GS
0.851 0.325 0.098 RC
1 LJ
N
393.5 310 M
393.5 303 L
S
GR
GS
0.851 0.325 0.098 RC
1 LJ
N
391 309 M
396 304 L
S
GR
GS
0.851 0.325 0.098 RC
1 LJ
N
391 304 M
396 309 L
S
GR
GS
0.851 0.325 0.098 RC
1 LJ
N
397 306.5 M
404 306.5 L
S
GR
GS
0.851 0.325 0.098 RC
1 LJ
N
400.5 310 M
400.5 303 L
S
GR
GS
0.851 0.325 0.098 RC
1 LJ
N
398 309 M
403 304 L
S
GR
GS
0.851 0.325 0.098 RC
1 LJ
N
398 304 M
403 309 L
S
GR
GS
0.851 0.325 0.098 RC
1 LJ
N
405 305.5 M
412 305.5 L
S
GR
GS
0.851 0.325 0.098 RC
1 LJ
N
408.5 309 M
408.5 302 L
S
GR
GS
0.851 0.325 0.098 RC
1 LJ
N
406 308 M
411 303 L
S
GR
GS
0.851 0.325 0.098 RC
1 LJ
N
406 303 M
411 308 L
S
GR
GS
0.851 0.325 0.098 RC
1 LJ
N
412 305.5 M
419 305.5 L
S
GR
GS
0.851 0.325 0.098 RC
1 LJ
N
415.5 309 M
415.5 302 L
S
GR
GS
0.851 0.325 0.098 RC
1 LJ
N
413 308 M
418 303 L
S
GR
GS
0.851 0.325 0.098 RC
1 LJ
N
413 303 M
418 308 L
S
GR
GS
0.851 0.325 0.098 RC
1 LJ
N
418 306.5 M
425 306.5 L
S
GR
GS
0.851 0.325 0.098 RC
1 LJ
N
421.5 310 M
421.5 303 L
S
GR
GS
0.851 0.325 0.098 RC
1 LJ
N
419 309 M
424 304 L
S
GR
GS
0.851 0.325 0.098 RC
1 LJ
N
419 304 M
424 309 L
S
GR
GS
0.851 0.325 0.098 RC
1 LJ
N
426 305.5 M
433 305.5 L
S
GR
GS
0.851 0.325 0.098 RC
1 LJ
N
429.5 309 M
429.5 302 L
S
GR
GS
0.851 0.325 0.098 RC
1 LJ
N
427 308 M
432 303 L
S
GR
GS
0.851 0.325 0.098 RC
1 LJ
N
427 303 M
432 308 L
S
GR
GS
[1 0 0 1 302 53.75] CT
/Helvetica 18 F
GS
[1 0 0 1 0 0] CT
0 4.5 moveto 
1 -1 scale
(Random shuffling \(Train\)) t 
GR
GR
GS
0 0.447 0.741 RC
1 LJ
N
269 53.75 M
299 53.75 L
S
GR
GS
0 0.447 0.741 RC
1 LJ
N
286.5 53.5 M
285.621 51.379 L
283.5 50.5 L
281.379 51.379 L
280.5 53.5 L
281.379 55.621 L
283.5 56.5 L
285.621 55.621 L
cp
S
GR
GS
[1 0 0 1 302 72.75] CT
/Helvetica 18 F
GS
[1 0 0 1 0 0] CT
0 4.5 moveto 
1 -1 scale
(Random shuffling \(Test\)) t 
GR
GR
GS
0 0.447 0.741 RC
1 LJ
N
269 72.75 M
299 72.75 L
S
GR
GS
0 0.447 0.741 RC
1 LJ
N
280 72.5 M
287 72.5 L
S
GR
GS
0 0.447 0.741 RC
1 LJ
N
283.5 76 M
283.5 69 L
S
GR
GS
0 0.447 0.741 RC
1 LJ
N
281 75 M
286 70 L
S
GR
GS
0 0.447 0.741 RC
1 LJ
N
281 70 M
286 75 L
S
GR
GS
[1 0 0 1 302 91.75] CT
/Helvetica 18 F
GS
[1 0 0 1 0 0] CT
0 4.5 moveto 
1 -1 scale
(Weighted shuffling \(Train\)) t 
GR
GR
GS
0.851 0.325 0.098 RC
1 LJ
N
269 91.75 M
299 91.75 L
S
GR
GS
0.851 0.325 0.098 RC
1 LJ
N
286.5 91.5 M
285.621 89.379 L
283.5 88.5 L
281.379 89.379 L
280.5 91.5 L
281.379 93.621 L
283.5 94.5 L
285.621 93.621 L
cp
S
GR
GS
[1 0 0 1 302 110.75] CT
/Helvetica 18 F
GS
[1 0 0 1 0 0] CT
0 4.5 moveto 
1 -1 scale
(Weighted shuffling \(Test\)) t 
GR
GR
GS
0.851 0.325 0.098 RC
1 LJ
N
269 110.75 M
299 110.75 L
S
GR
GS
0.851 0.325 0.098 RC
1 LJ
N
280 110.5 M
287 110.5 L
S
GR
GS
0.851 0.325 0.098 RC
1 LJ
N
283.5 114 M
283.5 107 L
S
GR
GS
0.851 0.325 0.098 RC
1 LJ
N
281 113 M
286 108 L
S
GR
GS
0.851 0.325 0.098 RC
1 LJ
N
281 108 M
286 113 L
S
GR
%%Trailer
%%Pages: 1
%%EOF
