%!PS-Adobe-3.0 EPSF-3.0
%%Creator: (MATLAB, The Mathworks, Inc. Version 8.6.0.267246 \(R2015b\). Operating System: Mac OS X)
%%Title: /Users/gauthiermuguerza/Desktop/rsgd/report/images/largeConstant.eps
%%CreationDate: 2018-05-27T09:53:11
%%Pages: (atend)
%%BoundingBox: 0 0 560 420
%%LanguageLevel: 2
%%EndComments
%%BeginProlog
%%BeginResource: procset (Apache XML Graphics Std ProcSet) 1.2 0
%%Version: 1.2 0
%%Copyright: (Copyright 2001-2003,2010 The Apache Software Foundation. License terms: http://www.apache.org/licenses/LICENSE-2.0)
/bd{bind def}bind def
/ld{load def}bd
/GR/grestore ld
/M/moveto ld
/LJ/setlinejoin ld
/C/curveto ld
/f/fill ld
/LW/setlinewidth ld
/GC/setgray ld
/t/show ld
/N/newpath ld
/CT/concat ld
/cp/closepath ld
/S/stroke ld
/L/lineto ld
/CC/setcmykcolor ld
/A/ashow ld
/GS/gsave ld
/RC/setrgbcolor ld
/RM/rmoveto ld
/ML/setmiterlimit ld
/re {4 2 roll M
1 index 0 rlineto
0 exch rlineto
neg 0 rlineto
cp } bd
/_ctm matrix def
/_tm matrix def
/BT { _ctm currentmatrix pop matrix _tm copy pop 0 0 moveto } bd
/ET { _ctm setmatrix } bd
/iTm { _ctm setmatrix _tm concat } bd
/Tm { _tm astore pop iTm 0 0 moveto } bd
/ux 0.0 def
/uy 0.0 def
/F {
  /Tp exch def
  /Tf exch def
  Tf findfont Tp scalefont setfont
  /cf Tf def  /cs Tp def
} bd
/ULS {currentpoint /uy exch def /ux exch def} bd
/ULE {
  /Tcx currentpoint pop def
  gsave
  newpath
  cf findfont cs scalefont dup
  /FontMatrix get 0 get /Ts exch def /FontInfo get dup
  /UnderlinePosition get Ts mul /To exch def
  /UnderlineThickness get Ts mul /Tt exch def
  ux uy To add moveto  Tcx uy To add lineto
  Tt setlinewidth stroke
  grestore
} bd
/OLE {
  /Tcx currentpoint pop def
  gsave
  newpath
  cf findfont cs scalefont dup
  /FontMatrix get 0 get /Ts exch def /FontInfo get dup
  /UnderlinePosition get Ts mul /To exch def
  /UnderlineThickness get Ts mul /Tt exch def
  ux uy To add cs add moveto Tcx uy To add cs add lineto
  Tt setlinewidth stroke
  grestore
} bd
/SOE {
  /Tcx currentpoint pop def
  gsave
  newpath
  cf findfont cs scalefont dup
  /FontMatrix get 0 get /Ts exch def /FontInfo get dup
  /UnderlinePosition get Ts mul /To exch def
  /UnderlineThickness get Ts mul /Tt exch def
  ux uy To add cs 10 mul 26 idiv add moveto Tcx uy To add cs 10 mul 26 idiv add lineto
  Tt setlinewidth stroke
  grestore
} bd
/QT {
/Y22 exch store
/X22 exch store
/Y21 exch store
/X21 exch store
currentpoint
/Y21 load 2 mul add 3 div exch
/X21 load 2 mul add 3 div exch
/X21 load 2 mul /X22 load add 3 div
/Y21 load 2 mul /Y22 load add 3 div
/X22 load /Y22 load curveto
} bd
/SSPD {
dup length /d exch dict def
{
/v exch def
/k exch def
currentpagedevice k known {
/cpdv currentpagedevice k get def
v cpdv ne {
/upd false def
/nullv v type /nulltype eq def
/nullcpdv cpdv type /nulltype eq def
nullv nullcpdv or
{
/upd true def
} {
/sametype v type cpdv type eq def
sametype {
v type /arraytype eq {
/vlen v length def
/cpdvlen cpdv length def
vlen cpdvlen eq {
0 1 vlen 1 sub {
/i exch def
/obj v i get def
/cpdobj cpdv i get def
obj cpdobj ne {
/upd true def
exit
} if
} for
} {
/upd true def
} ifelse
} {
v type /dicttype eq {
v {
/dv exch def
/dk exch def
/cpddv cpdv dk get def
dv cpddv ne {
/upd true def
exit
} if
} forall
} {
/upd true def
} ifelse
} ifelse
} if
} ifelse
upd true eq {
d k v put
} if
} if
} if
} forall
d length 0 gt {
d setpagedevice
} if
} bd
%%EndResource
%%BeginResource: procset (Apache XML Graphics EPS ProcSet) 1.0 0
%%Version: 1.0 0
%%Copyright: (Copyright 2002-2003 The Apache Software Foundation. License terms: http://www.apache.org/licenses/LICENSE-2.0)
/BeginEPSF { %def
/b4_Inc_state save def         % Save state for cleanup
/dict_count countdictstack def % Count objects on dict stack
/op_count count 1 sub def      % Count objects on operand stack
userdict begin                 % Push userdict on dict stack
/showpage { } def              % Redefine showpage, { } = null proc
0 setgray 0 setlinecap         % Prepare graphics state
1 setlinewidth 0 setlinejoin
10 setmiterlimit [ ] 0 setdash newpath
/languagelevel where           % If level not equal to 1 then
{pop languagelevel             % set strokeadjust and
1 ne                           % overprint to their defaults.
{false setstrokeadjust false setoverprint
} if
} if
} bd
/EndEPSF { %def
count op_count sub {pop} repeat            % Clean up stacks
countdictstack dict_count sub {end} repeat
b4_Inc_state restore
} bd
%%EndResource
%FOPBeginFontDict
%%IncludeResource: font Courier-Bold
%%IncludeResource: font Helvetica
%%IncludeResource: font Courier-BoldOblique
%%IncludeResource: font Courier-Oblique
%%IncludeResource: font Times-Roman
%%IncludeResource: font Helvetica-BoldOblique
%%IncludeResource: font Helvetica-Bold
%%IncludeResource: font Helvetica-Oblique
%%IncludeResource: font Times-BoldItalic
%%IncludeResource: font Courier
%%IncludeResource: font Times-Italic
%%IncludeResource: font Times-Bold
%%IncludeResource: font Symbol
%%IncludeResource: font ZapfDingbats
%FOPEndFontDict
%%BeginResource: encoding WinAnsiEncoding
/WinAnsiEncoding [
/.notdef /.notdef /.notdef /.notdef /.notdef
/.notdef /.notdef /.notdef /.notdef /.notdef
/.notdef /.notdef /.notdef /.notdef /.notdef
/.notdef /.notdef /.notdef /.notdef /.notdef
/.notdef /.notdef /.notdef /.notdef /.notdef
/.notdef /.notdef /.notdef /.notdef /.notdef
/.notdef /.notdef /space /exclam /quotedbl
/numbersign /dollar /percent /ampersand /quotesingle
/parenleft /parenright /asterisk /plus /comma
/hyphen /period /slash /zero /one
/two /three /four /five /six
/seven /eight /nine /colon /semicolon
/less /equal /greater /question /at
/A /B /C /D /E
/F /G /H /I /J
/K /L /M /N /O
/P /Q /R /S /T
/U /V /W /X /Y
/Z /bracketleft /backslash /bracketright /asciicircum
/underscore /quoteleft /a /b /c
/d /e /f /g /h
/i /j /k /l /m
/n /o /p /q /r
/s /t /u /v /w
/x /y /z /braceleft /bar
/braceright /asciitilde /bullet /Euro /bullet
/quotesinglbase /florin /quotedblbase /ellipsis /dagger
/daggerdbl /circumflex /perthousand /Scaron /guilsinglleft
/OE /bullet /Zcaron /bullet /bullet
/quoteleft /quoteright /quotedblleft /quotedblright /bullet
/endash /emdash /asciitilde /trademark /scaron
/guilsinglright /oe /bullet /zcaron /Ydieresis
/space /exclamdown /cent /sterling /currency
/yen /brokenbar /section /dieresis /copyright
/ordfeminine /guillemotleft /logicalnot /sfthyphen /registered
/macron /degree /plusminus /twosuperior /threesuperior
/acute /mu /paragraph /middot /cedilla
/onesuperior /ordmasculine /guillemotright /onequarter /onehalf
/threequarters /questiondown /Agrave /Aacute /Acircumflex
/Atilde /Adieresis /Aring /AE /Ccedilla
/Egrave /Eacute /Ecircumflex /Edieresis /Igrave
/Iacute /Icircumflex /Idieresis /Eth /Ntilde
/Ograve /Oacute /Ocircumflex /Otilde /Odieresis
/multiply /Oslash /Ugrave /Uacute /Ucircumflex
/Udieresis /Yacute /Thorn /germandbls /agrave
/aacute /acircumflex /atilde /adieresis /aring
/ae /ccedilla /egrave /eacute /ecircumflex
/edieresis /igrave /iacute /icircumflex /idieresis
/eth /ntilde /ograve /oacute /ocircumflex
/otilde /odieresis /divide /oslash /ugrave
/uacute /ucircumflex /udieresis /yacute /thorn
/ydieresis
] def
%%EndResource
%FOPBeginFontReencode
/Courier-Bold findfont
dup length dict begin
  {1 index /FID ne {def} {pop pop} ifelse} forall
  /Encoding WinAnsiEncoding def
  currentdict
end
/Courier-Bold exch definefont pop
/Helvetica findfont
dup length dict begin
  {1 index /FID ne {def} {pop pop} ifelse} forall
  /Encoding WinAnsiEncoding def
  currentdict
end
/Helvetica exch definefont pop
/Courier-BoldOblique findfont
dup length dict begin
  {1 index /FID ne {def} {pop pop} ifelse} forall
  /Encoding WinAnsiEncoding def
  currentdict
end
/Courier-BoldOblique exch definefont pop
/Courier-Oblique findfont
dup length dict begin
  {1 index /FID ne {def} {pop pop} ifelse} forall
  /Encoding WinAnsiEncoding def
  currentdict
end
/Courier-Oblique exch definefont pop
/Times-Roman findfont
dup length dict begin
  {1 index /FID ne {def} {pop pop} ifelse} forall
  /Encoding WinAnsiEncoding def
  currentdict
end
/Times-Roman exch definefont pop
/Helvetica-BoldOblique findfont
dup length dict begin
  {1 index /FID ne {def} {pop pop} ifelse} forall
  /Encoding WinAnsiEncoding def
  currentdict
end
/Helvetica-BoldOblique exch definefont pop
/Helvetica-Bold findfont
dup length dict begin
  {1 index /FID ne {def} {pop pop} ifelse} forall
  /Encoding WinAnsiEncoding def
  currentdict
end
/Helvetica-Bold exch definefont pop
/Helvetica-Oblique findfont
dup length dict begin
  {1 index /FID ne {def} {pop pop} ifelse} forall
  /Encoding WinAnsiEncoding def
  currentdict
end
/Helvetica-Oblique exch definefont pop
/Times-BoldItalic findfont
dup length dict begin
  {1 index /FID ne {def} {pop pop} ifelse} forall
  /Encoding WinAnsiEncoding def
  currentdict
end
/Times-BoldItalic exch definefont pop
/Courier findfont
dup length dict begin
  {1 index /FID ne {def} {pop pop} ifelse} forall
  /Encoding WinAnsiEncoding def
  currentdict
end
/Courier exch definefont pop
/Times-Italic findfont
dup length dict begin
  {1 index /FID ne {def} {pop pop} ifelse} forall
  /Encoding WinAnsiEncoding def
  currentdict
end
/Times-Italic exch definefont pop
/Times-Bold findfont
dup length dict begin
  {1 index /FID ne {def} {pop pop} ifelse} forall
  /Encoding WinAnsiEncoding def
  currentdict
end
/Times-Bold exch definefont pop
%FOPEndFontReencode
%%EndProlog
%%Page: 1 1
%%PageBoundingBox: 0 0 560 420
%%BeginPageSetup
[1 0 0 -1 0 420] CT
%%EndPageSetup
GS
1 GC
N
0 0 560 420 re
f
GR
GS
1 GC
N
0 0 560 420 re
f
GR
GS
1 GC
N
73 370 M
507 370 L
507 31.5 L
73 31.5 L
cp
f
GR
GS
0.149 GC
2 setlinecap
1 LJ
0.5 LW
N
73 370 M
507 370 L
S
GR
GS
0.149 GC
2 setlinecap
1 LJ
0.5 LW
N
73 370 M
73 365.66 L
S
GR
GS
0.149 GC
2 setlinecap
1 LJ
0.5 LW
N
145.333 370 M
145.333 365.66 L
S
GR
GS
0.149 GC
2 setlinecap
1 LJ
0.5 LW
N
217.667 370 M
217.667 365.66 L
S
GR
GS
0.149 GC
2 setlinecap
1 LJ
0.5 LW
N
290 370 M
290 365.66 L
S
GR
GS
0.149 GC
2 setlinecap
1 LJ
0.5 LW
N
362.333 370 M
362.333 365.66 L
S
GR
GS
0.149 GC
2 setlinecap
1 LJ
0.5 LW
N
434.667 370 M
434.667 365.66 L
S
GR
GS
0.149 GC
2 setlinecap
1 LJ
0.5 LW
N
507 370 M
507 365.66 L
S
GR
GS
[1 0 0 1 73 376] CT
0.149 GC
/Helvetica 20 F
GS
[1 0 0 1 0 0] CT
-6 16 moveto 
1 -1 scale
(0) t 
GR
GR
GS
[1 0 0 1 145.33333 376] CT
0.149 GC
/Helvetica 20 F
GS
[1 0 0 1 0 0] CT
-11.5 16 moveto 
1 -1 scale
(10) t 
GR
GR
GS
[1 0 0 1 217.66667 376] CT
0.149 GC
/Helvetica 20 F
GS
[1 0 0 1 0 0] CT
-11.5 16 moveto 
1 -1 scale
(20) t 
GR
GR
GS
[1 0 0 1 290 376] CT
0.149 GC
/Helvetica 20 F
GS
[1 0 0 1 0 0] CT
-11.5 16 moveto 
1 -1 scale
(30) t 
GR
GR
GS
[1 0 0 1 362.33334 376] CT
0.149 GC
/Helvetica 20 F
GS
[1 0 0 1 0 0] CT
-11.5 16 moveto 
1 -1 scale
(40) t 
GR
GR
GS
[1 0 0 1 434.66666 376] CT
0.149 GC
/Helvetica 20 F
GS
[1 0 0 1 0 0] CT
-11.5 16 moveto 
1 -1 scale
(50) t 
GR
GR
GS
[1 0 0 1 507 376] CT
0.149 GC
/Helvetica 20 F
GS
[1 0 0 1 0 0] CT
-11.5 16 moveto 
1 -1 scale
(60) t 
GR
GR
GS
[1 0 0 1 290.00021 397.5] CT
0.149 GC
/Helvetica 22 F
GS
[1 0 0 1 0 0] CT
-40.5 17 moveto 
1 -1 scale
(Time \(s\)) t 
GR
GR
GS
0.149 GC
2 setlinecap
1 LJ
0.5 LW
N
73 370 M
73 31.5 L
S
GR
GS
0.149 GC
2 setlinecap
1 LJ
0.5 LW
N
73 370 M
77.34 370 L
S
GR
GS
0.149 GC
2 setlinecap
1 LJ
0.5 LW
N
73 313.583 M
77.34 313.583 L
S
GR
GS
0.149 GC
2 setlinecap
1 LJ
0.5 LW
N
73 257.167 M
77.34 257.167 L
S
GR
GS
0.149 GC
2 setlinecap
1 LJ
0.5 LW
N
73 200.75 M
77.34 200.75 L
S
GR
GS
0.149 GC
2 setlinecap
1 LJ
0.5 LW
N
73 144.333 M
77.34 144.333 L
S
GR
GS
0.149 GC
2 setlinecap
1 LJ
0.5 LW
N
73 87.917 M
77.34 87.917 L
S
GR
GS
0.149 GC
2 setlinecap
1 LJ
0.5 LW
N
73 31.5 M
77.34 31.5 L
S
GR
GS
0.149 GC
2 setlinecap
1 LJ
0.5 LW
N
73 353.017 M
75.17 353.017 L
S
GR
GS
0.149 GC
2 setlinecap
1 LJ
0.5 LW
N
73 343.082 M
75.17 343.082 L
S
GR
GS
0.149 GC
2 setlinecap
1 LJ
0.5 LW
N
73 336.034 M
75.17 336.034 L
S
GR
GS
0.149 GC
2 setlinecap
1 LJ
0.5 LW
N
73 330.566 M
75.17 330.566 L
S
GR
GS
0.149 GC
2 setlinecap
1 LJ
0.5 LW
N
73 326.099 M
75.17 326.099 L
S
GR
GS
0.149 GC
2 setlinecap
1 LJ
0.5 LW
N
73 322.322 M
75.17 322.322 L
S
GR
GS
0.149 GC
2 setlinecap
1 LJ
0.5 LW
N
73 319.051 M
75.17 319.051 L
S
GR
GS
0.149 GC
2 setlinecap
1 LJ
0.5 LW
N
73 316.165 M
75.17 316.165 L
S
GR
GS
0.149 GC
2 setlinecap
1 LJ
0.5 LW
N
73 296.6 M
75.17 296.6 L
S
GR
GS
0.149 GC
2 setlinecap
1 LJ
0.5 LW
N
73 286.666 M
75.17 286.666 L
S
GR
GS
0.149 GC
2 setlinecap
1 LJ
0.5 LW
N
73 279.617 M
75.17 279.617 L
S
GR
GS
0.149 GC
2 setlinecap
1 LJ
0.5 LW
N
73 274.15 M
75.17 274.15 L
S
GR
GS
0.149 GC
2 setlinecap
1 LJ
0.5 LW
N
73 269.683 M
75.17 269.683 L
S
GR
GS
0.149 GC
2 setlinecap
1 LJ
0.5 LW
N
73 265.906 M
75.17 265.906 L
S
GR
GS
0.149 GC
2 setlinecap
1 LJ
0.5 LW
N
73 262.634 M
75.17 262.634 L
S
GR
GS
0.149 GC
2 setlinecap
1 LJ
0.5 LW
N
73 259.748 M
75.17 259.748 L
S
GR
GS
0.149 GC
2 setlinecap
1 LJ
0.5 LW
N
73 240.184 M
75.17 240.184 L
S
GR
GS
0.149 GC
2 setlinecap
1 LJ
0.5 LW
N
73 230.249 M
75.17 230.249 L
S
GR
GS
0.149 GC
2 setlinecap
1 LJ
0.5 LW
N
73 223.2 M
75.17 223.2 L
S
GR
GS
0.149 GC
2 setlinecap
1 LJ
0.5 LW
N
73 217.733 M
75.17 217.733 L
S
GR
GS
0.149 GC
2 setlinecap
1 LJ
0.5 LW
N
73 213.266 M
75.17 213.266 L
S
GR
GS
0.149 GC
2 setlinecap
1 LJ
0.5 LW
N
73 209.489 M
75.17 209.489 L
S
GR
GS
0.149 GC
2 setlinecap
1 LJ
0.5 LW
N
73 206.217 M
75.17 206.217 L
S
GR
GS
0.149 GC
2 setlinecap
1 LJ
0.5 LW
N
73 203.331 M
75.17 203.331 L
S
GR
GS
0.149 GC
2 setlinecap
1 LJ
0.5 LW
N
73 183.767 M
75.17 183.767 L
S
GR
GS
0.149 GC
2 setlinecap
1 LJ
0.5 LW
N
73 173.832 M
75.17 173.832 L
S
GR
GS
0.149 GC
2 setlinecap
1 LJ
0.5 LW
N
73 166.784 M
75.17 166.784 L
S
GR
GS
0.149 GC
2 setlinecap
1 LJ
0.5 LW
N
73 161.316 M
75.17 161.316 L
S
GR
GS
0.149 GC
2 setlinecap
1 LJ
0.5 LW
N
73 156.849 M
75.17 156.849 L
S
GR
GS
0.149 GC
2 setlinecap
1 LJ
0.5 LW
N
73 153.072 M
75.17 153.072 L
S
GR
GS
0.149 GC
2 setlinecap
1 LJ
0.5 LW
N
73 149.801 M
75.17 149.801 L
S
GR
GS
0.149 GC
2 setlinecap
1 LJ
0.5 LW
N
73 146.915 M
75.17 146.915 L
S
GR
GS
0.149 GC
2 setlinecap
1 LJ
0.5 LW
N
73 127.35 M
75.17 127.35 L
S
GR
GS
0.149 GC
2 setlinecap
1 LJ
0.5 LW
N
73 117.416 M
75.17 117.416 L
S
GR
GS
0.149 GC
2 setlinecap
1 LJ
0.5 LW
N
73 110.367 M
75.17 110.367 L
S
GR
GS
0.149 GC
2 setlinecap
1 LJ
0.5 LW
N
73 104.9 M
75.17 104.9 L
S
GR
GS
0.149 GC
2 setlinecap
1 LJ
0.5 LW
N
73 100.433 M
75.17 100.433 L
S
GR
GS
0.149 GC
2 setlinecap
1 LJ
0.5 LW
N
73 96.656 M
75.17 96.656 L
S
GR
GS
0.149 GC
2 setlinecap
1 LJ
0.5 LW
N
73 93.384 M
75.17 93.384 L
S
GR
GS
0.149 GC
2 setlinecap
1 LJ
0.5 LW
N
73 90.498 M
75.17 90.498 L
S
GR
GS
0.149 GC
2 setlinecap
1 LJ
0.5 LW
N
73 70.934 M
75.17 70.934 L
S
GR
GS
0.149 GC
2 setlinecap
1 LJ
0.5 LW
N
73 60.999 M
75.17 60.999 L
S
GR
GS
0.149 GC
2 setlinecap
1 LJ
0.5 LW
N
73 53.95 M
75.17 53.95 L
S
GR
GS
0.149 GC
2 setlinecap
1 LJ
0.5 LW
N
73 48.483 M
75.17 48.483 L
S
GR
GS
0.149 GC
2 setlinecap
1 LJ
0.5 LW
N
73 44.016 M
75.17 44.016 L
S
GR
GS
0.149 GC
2 setlinecap
1 LJ
0.5 LW
N
73 40.239 M
75.17 40.239 L
S
GR
GS
0.149 GC
2 setlinecap
1 LJ
0.5 LW
N
73 36.967 M
75.17 36.967 L
S
GR
GS
0.149 GC
2 setlinecap
1 LJ
0.5 LW
N
73 34.081 M
75.17 34.081 L
S
GR
GS
[1 0 0 1 29 379] CT
0.149 GC
/Helvetica 20 F
GS
[1 0 0 1 0 0] CT
0 0 moveto 
1 -1 scale
(10) t 
GR
GR
GS
[1 0 0 1 52 369] CT
0.149 GC
/Helvetica 16 F
GS
[1 0 0 1 0 0] CT
0 0 moveto 
1 -1 scale
(-5) t 
GR
GR
GS
[1 0 0 1 29 323] CT
0.149 GC
/Helvetica 20 F
GS
[1 0 0 1 0 0] CT
0 0 moveto 
1 -1 scale
(10) t 
GR
GR
GS
[1 0 0 1 52 313] CT
0.149 GC
/Helvetica 16 F
GS
[1 0 0 1 0 0] CT
0 0 moveto 
1 -1 scale
(-4) t 
GR
GR
GS
[1 0 0 1 29 266] CT
0.149 GC
/Helvetica 20 F
GS
[1 0 0 1 0 0] CT
0 0 moveto 
1 -1 scale
(10) t 
GR
GR
GS
[1 0 0 1 52 256] CT
0.149 GC
/Helvetica 16 F
GS
[1 0 0 1 0 0] CT
0 0 moveto 
1 -1 scale
(-3) t 
GR
GR
GS
[1 0 0 1 29 210] CT
0.149 GC
/Helvetica 20 F
GS
[1 0 0 1 0 0] CT
0 0 moveto 
1 -1 scale
(10) t 
GR
GR
GS
[1 0 0 1 52 200] CT
0.149 GC
/Helvetica 16 F
GS
[1 0 0 1 0 0] CT
0 0 moveto 
1 -1 scale
(-2) t 
GR
GR
GS
[1 0 0 1 29 153] CT
0.149 GC
/Helvetica 20 F
GS
[1 0 0 1 0 0] CT
0 0 moveto 
1 -1 scale
(10) t 
GR
GR
GS
[1 0 0 1 52 143] CT
0.149 GC
/Helvetica 16 F
GS
[1 0 0 1 0 0] CT
0 0 moveto 
1 -1 scale
(-1) t 
GR
GR
GS
[1 0 0 1 35 97] CT
0.149 GC
/Helvetica 20 F
GS
[1 0 0 1 0 0] CT
0 0 moveto 
1 -1 scale
(10) t 
GR
GR
GS
[1 0 0 1 58 87] CT
0.149 GC
/Helvetica 16 F
GS
[1 0 0 1 0 0] CT
0 0 moveto 
1 -1 scale
(0) t 
GR
GR
GS
[1 0 0 1 35 41] CT
0.149 GC
/Helvetica 20 F
GS
[1 0 0 1 0 0] CT
0 0 moveto 
1 -1 scale
(10) t 
GR
GR
GS
[1 0 0 1 58 31] CT
0.149 GC
/Helvetica 16 F
GS
[1 0 0 1 0 0] CT
0 0 moveto 
1 -1 scale
(1) t 
GR
GR
GS
[0 -1 1 0 27 200.74983] CT
0.149 GC
/Helvetica 22 F
GS
[1 0 0 1 0 0] CT
-32 -6 moveto 
1 -1 scale
(Train RMSE) t 
GR
GR
GS
[1 0 0 1 290.00027 28.74999] CT
/Helvetica-Bold 22 F
GS
[1 0 0 1 0 0] CT
-203.5 -6 moveto 
1 -1 scale
( ) t 
GR
GR
GS
0 0.447 0.741 RC
1 LJ
2 LW
N
73 51.247 M
119.92 71.039 L
167.046 113.079 L
214.706 152.833 L
264.621 189.649 L
316.699 226.908 L
365.971 265.496 L
413.567 306.41 L
460.401 343.823 L
S
GR
GS
0.494 0.184 0.557 RC
1 LJ
2 LW
N
73 51.247 M
73.538 51.252 L
74.041 51.258 L
74.547 51.264 L
75.05 51.27 L
75.562 51.278 L
76.073 51.287 L
76.592 51.296 L
77.112 51.305 L
77.632 51.316 L
78.161 51.329 L
78.696 51.342 L
79.22 51.356 L
79.718 51.372 L
80.213 51.39 L
80.729 51.409 L
81.235 51.43 L
81.747 51.453 L
82.257 51.479 L
82.765 51.507 L
83.269 51.537 L
83.788 51.571 L
84.326 51.608 L
84.85 51.648 L
85.371 51.693 L
85.881 51.74 L
86.396 51.794 L
86.89 51.851 L
87.46 51.916 L
88.042 51.986 L
88.621 52.064 L
89.121 52.146 L
89.611 52.235 L
90.098 52.333 L
90.631 52.441 L
91.182 52.557 L
91.695 52.685 L
92.176 52.828 L
92.682 52.981 L
93.178 53.146 L
93.689 53.323 L
94.256 53.508 L
94.951 53.717 L
95.481 53.93 L
96.026 54.163 L
96.558 54.415 L
97.117 54.67 L
97.633 54.947 L
98.186 55.246 L
98.868 55.551 L
S
GR
GS
0.494 0.184 0.557 RC
1 LJ
2 LW
N
98.186 55.246 M
98.868 55.551 L
99.402 55.867 L
99.917 56.214 L
100.407 56.577 L
100.912 56.933 L
101.46 57.306 L
101.972 57.667 L
102.484 58.038 L
103.032 58.396 L
103.535 58.737 L
104.052 59.07 L
104.546 59.4 L
105.038 59.721 L
105.539 60.012 L
106.081 60.297 L
106.582 60.568 L
107.064 60.86 L
107.556 61.159 L
108.071 61.494 L
108.596 61.885 L
109.127 62.349 L
109.655 62.897 L
110.154 63.54 L
110.743 64.303 L
111.286 65.16 L
111.776 66.172 L
112.277 67.304 L
112.838 68.703 L
113.369 70.257 L
113.872 71.905 L
114.359 73.899 L
114.847 76.118 L
115.328 78.599 L
115.833 81.291 L
116.325 83.993 L
116.826 86.28 L
117.425 87.652 L
117.941 88.112 L
118.456 86.912 L
118.962 92.531 L
119.443 97.559 L
119.941 101.847 L
120.439 105.517 L
120.922 108.502 L
121.413 110.568 L
121.917 111.416 L
122.418 110.797 L
122.931 117.134 L
123.444 122.43 L
123.973 127.084 L
124.486 130.855 L
S
GR
GS
0.494 0.184 0.557 RC
1 LJ
2 LW
N
123.973 127.084 M
124.486 130.855 L
124.995 133.862 L
125.497 136.33 L
126.001 137.252 L
126.494 136.707 L
127.002 142.748 L
127.53 147.826 L
128.053 152.444 L
128.545 156.483 L
129.053 160.119 L
129.552 162.725 L
130.071 164.144 L
130.564 164.317 L
131.085 163.171 L
131.597 169.229 L
132.114 174.516 L
132.628 179.026 L
133.145 182.619 L
133.648 185.744 L
134.155 187.464 L
134.668 187.592 L
135.166 185.976 L
135.643 191.804 L
136.136 197.045 L
136.647 201.703 L
137.154 205.635 L
137.636 208.73 L
138.124 210.473 L
138.639 210.952 L
139.154 210.453 L
139.663 216.408 L
140.159 221.47 L
140.672 226.119 L
141.187 230.223 L
141.715 233.377 L
142.238 235.689 L
142.732 237.345 L
143.218 237.1 L
143.705 242.919 L
144.181 248.102 L
144.671 252.875 L
145.182 257.171 L
145.695 260.689 L
146.198 263.303 L
146.696 264.88 L
147.203 264.524 L
147.717 270.44 L
148.219 275.588 L
148.721 280.183 L
149.217 284.011 L
149.691 287.845 L
S
GR
GS
0.494 0.184 0.557 RC
1 LJ
2 LW
N
149.217 284.011 M
149.691 287.845 L
150.186 290.593 L
150.7 292.233 L
151.209 291.736 L
151.717 297.324 L
152.346 302.209 L
153.017 306.847 L
153.669 310.76 L
154.286 314.276 L
S
GR
GS
0.929 0.694 0.125 RC
1 LJ
2 LW
N
73 51.247 M
73.933 51.252 L
74.727 51.257 L
75.462 51.263 L
76.208 51.27 L
76.931 51.278 L
77.657 51.286 L
78.372 51.295 L
79.096 51.305 L
79.805 51.315 L
80.547 51.327 L
81.284 51.34 L
82.015 51.355 L
82.768 51.37 L
83.524 51.388 L
84.279 51.407 L
85.017 51.428 L
85.727 51.451 L
86.452 51.476 L
87.163 51.504 L
87.88 51.534 L
88.743 51.568 L
89.484 51.604 L
90.199 51.644 L
90.913 51.688 L
91.659 51.737 L
92.4 51.791 L
93.144 51.848 L
93.889 51.912 L
94.655 51.981 L
95.408 52.056 L
96.131 52.139 L
96.867 52.23 L
97.616 52.326 L
98.359 52.434 L
99.099 52.551 L
99.839 52.678 L
100.614 52.815 L
101.355 52.967 L
102.074 53.131 L
102.788 53.305 L
103.526 53.494 L
104.262 53.692 L
104.969 53.911 L
105.685 54.145 L
106.411 54.394 L
107.127 54.665 L
107.865 54.949 L
108.58 55.242 L
109.335 55.553 L
S
GR
GS
0.929 0.694 0.125 RC
1 LJ
2 LW
N
108.58 55.242 M
109.335 55.553 L
110.094 55.884 L
110.857 56.225 L
111.62 56.58 L
112.384 56.941 L
113.148 57.309 L
113.884 57.681 L
114.615 58.047 L
115.377 58.414 L
116.091 58.767 L
116.803 59.118 L
117.515 59.45 L
118.261 59.78 L
118.973 60.097 L
119.7 60.413 L
120.428 60.725 L
121.203 61.055 L
121.937 61.415 L
122.653 61.848 L
123.38 62.34 L
124.13 62.946 L
124.88 63.683 L
125.622 64.583 L
126.344 65.616 L
127.068 66.791 L
127.789 68.138 L
128.512 69.725 L
129.282 71.494 L
130.045 73.512 L
130.784 75.969 L
131.501 79.001 L
132.239 82.761 L
133.011 87.187 L
133.723 92.215 L
134.431 97.56 L
135.166 103.098 L
135.876 108.689 L
136.625 114.098 L
137.362 119.023 L
138.102 122.936 L
138.813 125.201 L
139.526 124.884 L
140.255 135.744 L
140.987 143.913 L
141.738 151.042 L
142.491 157.496 L
143.225 162.909 L
143.989 167.177 L
144.739 169.673 L
145.487 170.465 L
146.233 168.413 L
S
GR
GS
0.929 0.694 0.125 RC
1 LJ
2 LW
N
145.487 170.465 M
146.233 168.413 L
146.97 178.914 L
147.715 186.743 L
148.463 193.411 L
149.197 200.012 L
149.966 204.749 L
150.706 206.962 L
151.459 207.255 L
152.266 207.283 L
153.028 203.441 L
153.778 214.056 L
154.508 222.469 L
155.218 230.063 L
155.967 235.975 L
156.711 239.624 L
157.476 242.019 L
158.3 241.292 L
159.041 252.242 L
159.819 261.399 L
160.557 268.98 L
161.295 275.569 L
162.073 280.083 L
162.801 282.932 L
163.521 285.514 L
164.25 284.06 L
164.98 295.064 L
165.733 304.001 L
166.53 311.309 L
167.318 317.738 L
S
GR
GS
0.851 0.325 0.098 RC
1 LJ
2 LW
N
73 51.247 M
75.832 51.25 L
78.62 51.255 L
81.954 51.259 L
85.29 51.264 L
88.21 51.269 L
91.123 51.275 L
94.048 51.281 L
96.965 51.288 L
99.872 51.296 L
102.768 51.305 L
105.649 51.314 L
108.502 51.325 L
111.372 51.336 L
114.155 51.348 L
116.92 51.362 L
119.762 51.377 L
122.584 51.394 L
125.492 51.412 L
128.259 51.432 L
130.976 51.454 L
133.737 51.478 L
136.558 51.505 L
139.315 51.534 L
142.163 51.566 L
144.96 51.601 L
147.661 51.64 L
150.51 51.681 L
153.325 51.728 L
156.206 51.778 L
159.104 51.833 L
161.977 51.894 L
164.88 51.961 L
167.679 52.034 L
170.557 52.114 L
173.361 52.201 L
176.13 52.296 L
178.944 52.399 L
181.877 52.511 L
185.241 52.634 L
188.413 52.767 L
191.325 52.913 L
194.24 53.069 L
197.204 53.239 L
200.013 53.422 L
202.954 53.62 L
205.897 53.833 L
208.789 54.063 L
211.767 54.307 L
214.612 54.568 L
S
GR
GS
0.851 0.325 0.098 RC
1 LJ
2 LW
N
211.767 54.307 M
214.612 54.568 L
217.443 54.848 L
220.25 55.139 L
223.256 55.447 L
226.075 55.771 L
228.829 56.11 L
231.615 56.463 L
234.412 56.826 L
237.133 57.193 L
240.005 57.571 L
242.957 57.944 L
245.874 58.321 L
248.724 58.692 L
251.979 59.049 L
254.656 59.397 L
257.429 59.736 L
260.151 60.073 L
262.81 60.402 L
265.416 60.736 L
268.043 61.079 L
270.748 61.462 L
273.407 61.908 L
276.082 62.44 L
278.71 63.091 L
281.404 63.896 L
284.082 64.882 L
286.67 66.056 L
289.341 67.454 L
292.011 69.078 L
294.668 70.933 L
297.363 73.122 L
300.041 75.657 L
302.69 78.707 L
305.31 82.498 L
307.876 87.117 L
310.497 92.562 L
313.202 98.657 L
315.837 105.228 L
318.502 112.232 L
321.143 119.6 L
323.791 127.225 L
326.426 135.225 L
329.049 143.7 L
331.764 152.51 L
334.445 161.488 L
337.092 170.242 L
339.707 177.349 L
342.341 177.823 L
344.928 168.244 L
347.578 187.526 L
350.252 200.692 L
S
GR
GS
0.851 0.325 0.098 RC
1 LJ
2 LW
N
347.578 187.526 M
350.252 200.692 L
352.896 209.417 L
355.547 213.25 L
358.109 212.402 L
360.725 240.162 L
363.388 250.467 L
365.99 257.183 L
368.616 263.206 L
371.259 269.226 L
373.842 275.538 L
376.497 282.325 L
379.19 289.481 L
381.833 296.33 L
384.531 301.591 L
387.195 300.56 L
389.965 318.104 L
S
GR
GS
[1 0 0 1 355 52.75] CT
/Helvetica 18 F
GS
[1 0 0 1 0 0] CT
0 4.5 moveto 
1 -1 scale
(Random shuffling) t 
GR
GR
GS
0 0.447 0.741 RC
1 LJ
2 LW
N
322 52.75 M
352 52.75 L
S
GR
GS
[1 0 0 1 355 71.75] CT
/Helvetica 18 F
GS
[1 0 0 1 0 0] CT
0 4.5 moveto 
1 -1 scale
(Batch-size = N) t 
GR
GR
GS
0.851 0.325 0.098 RC
1 LJ
2 LW
N
322 71.75 M
352 71.75 L
S
GR
GS
[1 0 0 1 355 90.75] CT
/Helvetica 18 F
GS
[1 0 0 1 0 0] CT
0 4.5 moveto 
1 -1 scale
(Batch-size = N/5) t 
GR
GR
GS
0.929 0.694 0.125 RC
1 LJ
2 LW
N
322 90.75 M
352 90.75 L
S
GR
GS
[1 0 0 1 355 109.75] CT
/Helvetica 18 F
GS
[1 0 0 1 0 0] CT
0 4.5 moveto 
1 -1 scale
(Batch-size = N/10) t 
GR
GR
GS
0.494 0.184 0.557 RC
1 LJ
2 LW
N
322 109.75 M
352 109.75 L
S
GR
%%Trailer
%%Pages: 1
%%EOF
