%!PS-Adobe-3.0 EPSF-3.0
%%Creator: (MATLAB, The Mathworks, Inc. Version 8.6.0.267246 \(R2015b\). Operating System: Mac OS X)
%%Title: /Users/gauthiermuguerza/Desktop/rsgd/report/images/moviesRank.eps
%%CreationDate: 2018-06-06T09:11:13
%%Pages: (atend)
%%BoundingBox: 0 0 560 420
%%LanguageLevel: 2
%%EndComments
%%BeginProlog
%%BeginResource: procset (Apache XML Graphics Std ProcSet) 1.2 0
%%Version: 1.2 0
%%Copyright: (Copyright 2001-2003,2010 The Apache Software Foundation. License terms: http://www.apache.org/licenses/LICENSE-2.0)
/bd{bind def}bind def
/ld{load def}bd
/GR/grestore ld
/M/moveto ld
/LJ/setlinejoin ld
/C/curveto ld
/f/fill ld
/LW/setlinewidth ld
/GC/setgray ld
/t/show ld
/N/newpath ld
/CT/concat ld
/cp/closepath ld
/S/stroke ld
/L/lineto ld
/CC/setcmykcolor ld
/A/ashow ld
/GS/gsave ld
/RC/setrgbcolor ld
/RM/rmoveto ld
/ML/setmiterlimit ld
/re {4 2 roll M
1 index 0 rlineto
0 exch rlineto
neg 0 rlineto
cp } bd
/_ctm matrix def
/_tm matrix def
/BT { _ctm currentmatrix pop matrix _tm copy pop 0 0 moveto } bd
/ET { _ctm setmatrix } bd
/iTm { _ctm setmatrix _tm concat } bd
/Tm { _tm astore pop iTm 0 0 moveto } bd
/ux 0.0 def
/uy 0.0 def
/F {
  /Tp exch def
  /Tf exch def
  Tf findfont Tp scalefont setfont
  /cf Tf def  /cs Tp def
} bd
/ULS {currentpoint /uy exch def /ux exch def} bd
/ULE {
  /Tcx currentpoint pop def
  gsave
  newpath
  cf findfont cs scalefont dup
  /FontMatrix get 0 get /Ts exch def /FontInfo get dup
  /UnderlinePosition get Ts mul /To exch def
  /UnderlineThickness get Ts mul /Tt exch def
  ux uy To add moveto  Tcx uy To add lineto
  Tt setlinewidth stroke
  grestore
} bd
/OLE {
  /Tcx currentpoint pop def
  gsave
  newpath
  cf findfont cs scalefont dup
  /FontMatrix get 0 get /Ts exch def /FontInfo get dup
  /UnderlinePosition get Ts mul /To exch def
  /UnderlineThickness get Ts mul /Tt exch def
  ux uy To add cs add moveto Tcx uy To add cs add lineto
  Tt setlinewidth stroke
  grestore
} bd
/SOE {
  /Tcx currentpoint pop def
  gsave
  newpath
  cf findfont cs scalefont dup
  /FontMatrix get 0 get /Ts exch def /FontInfo get dup
  /UnderlinePosition get Ts mul /To exch def
  /UnderlineThickness get Ts mul /Tt exch def
  ux uy To add cs 10 mul 26 idiv add moveto Tcx uy To add cs 10 mul 26 idiv add lineto
  Tt setlinewidth stroke
  grestore
} bd
/QT {
/Y22 exch store
/X22 exch store
/Y21 exch store
/X21 exch store
currentpoint
/Y21 load 2 mul add 3 div exch
/X21 load 2 mul add 3 div exch
/X21 load 2 mul /X22 load add 3 div
/Y21 load 2 mul /Y22 load add 3 div
/X22 load /Y22 load curveto
} bd
/SSPD {
dup length /d exch dict def
{
/v exch def
/k exch def
currentpagedevice k known {
/cpdv currentpagedevice k get def
v cpdv ne {
/upd false def
/nullv v type /nulltype eq def
/nullcpdv cpdv type /nulltype eq def
nullv nullcpdv or
{
/upd true def
} {
/sametype v type cpdv type eq def
sametype {
v type /arraytype eq {
/vlen v length def
/cpdvlen cpdv length def
vlen cpdvlen eq {
0 1 vlen 1 sub {
/i exch def
/obj v i get def
/cpdobj cpdv i get def
obj cpdobj ne {
/upd true def
exit
} if
} for
} {
/upd true def
} ifelse
} {
v type /dicttype eq {
v {
/dv exch def
/dk exch def
/cpddv cpdv dk get def
dv cpddv ne {
/upd true def
exit
} if
} forall
} {
/upd true def
} ifelse
} ifelse
} if
} ifelse
upd true eq {
d k v put
} if
} if
} if
} forall
d length 0 gt {
d setpagedevice
} if
} bd
%%EndResource
%%BeginResource: procset (Apache XML Graphics EPS ProcSet) 1.0 0
%%Version: 1.0 0
%%Copyright: (Copyright 2002-2003 The Apache Software Foundation. License terms: http://www.apache.org/licenses/LICENSE-2.0)
/BeginEPSF { %def
/b4_Inc_state save def         % Save state for cleanup
/dict_count countdictstack def % Count objects on dict stack
/op_count count 1 sub def      % Count objects on operand stack
userdict begin                 % Push userdict on dict stack
/showpage { } def              % Redefine showpage, { } = null proc
0 setgray 0 setlinecap         % Prepare graphics state
1 setlinewidth 0 setlinejoin
10 setmiterlimit [ ] 0 setdash newpath
/languagelevel where           % If level not equal to 1 then
{pop languagelevel             % set strokeadjust and
1 ne                           % overprint to their defaults.
{false setstrokeadjust false setoverprint
} if
} if
} bd
/EndEPSF { %def
count op_count sub {pop} repeat            % Clean up stacks
countdictstack dict_count sub {end} repeat
b4_Inc_state restore
} bd
%%EndResource
%FOPBeginFontDict
%%IncludeResource: font Courier-Bold
%%IncludeResource: font Helvetica
%%IncludeResource: font Courier-BoldOblique
%%IncludeResource: font Courier-Oblique
%%IncludeResource: font Times-Roman
%%IncludeResource: font Helvetica-BoldOblique
%%IncludeResource: font Helvetica-Bold
%%IncludeResource: font Helvetica-Oblique
%%IncludeResource: font Times-BoldItalic
%%IncludeResource: font Courier
%%IncludeResource: font Times-Italic
%%IncludeResource: font Times-Bold
%%IncludeResource: font Symbol
%%IncludeResource: font ZapfDingbats
%FOPEndFontDict
%%BeginResource: encoding WinAnsiEncoding
/WinAnsiEncoding [
/.notdef /.notdef /.notdef /.notdef /.notdef
/.notdef /.notdef /.notdef /.notdef /.notdef
/.notdef /.notdef /.notdef /.notdef /.notdef
/.notdef /.notdef /.notdef /.notdef /.notdef
/.notdef /.notdef /.notdef /.notdef /.notdef
/.notdef /.notdef /.notdef /.notdef /.notdef
/.notdef /.notdef /space /exclam /quotedbl
/numbersign /dollar /percent /ampersand /quotesingle
/parenleft /parenright /asterisk /plus /comma
/hyphen /period /slash /zero /one
/two /three /four /five /six
/seven /eight /nine /colon /semicolon
/less /equal /greater /question /at
/A /B /C /D /E
/F /G /H /I /J
/K /L /M /N /O
/P /Q /R /S /T
/U /V /W /X /Y
/Z /bracketleft /backslash /bracketright /asciicircum
/underscore /quoteleft /a /b /c
/d /e /f /g /h
/i /j /k /l /m
/n /o /p /q /r
/s /t /u /v /w
/x /y /z /braceleft /bar
/braceright /asciitilde /bullet /Euro /bullet
/quotesinglbase /florin /quotedblbase /ellipsis /dagger
/daggerdbl /circumflex /perthousand /Scaron /guilsinglleft
/OE /bullet /Zcaron /bullet /bullet
/quoteleft /quoteright /quotedblleft /quotedblright /bullet
/endash /emdash /asciitilde /trademark /scaron
/guilsinglright /oe /bullet /zcaron /Ydieresis
/space /exclamdown /cent /sterling /currency
/yen /brokenbar /section /dieresis /copyright
/ordfeminine /guillemotleft /logicalnot /sfthyphen /registered
/macron /degree /plusminus /twosuperior /threesuperior
/acute /mu /paragraph /middot /cedilla
/onesuperior /ordmasculine /guillemotright /onequarter /onehalf
/threequarters /questiondown /Agrave /Aacute /Acircumflex
/Atilde /Adieresis /Aring /AE /Ccedilla
/Egrave /Eacute /Ecircumflex /Edieresis /Igrave
/Iacute /Icircumflex /Idieresis /Eth /Ntilde
/Ograve /Oacute /Ocircumflex /Otilde /Odieresis
/multiply /Oslash /Ugrave /Uacute /Ucircumflex
/Udieresis /Yacute /Thorn /germandbls /agrave
/aacute /acircumflex /atilde /adieresis /aring
/ae /ccedilla /egrave /eacute /ecircumflex
/edieresis /igrave /iacute /icircumflex /idieresis
/eth /ntilde /ograve /oacute /ocircumflex
/otilde /odieresis /divide /oslash /ugrave
/uacute /ucircumflex /udieresis /yacute /thorn
/ydieresis
] def
%%EndResource
%FOPBeginFontReencode
/Courier-Bold findfont
dup length dict begin
  {1 index /FID ne {def} {pop pop} ifelse} forall
  /Encoding WinAnsiEncoding def
  currentdict
end
/Courier-Bold exch definefont pop
/Helvetica findfont
dup length dict begin
  {1 index /FID ne {def} {pop pop} ifelse} forall
  /Encoding WinAnsiEncoding def
  currentdict
end
/Helvetica exch definefont pop
/Courier-BoldOblique findfont
dup length dict begin
  {1 index /FID ne {def} {pop pop} ifelse} forall
  /Encoding WinAnsiEncoding def
  currentdict
end
/Courier-BoldOblique exch definefont pop
/Courier-Oblique findfont
dup length dict begin
  {1 index /FID ne {def} {pop pop} ifelse} forall
  /Encoding WinAnsiEncoding def
  currentdict
end
/Courier-Oblique exch definefont pop
/Times-Roman findfont
dup length dict begin
  {1 index /FID ne {def} {pop pop} ifelse} forall
  /Encoding WinAnsiEncoding def
  currentdict
end
/Times-Roman exch definefont pop
/Helvetica-BoldOblique findfont
dup length dict begin
  {1 index /FID ne {def} {pop pop} ifelse} forall
  /Encoding WinAnsiEncoding def
  currentdict
end
/Helvetica-BoldOblique exch definefont pop
/Helvetica-Bold findfont
dup length dict begin
  {1 index /FID ne {def} {pop pop} ifelse} forall
  /Encoding WinAnsiEncoding def
  currentdict
end
/Helvetica-Bold exch definefont pop
/Helvetica-Oblique findfont
dup length dict begin
  {1 index /FID ne {def} {pop pop} ifelse} forall
  /Encoding WinAnsiEncoding def
  currentdict
end
/Helvetica-Oblique exch definefont pop
/Times-BoldItalic findfont
dup length dict begin
  {1 index /FID ne {def} {pop pop} ifelse} forall
  /Encoding WinAnsiEncoding def
  currentdict
end
/Times-BoldItalic exch definefont pop
/Courier findfont
dup length dict begin
  {1 index /FID ne {def} {pop pop} ifelse} forall
  /Encoding WinAnsiEncoding def
  currentdict
end
/Courier exch definefont pop
/Times-Italic findfont
dup length dict begin
  {1 index /FID ne {def} {pop pop} ifelse} forall
  /Encoding WinAnsiEncoding def
  currentdict
end
/Times-Italic exch definefont pop
/Times-Bold findfont
dup length dict begin
  {1 index /FID ne {def} {pop pop} ifelse} forall
  /Encoding WinAnsiEncoding def
  currentdict
end
/Times-Bold exch definefont pop
%FOPEndFontReencode
%%EndProlog
%%Page: 1 1
%%PageBoundingBox: 0 0 560 420
%%BeginPageSetup
[1 0 0 -1 0 420] CT
%%EndPageSetup
GS
1 GC
N
0 0 560 420 re
f
GR
GS
1 GC
N
0 0 560 420 re
f
GR
GS
1 GC
N
73 370 M
507 370 L
507 31.5 L
73 31.5 L
cp
f
GR
GS
0.149 GC
2 setlinecap
1 LJ
0.5 LW
N
73 370 M
507 370 L
S
GR
GS
0.149 GC
2 setlinecap
1 LJ
0.5 LW
N
73 370 M
73 365.66 L
S
GR
GS
0.149 GC
2 setlinecap
1 LJ
0.5 LW
N
217.667 370 M
217.667 365.66 L
S
GR
GS
0.149 GC
2 setlinecap
1 LJ
0.5 LW
N
362.333 370 M
362.333 365.66 L
S
GR
GS
0.149 GC
2 setlinecap
1 LJ
0.5 LW
N
507 370 M
507 365.66 L
S
GR
GS
[1 0 0 1 73 376] CT
0.149 GC
/Helvetica 20 F
GS
[1 0 0 1 0 0] CT
-6 16 moveto 
1 -1 scale
(0) t 
GR
GR
GS
[1 0 0 1 217.66667 376] CT
0.149 GC
/Helvetica 20 F
GS
[1 0 0 1 0 0] CT
-6 16 moveto 
1 -1 scale
(5) t 
GR
GR
GS
[1 0 0 1 362.33334 376] CT
0.149 GC
/Helvetica 20 F
GS
[1 0 0 1 0 0] CT
-11.5 16 moveto 
1 -1 scale
(10) t 
GR
GR
GS
[1 0 0 1 507 376] CT
0.149 GC
/Helvetica 20 F
GS
[1 0 0 1 0 0] CT
-11.5 16 moveto 
1 -1 scale
(15) t 
GR
GR
GS
[1 0 0 1 290.00021 397.5] CT
0.149 GC
/Helvetica 22 F
GS
[1 0 0 1 0 0] CT
-31.5 17 moveto 
1 -1 scale
(Ranks) t 
GR
GR
GS
0.149 GC
2 setlinecap
1 LJ
0.5 LW
N
73 370 M
73 31.5 L
S
GR
GS
0.149 GC
2 setlinecap
1 LJ
0.5 LW
N
73 370 M
77.34 370 L
S
GR
GS
0.149 GC
2 setlinecap
1 LJ
0.5 LW
N
73 332.389 M
77.34 332.389 L
S
GR
GS
0.149 GC
2 setlinecap
1 LJ
0.5 LW
N
73 294.778 M
77.34 294.778 L
S
GR
GS
0.149 GC
2 setlinecap
1 LJ
0.5 LW
N
73 257.167 M
77.34 257.167 L
S
GR
GS
0.149 GC
2 setlinecap
1 LJ
0.5 LW
N
73 219.556 M
77.34 219.556 L
S
GR
GS
0.149 GC
2 setlinecap
1 LJ
0.5 LW
N
73 181.944 M
77.34 181.944 L
S
GR
GS
0.149 GC
2 setlinecap
1 LJ
0.5 LW
N
73 144.333 M
77.34 144.333 L
S
GR
GS
0.149 GC
2 setlinecap
1 LJ
0.5 LW
N
73 106.722 M
77.34 106.722 L
S
GR
GS
0.149 GC
2 setlinecap
1 LJ
0.5 LW
N
73 69.111 M
77.34 69.111 L
S
GR
GS
0.149 GC
2 setlinecap
1 LJ
0.5 LW
N
73 31.5 M
77.34 31.5 L
S
GR
GS
[1 0 0 1 67 370] CT
0.149 GC
/Helvetica 20 F
GS
[1 0 0 1 0 0] CT
-28 5.5 moveto 
1 -1 scale
(0.2) t 
GR
GR
GS
[1 0 0 1 67 332.38889] CT
0.149 GC
/Helvetica 20 F
GS
[1 0 0 1 0 0] CT
-28 5.5 moveto 
1 -1 scale
(0.4) t 
GR
GR
GS
[1 0 0 1 67 294.77777] CT
0.149 GC
/Helvetica 20 F
GS
[1 0 0 1 0 0] CT
-28 5.5 moveto 
1 -1 scale
(0.6) t 
GR
GR
GS
[1 0 0 1 67 257.16666] CT
0.149 GC
/Helvetica 20 F
GS
[1 0 0 1 0 0] CT
-28 5.5 moveto 
1 -1 scale
(0.8) t 
GR
GR
GS
[1 0 0 1 67 219.55556] CT
0.149 GC
/Helvetica 20 F
GS
[1 0 0 1 0 0] CT
-12 5.5 moveto 
1 -1 scale
(1) t 
GR
GR
GS
[1 0 0 1 67 181.94444] CT
0.149 GC
/Helvetica 20 F
GS
[1 0 0 1 0 0] CT
-28 5.5 moveto 
1 -1 scale
(1.2) t 
GR
GR
GS
[1 0 0 1 67 144.33334] CT
0.149 GC
/Helvetica 20 F
GS
[1 0 0 1 0 0] CT
-28 5.5 moveto 
1 -1 scale
(1.4) t 
GR
GR
GS
[1 0 0 1 67 106.72222] CT
0.149 GC
/Helvetica 20 F
GS
[1 0 0 1 0 0] CT
-28 5.5 moveto 
1 -1 scale
(1.6) t 
GR
GR
GS
[1 0 0 1 67 69.11112] CT
0.149 GC
/Helvetica 20 F
GS
[1 0 0 1 0 0] CT
-28 5.5 moveto 
1 -1 scale
(1.8) t 
GR
GR
GS
[1 0 0 1 67 31.5] CT
0.149 GC
/Helvetica 20 F
GS
[1 0 0 1 0 0] CT
-12 5.5 moveto 
1 -1 scale
(2) t 
GR
GR
GS
[0 -1 1 0 36 200.74983] CT
0.149 GC
/Helvetica 22 F
GS
[1 0 0 1 0 0] CT
-32 -6 moveto 
1 -1 scale
(RMSE) t 
GR
GR
GS
0 0.447 0.741 RC
1 LJ
N
101.933 260.318 M
130.867 268.808 L
159.8 275.572 L
188.733 282.021 L
217.667 291.596 L
246.6 300.611 L
275.533 305.756 L
304.467 312.535 L
333.4 318.25 L
362.333 322.256 L
391.267 329.895 L
420.2 334.828 L
449.133 340.074 L
478.067 341.941 L
507 345.01 L
S
GR
GS
0 0.447 0.741 RC
1 LJ
N
104.5 260.5 M
103.621 258.379 L
101.5 257.5 L
99.379 258.379 L
98.5 260.5 L
99.379 262.621 L
101.5 263.5 L
103.621 262.621 L
cp
S
GR
GS
0 0.447 0.741 RC
1 LJ
N
133.5 268.5 M
132.621 266.379 L
130.5 265.5 L
128.379 266.379 L
127.5 268.5 L
128.379 270.621 L
130.5 271.5 L
132.621 270.621 L
cp
S
GR
GS
0 0.447 0.741 RC
1 LJ
N
162.5 275.5 M
161.621 273.379 L
159.5 272.5 L
157.379 273.379 L
156.5 275.5 L
157.379 277.621 L
159.5 278.5 L
161.621 277.621 L
cp
S
GR
GS
0 0.447 0.741 RC
1 LJ
N
191.5 282.5 M
190.621 280.379 L
188.5 279.5 L
186.379 280.379 L
185.5 282.5 L
186.379 284.621 L
188.5 285.5 L
190.621 284.621 L
cp
S
GR
GS
0 0.447 0.741 RC
1 LJ
N
220.5 291.5 M
219.621 289.379 L
217.5 288.5 L
215.379 289.379 L
214.5 291.5 L
215.379 293.621 L
217.5 294.5 L
219.621 293.621 L
cp
S
GR
GS
0 0.447 0.741 RC
1 LJ
N
249.5 300.5 M
248.621 298.379 L
246.5 297.5 L
244.379 298.379 L
243.5 300.5 L
244.379 302.621 L
246.5 303.5 L
248.621 302.621 L
cp
S
GR
GS
0 0.447 0.741 RC
1 LJ
N
278.5 305.5 M
277.621 303.379 L
275.5 302.5 L
273.379 303.379 L
272.5 305.5 L
273.379 307.621 L
275.5 308.5 L
277.621 307.621 L
cp
S
GR
GS
0 0.447 0.741 RC
1 LJ
N
307.5 312.5 M
306.621 310.379 L
304.5 309.5 L
302.379 310.379 L
301.5 312.5 L
302.379 314.621 L
304.5 315.5 L
306.621 314.621 L
cp
S
GR
GS
0 0.447 0.741 RC
1 LJ
N
336.5 318.5 M
335.621 316.379 L
333.5 315.5 L
331.379 316.379 L
330.5 318.5 L
331.379 320.621 L
333.5 321.5 L
335.621 320.621 L
cp
S
GR
GS
0 0.447 0.741 RC
1 LJ
N
365.5 322.5 M
364.621 320.379 L
362.5 319.5 L
360.379 320.379 L
359.5 322.5 L
360.379 324.621 L
362.5 325.5 L
364.621 324.621 L
cp
S
GR
GS
0 0.447 0.741 RC
1 LJ
N
394.5 329.5 M
393.621 327.379 L
391.5 326.5 L
389.379 327.379 L
388.5 329.5 L
389.379 331.621 L
391.5 332.5 L
393.621 331.621 L
cp
S
GR
GS
0 0.447 0.741 RC
1 LJ
N
423.5 334.5 M
422.621 332.379 L
420.5 331.5 L
418.379 332.379 L
417.5 334.5 L
418.379 336.621 L
420.5 337.5 L
422.621 336.621 L
cp
S
GR
GS
0 0.447 0.741 RC
1 LJ
N
452.5 340.5 M
451.621 338.379 L
449.5 337.5 L
447.379 338.379 L
446.5 340.5 L
447.379 342.621 L
449.5 343.5 L
451.621 342.621 L
cp
S
GR
GS
0 0.447 0.741 RC
1 LJ
N
481.5 341.5 M
480.621 339.379 L
478.5 338.5 L
476.379 339.379 L
475.5 341.5 L
476.379 343.621 L
478.5 344.5 L
480.621 343.621 L
cp
S
GR
GS
0 0.447 0.741 RC
1 LJ
N
510.5 345.5 M
509.621 343.379 L
507.5 342.5 L
505.379 343.379 L
504.5 345.5 L
505.379 347.621 L
507.5 348.5 L
509.621 347.621 L
cp
S
GR
GS
0.851 0.325 0.098 RC
1 LJ
N
101.933 107.39 M
130.867 108.15 L
159.8 111.099 L
188.733 107.906 L
217.667 104.907 L
246.6 102.761 L
275.533 96.897 L
304.467 91.357 L
333.4 85.623 L
362.333 79.893 L
391.267 72.349 L
420.2 66.803 L
449.133 58.892 L
478.067 51.37 L
507 46.304 L
S
GR
GS
0.851 0.325 0.098 RC
1 LJ
N
104.5 107.5 M
103.621 105.379 L
101.5 104.5 L
99.379 105.379 L
98.5 107.5 L
99.379 109.621 L
101.5 110.5 L
103.621 109.621 L
cp
S
GR
GS
0.851 0.325 0.098 RC
1 LJ
N
133.5 108.5 M
132.621 106.379 L
130.5 105.5 L
128.379 106.379 L
127.5 108.5 L
128.379 110.621 L
130.5 111.5 L
132.621 110.621 L
cp
S
GR
GS
0.851 0.325 0.098 RC
1 LJ
N
162.5 111.5 M
161.621 109.379 L
159.5 108.5 L
157.379 109.379 L
156.5 111.5 L
157.379 113.621 L
159.5 114.5 L
161.621 113.621 L
cp
S
GR
GS
0.851 0.325 0.098 RC
1 LJ
N
191.5 107.5 M
190.621 105.379 L
188.5 104.5 L
186.379 105.379 L
185.5 107.5 L
186.379 109.621 L
188.5 110.5 L
190.621 109.621 L
cp
S
GR
GS
0.851 0.325 0.098 RC
1 LJ
N
220.5 104.5 M
219.621 102.379 L
217.5 101.5 L
215.379 102.379 L
214.5 104.5 L
215.379 106.621 L
217.5 107.5 L
219.621 106.621 L
cp
S
GR
GS
0.851 0.325 0.098 RC
1 LJ
N
249.5 102.5 M
248.621 100.379 L
246.5 99.5 L
244.379 100.379 L
243.5 102.5 L
244.379 104.621 L
246.5 105.5 L
248.621 104.621 L
cp
S
GR
GS
0.851 0.325 0.098 RC
1 LJ
N
278.5 96.5 M
277.621 94.379 L
275.5 93.5 L
273.379 94.379 L
272.5 96.5 L
273.379 98.621 L
275.5 99.5 L
277.621 98.621 L
cp
S
GR
GS
0.851 0.325 0.098 RC
1 LJ
N
307.5 91.5 M
306.621 89.379 L
304.5 88.5 L
302.379 89.379 L
301.5 91.5 L
302.379 93.621 L
304.5 94.5 L
306.621 93.621 L
cp
S
GR
GS
0.851 0.325 0.098 RC
1 LJ
N
336.5 85.5 M
335.621 83.379 L
333.5 82.5 L
331.379 83.379 L
330.5 85.5 L
331.379 87.621 L
333.5 88.5 L
335.621 87.621 L
cp
S
GR
GS
0.851 0.325 0.098 RC
1 LJ
N
365.5 79.5 M
364.621 77.379 L
362.5 76.5 L
360.379 77.379 L
359.5 79.5 L
360.379 81.621 L
362.5 82.5 L
364.621 81.621 L
cp
S
GR
GS
0.851 0.325 0.098 RC
1 LJ
N
394.5 72.5 M
393.621 70.379 L
391.5 69.5 L
389.379 70.379 L
388.5 72.5 L
389.379 74.621 L
391.5 75.5 L
393.621 74.621 L
cp
S
GR
GS
0.851 0.325 0.098 RC
1 LJ
N
423.5 66.5 M
422.621 64.379 L
420.5 63.5 L
418.379 64.379 L
417.5 66.5 L
418.379 68.621 L
420.5 69.5 L
422.621 68.621 L
cp
S
GR
GS
0.851 0.325 0.098 RC
1 LJ
N
452.5 58.5 M
451.621 56.379 L
449.5 55.5 L
447.379 56.379 L
446.5 58.5 L
447.379 60.621 L
449.5 61.5 L
451.621 60.621 L
cp
S
GR
GS
0.851 0.325 0.098 RC
1 LJ
N
481.5 51.5 M
480.621 49.379 L
478.5 48.5 L
476.379 49.379 L
475.5 51.5 L
476.379 53.621 L
478.5 54.5 L
480.621 53.621 L
cp
S
GR
GS
0.851 0.325 0.098 RC
1 LJ
N
510.5 46.5 M
509.621 44.379 L
507.5 43.5 L
505.379 44.379 L
504.5 46.5 L
505.379 48.621 L
507.5 49.5 L
509.621 48.621 L
cp
S
GR
GS
[1 0 0 1 442.5 152.75] CT
/Helvetica 18 F
GS
[1 0 0 1 0 0] CT
0 4.5 moveto 
1 -1 scale
(Train) t 
GR
GR
GS
0 0.447 0.741 RC
1 LJ
N
409.5 152.75 M
439.5 152.75 L
S
GR
GS
0 0.447 0.741 RC
1 LJ
N
427.5 152.5 M
426.621 150.379 L
424.5 149.5 L
422.379 150.379 L
421.5 152.5 L
422.379 154.621 L
424.5 155.5 L
426.621 154.621 L
cp
S
GR
GS
[1 0 0 1 442.5 171.75] CT
/Helvetica 18 F
GS
[1 0 0 1 0 0] CT
0 4.5 moveto 
1 -1 scale
(Test) t 
GR
GR
GS
0.851 0.325 0.098 RC
1 LJ
N
409.5 171.75 M
439.5 171.75 L
S
GR
GS
0.851 0.325 0.098 RC
1 LJ
N
427.5 171.5 M
426.621 169.379 L
424.5 168.5 L
422.379 169.379 L
421.5 171.5 L
422.379 173.621 L
424.5 174.5 L
426.621 173.621 L
cp
S
GR
%%Trailer
%%Pages: 1
%%EOF
