%!PS-Adobe-3.0 EPSF-3.0
%%Creator: (MATLAB, The Mathworks, Inc. Version 8.6.0.267246 \(R2015b\). Operating System: Mac OS X)
%%Title: /Users/gauthiermuguerza/Desktop/rsgd/report/images/movieLensNMAE.eps
%%CreationDate: 2018-06-01T23:28:09
%%Pages: (atend)
%%BoundingBox:     6     0   538   410
%%LanguageLevel: 3
%%EndComments
%%BeginProlog
%%BeginResource: procset (Apache XML Graphics Std ProcSet) 1.2 0
%%Version: 1.2 0
%%Copyright: (Copyright 2001-2003,2010 The Apache Software Foundation. License terms: http://www.apache.org/licenses/LICENSE-2.0)
/bd{bind def}bind def
/ld{load def}bd
/GR/grestore ld
/M/moveto ld
/LJ/setlinejoin ld
/C/curveto ld
/f/fill ld
/LW/setlinewidth ld
/GC/setgray ld
/t/show ld
/N/newpath ld
/CT/concat ld
/cp/closepath ld
/S/stroke ld
/L/lineto ld
/CC/setcmykcolor ld
/A/ashow ld
/GS/gsave ld
/RC/setrgbcolor ld
/RM/rmoveto ld
/ML/setmiterlimit ld
/re {4 2 roll M
1 index 0 rlineto
0 exch rlineto
neg 0 rlineto
cp } bd
/_ctm matrix def
/_tm matrix def
/BT { _ctm currentmatrix pop matrix _tm copy pop 0 0 moveto } bd
/ET { _ctm setmatrix } bd
/iTm { _ctm setmatrix _tm concat } bd
/Tm { _tm astore pop iTm 0 0 moveto } bd
/ux 0.0 def
/uy 0.0 def
/F {
  /Tp exch def
  /Tf exch def
  Tf findfont Tp scalefont setfont
  /cf Tf def  /cs Tp def
} bd
/ULS {currentpoint /uy exch def /ux exch def} bd
/ULE {
  /Tcx currentpoint pop def
  gsave
  newpath
  cf findfont cs scalefont dup
  /FontMatrix get 0 get /Ts exch def /FontInfo get dup
  /UnderlinePosition get Ts mul /To exch def
  /UnderlineThickness get Ts mul /Tt exch def
  ux uy To add moveto  Tcx uy To add lineto
  Tt setlinewidth stroke
  grestore
} bd
/OLE {
  /Tcx currentpoint pop def
  gsave
  newpath
  cf findfont cs scalefont dup
  /FontMatrix get 0 get /Ts exch def /FontInfo get dup
  /UnderlinePosition get Ts mul /To exch def
  /UnderlineThickness get Ts mul /Tt exch def
  ux uy To add cs add moveto Tcx uy To add cs add lineto
  Tt setlinewidth stroke
  grestore
} bd
/SOE {
  /Tcx currentpoint pop def
  gsave
  newpath
  cf findfont cs scalefont dup
  /FontMatrix get 0 get /Ts exch def /FontInfo get dup
  /UnderlinePosition get Ts mul /To exch def
  /UnderlineThickness get Ts mul /Tt exch def
  ux uy To add cs 10 mul 26 idiv add moveto Tcx uy To add cs 10 mul 26 idiv add lineto
  Tt setlinewidth stroke
  grestore
} bd
/QT {
/Y22 exch store
/X22 exch store
/Y21 exch store
/X21 exch store
currentpoint
/Y21 load 2 mul add 3 div exch
/X21 load 2 mul add 3 div exch
/X21 load 2 mul /X22 load add 3 div
/Y21 load 2 mul /Y22 load add 3 div
/X22 load /Y22 load curveto
} bd
/SSPD {
dup length /d exch dict def
{
/v exch def
/k exch def
currentpagedevice k known {
/cpdv currentpagedevice k get def
v cpdv ne {
/upd false def
/nullv v type /nulltype eq def
/nullcpdv cpdv type /nulltype eq def
nullv nullcpdv or
{
/upd true def
} {
/sametype v type cpdv type eq def
sametype {
v type /arraytype eq {
/vlen v length def
/cpdvlen cpdv length def
vlen cpdvlen eq {
0 1 vlen 1 sub {
/i exch def
/obj v i get def
/cpdobj cpdv i get def
obj cpdobj ne {
/upd true def
exit
} if
} for
} {
/upd true def
} ifelse
} {
v type /dicttype eq {
v {
/dv exch def
/dk exch def
/cpddv cpdv dk get def
dv cpddv ne {
/upd true def
exit
} if
} forall
} {
/upd true def
} ifelse
} ifelse
} if
} ifelse
upd true eq {
d k v put
} if
} if
} if
} forall
d length 0 gt {
d setpagedevice
} if
} bd
%%EndResource
%%BeginResource: procset (Apache XML Graphics EPS ProcSet) 1.0 0
%%Version: 1.0 0
%%Copyright: (Copyright 2002-2003 The Apache Software Foundation. License terms: http://www.apache.org/licenses/LICENSE-2.0)
/BeginEPSF { %def
/b4_Inc_state save def         % Save state for cleanup
/dict_count countdictstack def % Count objects on dict stack
/op_count count 1 sub def      % Count objects on operand stack
userdict begin                 % Push userdict on dict stack
/showpage { } def              % Redefine showpage, { } = null proc
0 setgray 0 setlinecap         % Prepare graphics state
1 setlinewidth 0 setlinejoin
10 setmiterlimit [ ] 0 setdash newpath
/languagelevel where           % If level not equal to 1 then
{pop languagelevel             % set strokeadjust and
1 ne                           % overprint to their defaults.
{false setstrokeadjust false setoverprint
} if
} if
} bd
/EndEPSF { %def
count op_count sub {pop} repeat            % Clean up stacks
countdictstack dict_count sub {end} repeat
b4_Inc_state restore
} bd
%%EndResource
%FOPBeginFontDict
%%IncludeResource: font Courier-Bold
%%IncludeResource: font Helvetica
%%IncludeResource: font Courier-BoldOblique
%%IncludeResource: font Courier-Oblique
%%IncludeResource: font Times-Roman
%%IncludeResource: font Helvetica-BoldOblique
%%IncludeResource: font Helvetica-Bold
%%IncludeResource: font Helvetica-Oblique
%%IncludeResource: font Times-BoldItalic
%%IncludeResource: font Courier
%%IncludeResource: font Times-Italic
%%IncludeResource: font Times-Bold
%%IncludeResource: font Symbol
%%IncludeResource: font ZapfDingbats
%FOPEndFontDict
%%BeginResource: encoding WinAnsiEncoding
/WinAnsiEncoding [
/.notdef /.notdef /.notdef /.notdef /.notdef
/.notdef /.notdef /.notdef /.notdef /.notdef
/.notdef /.notdef /.notdef /.notdef /.notdef
/.notdef /.notdef /.notdef /.notdef /.notdef
/.notdef /.notdef /.notdef /.notdef /.notdef
/.notdef /.notdef /.notdef /.notdef /.notdef
/.notdef /.notdef /space /exclam /quotedbl
/numbersign /dollar /percent /ampersand /quotesingle
/parenleft /parenright /asterisk /plus /comma
/hyphen /period /slash /zero /one
/two /three /four /five /six
/seven /eight /nine /colon /semicolon
/less /equal /greater /question /at
/A /B /C /D /E
/F /G /H /I /J
/K /L /M /N /O
/P /Q /R /S /T
/U /V /W /X /Y
/Z /bracketleft /backslash /bracketright /asciicircum
/underscore /quoteleft /a /b /c
/d /e /f /g /h
/i /j /k /l /m
/n /o /p /q /r
/s /t /u /v /w
/x /y /z /braceleft /bar
/braceright /asciitilde /bullet /Euro /bullet
/quotesinglbase /florin /quotedblbase /ellipsis /dagger
/daggerdbl /circumflex /perthousand /Scaron /guilsinglleft
/OE /bullet /Zcaron /bullet /bullet
/quoteleft /quoteright /quotedblleft /quotedblright /bullet
/endash /emdash /asciitilde /trademark /scaron
/guilsinglright /oe /bullet /zcaron /Ydieresis
/space /exclamdown /cent /sterling /currency
/yen /brokenbar /section /dieresis /copyright
/ordfeminine /guillemotleft /logicalnot /sfthyphen /registered
/macron /degree /plusminus /twosuperior /threesuperior
/acute /mu /paragraph /middot /cedilla
/onesuperior /ordmasculine /guillemotright /onequarter /onehalf
/threequarters /questiondown /Agrave /Aacute /Acircumflex
/Atilde /Adieresis /Aring /AE /Ccedilla
/Egrave /Eacute /Ecircumflex /Edieresis /Igrave
/Iacute /Icircumflex /Idieresis /Eth /Ntilde
/Ograve /Oacute /Ocircumflex /Otilde /Odieresis
/multiply /Oslash /Ugrave /Uacute /Ucircumflex
/Udieresis /Yacute /Thorn /germandbls /agrave
/aacute /acircumflex /atilde /adieresis /aring
/ae /ccedilla /egrave /eacute /ecircumflex
/edieresis /igrave /iacute /icircumflex /idieresis
/eth /ntilde /ograve /oacute /ocircumflex
/otilde /odieresis /divide /oslash /ugrave
/uacute /ucircumflex /udieresis /yacute /thorn
/ydieresis
] def
%%EndResource
%FOPBeginFontReencode
/Courier-Bold findfont
dup length dict begin
  {1 index /FID ne {def} {pop pop} ifelse} forall
  /Encoding WinAnsiEncoding def
  currentdict
end
/Courier-Bold exch definefont pop
/Helvetica findfont
dup length dict begin
  {1 index /FID ne {def} {pop pop} ifelse} forall
  /Encoding WinAnsiEncoding def
  currentdict
end
/Helvetica exch definefont pop
/Courier-BoldOblique findfont
dup length dict begin
  {1 index /FID ne {def} {pop pop} ifelse} forall
  /Encoding WinAnsiEncoding def
  currentdict
end
/Courier-BoldOblique exch definefont pop
/Courier-Oblique findfont
dup length dict begin
  {1 index /FID ne {def} {pop pop} ifelse} forall
  /Encoding WinAnsiEncoding def
  currentdict
end
/Courier-Oblique exch definefont pop
/Times-Roman findfont
dup length dict begin
  {1 index /FID ne {def} {pop pop} ifelse} forall
  /Encoding WinAnsiEncoding def
  currentdict
end
/Times-Roman exch definefont pop
/Helvetica-BoldOblique findfont
dup length dict begin
  {1 index /FID ne {def} {pop pop} ifelse} forall
  /Encoding WinAnsiEncoding def
  currentdict
end
/Helvetica-BoldOblique exch definefont pop
/Helvetica-Bold findfont
dup length dict begin
  {1 index /FID ne {def} {pop pop} ifelse} forall
  /Encoding WinAnsiEncoding def
  currentdict
end
/Helvetica-Bold exch definefont pop
/Helvetica-Oblique findfont
dup length dict begin
  {1 index /FID ne {def} {pop pop} ifelse} forall
  /Encoding WinAnsiEncoding def
  currentdict
end
/Helvetica-Oblique exch definefont pop
/Times-BoldItalic findfont
dup length dict begin
  {1 index /FID ne {def} {pop pop} ifelse} forall
  /Encoding WinAnsiEncoding def
  currentdict
end
/Times-BoldItalic exch definefont pop
/Courier findfont
dup length dict begin
  {1 index /FID ne {def} {pop pop} ifelse} forall
  /Encoding WinAnsiEncoding def
  currentdict
end
/Courier exch definefont pop
/Times-Italic findfont
dup length dict begin
  {1 index /FID ne {def} {pop pop} ifelse} forall
  /Encoding WinAnsiEncoding def
  currentdict
end
/Times-Italic exch definefont pop
/Times-Bold findfont
dup length dict begin
  {1 index /FID ne {def} {pop pop} ifelse} forall
  /Encoding WinAnsiEncoding def
  currentdict
end
/Times-Bold exch definefont pop
%FOPEndFontReencode
%%EndProlog
%%Page: 1 1
%%PageBoundingBox: 0 0 576 432
%%BeginPageSetup
[1 0 0 -1 0 432] CT
%%EndPageSetup
GS
1 GC
N
0 0 576 432 re
f
GR
GS
1 GC
N
0 0 576 432 re
f
GR
GS
1 GC
N
75 384 M
521.5 384 L
521.5 32.5 L
75 32.5 L
cp
f
GR
GS
0.149 GC
2 setlinecap
1 LJ
0.5 LW
N
75 384 M
521.5 384 L
S
GR
GS
0.149 GC
2 setlinecap
1 LJ
0.5 LW
N
75 384 M
75 379.535 L
S
GR
GS
0.149 GC
2 setlinecap
1 LJ
0.5 LW
N
164.3 384 M
164.3 379.535 L
S
GR
GS
0.149 GC
2 setlinecap
1 LJ
0.5 LW
N
253.6 384 M
253.6 379.535 L
S
GR
GS
0.149 GC
2 setlinecap
1 LJ
0.5 LW
N
342.9 384 M
342.9 379.535 L
S
GR
GS
0.149 GC
2 setlinecap
1 LJ
0.5 LW
N
432.2 384 M
432.2 379.535 L
S
GR
GS
0.149 GC
2 setlinecap
1 LJ
0.5 LW
N
521.5 384 M
521.5 379.535 L
S
GR
GS
[1 0 0 1 75 389.99997] CT
0.149 GC
/Helvetica 20 F
GS
[1 0 0 1 0 0] CT
-6 16 moveto 
1 -1 scale
(0) t 
GR
GR
GS
[1 0 0 1 164.3 389.99997] CT
0.149 GC
/Helvetica 20 F
GS
[1 0 0 1 0 0] CT
-11.5 16 moveto 
1 -1 scale
(20) t 
GR
GR
GS
[1 0 0 1 253.60001 389.99997] CT
0.149 GC
/Helvetica 20 F
GS
[1 0 0 1 0 0] CT
-11.5 16 moveto 
1 -1 scale
(40) t 
GR
GR
GS
[1 0 0 1 342.89999 389.99997] CT
0.149 GC
/Helvetica 20 F
GS
[1 0 0 1 0 0] CT
-11.5 16 moveto 
1 -1 scale
(60) t 
GR
GR
GS
[1 0 0 1 432.20001 389.99997] CT
0.149 GC
/Helvetica 20 F
GS
[1 0 0 1 0 0] CT
-11.5 16 moveto 
1 -1 scale
(80) t 
GR
GR
GS
[1 0 0 1 521.5 389.99997] CT
0.149 GC
/Helvetica 20 F
GS
[1 0 0 1 0 0] CT
-17 16 moveto 
1 -1 scale
(100) t 
GR
GR
GS
[1 0 0 1 298.25021 411.5] CT
0.149 GC
/Helvetica 20 F
GS
[1 0 0 1 0 0] CT
-41.5 16 moveto 
1 -1 scale
(Iterations) t 
GR
GR
GS
0.149 GC
2 setlinecap
1 LJ
0.5 LW
N
75 384 M
75 32.5 L
S
GR
GS
0.149 GC
2 setlinecap
1 LJ
0.5 LW
N
75 384 M
79.465 384 L
S
GR
GS
0.149 GC
2 setlinecap
1 LJ
0.5 LW
N
75 333.786 M
79.465 333.786 L
S
GR
GS
0.149 GC
2 setlinecap
1 LJ
0.5 LW
N
75 283.571 M
79.465 283.571 L
S
GR
GS
0.149 GC
2 setlinecap
1 LJ
0.5 LW
N
75 233.357 M
79.465 233.357 L
S
GR
GS
0.149 GC
2 setlinecap
1 LJ
0.5 LW
N
75 183.143 M
79.465 183.143 L
S
GR
GS
0.149 GC
2 setlinecap
1 LJ
0.5 LW
N
75 132.929 M
79.465 132.929 L
S
GR
GS
0.149 GC
2 setlinecap
1 LJ
0.5 LW
N
75 82.714 M
79.465 82.714 L
S
GR
GS
0.149 GC
2 setlinecap
1 LJ
0.5 LW
N
75 32.5 M
79.465 32.5 L
S
GR
GS
[1 0 0 1 69 384] CT
0.149 GC
/Helvetica 20 F
GS
[1 0 0 1 0 0] CT
-28 5.5 moveto 
1 -1 scale
(0.3) t 
GR
GR
GS
[1 0 0 1 69 333.78571] CT
0.149 GC
/Helvetica 20 F
GS
[1 0 0 1 0 0] CT
-39 5.5 moveto 
1 -1 scale
(0.35) t 
GR
GR
GS
[1 0 0 1 69 283.57141] CT
0.149 GC
/Helvetica 20 F
GS
[1 0 0 1 0 0] CT
-28 5.5 moveto 
1 -1 scale
(0.4) t 
GR
GR
GS
[1 0 0 1 69 233.35715] CT
0.149 GC
/Helvetica 20 F
GS
[1 0 0 1 0 0] CT
-39 5.5 moveto 
1 -1 scale
(0.45) t 
GR
GR
GS
[1 0 0 1 69 183.14285] CT
0.149 GC
/Helvetica 20 F
GS
[1 0 0 1 0 0] CT
-28 5.5 moveto 
1 -1 scale
(0.5) t 
GR
GR
GS
[1 0 0 1 69 132.92856] CT
0.149 GC
/Helvetica 20 F
GS
[1 0 0 1 0 0] CT
-39 5.5 moveto 
1 -1 scale
(0.55) t 
GR
GR
GS
[1 0 0 1 69 82.71426] CT
0.149 GC
/Helvetica 20 F
GS
[1 0 0 1 0 0] CT
-28 5.5 moveto 
1 -1 scale
(0.6) t 
GR
GR
GS
[1 0 0 1 69 32.50002] CT
0.149 GC
/Helvetica 20 F
GS
[1 0 0 1 0 0] CT
-39 5.5 moveto 
1 -1 scale
(0.65) t 
GR
GR
GS
[0 -1 1 0 27 208.24983] CT
0.149 GC
/Helvetica 20 F
GS
[1 0 0 1 0 0] CT
-51.5 -5 moveto 
1 -1 scale
(Test NMAE) t 
GR
GR
GS
0 0.447 0.741 RC
1 LJ
N
79.465 266.334 M
83.93 286.641 L
88.395 302.784 L
92.86 307.068 L
97.325 311.712 L
101.79 316.388 L
106.255 319.944 L
110.72 323.296 L
115.185 328.755 L
119.65 331.067 L
124.115 332.552 L
128.58 333.061 L
133.045 334.358 L
137.51 334.725 L
141.975 334.884 L
146.44 334.377 L
150.905 334.795 L
155.37 334.687 L
159.835 333.832 L
164.3 335.212 L
168.765 334.966 L
173.23 334.892 L
177.695 334.97 L
182.16 334.732 L
186.625 334.777 L
191.09 334.524 L
195.555 335.005 L
200.02 335.142 L
204.485 334.928 L
208.95 334.889 L
213.415 335.097 L
217.88 335.016 L
222.345 334.94 L
226.81 335.03 L
231.275 334.884 L
235.74 334.933 L
240.205 334.99 L
244.67 334.86 L
249.135 334.893 L
253.6 334.862 L
258.065 334.86 L
262.53 334.781 L
266.995 334.85 L
271.46 334.75 L
275.925 334.835 L
280.39 334.833 L
284.855 334.753 L
289.32 334.687 L
293.785 334.805 L
298.25 334.74 L
S
GR
GS
0 0.447 0.741 RC
1 LJ
N
293.785 334.805 M
298.25 334.74 L
302.715 334.785 L
307.18 334.772 L
311.645 334.706 L
316.11 334.704 L
320.575 334.641 L
325.04 334.674 L
329.505 334.733 L
333.97 334.685 L
338.435 334.648 L
342.9 334.649 L
347.365 334.655 L
351.83 334.62 L
356.295 334.635 L
360.76 334.644 L
365.225 334.61 L
369.69 334.574 L
374.155 334.604 L
378.62 334.607 L
383.085 334.615 L
387.55 334.598 L
392.015 334.614 L
396.48 334.556 L
400.945 334.51 L
405.41 334.493 L
409.875 334.566 L
414.34 334.539 L
418.805 334.592 L
423.27 334.505 L
427.735 334.517 L
432.2 334.507 L
436.665 334.497 L
441.13 334.506 L
445.595 334.474 L
450.06 334.456 L
454.525 334.481 L
458.99 334.47 L
463.455 334.445 L
S
GR
GS
0 0.447 0.741 RC
1 LJ
N
82.5 266.5 M
81.621 264.379 L
79.5 263.5 L
77.379 264.379 L
76.5 266.5 L
77.379 268.621 L
79.5 269.5 L
81.621 268.621 L
cp
S
GR
GS
0 0.447 0.741 RC
1 LJ
N
86.5 286.5 M
85.621 284.379 L
83.5 283.5 L
81.379 284.379 L
80.5 286.5 L
81.379 288.621 L
83.5 289.5 L
85.621 288.621 L
cp
S
GR
GS
0 0.447 0.741 RC
1 LJ
N
91.5 302.5 M
90.621 300.379 L
88.5 299.5 L
86.379 300.379 L
85.5 302.5 L
86.379 304.621 L
88.5 305.5 L
90.621 304.621 L
cp
S
GR
GS
0 0.447 0.741 RC
1 LJ
N
95.5 307.5 M
94.621 305.379 L
92.5 304.5 L
90.379 305.379 L
89.5 307.5 L
90.379 309.621 L
92.5 310.5 L
94.621 309.621 L
cp
S
GR
GS
0 0.447 0.741 RC
1 LJ
N
100.5 311.5 M
99.621 309.379 L
97.5 308.5 L
95.379 309.379 L
94.5 311.5 L
95.379 313.621 L
97.5 314.5 L
99.621 313.621 L
cp
S
GR
GS
0 0.447 0.741 RC
1 LJ
N
104.5 316.5 M
103.621 314.379 L
101.5 313.5 L
99.379 314.379 L
98.5 316.5 L
99.379 318.621 L
101.5 319.5 L
103.621 318.621 L
cp
S
GR
GS
0 0.447 0.741 RC
1 LJ
N
109.5 319.5 M
108.621 317.379 L
106.5 316.5 L
104.379 317.379 L
103.5 319.5 L
104.379 321.621 L
106.5 322.5 L
108.621 321.621 L
cp
S
GR
GS
0 0.447 0.741 RC
1 LJ
N
113.5 323.5 M
112.621 321.379 L
110.5 320.5 L
108.379 321.379 L
107.5 323.5 L
108.379 325.621 L
110.5 326.5 L
112.621 325.621 L
cp
S
GR
GS
0 0.447 0.741 RC
1 LJ
N
118.5 328.5 M
117.621 326.379 L
115.5 325.5 L
113.379 326.379 L
112.5 328.5 L
113.379 330.621 L
115.5 331.5 L
117.621 330.621 L
cp
S
GR
GS
0 0.447 0.741 RC
1 LJ
N
122.5 331.5 M
121.621 329.379 L
119.5 328.5 L
117.379 329.379 L
116.5 331.5 L
117.379 333.621 L
119.5 334.5 L
121.621 333.621 L
cp
S
GR
GS
0 0.447 0.741 RC
1 LJ
N
127.5 332.5 M
126.621 330.379 L
124.5 329.5 L
122.379 330.379 L
121.5 332.5 L
122.379 334.621 L
124.5 335.5 L
126.621 334.621 L
cp
S
GR
GS
0 0.447 0.741 RC
1 LJ
N
131.5 333.5 M
130.621 331.379 L
128.5 330.5 L
126.379 331.379 L
125.5 333.5 L
126.379 335.621 L
128.5 336.5 L
130.621 335.621 L
cp
S
GR
GS
0 0.447 0.741 RC
1 LJ
N
136.5 334.5 M
135.621 332.379 L
133.5 331.5 L
131.379 332.379 L
130.5 334.5 L
131.379 336.621 L
133.5 337.5 L
135.621 336.621 L
cp
S
GR
GS
0 0.447 0.741 RC
1 LJ
N
140.5 334.5 M
139.621 332.379 L
137.5 331.5 L
135.379 332.379 L
134.5 334.5 L
135.379 336.621 L
137.5 337.5 L
139.621 336.621 L
cp
S
GR
GS
0 0.447 0.741 RC
1 LJ
N
144.5 334.5 M
143.621 332.379 L
141.5 331.5 L
139.379 332.379 L
138.5 334.5 L
139.379 336.621 L
141.5 337.5 L
143.621 336.621 L
cp
S
GR
GS
0 0.447 0.741 RC
1 LJ
N
149.5 334.5 M
148.621 332.379 L
146.5 331.5 L
144.379 332.379 L
143.5 334.5 L
144.379 336.621 L
146.5 337.5 L
148.621 336.621 L
cp
S
GR
GS
0 0.447 0.741 RC
1 LJ
N
153.5 334.5 M
152.621 332.379 L
150.5 331.5 L
148.379 332.379 L
147.5 334.5 L
148.379 336.621 L
150.5 337.5 L
152.621 336.621 L
cp
S
GR
GS
0 0.447 0.741 RC
1 LJ
N
158.5 334.5 M
157.621 332.379 L
155.5 331.5 L
153.379 332.379 L
152.5 334.5 L
153.379 336.621 L
155.5 337.5 L
157.621 336.621 L
cp
S
GR
GS
0 0.447 0.741 RC
1 LJ
N
162.5 333.5 M
161.621 331.379 L
159.5 330.5 L
157.379 331.379 L
156.5 333.5 L
157.379 335.621 L
159.5 336.5 L
161.621 335.621 L
cp
S
GR
GS
0 0.447 0.741 RC
1 LJ
N
167.5 335.5 M
166.621 333.379 L
164.5 332.5 L
162.379 333.379 L
161.5 335.5 L
162.379 337.621 L
164.5 338.5 L
166.621 337.621 L
cp
S
GR
GS
0 0.447 0.741 RC
1 LJ
N
171.5 334.5 M
170.621 332.379 L
168.5 331.5 L
166.379 332.379 L
165.5 334.5 L
166.379 336.621 L
168.5 337.5 L
170.621 336.621 L
cp
S
GR
GS
0 0.447 0.741 RC
1 LJ
N
176.5 334.5 M
175.621 332.379 L
173.5 331.5 L
171.379 332.379 L
170.5 334.5 L
171.379 336.621 L
173.5 337.5 L
175.621 336.621 L
cp
S
GR
GS
0 0.447 0.741 RC
1 LJ
N
180.5 334.5 M
179.621 332.379 L
177.5 331.5 L
175.379 332.379 L
174.5 334.5 L
175.379 336.621 L
177.5 337.5 L
179.621 336.621 L
cp
S
GR
GS
0 0.447 0.741 RC
1 LJ
N
185.5 334.5 M
184.621 332.379 L
182.5 331.5 L
180.379 332.379 L
179.5 334.5 L
180.379 336.621 L
182.5 337.5 L
184.621 336.621 L
cp
S
GR
GS
0 0.447 0.741 RC
1 LJ
N
189.5 334.5 M
188.621 332.379 L
186.5 331.5 L
184.379 332.379 L
183.5 334.5 L
184.379 336.621 L
186.5 337.5 L
188.621 336.621 L
cp
S
GR
GS
0 0.447 0.741 RC
1 LJ
N
194.5 334.5 M
193.621 332.379 L
191.5 331.5 L
189.379 332.379 L
188.5 334.5 L
189.379 336.621 L
191.5 337.5 L
193.621 336.621 L
cp
S
GR
GS
0 0.447 0.741 RC
1 LJ
N
198.5 335.5 M
197.621 333.379 L
195.5 332.5 L
193.379 333.379 L
192.5 335.5 L
193.379 337.621 L
195.5 338.5 L
197.621 337.621 L
cp
S
GR
GS
0 0.447 0.741 RC
1 LJ
N
203.5 335.5 M
202.621 333.379 L
200.5 332.5 L
198.379 333.379 L
197.5 335.5 L
198.379 337.621 L
200.5 338.5 L
202.621 337.621 L
cp
S
GR
GS
0 0.447 0.741 RC
1 LJ
N
207.5 334.5 M
206.621 332.379 L
204.5 331.5 L
202.379 332.379 L
201.5 334.5 L
202.379 336.621 L
204.5 337.5 L
206.621 336.621 L
cp
S
GR
GS
0 0.447 0.741 RC
1 LJ
N
211.5 334.5 M
210.621 332.379 L
208.5 331.5 L
206.379 332.379 L
205.5 334.5 L
206.379 336.621 L
208.5 337.5 L
210.621 336.621 L
cp
S
GR
GS
0 0.447 0.741 RC
1 LJ
N
216.5 335.5 M
215.621 333.379 L
213.5 332.5 L
211.379 333.379 L
210.5 335.5 L
211.379 337.621 L
213.5 338.5 L
215.621 337.621 L
cp
S
GR
GS
0 0.447 0.741 RC
1 LJ
N
220.5 335.5 M
219.621 333.379 L
217.5 332.5 L
215.379 333.379 L
214.5 335.5 L
215.379 337.621 L
217.5 338.5 L
219.621 337.621 L
cp
S
GR
GS
0 0.447 0.741 RC
1 LJ
N
225.5 334.5 M
224.621 332.379 L
222.5 331.5 L
220.379 332.379 L
219.5 334.5 L
220.379 336.621 L
222.5 337.5 L
224.621 336.621 L
cp
S
GR
GS
0 0.447 0.741 RC
1 LJ
N
229.5 335.5 M
228.621 333.379 L
226.5 332.5 L
224.379 333.379 L
223.5 335.5 L
224.379 337.621 L
226.5 338.5 L
228.621 337.621 L
cp
S
GR
GS
0 0.447 0.741 RC
1 LJ
N
234.5 334.5 M
233.621 332.379 L
231.5 331.5 L
229.379 332.379 L
228.5 334.5 L
229.379 336.621 L
231.5 337.5 L
233.621 336.621 L
cp
S
GR
GS
0 0.447 0.741 RC
1 LJ
N
238.5 334.5 M
237.621 332.379 L
235.5 331.5 L
233.379 332.379 L
232.5 334.5 L
233.379 336.621 L
235.5 337.5 L
237.621 336.621 L
cp
S
GR
GS
0 0.447 0.741 RC
1 LJ
N
243.5 334.5 M
242.621 332.379 L
240.5 331.5 L
238.379 332.379 L
237.5 334.5 L
238.379 336.621 L
240.5 337.5 L
242.621 336.621 L
cp
S
GR
GS
0 0.447 0.741 RC
1 LJ
N
247.5 334.5 M
246.621 332.379 L
244.5 331.5 L
242.379 332.379 L
241.5 334.5 L
242.379 336.621 L
244.5 337.5 L
246.621 336.621 L
cp
S
GR
GS
0 0.447 0.741 RC
1 LJ
N
252.5 334.5 M
251.621 332.379 L
249.5 331.5 L
247.379 332.379 L
246.5 334.5 L
247.379 336.621 L
249.5 337.5 L
251.621 336.621 L
cp
S
GR
GS
0 0.447 0.741 RC
1 LJ
N
256.5 334.5 M
255.621 332.379 L
253.5 331.5 L
251.379 332.379 L
250.5 334.5 L
251.379 336.621 L
253.5 337.5 L
255.621 336.621 L
cp
S
GR
GS
0 0.447 0.741 RC
1 LJ
N
261.5 334.5 M
260.621 332.379 L
258.5 331.5 L
256.379 332.379 L
255.5 334.5 L
256.379 336.621 L
258.5 337.5 L
260.621 336.621 L
cp
S
GR
GS
0 0.447 0.741 RC
1 LJ
N
265.5 334.5 M
264.621 332.379 L
262.5 331.5 L
260.379 332.379 L
259.5 334.5 L
260.379 336.621 L
262.5 337.5 L
264.621 336.621 L
cp
S
GR
GS
0 0.447 0.741 RC
1 LJ
N
269.5 334.5 M
268.621 332.379 L
266.5 331.5 L
264.379 332.379 L
263.5 334.5 L
264.379 336.621 L
266.5 337.5 L
268.621 336.621 L
cp
S
GR
GS
0 0.447 0.741 RC
1 LJ
N
274.5 334.5 M
273.621 332.379 L
271.5 331.5 L
269.379 332.379 L
268.5 334.5 L
269.379 336.621 L
271.5 337.5 L
273.621 336.621 L
cp
S
GR
GS
0 0.447 0.741 RC
1 LJ
N
278.5 334.5 M
277.621 332.379 L
275.5 331.5 L
273.379 332.379 L
272.5 334.5 L
273.379 336.621 L
275.5 337.5 L
277.621 336.621 L
cp
S
GR
GS
0 0.447 0.741 RC
1 LJ
N
283.5 334.5 M
282.621 332.379 L
280.5 331.5 L
278.379 332.379 L
277.5 334.5 L
278.379 336.621 L
280.5 337.5 L
282.621 336.621 L
cp
S
GR
GS
0 0.447 0.741 RC
1 LJ
N
287.5 334.5 M
286.621 332.379 L
284.5 331.5 L
282.379 332.379 L
281.5 334.5 L
282.379 336.621 L
284.5 337.5 L
286.621 336.621 L
cp
S
GR
GS
0 0.447 0.741 RC
1 LJ
N
292.5 334.5 M
291.621 332.379 L
289.5 331.5 L
287.379 332.379 L
286.5 334.5 L
287.379 336.621 L
289.5 337.5 L
291.621 336.621 L
cp
S
GR
GS
0 0.447 0.741 RC
1 LJ
N
296.5 334.5 M
295.621 332.379 L
293.5 331.5 L
291.379 332.379 L
290.5 334.5 L
291.379 336.621 L
293.5 337.5 L
295.621 336.621 L
cp
S
GR
GS
0 0.447 0.741 RC
1 LJ
N
301.5 334.5 M
300.621 332.379 L
298.5 331.5 L
296.379 332.379 L
295.5 334.5 L
296.379 336.621 L
298.5 337.5 L
300.621 336.621 L
cp
S
GR
GS
0 0.447 0.741 RC
1 LJ
N
305.5 334.5 M
304.621 332.379 L
302.5 331.5 L
300.379 332.379 L
299.5 334.5 L
300.379 336.621 L
302.5 337.5 L
304.621 336.621 L
cp
S
GR
GS
0 0.447 0.741 RC
1 LJ
N
310.5 334.5 M
309.621 332.379 L
307.5 331.5 L
305.379 332.379 L
304.5 334.5 L
305.379 336.621 L
307.5 337.5 L
309.621 336.621 L
cp
S
GR
GS
0 0.447 0.741 RC
1 LJ
N
314.5 334.5 M
313.621 332.379 L
311.5 331.5 L
309.379 332.379 L
308.5 334.5 L
309.379 336.621 L
311.5 337.5 L
313.621 336.621 L
cp
S
GR
GS
0 0.447 0.741 RC
1 LJ
N
319.5 334.5 M
318.621 332.379 L
316.5 331.5 L
314.379 332.379 L
313.5 334.5 L
314.379 336.621 L
316.5 337.5 L
318.621 336.621 L
cp
S
GR
GS
0 0.447 0.741 RC
1 LJ
N
323.5 334.5 M
322.621 332.379 L
320.5 331.5 L
318.379 332.379 L
317.5 334.5 L
318.379 336.621 L
320.5 337.5 L
322.621 336.621 L
cp
S
GR
GS
0 0.447 0.741 RC
1 LJ
N
328.5 334.5 M
327.621 332.379 L
325.5 331.5 L
323.379 332.379 L
322.5 334.5 L
323.379 336.621 L
325.5 337.5 L
327.621 336.621 L
cp
S
GR
GS
0 0.447 0.741 RC
1 LJ
N
332.5 334.5 M
331.621 332.379 L
329.5 331.5 L
327.379 332.379 L
326.5 334.5 L
327.379 336.621 L
329.5 337.5 L
331.621 336.621 L
cp
S
GR
GS
0 0.447 0.741 RC
1 LJ
N
336.5 334.5 M
335.621 332.379 L
333.5 331.5 L
331.379 332.379 L
330.5 334.5 L
331.379 336.621 L
333.5 337.5 L
335.621 336.621 L
cp
S
GR
GS
0 0.447 0.741 RC
1 LJ
N
341.5 334.5 M
340.621 332.379 L
338.5 331.5 L
336.379 332.379 L
335.5 334.5 L
336.379 336.621 L
338.5 337.5 L
340.621 336.621 L
cp
S
GR
GS
0 0.447 0.741 RC
1 LJ
N
345.5 334.5 M
344.621 332.379 L
342.5 331.5 L
340.379 332.379 L
339.5 334.5 L
340.379 336.621 L
342.5 337.5 L
344.621 336.621 L
cp
S
GR
GS
0 0.447 0.741 RC
1 LJ
N
350.5 334.5 M
349.621 332.379 L
347.5 331.5 L
345.379 332.379 L
344.5 334.5 L
345.379 336.621 L
347.5 337.5 L
349.621 336.621 L
cp
S
GR
GS
0 0.447 0.741 RC
1 LJ
N
354.5 334.5 M
353.621 332.379 L
351.5 331.5 L
349.379 332.379 L
348.5 334.5 L
349.379 336.621 L
351.5 337.5 L
353.621 336.621 L
cp
S
GR
GS
0 0.447 0.741 RC
1 LJ
N
359.5 334.5 M
358.621 332.379 L
356.5 331.5 L
354.379 332.379 L
353.5 334.5 L
354.379 336.621 L
356.5 337.5 L
358.621 336.621 L
cp
S
GR
GS
0 0.447 0.741 RC
1 LJ
N
363.5 334.5 M
362.621 332.379 L
360.5 331.5 L
358.379 332.379 L
357.5 334.5 L
358.379 336.621 L
360.5 337.5 L
362.621 336.621 L
cp
S
GR
GS
0 0.447 0.741 RC
1 LJ
N
368.5 334.5 M
367.621 332.379 L
365.5 331.5 L
363.379 332.379 L
362.5 334.5 L
363.379 336.621 L
365.5 337.5 L
367.621 336.621 L
cp
S
GR
GS
0 0.447 0.741 RC
1 LJ
N
372.5 334.5 M
371.621 332.379 L
369.5 331.5 L
367.379 332.379 L
366.5 334.5 L
367.379 336.621 L
369.5 337.5 L
371.621 336.621 L
cp
S
GR
GS
0 0.447 0.741 RC
1 LJ
N
377.5 334.5 M
376.621 332.379 L
374.5 331.5 L
372.379 332.379 L
371.5 334.5 L
372.379 336.621 L
374.5 337.5 L
376.621 336.621 L
cp
S
GR
GS
0 0.447 0.741 RC
1 LJ
N
381.5 334.5 M
380.621 332.379 L
378.5 331.5 L
376.379 332.379 L
375.5 334.5 L
376.379 336.621 L
378.5 337.5 L
380.621 336.621 L
cp
S
GR
GS
0 0.447 0.741 RC
1 LJ
N
386.5 334.5 M
385.621 332.379 L
383.5 331.5 L
381.379 332.379 L
380.5 334.5 L
381.379 336.621 L
383.5 337.5 L
385.621 336.621 L
cp
S
GR
GS
0 0.447 0.741 RC
1 LJ
N
390.5 334.5 M
389.621 332.379 L
387.5 331.5 L
385.379 332.379 L
384.5 334.5 L
385.379 336.621 L
387.5 337.5 L
389.621 336.621 L
cp
S
GR
GS
0 0.447 0.741 RC
1 LJ
N
395.5 334.5 M
394.621 332.379 L
392.5 331.5 L
390.379 332.379 L
389.5 334.5 L
390.379 336.621 L
392.5 337.5 L
394.621 336.621 L
cp
S
GR
GS
0 0.447 0.741 RC
1 LJ
N
399.5 334.5 M
398.621 332.379 L
396.5 331.5 L
394.379 332.379 L
393.5 334.5 L
394.379 336.621 L
396.5 337.5 L
398.621 336.621 L
cp
S
GR
GS
0 0.447 0.741 RC
1 LJ
N
403.5 334.5 M
402.621 332.379 L
400.5 331.5 L
398.379 332.379 L
397.5 334.5 L
398.379 336.621 L
400.5 337.5 L
402.621 336.621 L
cp
S
GR
GS
0 0.447 0.741 RC
1 LJ
N
408.5 334.5 M
407.621 332.379 L
405.5 331.5 L
403.379 332.379 L
402.5 334.5 L
403.379 336.621 L
405.5 337.5 L
407.621 336.621 L
cp
S
GR
GS
0 0.447 0.741 RC
1 LJ
N
412.5 334.5 M
411.621 332.379 L
409.5 331.5 L
407.379 332.379 L
406.5 334.5 L
407.379 336.621 L
409.5 337.5 L
411.621 336.621 L
cp
S
GR
GS
0 0.447 0.741 RC
1 LJ
N
417.5 334.5 M
416.621 332.379 L
414.5 331.5 L
412.379 332.379 L
411.5 334.5 L
412.379 336.621 L
414.5 337.5 L
416.621 336.621 L
cp
S
GR
GS
0 0.447 0.741 RC
1 LJ
N
421.5 334.5 M
420.621 332.379 L
418.5 331.5 L
416.379 332.379 L
415.5 334.5 L
416.379 336.621 L
418.5 337.5 L
420.621 336.621 L
cp
S
GR
GS
0 0.447 0.741 RC
1 LJ
N
426.5 334.5 M
425.621 332.379 L
423.5 331.5 L
421.379 332.379 L
420.5 334.5 L
421.379 336.621 L
423.5 337.5 L
425.621 336.621 L
cp
S
GR
GS
0 0.447 0.741 RC
1 LJ
N
430.5 334.5 M
429.621 332.379 L
427.5 331.5 L
425.379 332.379 L
424.5 334.5 L
425.379 336.621 L
427.5 337.5 L
429.621 336.621 L
cp
S
GR
GS
0 0.447 0.741 RC
1 LJ
N
435.5 334.5 M
434.621 332.379 L
432.5 331.5 L
430.379 332.379 L
429.5 334.5 L
430.379 336.621 L
432.5 337.5 L
434.621 336.621 L
cp
S
GR
GS
0 0.447 0.741 RC
1 LJ
N
439.5 334.5 M
438.621 332.379 L
436.5 331.5 L
434.379 332.379 L
433.5 334.5 L
434.379 336.621 L
436.5 337.5 L
438.621 336.621 L
cp
S
GR
GS
0 0.447 0.741 RC
1 LJ
N
444.5 334.5 M
443.621 332.379 L
441.5 331.5 L
439.379 332.379 L
438.5 334.5 L
439.379 336.621 L
441.5 337.5 L
443.621 336.621 L
cp
S
GR
GS
0 0.447 0.741 RC
1 LJ
N
448.5 334.5 M
447.621 332.379 L
445.5 331.5 L
443.379 332.379 L
442.5 334.5 L
443.379 336.621 L
445.5 337.5 L
447.621 336.621 L
cp
S
GR
GS
0 0.447 0.741 RC
1 LJ
N
453.5 334.5 M
452.621 332.379 L
450.5 331.5 L
448.379 332.379 L
447.5 334.5 L
448.379 336.621 L
450.5 337.5 L
452.621 336.621 L
cp
S
GR
GS
0 0.447 0.741 RC
1 LJ
N
457.5 334.5 M
456.621 332.379 L
454.5 331.5 L
452.379 332.379 L
451.5 334.5 L
452.379 336.621 L
454.5 337.5 L
456.621 336.621 L
cp
S
GR
GS
0 0.447 0.741 RC
1 LJ
N
461.5 334.5 M
460.621 332.379 L
458.5 331.5 L
456.379 332.379 L
455.5 334.5 L
456.379 336.621 L
458.5 337.5 L
460.621 336.621 L
cp
S
GR
GS
0 0.447 0.741 RC
1 LJ
N
466.5 334.5 M
465.621 332.379 L
463.5 331.5 L
461.379 332.379 L
460.5 334.5 L
461.379 336.621 L
463.5 337.5 L
465.621 336.621 L
cp
S
GR
GS
0.851 0.325 0.098 RC
1 LJ
N
79.465 79.593 M
83.93 201.675 L
88.395 235.988 L
92.86 253.548 L
97.325 267.266 L
101.79 270.592 L
106.255 288.702 L
110.72 299.306 L
115.185 296.624 L
119.65 306.687 L
124.115 308.787 L
128.58 316.782 L
133.045 317.156 L
137.51 320.018 L
141.975 322.35 L
146.44 321.752 L
150.905 325.086 L
155.37 325.396 L
159.835 324.948 L
164.3 326.356 L
168.765 325.581 L
173.23 327.843 L
177.695 327.698 L
182.16 326.921 L
186.625 327.356 L
191.09 328.468 L
195.555 328.859 L
200.02 328.641 L
204.485 328.195 L
208.95 328.681 L
213.415 328.655 L
217.88 328.854 L
222.345 329.197 L
226.81 329.39 L
231.275 329.373 L
235.74 329.413 L
240.205 329.346 L
244.67 329.322 L
249.135 329.409 L
253.6 329.537 L
258.065 329.396 L
262.53 329.897 L
266.995 329.416 L
271.46 329.712 L
275.925 329.795 L
280.39 329.864 L
284.855 329.658 L
289.32 329.709 L
293.785 329.61 L
298.25 329.532 L
S
GR
GS
0.851 0.325 0.098 RC
1 LJ
N
293.785 329.61 M
298.25 329.532 L
302.715 329.493 L
307.18 329.682 L
311.645 329.908 L
316.11 329.887 L
320.575 329.828 L
325.04 329.68 L
329.505 329.42 L
333.97 329.715 L
338.435 329.672 L
342.9 329.664 L
347.365 329.697 L
351.83 329.805 L
356.295 329.796 L
360.76 329.788 L
365.225 329.834 L
369.69 329.86 L
374.155 329.8 L
378.62 329.736 L
383.085 329.734 L
387.55 329.702 L
392.015 329.704 L
396.48 329.735 L
400.945 329.725 L
405.41 329.728 L
409.875 329.752 L
414.34 329.757 L
418.805 329.745 L
423.27 329.753 L
427.735 329.744 L
432.2 329.734 L
436.665 329.735 L
441.13 329.731 L
445.595 329.727 L
450.06 329.725 L
454.525 329.718 L
458.99 329.725 L
463.455 329.721 L
S
GR
GS
0.851 0.325 0.098 RC
1 LJ
N
82.5 79.5 M
81.621 77.379 L
79.5 76.5 L
77.379 77.379 L
76.5 79.5 L
77.379 81.621 L
79.5 82.5 L
81.621 81.621 L
cp
S
GR
GS
0.851 0.325 0.098 RC
1 LJ
N
86.5 201.5 M
85.621 199.379 L
83.5 198.5 L
81.379 199.379 L
80.5 201.5 L
81.379 203.621 L
83.5 204.5 L
85.621 203.621 L
cp
S
GR
GS
0.851 0.325 0.098 RC
1 LJ
N
91.5 235.5 M
90.621 233.379 L
88.5 232.5 L
86.379 233.379 L
85.5 235.5 L
86.379 237.621 L
88.5 238.5 L
90.621 237.621 L
cp
S
GR
GS
0.851 0.325 0.098 RC
1 LJ
N
95.5 253.5 M
94.621 251.379 L
92.5 250.5 L
90.379 251.379 L
89.5 253.5 L
90.379 255.621 L
92.5 256.5 L
94.621 255.621 L
cp
S
GR
GS
0.851 0.325 0.098 RC
1 LJ
N
100.5 267.5 M
99.621 265.379 L
97.5 264.5 L
95.379 265.379 L
94.5 267.5 L
95.379 269.621 L
97.5 270.5 L
99.621 269.621 L
cp
S
GR
GS
0.851 0.325 0.098 RC
1 LJ
N
104.5 270.5 M
103.621 268.379 L
101.5 267.5 L
99.379 268.379 L
98.5 270.5 L
99.379 272.621 L
101.5 273.5 L
103.621 272.621 L
cp
S
GR
GS
0.851 0.325 0.098 RC
1 LJ
N
109.5 288.5 M
108.621 286.379 L
106.5 285.5 L
104.379 286.379 L
103.5 288.5 L
104.379 290.621 L
106.5 291.5 L
108.621 290.621 L
cp
S
GR
GS
0.851 0.325 0.098 RC
1 LJ
N
113.5 299.5 M
112.621 297.379 L
110.5 296.5 L
108.379 297.379 L
107.5 299.5 L
108.379 301.621 L
110.5 302.5 L
112.621 301.621 L
cp
S
GR
GS
0.851 0.325 0.098 RC
1 LJ
N
118.5 296.5 M
117.621 294.379 L
115.5 293.5 L
113.379 294.379 L
112.5 296.5 L
113.379 298.621 L
115.5 299.5 L
117.621 298.621 L
cp
S
GR
GS
0.851 0.325 0.098 RC
1 LJ
N
122.5 306.5 M
121.621 304.379 L
119.5 303.5 L
117.379 304.379 L
116.5 306.5 L
117.379 308.621 L
119.5 309.5 L
121.621 308.621 L
cp
S
GR
GS
0.851 0.325 0.098 RC
1 LJ
N
127.5 308.5 M
126.621 306.379 L
124.5 305.5 L
122.379 306.379 L
121.5 308.5 L
122.379 310.621 L
124.5 311.5 L
126.621 310.621 L
cp
S
GR
GS
0.851 0.325 0.098 RC
1 LJ
N
131.5 316.5 M
130.621 314.379 L
128.5 313.5 L
126.379 314.379 L
125.5 316.5 L
126.379 318.621 L
128.5 319.5 L
130.621 318.621 L
cp
S
GR
GS
0.851 0.325 0.098 RC
1 LJ
N
136.5 317.5 M
135.621 315.379 L
133.5 314.5 L
131.379 315.379 L
130.5 317.5 L
131.379 319.621 L
133.5 320.5 L
135.621 319.621 L
cp
S
GR
GS
0.851 0.325 0.098 RC
1 LJ
N
140.5 320.5 M
139.621 318.379 L
137.5 317.5 L
135.379 318.379 L
134.5 320.5 L
135.379 322.621 L
137.5 323.5 L
139.621 322.621 L
cp
S
GR
GS
0.851 0.325 0.098 RC
1 LJ
N
144.5 322.5 M
143.621 320.379 L
141.5 319.5 L
139.379 320.379 L
138.5 322.5 L
139.379 324.621 L
141.5 325.5 L
143.621 324.621 L
cp
S
GR
GS
0.851 0.325 0.098 RC
1 LJ
N
149.5 321.5 M
148.621 319.379 L
146.5 318.5 L
144.379 319.379 L
143.5 321.5 L
144.379 323.621 L
146.5 324.5 L
148.621 323.621 L
cp
S
GR
GS
0.851 0.325 0.098 RC
1 LJ
N
153.5 325.5 M
152.621 323.379 L
150.5 322.5 L
148.379 323.379 L
147.5 325.5 L
148.379 327.621 L
150.5 328.5 L
152.621 327.621 L
cp
S
GR
GS
0.851 0.325 0.098 RC
1 LJ
N
158.5 325.5 M
157.621 323.379 L
155.5 322.5 L
153.379 323.379 L
152.5 325.5 L
153.379 327.621 L
155.5 328.5 L
157.621 327.621 L
cp
S
GR
GS
0.851 0.325 0.098 RC
1 LJ
N
162.5 324.5 M
161.621 322.379 L
159.5 321.5 L
157.379 322.379 L
156.5 324.5 L
157.379 326.621 L
159.5 327.5 L
161.621 326.621 L
cp
S
GR
GS
0.851 0.325 0.098 RC
1 LJ
N
167.5 326.5 M
166.621 324.379 L
164.5 323.5 L
162.379 324.379 L
161.5 326.5 L
162.379 328.621 L
164.5 329.5 L
166.621 328.621 L
cp
S
GR
GS
0.851 0.325 0.098 RC
1 LJ
N
171.5 325.5 M
170.621 323.379 L
168.5 322.5 L
166.379 323.379 L
165.5 325.5 L
166.379 327.621 L
168.5 328.5 L
170.621 327.621 L
cp
S
GR
GS
0.851 0.325 0.098 RC
1 LJ
N
176.5 327.5 M
175.621 325.379 L
173.5 324.5 L
171.379 325.379 L
170.5 327.5 L
171.379 329.621 L
173.5 330.5 L
175.621 329.621 L
cp
S
GR
GS
0.851 0.325 0.098 RC
1 LJ
N
180.5 327.5 M
179.621 325.379 L
177.5 324.5 L
175.379 325.379 L
174.5 327.5 L
175.379 329.621 L
177.5 330.5 L
179.621 329.621 L
cp
S
GR
GS
0.851 0.325 0.098 RC
1 LJ
N
185.5 326.5 M
184.621 324.379 L
182.5 323.5 L
180.379 324.379 L
179.5 326.5 L
180.379 328.621 L
182.5 329.5 L
184.621 328.621 L
cp
S
GR
GS
0.851 0.325 0.098 RC
1 LJ
N
189.5 327.5 M
188.621 325.379 L
186.5 324.5 L
184.379 325.379 L
183.5 327.5 L
184.379 329.621 L
186.5 330.5 L
188.621 329.621 L
cp
S
GR
GS
0.851 0.325 0.098 RC
1 LJ
N
194.5 328.5 M
193.621 326.379 L
191.5 325.5 L
189.379 326.379 L
188.5 328.5 L
189.379 330.621 L
191.5 331.5 L
193.621 330.621 L
cp
S
GR
GS
0.851 0.325 0.098 RC
1 LJ
N
198.5 328.5 M
197.621 326.379 L
195.5 325.5 L
193.379 326.379 L
192.5 328.5 L
193.379 330.621 L
195.5 331.5 L
197.621 330.621 L
cp
S
GR
GS
0.851 0.325 0.098 RC
1 LJ
N
203.5 328.5 M
202.621 326.379 L
200.5 325.5 L
198.379 326.379 L
197.5 328.5 L
198.379 330.621 L
200.5 331.5 L
202.621 330.621 L
cp
S
GR
GS
0.851 0.325 0.098 RC
1 LJ
N
207.5 328.5 M
206.621 326.379 L
204.5 325.5 L
202.379 326.379 L
201.5 328.5 L
202.379 330.621 L
204.5 331.5 L
206.621 330.621 L
cp
S
GR
GS
0.851 0.325 0.098 RC
1 LJ
N
211.5 328.5 M
210.621 326.379 L
208.5 325.5 L
206.379 326.379 L
205.5 328.5 L
206.379 330.621 L
208.5 331.5 L
210.621 330.621 L
cp
S
GR
GS
0.851 0.325 0.098 RC
1 LJ
N
216.5 328.5 M
215.621 326.379 L
213.5 325.5 L
211.379 326.379 L
210.5 328.5 L
211.379 330.621 L
213.5 331.5 L
215.621 330.621 L
cp
S
GR
GS
0.851 0.325 0.098 RC
1 LJ
N
220.5 328.5 M
219.621 326.379 L
217.5 325.5 L
215.379 326.379 L
214.5 328.5 L
215.379 330.621 L
217.5 331.5 L
219.621 330.621 L
cp
S
GR
GS
0.851 0.325 0.098 RC
1 LJ
N
225.5 329.5 M
224.621 327.379 L
222.5 326.5 L
220.379 327.379 L
219.5 329.5 L
220.379 331.621 L
222.5 332.5 L
224.621 331.621 L
cp
S
GR
GS
0.851 0.325 0.098 RC
1 LJ
N
229.5 329.5 M
228.621 327.379 L
226.5 326.5 L
224.379 327.379 L
223.5 329.5 L
224.379 331.621 L
226.5 332.5 L
228.621 331.621 L
cp
S
GR
GS
0.851 0.325 0.098 RC
1 LJ
N
234.5 329.5 M
233.621 327.379 L
231.5 326.5 L
229.379 327.379 L
228.5 329.5 L
229.379 331.621 L
231.5 332.5 L
233.621 331.621 L
cp
S
GR
GS
0.851 0.325 0.098 RC
1 LJ
N
238.5 329.5 M
237.621 327.379 L
235.5 326.5 L
233.379 327.379 L
232.5 329.5 L
233.379 331.621 L
235.5 332.5 L
237.621 331.621 L
cp
S
GR
GS
0.851 0.325 0.098 RC
1 LJ
N
243.5 329.5 M
242.621 327.379 L
240.5 326.5 L
238.379 327.379 L
237.5 329.5 L
238.379 331.621 L
240.5 332.5 L
242.621 331.621 L
cp
S
GR
GS
0.851 0.325 0.098 RC
1 LJ
N
247.5 329.5 M
246.621 327.379 L
244.5 326.5 L
242.379 327.379 L
241.5 329.5 L
242.379 331.621 L
244.5 332.5 L
246.621 331.621 L
cp
S
GR
GS
0.851 0.325 0.098 RC
1 LJ
N
252.5 329.5 M
251.621 327.379 L
249.5 326.5 L
247.379 327.379 L
246.5 329.5 L
247.379 331.621 L
249.5 332.5 L
251.621 331.621 L
cp
S
GR
GS
0.851 0.325 0.098 RC
1 LJ
N
256.5 329.5 M
255.621 327.379 L
253.5 326.5 L
251.379 327.379 L
250.5 329.5 L
251.379 331.621 L
253.5 332.5 L
255.621 331.621 L
cp
S
GR
GS
0.851 0.325 0.098 RC
1 LJ
N
261.5 329.5 M
260.621 327.379 L
258.5 326.5 L
256.379 327.379 L
255.5 329.5 L
256.379 331.621 L
258.5 332.5 L
260.621 331.621 L
cp
S
GR
GS
0.851 0.325 0.098 RC
1 LJ
N
265.5 329.5 M
264.621 327.379 L
262.5 326.5 L
260.379 327.379 L
259.5 329.5 L
260.379 331.621 L
262.5 332.5 L
264.621 331.621 L
cp
S
GR
GS
0.851 0.325 0.098 RC
1 LJ
N
269.5 329.5 M
268.621 327.379 L
266.5 326.5 L
264.379 327.379 L
263.5 329.5 L
264.379 331.621 L
266.5 332.5 L
268.621 331.621 L
cp
S
GR
GS
0.851 0.325 0.098 RC
1 LJ
N
274.5 329.5 M
273.621 327.379 L
271.5 326.5 L
269.379 327.379 L
268.5 329.5 L
269.379 331.621 L
271.5 332.5 L
273.621 331.621 L
cp
S
GR
GS
0.851 0.325 0.098 RC
1 LJ
N
278.5 329.5 M
277.621 327.379 L
275.5 326.5 L
273.379 327.379 L
272.5 329.5 L
273.379 331.621 L
275.5 332.5 L
277.621 331.621 L
cp
S
GR
GS
0.851 0.325 0.098 RC
1 LJ
N
283.5 329.5 M
282.621 327.379 L
280.5 326.5 L
278.379 327.379 L
277.5 329.5 L
278.379 331.621 L
280.5 332.5 L
282.621 331.621 L
cp
S
GR
GS
0.851 0.325 0.098 RC
1 LJ
N
287.5 329.5 M
286.621 327.379 L
284.5 326.5 L
282.379 327.379 L
281.5 329.5 L
282.379 331.621 L
284.5 332.5 L
286.621 331.621 L
cp
S
GR
GS
0.851 0.325 0.098 RC
1 LJ
N
292.5 329.5 M
291.621 327.379 L
289.5 326.5 L
287.379 327.379 L
286.5 329.5 L
287.379 331.621 L
289.5 332.5 L
291.621 331.621 L
cp
S
GR
GS
0.851 0.325 0.098 RC
1 LJ
N
296.5 329.5 M
295.621 327.379 L
293.5 326.5 L
291.379 327.379 L
290.5 329.5 L
291.379 331.621 L
293.5 332.5 L
295.621 331.621 L
cp
S
GR
GS
0.851 0.325 0.098 RC
1 LJ
N
301.5 329.5 M
300.621 327.379 L
298.5 326.5 L
296.379 327.379 L
295.5 329.5 L
296.379 331.621 L
298.5 332.5 L
300.621 331.621 L
cp
S
GR
GS
0.851 0.325 0.098 RC
1 LJ
N
305.5 329.5 M
304.621 327.379 L
302.5 326.5 L
300.379 327.379 L
299.5 329.5 L
300.379 331.621 L
302.5 332.5 L
304.621 331.621 L
cp
S
GR
GS
0.851 0.325 0.098 RC
1 LJ
N
310.5 329.5 M
309.621 327.379 L
307.5 326.5 L
305.379 327.379 L
304.5 329.5 L
305.379 331.621 L
307.5 332.5 L
309.621 331.621 L
cp
S
GR
GS
0.851 0.325 0.098 RC
1 LJ
N
314.5 329.5 M
313.621 327.379 L
311.5 326.5 L
309.379 327.379 L
308.5 329.5 L
309.379 331.621 L
311.5 332.5 L
313.621 331.621 L
cp
S
GR
GS
0.851 0.325 0.098 RC
1 LJ
N
319.5 329.5 M
318.621 327.379 L
316.5 326.5 L
314.379 327.379 L
313.5 329.5 L
314.379 331.621 L
316.5 332.5 L
318.621 331.621 L
cp
S
GR
GS
0.851 0.325 0.098 RC
1 LJ
N
323.5 329.5 M
322.621 327.379 L
320.5 326.5 L
318.379 327.379 L
317.5 329.5 L
318.379 331.621 L
320.5 332.5 L
322.621 331.621 L
cp
S
GR
GS
0.851 0.325 0.098 RC
1 LJ
N
328.5 329.5 M
327.621 327.379 L
325.5 326.5 L
323.379 327.379 L
322.5 329.5 L
323.379 331.621 L
325.5 332.5 L
327.621 331.621 L
cp
S
GR
GS
0.851 0.325 0.098 RC
1 LJ
N
332.5 329.5 M
331.621 327.379 L
329.5 326.5 L
327.379 327.379 L
326.5 329.5 L
327.379 331.621 L
329.5 332.5 L
331.621 331.621 L
cp
S
GR
GS
0.851 0.325 0.098 RC
1 LJ
N
336.5 329.5 M
335.621 327.379 L
333.5 326.5 L
331.379 327.379 L
330.5 329.5 L
331.379 331.621 L
333.5 332.5 L
335.621 331.621 L
cp
S
GR
GS
0.851 0.325 0.098 RC
1 LJ
N
341.5 329.5 M
340.621 327.379 L
338.5 326.5 L
336.379 327.379 L
335.5 329.5 L
336.379 331.621 L
338.5 332.5 L
340.621 331.621 L
cp
S
GR
GS
0.851 0.325 0.098 RC
1 LJ
N
345.5 329.5 M
344.621 327.379 L
342.5 326.5 L
340.379 327.379 L
339.5 329.5 L
340.379 331.621 L
342.5 332.5 L
344.621 331.621 L
cp
S
GR
GS
0.851 0.325 0.098 RC
1 LJ
N
350.5 329.5 M
349.621 327.379 L
347.5 326.5 L
345.379 327.379 L
344.5 329.5 L
345.379 331.621 L
347.5 332.5 L
349.621 331.621 L
cp
S
GR
GS
0.851 0.325 0.098 RC
1 LJ
N
354.5 329.5 M
353.621 327.379 L
351.5 326.5 L
349.379 327.379 L
348.5 329.5 L
349.379 331.621 L
351.5 332.5 L
353.621 331.621 L
cp
S
GR
GS
0.851 0.325 0.098 RC
1 LJ
N
359.5 329.5 M
358.621 327.379 L
356.5 326.5 L
354.379 327.379 L
353.5 329.5 L
354.379 331.621 L
356.5 332.5 L
358.621 331.621 L
cp
S
GR
GS
0.851 0.325 0.098 RC
1 LJ
N
363.5 329.5 M
362.621 327.379 L
360.5 326.5 L
358.379 327.379 L
357.5 329.5 L
358.379 331.621 L
360.5 332.5 L
362.621 331.621 L
cp
S
GR
GS
0.851 0.325 0.098 RC
1 LJ
N
368.5 329.5 M
367.621 327.379 L
365.5 326.5 L
363.379 327.379 L
362.5 329.5 L
363.379 331.621 L
365.5 332.5 L
367.621 331.621 L
cp
S
GR
GS
0.851 0.325 0.098 RC
1 LJ
N
372.5 329.5 M
371.621 327.379 L
369.5 326.5 L
367.379 327.379 L
366.5 329.5 L
367.379 331.621 L
369.5 332.5 L
371.621 331.621 L
cp
S
GR
GS
0.851 0.325 0.098 RC
1 LJ
N
377.5 329.5 M
376.621 327.379 L
374.5 326.5 L
372.379 327.379 L
371.5 329.5 L
372.379 331.621 L
374.5 332.5 L
376.621 331.621 L
cp
S
GR
GS
0.851 0.325 0.098 RC
1 LJ
N
381.5 329.5 M
380.621 327.379 L
378.5 326.5 L
376.379 327.379 L
375.5 329.5 L
376.379 331.621 L
378.5 332.5 L
380.621 331.621 L
cp
S
GR
GS
0.851 0.325 0.098 RC
1 LJ
N
386.5 329.5 M
385.621 327.379 L
383.5 326.5 L
381.379 327.379 L
380.5 329.5 L
381.379 331.621 L
383.5 332.5 L
385.621 331.621 L
cp
S
GR
GS
0.851 0.325 0.098 RC
1 LJ
N
390.5 329.5 M
389.621 327.379 L
387.5 326.5 L
385.379 327.379 L
384.5 329.5 L
385.379 331.621 L
387.5 332.5 L
389.621 331.621 L
cp
S
GR
GS
0.851 0.325 0.098 RC
1 LJ
N
395.5 329.5 M
394.621 327.379 L
392.5 326.5 L
390.379 327.379 L
389.5 329.5 L
390.379 331.621 L
392.5 332.5 L
394.621 331.621 L
cp
S
GR
GS
0.851 0.325 0.098 RC
1 LJ
N
399.5 329.5 M
398.621 327.379 L
396.5 326.5 L
394.379 327.379 L
393.5 329.5 L
394.379 331.621 L
396.5 332.5 L
398.621 331.621 L
cp
S
GR
GS
0.851 0.325 0.098 RC
1 LJ
N
403.5 329.5 M
402.621 327.379 L
400.5 326.5 L
398.379 327.379 L
397.5 329.5 L
398.379 331.621 L
400.5 332.5 L
402.621 331.621 L
cp
S
GR
GS
0.851 0.325 0.098 RC
1 LJ
N
408.5 329.5 M
407.621 327.379 L
405.5 326.5 L
403.379 327.379 L
402.5 329.5 L
403.379 331.621 L
405.5 332.5 L
407.621 331.621 L
cp
S
GR
GS
0.851 0.325 0.098 RC
1 LJ
N
412.5 329.5 M
411.621 327.379 L
409.5 326.5 L
407.379 327.379 L
406.5 329.5 L
407.379 331.621 L
409.5 332.5 L
411.621 331.621 L
cp
S
GR
GS
0.851 0.325 0.098 RC
1 LJ
N
417.5 329.5 M
416.621 327.379 L
414.5 326.5 L
412.379 327.379 L
411.5 329.5 L
412.379 331.621 L
414.5 332.5 L
416.621 331.621 L
cp
S
GR
GS
0.851 0.325 0.098 RC
1 LJ
N
421.5 329.5 M
420.621 327.379 L
418.5 326.5 L
416.379 327.379 L
415.5 329.5 L
416.379 331.621 L
418.5 332.5 L
420.621 331.621 L
cp
S
GR
GS
0.851 0.325 0.098 RC
1 LJ
N
426.5 329.5 M
425.621 327.379 L
423.5 326.5 L
421.379 327.379 L
420.5 329.5 L
421.379 331.621 L
423.5 332.5 L
425.621 331.621 L
cp
S
GR
GS
0.851 0.325 0.098 RC
1 LJ
N
430.5 329.5 M
429.621 327.379 L
427.5 326.5 L
425.379 327.379 L
424.5 329.5 L
425.379 331.621 L
427.5 332.5 L
429.621 331.621 L
cp
S
GR
GS
0.851 0.325 0.098 RC
1 LJ
N
435.5 329.5 M
434.621 327.379 L
432.5 326.5 L
430.379 327.379 L
429.5 329.5 L
430.379 331.621 L
432.5 332.5 L
434.621 331.621 L
cp
S
GR
GS
0.851 0.325 0.098 RC
1 LJ
N
439.5 329.5 M
438.621 327.379 L
436.5 326.5 L
434.379 327.379 L
433.5 329.5 L
434.379 331.621 L
436.5 332.5 L
438.621 331.621 L
cp
S
GR
GS
0.851 0.325 0.098 RC
1 LJ
N
444.5 329.5 M
443.621 327.379 L
441.5 326.5 L
439.379 327.379 L
438.5 329.5 L
439.379 331.621 L
441.5 332.5 L
443.621 331.621 L
cp
S
GR
GS
0.851 0.325 0.098 RC
1 LJ
N
448.5 329.5 M
447.621 327.379 L
445.5 326.5 L
443.379 327.379 L
442.5 329.5 L
443.379 331.621 L
445.5 332.5 L
447.621 331.621 L
cp
S
GR
GS
0.851 0.325 0.098 RC
1 LJ
N
453.5 329.5 M
452.621 327.379 L
450.5 326.5 L
448.379 327.379 L
447.5 329.5 L
448.379 331.621 L
450.5 332.5 L
452.621 331.621 L
cp
S
GR
GS
0.851 0.325 0.098 RC
1 LJ
N
457.5 329.5 M
456.621 327.379 L
454.5 326.5 L
452.379 327.379 L
451.5 329.5 L
452.379 331.621 L
454.5 332.5 L
456.621 331.621 L
cp
S
GR
GS
0.851 0.325 0.098 RC
1 LJ
N
461.5 329.5 M
460.621 327.379 L
458.5 326.5 L
456.379 327.379 L
455.5 329.5 L
456.379 331.621 L
458.5 332.5 L
460.621 331.621 L
cp
S
GR
GS
0.851 0.325 0.098 RC
1 LJ
N
466.5 329.5 M
465.621 327.379 L
463.5 326.5 L
461.379 327.379 L
460.5 329.5 L
461.379 331.621 L
463.5 332.5 L
465.621 331.621 L
cp
S
GR
GS
0.929 0.694 0.125 RC
1 LJ
N
79.465 198.336 M
83.93 127.519 L
88.395 221.757 L
92.86 180.179 L
97.325 234.622 L
101.79 221.544 L
106.255 246.688 L
110.72 244.648 L
115.185 251.813 L
119.65 256.273 L
124.115 267.15 L
128.58 270.155 L
133.045 275.107 L
137.51 275.734 L
141.975 281.89 L
146.44 283.755 L
150.905 289.053 L
155.37 287.496 L
159.835 291.515 L
164.3 292.034 L
168.765 294.713 L
173.23 294.843 L
177.695 296.576 L
182.16 297.21 L
186.625 299.752 L
191.09 299.781 L
195.555 301.952 L
200.02 303.229 L
204.485 303.012 L
208.95 305.712 L
213.415 304.067 L
217.88 307.909 L
222.345 306.642 L
226.81 308.761 L
231.275 308.694 L
235.74 309.663 L
240.205 311.002 L
244.67 310.771 L
249.135 311.369 L
253.6 312.063 L
258.065 312.761 L
262.53 312.863 L
266.995 312.739 L
271.46 312.887 L
275.925 312.955 L
280.39 313.135 L
284.855 313.213 L
289.32 313.18 L
293.785 313.158 L
298.25 313.224 L
S
GR
GS
0.929 0.694 0.125 RC
1 LJ
N
293.785 313.158 M
298.25 313.224 L
302.715 313.161 L
307.18 313.304 L
311.645 313.292 L
316.11 313.288 L
320.575 313.229 L
325.04 313.206 L
329.505 313.316 L
333.97 313.372 L
338.435 313.348 L
342.9 313.2 L
347.365 313.427 L
351.83 313.342 L
356.295 313.44 L
360.76 313.364 L
365.225 313.456 L
369.69 313.188 L
374.155 313.658 L
378.62 313.417 L
383.085 313.612 L
387.55 313.644 L
392.015 313.73 L
396.48 313.61 L
400.945 313.565 L
405.41 313.701 L
409.875 313.431 L
414.34 313.688 L
418.805 313.321 L
423.27 313.784 L
427.735 313.399 L
432.2 313.661 L
436.665 313.445 L
441.13 313.885 L
445.595 313.232 L
450.06 314.403 L
454.525 313.272 L
458.99 314.397 L
463.455 313.447 L
S
GR
GS
0.929 0.694 0.125 RC
1 LJ
N
82.5 198.5 M
81.621 196.379 L
79.5 195.5 L
77.379 196.379 L
76.5 198.5 L
77.379 200.621 L
79.5 201.5 L
81.621 200.621 L
cp
S
GR
GS
0.929 0.694 0.125 RC
1 LJ
N
86.5 127.5 M
85.621 125.379 L
83.5 124.5 L
81.379 125.379 L
80.5 127.5 L
81.379 129.621 L
83.5 130.5 L
85.621 129.621 L
cp
S
GR
GS
0.929 0.694 0.125 RC
1 LJ
N
91.5 221.5 M
90.621 219.379 L
88.5 218.5 L
86.379 219.379 L
85.5 221.5 L
86.379 223.621 L
88.5 224.5 L
90.621 223.621 L
cp
S
GR
GS
0.929 0.694 0.125 RC
1 LJ
N
95.5 180.5 M
94.621 178.379 L
92.5 177.5 L
90.379 178.379 L
89.5 180.5 L
90.379 182.621 L
92.5 183.5 L
94.621 182.621 L
cp
S
GR
GS
0.929 0.694 0.125 RC
1 LJ
N
100.5 234.5 M
99.621 232.379 L
97.5 231.5 L
95.379 232.379 L
94.5 234.5 L
95.379 236.621 L
97.5 237.5 L
99.621 236.621 L
cp
S
GR
GS
0.929 0.694 0.125 RC
1 LJ
N
104.5 221.5 M
103.621 219.379 L
101.5 218.5 L
99.379 219.379 L
98.5 221.5 L
99.379 223.621 L
101.5 224.5 L
103.621 223.621 L
cp
S
GR
GS
0.929 0.694 0.125 RC
1 LJ
N
109.5 246.5 M
108.621 244.379 L
106.5 243.5 L
104.379 244.379 L
103.5 246.5 L
104.379 248.621 L
106.5 249.5 L
108.621 248.621 L
cp
S
GR
GS
0.929 0.694 0.125 RC
1 LJ
N
113.5 244.5 M
112.621 242.379 L
110.5 241.5 L
108.379 242.379 L
107.5 244.5 L
108.379 246.621 L
110.5 247.5 L
112.621 246.621 L
cp
S
GR
GS
0.929 0.694 0.125 RC
1 LJ
N
118.5 251.5 M
117.621 249.379 L
115.5 248.5 L
113.379 249.379 L
112.5 251.5 L
113.379 253.621 L
115.5 254.5 L
117.621 253.621 L
cp
S
GR
GS
0.929 0.694 0.125 RC
1 LJ
N
122.5 256.5 M
121.621 254.379 L
119.5 253.5 L
117.379 254.379 L
116.5 256.5 L
117.379 258.621 L
119.5 259.5 L
121.621 258.621 L
cp
S
GR
GS
0.929 0.694 0.125 RC
1 LJ
N
127.5 267.5 M
126.621 265.379 L
124.5 264.5 L
122.379 265.379 L
121.5 267.5 L
122.379 269.621 L
124.5 270.5 L
126.621 269.621 L
cp
S
GR
GS
0.929 0.694 0.125 RC
1 LJ
N
131.5 270.5 M
130.621 268.379 L
128.5 267.5 L
126.379 268.379 L
125.5 270.5 L
126.379 272.621 L
128.5 273.5 L
130.621 272.621 L
cp
S
GR
GS
0.929 0.694 0.125 RC
1 LJ
N
136.5 275.5 M
135.621 273.379 L
133.5 272.5 L
131.379 273.379 L
130.5 275.5 L
131.379 277.621 L
133.5 278.5 L
135.621 277.621 L
cp
S
GR
GS
0.929 0.694 0.125 RC
1 LJ
N
140.5 275.5 M
139.621 273.379 L
137.5 272.5 L
135.379 273.379 L
134.5 275.5 L
135.379 277.621 L
137.5 278.5 L
139.621 277.621 L
cp
S
GR
GS
0.929 0.694 0.125 RC
1 LJ
N
144.5 281.5 M
143.621 279.379 L
141.5 278.5 L
139.379 279.379 L
138.5 281.5 L
139.379 283.621 L
141.5 284.5 L
143.621 283.621 L
cp
S
GR
GS
0.929 0.694 0.125 RC
1 LJ
N
149.5 283.5 M
148.621 281.379 L
146.5 280.5 L
144.379 281.379 L
143.5 283.5 L
144.379 285.621 L
146.5 286.5 L
148.621 285.621 L
cp
S
GR
GS
0.929 0.694 0.125 RC
1 LJ
N
153.5 289.5 M
152.621 287.379 L
150.5 286.5 L
148.379 287.379 L
147.5 289.5 L
148.379 291.621 L
150.5 292.5 L
152.621 291.621 L
cp
S
GR
GS
0.929 0.694 0.125 RC
1 LJ
N
158.5 287.5 M
157.621 285.379 L
155.5 284.5 L
153.379 285.379 L
152.5 287.5 L
153.379 289.621 L
155.5 290.5 L
157.621 289.621 L
cp
S
GR
GS
0.929 0.694 0.125 RC
1 LJ
N
162.5 291.5 M
161.621 289.379 L
159.5 288.5 L
157.379 289.379 L
156.5 291.5 L
157.379 293.621 L
159.5 294.5 L
161.621 293.621 L
cp
S
GR
GS
0.929 0.694 0.125 RC
1 LJ
N
167.5 292.5 M
166.621 290.379 L
164.5 289.5 L
162.379 290.379 L
161.5 292.5 L
162.379 294.621 L
164.5 295.5 L
166.621 294.621 L
cp
S
GR
GS
0.929 0.694 0.125 RC
1 LJ
N
171.5 294.5 M
170.621 292.379 L
168.5 291.5 L
166.379 292.379 L
165.5 294.5 L
166.379 296.621 L
168.5 297.5 L
170.621 296.621 L
cp
S
GR
GS
0.929 0.694 0.125 RC
1 LJ
N
176.5 294.5 M
175.621 292.379 L
173.5 291.5 L
171.379 292.379 L
170.5 294.5 L
171.379 296.621 L
173.5 297.5 L
175.621 296.621 L
cp
S
GR
GS
0.929 0.694 0.125 RC
1 LJ
N
180.5 296.5 M
179.621 294.379 L
177.5 293.5 L
175.379 294.379 L
174.5 296.5 L
175.379 298.621 L
177.5 299.5 L
179.621 298.621 L
cp
S
GR
GS
0.929 0.694 0.125 RC
1 LJ
N
185.5 297.5 M
184.621 295.379 L
182.5 294.5 L
180.379 295.379 L
179.5 297.5 L
180.379 299.621 L
182.5 300.5 L
184.621 299.621 L
cp
S
GR
GS
0.929 0.694 0.125 RC
1 LJ
N
189.5 299.5 M
188.621 297.379 L
186.5 296.5 L
184.379 297.379 L
183.5 299.5 L
184.379 301.621 L
186.5 302.5 L
188.621 301.621 L
cp
S
GR
GS
0.929 0.694 0.125 RC
1 LJ
N
194.5 299.5 M
193.621 297.379 L
191.5 296.5 L
189.379 297.379 L
188.5 299.5 L
189.379 301.621 L
191.5 302.5 L
193.621 301.621 L
cp
S
GR
GS
0.929 0.694 0.125 RC
1 LJ
N
198.5 301.5 M
197.621 299.379 L
195.5 298.5 L
193.379 299.379 L
192.5 301.5 L
193.379 303.621 L
195.5 304.5 L
197.621 303.621 L
cp
S
GR
GS
0.929 0.694 0.125 RC
1 LJ
N
203.5 303.5 M
202.621 301.379 L
200.5 300.5 L
198.379 301.379 L
197.5 303.5 L
198.379 305.621 L
200.5 306.5 L
202.621 305.621 L
cp
S
GR
GS
0.929 0.694 0.125 RC
1 LJ
N
207.5 303.5 M
206.621 301.379 L
204.5 300.5 L
202.379 301.379 L
201.5 303.5 L
202.379 305.621 L
204.5 306.5 L
206.621 305.621 L
cp
S
GR
GS
0.929 0.694 0.125 RC
1 LJ
N
211.5 305.5 M
210.621 303.379 L
208.5 302.5 L
206.379 303.379 L
205.5 305.5 L
206.379 307.621 L
208.5 308.5 L
210.621 307.621 L
cp
S
GR
GS
0.929 0.694 0.125 RC
1 LJ
N
216.5 304.5 M
215.621 302.379 L
213.5 301.5 L
211.379 302.379 L
210.5 304.5 L
211.379 306.621 L
213.5 307.5 L
215.621 306.621 L
cp
S
GR
GS
0.929 0.694 0.125 RC
1 LJ
N
220.5 307.5 M
219.621 305.379 L
217.5 304.5 L
215.379 305.379 L
214.5 307.5 L
215.379 309.621 L
217.5 310.5 L
219.621 309.621 L
cp
S
GR
GS
0.929 0.694 0.125 RC
1 LJ
N
225.5 306.5 M
224.621 304.379 L
222.5 303.5 L
220.379 304.379 L
219.5 306.5 L
220.379 308.621 L
222.5 309.5 L
224.621 308.621 L
cp
S
GR
GS
0.929 0.694 0.125 RC
1 LJ
N
229.5 308.5 M
228.621 306.379 L
226.5 305.5 L
224.379 306.379 L
223.5 308.5 L
224.379 310.621 L
226.5 311.5 L
228.621 310.621 L
cp
S
GR
GS
0.929 0.694 0.125 RC
1 LJ
N
234.5 308.5 M
233.621 306.379 L
231.5 305.5 L
229.379 306.379 L
228.5 308.5 L
229.379 310.621 L
231.5 311.5 L
233.621 310.621 L
cp
S
GR
GS
0.929 0.694 0.125 RC
1 LJ
N
238.5 309.5 M
237.621 307.379 L
235.5 306.5 L
233.379 307.379 L
232.5 309.5 L
233.379 311.621 L
235.5 312.5 L
237.621 311.621 L
cp
S
GR
GS
0.929 0.694 0.125 RC
1 LJ
N
243.5 311.5 M
242.621 309.379 L
240.5 308.5 L
238.379 309.379 L
237.5 311.5 L
238.379 313.621 L
240.5 314.5 L
242.621 313.621 L
cp
S
GR
GS
0.929 0.694 0.125 RC
1 LJ
N
247.5 310.5 M
246.621 308.379 L
244.5 307.5 L
242.379 308.379 L
241.5 310.5 L
242.379 312.621 L
244.5 313.5 L
246.621 312.621 L
cp
S
GR
GS
0.929 0.694 0.125 RC
1 LJ
N
252.5 311.5 M
251.621 309.379 L
249.5 308.5 L
247.379 309.379 L
246.5 311.5 L
247.379 313.621 L
249.5 314.5 L
251.621 313.621 L
cp
S
GR
GS
0.929 0.694 0.125 RC
1 LJ
N
256.5 312.5 M
255.621 310.379 L
253.5 309.5 L
251.379 310.379 L
250.5 312.5 L
251.379 314.621 L
253.5 315.5 L
255.621 314.621 L
cp
S
GR
GS
0.929 0.694 0.125 RC
1 LJ
N
261.5 312.5 M
260.621 310.379 L
258.5 309.5 L
256.379 310.379 L
255.5 312.5 L
256.379 314.621 L
258.5 315.5 L
260.621 314.621 L
cp
S
GR
GS
0.929 0.694 0.125 RC
1 LJ
N
265.5 312.5 M
264.621 310.379 L
262.5 309.5 L
260.379 310.379 L
259.5 312.5 L
260.379 314.621 L
262.5 315.5 L
264.621 314.621 L
cp
S
GR
GS
0.929 0.694 0.125 RC
1 LJ
N
269.5 312.5 M
268.621 310.379 L
266.5 309.5 L
264.379 310.379 L
263.5 312.5 L
264.379 314.621 L
266.5 315.5 L
268.621 314.621 L
cp
S
GR
GS
0.929 0.694 0.125 RC
1 LJ
N
274.5 312.5 M
273.621 310.379 L
271.5 309.5 L
269.379 310.379 L
268.5 312.5 L
269.379 314.621 L
271.5 315.5 L
273.621 314.621 L
cp
S
GR
GS
0.929 0.694 0.125 RC
1 LJ
N
278.5 312.5 M
277.621 310.379 L
275.5 309.5 L
273.379 310.379 L
272.5 312.5 L
273.379 314.621 L
275.5 315.5 L
277.621 314.621 L
cp
S
GR
GS
0.929 0.694 0.125 RC
1 LJ
N
283.5 313.5 M
282.621 311.379 L
280.5 310.5 L
278.379 311.379 L
277.5 313.5 L
278.379 315.621 L
280.5 316.5 L
282.621 315.621 L
cp
S
GR
GS
0.929 0.694 0.125 RC
1 LJ
N
287.5 313.5 M
286.621 311.379 L
284.5 310.5 L
282.379 311.379 L
281.5 313.5 L
282.379 315.621 L
284.5 316.5 L
286.621 315.621 L
cp
S
GR
GS
0.929 0.694 0.125 RC
1 LJ
N
292.5 313.5 M
291.621 311.379 L
289.5 310.5 L
287.379 311.379 L
286.5 313.5 L
287.379 315.621 L
289.5 316.5 L
291.621 315.621 L
cp
S
GR
GS
0.929 0.694 0.125 RC
1 LJ
N
296.5 313.5 M
295.621 311.379 L
293.5 310.5 L
291.379 311.379 L
290.5 313.5 L
291.379 315.621 L
293.5 316.5 L
295.621 315.621 L
cp
S
GR
GS
0.929 0.694 0.125 RC
1 LJ
N
301.5 313.5 M
300.621 311.379 L
298.5 310.5 L
296.379 311.379 L
295.5 313.5 L
296.379 315.621 L
298.5 316.5 L
300.621 315.621 L
cp
S
GR
GS
0.929 0.694 0.125 RC
1 LJ
N
305.5 313.5 M
304.621 311.379 L
302.5 310.5 L
300.379 311.379 L
299.5 313.5 L
300.379 315.621 L
302.5 316.5 L
304.621 315.621 L
cp
S
GR
GS
0.929 0.694 0.125 RC
1 LJ
N
310.5 313.5 M
309.621 311.379 L
307.5 310.5 L
305.379 311.379 L
304.5 313.5 L
305.379 315.621 L
307.5 316.5 L
309.621 315.621 L
cp
S
GR
GS
0.929 0.694 0.125 RC
1 LJ
N
314.5 313.5 M
313.621 311.379 L
311.5 310.5 L
309.379 311.379 L
308.5 313.5 L
309.379 315.621 L
311.5 316.5 L
313.621 315.621 L
cp
S
GR
GS
0.929 0.694 0.125 RC
1 LJ
N
319.5 313.5 M
318.621 311.379 L
316.5 310.5 L
314.379 311.379 L
313.5 313.5 L
314.379 315.621 L
316.5 316.5 L
318.621 315.621 L
cp
S
GR
GS
0.929 0.694 0.125 RC
1 LJ
N
323.5 313.5 M
322.621 311.379 L
320.5 310.5 L
318.379 311.379 L
317.5 313.5 L
318.379 315.621 L
320.5 316.5 L
322.621 315.621 L
cp
S
GR
GS
0.929 0.694 0.125 RC
1 LJ
N
328.5 313.5 M
327.621 311.379 L
325.5 310.5 L
323.379 311.379 L
322.5 313.5 L
323.379 315.621 L
325.5 316.5 L
327.621 315.621 L
cp
S
GR
GS
0.929 0.694 0.125 RC
1 LJ
N
332.5 313.5 M
331.621 311.379 L
329.5 310.5 L
327.379 311.379 L
326.5 313.5 L
327.379 315.621 L
329.5 316.5 L
331.621 315.621 L
cp
S
GR
GS
0.929 0.694 0.125 RC
1 LJ
N
336.5 313.5 M
335.621 311.379 L
333.5 310.5 L
331.379 311.379 L
330.5 313.5 L
331.379 315.621 L
333.5 316.5 L
335.621 315.621 L
cp
S
GR
GS
0.929 0.694 0.125 RC
1 LJ
N
341.5 313.5 M
340.621 311.379 L
338.5 310.5 L
336.379 311.379 L
335.5 313.5 L
336.379 315.621 L
338.5 316.5 L
340.621 315.621 L
cp
S
GR
GS
0.929 0.694 0.125 RC
1 LJ
N
345.5 313.5 M
344.621 311.379 L
342.5 310.5 L
340.379 311.379 L
339.5 313.5 L
340.379 315.621 L
342.5 316.5 L
344.621 315.621 L
cp
S
GR
GS
0.929 0.694 0.125 RC
1 LJ
N
350.5 313.5 M
349.621 311.379 L
347.5 310.5 L
345.379 311.379 L
344.5 313.5 L
345.379 315.621 L
347.5 316.5 L
349.621 315.621 L
cp
S
GR
GS
0.929 0.694 0.125 RC
1 LJ
N
354.5 313.5 M
353.621 311.379 L
351.5 310.5 L
349.379 311.379 L
348.5 313.5 L
349.379 315.621 L
351.5 316.5 L
353.621 315.621 L
cp
S
GR
GS
0.929 0.694 0.125 RC
1 LJ
N
359.5 313.5 M
358.621 311.379 L
356.5 310.5 L
354.379 311.379 L
353.5 313.5 L
354.379 315.621 L
356.5 316.5 L
358.621 315.621 L
cp
S
GR
GS
0.929 0.694 0.125 RC
1 LJ
N
363.5 313.5 M
362.621 311.379 L
360.5 310.5 L
358.379 311.379 L
357.5 313.5 L
358.379 315.621 L
360.5 316.5 L
362.621 315.621 L
cp
S
GR
GS
0.929 0.694 0.125 RC
1 LJ
N
368.5 313.5 M
367.621 311.379 L
365.5 310.5 L
363.379 311.379 L
362.5 313.5 L
363.379 315.621 L
365.5 316.5 L
367.621 315.621 L
cp
S
GR
GS
0.929 0.694 0.125 RC
1 LJ
N
372.5 313.5 M
371.621 311.379 L
369.5 310.5 L
367.379 311.379 L
366.5 313.5 L
367.379 315.621 L
369.5 316.5 L
371.621 315.621 L
cp
S
GR
GS
0.929 0.694 0.125 RC
1 LJ
N
377.5 313.5 M
376.621 311.379 L
374.5 310.5 L
372.379 311.379 L
371.5 313.5 L
372.379 315.621 L
374.5 316.5 L
376.621 315.621 L
cp
S
GR
GS
0.929 0.694 0.125 RC
1 LJ
N
381.5 313.5 M
380.621 311.379 L
378.5 310.5 L
376.379 311.379 L
375.5 313.5 L
376.379 315.621 L
378.5 316.5 L
380.621 315.621 L
cp
S
GR
GS
0.929 0.694 0.125 RC
1 LJ
N
386.5 313.5 M
385.621 311.379 L
383.5 310.5 L
381.379 311.379 L
380.5 313.5 L
381.379 315.621 L
383.5 316.5 L
385.621 315.621 L
cp
S
GR
GS
0.929 0.694 0.125 RC
1 LJ
N
390.5 313.5 M
389.621 311.379 L
387.5 310.5 L
385.379 311.379 L
384.5 313.5 L
385.379 315.621 L
387.5 316.5 L
389.621 315.621 L
cp
S
GR
GS
0.929 0.694 0.125 RC
1 LJ
N
395.5 313.5 M
394.621 311.379 L
392.5 310.5 L
390.379 311.379 L
389.5 313.5 L
390.379 315.621 L
392.5 316.5 L
394.621 315.621 L
cp
S
GR
GS
0.929 0.694 0.125 RC
1 LJ
N
399.5 313.5 M
398.621 311.379 L
396.5 310.5 L
394.379 311.379 L
393.5 313.5 L
394.379 315.621 L
396.5 316.5 L
398.621 315.621 L
cp
S
GR
GS
0.929 0.694 0.125 RC
1 LJ
N
403.5 313.5 M
402.621 311.379 L
400.5 310.5 L
398.379 311.379 L
397.5 313.5 L
398.379 315.621 L
400.5 316.5 L
402.621 315.621 L
cp
S
GR
GS
0.929 0.694 0.125 RC
1 LJ
N
408.5 313.5 M
407.621 311.379 L
405.5 310.5 L
403.379 311.379 L
402.5 313.5 L
403.379 315.621 L
405.5 316.5 L
407.621 315.621 L
cp
S
GR
GS
0.929 0.694 0.125 RC
1 LJ
N
412.5 313.5 M
411.621 311.379 L
409.5 310.5 L
407.379 311.379 L
406.5 313.5 L
407.379 315.621 L
409.5 316.5 L
411.621 315.621 L
cp
S
GR
GS
0.929 0.694 0.125 RC
1 LJ
N
417.5 313.5 M
416.621 311.379 L
414.5 310.5 L
412.379 311.379 L
411.5 313.5 L
412.379 315.621 L
414.5 316.5 L
416.621 315.621 L
cp
S
GR
GS
0.929 0.694 0.125 RC
1 LJ
N
421.5 313.5 M
420.621 311.379 L
418.5 310.5 L
416.379 311.379 L
415.5 313.5 L
416.379 315.621 L
418.5 316.5 L
420.621 315.621 L
cp
S
GR
GS
0.929 0.694 0.125 RC
1 LJ
N
426.5 313.5 M
425.621 311.379 L
423.5 310.5 L
421.379 311.379 L
420.5 313.5 L
421.379 315.621 L
423.5 316.5 L
425.621 315.621 L
cp
S
GR
GS
0.929 0.694 0.125 RC
1 LJ
N
430.5 313.5 M
429.621 311.379 L
427.5 310.5 L
425.379 311.379 L
424.5 313.5 L
425.379 315.621 L
427.5 316.5 L
429.621 315.621 L
cp
S
GR
GS
0.929 0.694 0.125 RC
1 LJ
N
435.5 313.5 M
434.621 311.379 L
432.5 310.5 L
430.379 311.379 L
429.5 313.5 L
430.379 315.621 L
432.5 316.5 L
434.621 315.621 L
cp
S
GR
GS
0.929 0.694 0.125 RC
1 LJ
N
439.5 313.5 M
438.621 311.379 L
436.5 310.5 L
434.379 311.379 L
433.5 313.5 L
434.379 315.621 L
436.5 316.5 L
438.621 315.621 L
cp
S
GR
GS
0.929 0.694 0.125 RC
1 LJ
N
444.5 313.5 M
443.621 311.379 L
441.5 310.5 L
439.379 311.379 L
438.5 313.5 L
439.379 315.621 L
441.5 316.5 L
443.621 315.621 L
cp
S
GR
GS
0.929 0.694 0.125 RC
1 LJ
N
448.5 313.5 M
447.621 311.379 L
445.5 310.5 L
443.379 311.379 L
442.5 313.5 L
443.379 315.621 L
445.5 316.5 L
447.621 315.621 L
cp
S
GR
GS
0.929 0.694 0.125 RC
1 LJ
N
453.5 314.5 M
452.621 312.379 L
450.5 311.5 L
448.379 312.379 L
447.5 314.5 L
448.379 316.621 L
450.5 317.5 L
452.621 316.621 L
cp
S
GR
GS
0.929 0.694 0.125 RC
1 LJ
N
457.5 313.5 M
456.621 311.379 L
454.5 310.5 L
452.379 311.379 L
451.5 313.5 L
452.379 315.621 L
454.5 316.5 L
456.621 315.621 L
cp
S
GR
GS
0.929 0.694 0.125 RC
1 LJ
N
461.5 314.5 M
460.621 312.379 L
458.5 311.5 L
456.379 312.379 L
455.5 314.5 L
456.379 316.621 L
458.5 317.5 L
460.621 316.621 L
cp
S
GR
GS
0.929 0.694 0.125 RC
1 LJ
N
466.5 313.5 M
465.621 311.379 L
463.5 310.5 L
461.379 311.379 L
460.5 313.5 L
461.379 315.621 L
463.5 316.5 L
465.621 315.621 L
cp
S
GR
GS
[1 0 0 1 360 53.75] CT
/Helvetica 18 F
GS
[1 0 0 1 0 0] CT
0 4.5 moveto 
1 -1 scale
(Random shuffling) t 
GR
GR
GS
0 0.447 0.741 RC
1 LJ
N
327 53.75 M
357 53.75 L
S
GR
GS
0 0.447 0.741 RC
1 LJ
N
344.5 53.5 M
343.621 51.379 L
341.5 50.5 L
339.379 51.379 L
338.5 53.5 L
339.379 55.621 L
341.5 56.5 L
343.621 55.621 L
cp
S
GR
GS
[1 0 0 1 360 72.75] CT
/Helvetica 18 F
GS
[1 0 0 1 0 0] CT
0 4.5 moveto 
1 -1 scale
(Weighted shuffling) t 
GR
GR
GS
0.851 0.325 0.098 RC
1 LJ
N
327 72.75 M
357 72.75 L
S
GR
GS
0.851 0.325 0.098 RC
1 LJ
N
344.5 72.5 M
343.621 70.379 L
341.5 69.5 L
339.379 70.379 L
338.5 72.5 L
339.379 74.621 L
341.5 75.5 L
343.621 74.621 L
cp
S
GR
GS
[1 0 0 1 360 91.75] CT
/Helvetica 18 F
GS
[1 0 0 1 0 0] CT
0 4.5 moveto 
1 -1 scale
(Smart shuffling) t 
GR
GR
GS
0.929 0.694 0.125 RC
1 LJ
N
327 91.75 M
357 91.75 L
S
GR
GS
0.929 0.694 0.125 RC
1 LJ
N
344.5 91.5 M
343.621 89.379 L
341.5 88.5 L
339.379 89.379 L
338.5 91.5 L
339.379 93.621 L
341.5 94.5 L
343.621 93.621 L
cp
S
GR
%%Trailer
%%Pages: 1
%%EOF
