%!PS-Adobe-3.0 EPSF-3.0
%%Creator: (MATLAB, The Mathworks, Inc. Version 8.6.0.267246 \(R2015b\). Operating System: Mac OS X)
%%Title: /Users/gauthiermuguerza/Desktop/rsgd/report/images/movieLensTrain.eps
%%CreationDate: 2018-06-05T10:14:57
%%Pages: (atend)
%%BoundingBox:    17     0   538   409
%%LanguageLevel: 3
%%EndComments
%%BeginProlog
%%BeginResource: procset (Apache XML Graphics Std ProcSet) 1.2 0
%%Version: 1.2 0
%%Copyright: (Copyright 2001-2003,2010 The Apache Software Foundation. License terms: http://www.apache.org/licenses/LICENSE-2.0)
/bd{bind def}bind def
/ld{load def}bd
/GR/grestore ld
/M/moveto ld
/LJ/setlinejoin ld
/C/curveto ld
/f/fill ld
/LW/setlinewidth ld
/GC/setgray ld
/t/show ld
/N/newpath ld
/CT/concat ld
/cp/closepath ld
/S/stroke ld
/L/lineto ld
/CC/setcmykcolor ld
/A/ashow ld
/GS/gsave ld
/RC/setrgbcolor ld
/RM/rmoveto ld
/ML/setmiterlimit ld
/re {4 2 roll M
1 index 0 rlineto
0 exch rlineto
neg 0 rlineto
cp } bd
/_ctm matrix def
/_tm matrix def
/BT { _ctm currentmatrix pop matrix _tm copy pop 0 0 moveto } bd
/ET { _ctm setmatrix } bd
/iTm { _ctm setmatrix _tm concat } bd
/Tm { _tm astore pop iTm 0 0 moveto } bd
/ux 0.0 def
/uy 0.0 def
/F {
  /Tp exch def
  /Tf exch def
  Tf findfont Tp scalefont setfont
  /cf Tf def  /cs Tp def
} bd
/ULS {currentpoint /uy exch def /ux exch def} bd
/ULE {
  /Tcx currentpoint pop def
  gsave
  newpath
  cf findfont cs scalefont dup
  /FontMatrix get 0 get /Ts exch def /FontInfo get dup
  /UnderlinePosition get Ts mul /To exch def
  /UnderlineThickness get Ts mul /Tt exch def
  ux uy To add moveto  Tcx uy To add lineto
  Tt setlinewidth stroke
  grestore
} bd
/OLE {
  /Tcx currentpoint pop def
  gsave
  newpath
  cf findfont cs scalefont dup
  /FontMatrix get 0 get /Ts exch def /FontInfo get dup
  /UnderlinePosition get Ts mul /To exch def
  /UnderlineThickness get Ts mul /Tt exch def
  ux uy To add cs add moveto Tcx uy To add cs add lineto
  Tt setlinewidth stroke
  grestore
} bd
/SOE {
  /Tcx currentpoint pop def
  gsave
  newpath
  cf findfont cs scalefont dup
  /FontMatrix get 0 get /Ts exch def /FontInfo get dup
  /UnderlinePosition get Ts mul /To exch def
  /UnderlineThickness get Ts mul /Tt exch def
  ux uy To add cs 10 mul 26 idiv add moveto Tcx uy To add cs 10 mul 26 idiv add lineto
  Tt setlinewidth stroke
  grestore
} bd
/QT {
/Y22 exch store
/X22 exch store
/Y21 exch store
/X21 exch store
currentpoint
/Y21 load 2 mul add 3 div exch
/X21 load 2 mul add 3 div exch
/X21 load 2 mul /X22 load add 3 div
/Y21 load 2 mul /Y22 load add 3 div
/X22 load /Y22 load curveto
} bd
/SSPD {
dup length /d exch dict def
{
/v exch def
/k exch def
currentpagedevice k known {
/cpdv currentpagedevice k get def
v cpdv ne {
/upd false def
/nullv v type /nulltype eq def
/nullcpdv cpdv type /nulltype eq def
nullv nullcpdv or
{
/upd true def
} {
/sametype v type cpdv type eq def
sametype {
v type /arraytype eq {
/vlen v length def
/cpdvlen cpdv length def
vlen cpdvlen eq {
0 1 vlen 1 sub {
/i exch def
/obj v i get def
/cpdobj cpdv i get def
obj cpdobj ne {
/upd true def
exit
} if
} for
} {
/upd true def
} ifelse
} {
v type /dicttype eq {
v {
/dv exch def
/dk exch def
/cpddv cpdv dk get def
dv cpddv ne {
/upd true def
exit
} if
} forall
} {
/upd true def
} ifelse
} ifelse
} if
} ifelse
upd true eq {
d k v put
} if
} if
} if
} forall
d length 0 gt {
d setpagedevice
} if
} bd
%%EndResource
%%BeginResource: procset (Apache XML Graphics EPS ProcSet) 1.0 0
%%Version: 1.0 0
%%Copyright: (Copyright 2002-2003 The Apache Software Foundation. License terms: http://www.apache.org/licenses/LICENSE-2.0)
/BeginEPSF { %def
/b4_Inc_state save def         % Save state for cleanup
/dict_count countdictstack def % Count objects on dict stack
/op_count count 1 sub def      % Count objects on operand stack
userdict begin                 % Push userdict on dict stack
/showpage { } def              % Redefine showpage, { } = null proc
0 setgray 0 setlinecap         % Prepare graphics state
1 setlinewidth 0 setlinejoin
10 setmiterlimit [ ] 0 setdash newpath
/languagelevel where           % If level not equal to 1 then
{pop languagelevel             % set strokeadjust and
1 ne                           % overprint to their defaults.
{false setstrokeadjust false setoverprint
} if
} if
} bd
/EndEPSF { %def
count op_count sub {pop} repeat            % Clean up stacks
countdictstack dict_count sub {end} repeat
b4_Inc_state restore
} bd
%%EndResource
%FOPBeginFontDict
%%IncludeResource: font Courier-Bold
%%IncludeResource: font Helvetica
%%IncludeResource: font Courier-BoldOblique
%%IncludeResource: font Courier-Oblique
%%IncludeResource: font Times-Roman
%%IncludeResource: font Helvetica-BoldOblique
%%IncludeResource: font Helvetica-Bold
%%IncludeResource: font Helvetica-Oblique
%%IncludeResource: font Times-BoldItalic
%%IncludeResource: font Courier
%%IncludeResource: font Times-Italic
%%IncludeResource: font Times-Bold
%%IncludeResource: font Symbol
%%IncludeResource: font ZapfDingbats
%FOPEndFontDict
%%BeginResource: encoding WinAnsiEncoding
/WinAnsiEncoding [
/.notdef /.notdef /.notdef /.notdef /.notdef
/.notdef /.notdef /.notdef /.notdef /.notdef
/.notdef /.notdef /.notdef /.notdef /.notdef
/.notdef /.notdef /.notdef /.notdef /.notdef
/.notdef /.notdef /.notdef /.notdef /.notdef
/.notdef /.notdef /.notdef /.notdef /.notdef
/.notdef /.notdef /space /exclam /quotedbl
/numbersign /dollar /percent /ampersand /quotesingle
/parenleft /parenright /asterisk /plus /comma
/hyphen /period /slash /zero /one
/two /three /four /five /six
/seven /eight /nine /colon /semicolon
/less /equal /greater /question /at
/A /B /C /D /E
/F /G /H /I /J
/K /L /M /N /O
/P /Q /R /S /T
/U /V /W /X /Y
/Z /bracketleft /backslash /bracketright /asciicircum
/underscore /quoteleft /a /b /c
/d /e /f /g /h
/i /j /k /l /m
/n /o /p /q /r
/s /t /u /v /w
/x /y /z /braceleft /bar
/braceright /asciitilde /bullet /Euro /bullet
/quotesinglbase /florin /quotedblbase /ellipsis /dagger
/daggerdbl /circumflex /perthousand /Scaron /guilsinglleft
/OE /bullet /Zcaron /bullet /bullet
/quoteleft /quoteright /quotedblleft /quotedblright /bullet
/endash /emdash /asciitilde /trademark /scaron
/guilsinglright /oe /bullet /zcaron /Ydieresis
/space /exclamdown /cent /sterling /currency
/yen /brokenbar /section /dieresis /copyright
/ordfeminine /guillemotleft /logicalnot /sfthyphen /registered
/macron /degree /plusminus /twosuperior /threesuperior
/acute /mu /paragraph /middot /cedilla
/onesuperior /ordmasculine /guillemotright /onequarter /onehalf
/threequarters /questiondown /Agrave /Aacute /Acircumflex
/Atilde /Adieresis /Aring /AE /Ccedilla
/Egrave /Eacute /Ecircumflex /Edieresis /Igrave
/Iacute /Icircumflex /Idieresis /Eth /Ntilde
/Ograve /Oacute /Ocircumflex /Otilde /Odieresis
/multiply /Oslash /Ugrave /Uacute /Ucircumflex
/Udieresis /Yacute /Thorn /germandbls /agrave
/aacute /acircumflex /atilde /adieresis /aring
/ae /ccedilla /egrave /eacute /ecircumflex
/edieresis /igrave /iacute /icircumflex /idieresis
/eth /ntilde /ograve /oacute /ocircumflex
/otilde /odieresis /divide /oslash /ugrave
/uacute /ucircumflex /udieresis /yacute /thorn
/ydieresis
] def
%%EndResource
%FOPBeginFontReencode
/Courier-Bold findfont
dup length dict begin
  {1 index /FID ne {def} {pop pop} ifelse} forall
  /Encoding WinAnsiEncoding def
  currentdict
end
/Courier-Bold exch definefont pop
/Helvetica findfont
dup length dict begin
  {1 index /FID ne {def} {pop pop} ifelse} forall
  /Encoding WinAnsiEncoding def
  currentdict
end
/Helvetica exch definefont pop
/Courier-BoldOblique findfont
dup length dict begin
  {1 index /FID ne {def} {pop pop} ifelse} forall
  /Encoding WinAnsiEncoding def
  currentdict
end
/Courier-BoldOblique exch definefont pop
/Courier-Oblique findfont
dup length dict begin
  {1 index /FID ne {def} {pop pop} ifelse} forall
  /Encoding WinAnsiEncoding def
  currentdict
end
/Courier-Oblique exch definefont pop
/Times-Roman findfont
dup length dict begin
  {1 index /FID ne {def} {pop pop} ifelse} forall
  /Encoding WinAnsiEncoding def
  currentdict
end
/Times-Roman exch definefont pop
/Helvetica-BoldOblique findfont
dup length dict begin
  {1 index /FID ne {def} {pop pop} ifelse} forall
  /Encoding WinAnsiEncoding def
  currentdict
end
/Helvetica-BoldOblique exch definefont pop
/Helvetica-Bold findfont
dup length dict begin
  {1 index /FID ne {def} {pop pop} ifelse} forall
  /Encoding WinAnsiEncoding def
  currentdict
end
/Helvetica-Bold exch definefont pop
/Helvetica-Oblique findfont
dup length dict begin
  {1 index /FID ne {def} {pop pop} ifelse} forall
  /Encoding WinAnsiEncoding def
  currentdict
end
/Helvetica-Oblique exch definefont pop
/Times-BoldItalic findfont
dup length dict begin
  {1 index /FID ne {def} {pop pop} ifelse} forall
  /Encoding WinAnsiEncoding def
  currentdict
end
/Times-BoldItalic exch definefont pop
/Courier findfont
dup length dict begin
  {1 index /FID ne {def} {pop pop} ifelse} forall
  /Encoding WinAnsiEncoding def
  currentdict
end
/Courier exch definefont pop
/Times-Italic findfont
dup length dict begin
  {1 index /FID ne {def} {pop pop} ifelse} forall
  /Encoding WinAnsiEncoding def
  currentdict
end
/Times-Italic exch definefont pop
/Times-Bold findfont
dup length dict begin
  {1 index /FID ne {def} {pop pop} ifelse} forall
  /Encoding WinAnsiEncoding def
  currentdict
end
/Times-Bold exch definefont pop
%FOPEndFontReencode
%%EndProlog
%%Page: 1 1
%%PageBoundingBox: 0 0 576 432
%%BeginPageSetup
[1 0 0 -1 0 432] CT
%%EndPageSetup
GS
1 GC
N
0 0 576 432 re
f
GR
GS
1 GC
N
0 0 576 432 re
f
GR
GS
1 GC
N
75 384 M
521.5 384 L
521.5 32.5 L
75 32.5 L
cp
f
GR
GS
0.149 GC
2 setlinecap
1 LJ
0.5 LW
N
75 384 M
521.5 384 L
S
GR
GS
0.149 GC
2 setlinecap
1 LJ
0.5 LW
N
75 384 M
75 379.535 L
S
GR
GS
0.149 GC
2 setlinecap
1 LJ
0.5 LW
N
164.3 384 M
164.3 379.535 L
S
GR
GS
0.149 GC
2 setlinecap
1 LJ
0.5 LW
N
253.6 384 M
253.6 379.535 L
S
GR
GS
0.149 GC
2 setlinecap
1 LJ
0.5 LW
N
342.9 384 M
342.9 379.535 L
S
GR
GS
0.149 GC
2 setlinecap
1 LJ
0.5 LW
N
432.2 384 M
432.2 379.535 L
S
GR
GS
0.149 GC
2 setlinecap
1 LJ
0.5 LW
N
521.5 384 M
521.5 379.535 L
S
GR
GS
[1 0 0 1 75 390] CT
0.149 GC
/Helvetica 20 F
GS
[1 0 0 1 0 0] CT
-6 16 moveto 
1 -1 scale
(0) t 
GR
GR
GS
[1 0 0 1 164.3 390] CT
0.149 GC
/Helvetica 20 F
GS
[1 0 0 1 0 0] CT
-11.5 16 moveto 
1 -1 scale
(20) t 
GR
GR
GS
[1 0 0 1 253.60001 390] CT
0.149 GC
/Helvetica 20 F
GS
[1 0 0 1 0 0] CT
-11.5 16 moveto 
1 -1 scale
(40) t 
GR
GR
GS
[1 0 0 1 342.90002 390] CT
0.149 GC
/Helvetica 20 F
GS
[1 0 0 1 0 0] CT
-11.5 16 moveto 
1 -1 scale
(60) t 
GR
GR
GS
[1 0 0 1 432.20001 390] CT
0.149 GC
/Helvetica 20 F
GS
[1 0 0 1 0 0] CT
-11.5 16 moveto 
1 -1 scale
(80) t 
GR
GR
GS
[1 0 0 1 521.5 390] CT
0.149 GC
/Helvetica 20 F
GS
[1 0 0 1 0 0] CT
-17 16 moveto 
1 -1 scale
(100) t 
GR
GR
GS
[1 0 0 1 298.25021 411.5] CT
0.149 GC
/Helvetica 20 F
GS
[1 0 0 1 0 0] CT
-41.5 16 moveto 
1 -1 scale
(Iterations) t 
GR
GR
GS
0.149 GC
2 setlinecap
1 LJ
0.5 LW
N
75 384 M
75 32.5 L
S
GR
GS
0.149 GC
2 setlinecap
1 LJ
0.5 LW
N
75 282.17 M
79.465 282.17 L
S
GR
GS
0.149 GC
2 setlinecap
1 LJ
0.5 LW
N
75 215.185 M
79.465 215.185 L
S
GR
GS
0.149 GC
2 setlinecap
1 LJ
0.5 LW
N
75 167.658 M
79.465 167.658 L
S
GR
GS
0.149 GC
2 setlinecap
1 LJ
0.5 LW
N
75 130.794 M
79.465 130.794 L
S
GR
GS
0.149 GC
2 setlinecap
1 LJ
0.5 LW
N
75 100.673 M
79.465 100.673 L
S
GR
GS
0.149 GC
2 setlinecap
1 LJ
0.5 LW
N
75 75.206 M
79.465 75.206 L
S
GR
GS
0.149 GC
2 setlinecap
1 LJ
0.5 LW
N
75 53.146 M
79.465 53.146 L
S
GR
GS
0.149 GC
2 setlinecap
1 LJ
0.5 LW
N
75 33.688 M
79.465 33.688 L
S
GR
GS
0.149 GC
2 setlinecap
1 LJ
0.5 LW
N
75 366.562 M
77.232 366.562 L
S
GR
GS
0.149 GC
2 setlinecap
1 LJ
0.5 LW
N
75 341.095 M
77.232 341.095 L
S
GR
GS
0.149 GC
2 setlinecap
1 LJ
0.5 LW
N
75 319.035 M
77.232 319.035 L
S
GR
GS
0.149 GC
2 setlinecap
1 LJ
0.5 LW
N
75 299.577 M
77.232 299.577 L
S
GR
GS
0.149 GC
2 setlinecap
1 LJ
0.5 LW
N
75 266.425 M
77.232 266.425 L
S
GR
GS
0.149 GC
2 setlinecap
1 LJ
0.5 LW
N
75 252.05 M
77.232 252.05 L
S
GR
GS
0.149 GC
2 setlinecap
1 LJ
0.5 LW
N
75 238.826 M
77.232 238.826 L
S
GR
GS
0.149 GC
2 setlinecap
1 LJ
0.5 LW
N
75 226.583 M
77.232 226.583 L
S
GR
GS
0.149 GC
2 setlinecap
1 LJ
0.5 LW
N
75 204.523 M
77.232 204.523 L
S
GR
GS
0.149 GC
2 setlinecap
1 LJ
0.5 LW
N
75 194.507 M
77.232 194.507 L
S
GR
GS
0.149 GC
2 setlinecap
1 LJ
0.5 LW
N
75 185.065 M
77.232 185.065 L
S
GR
GS
0.149 GC
2 setlinecap
1 LJ
0.5 LW
N
75 176.132 M
77.232 176.132 L
S
GR
GS
0.149 GC
2 setlinecap
1 LJ
0.5 LW
N
75 159.598 M
77.232 159.598 L
S
GR
GS
0.149 GC
2 setlinecap
1 LJ
0.5 LW
N
75 151.913 M
77.232 151.913 L
S
GR
GS
0.149 GC
2 setlinecap
1 LJ
0.5 LW
N
75 144.569 M
77.232 144.569 L
S
GR
GS
0.149 GC
2 setlinecap
1 LJ
0.5 LW
N
75 137.538 M
77.232 137.538 L
S
GR
GS
0.149 GC
2 setlinecap
1 LJ
0.5 LW
N
75 124.314 M
77.232 124.314 L
S
GR
GS
0.149 GC
2 setlinecap
1 LJ
0.5 LW
N
75 118.079 M
77.232 118.079 L
S
GR
GS
0.149 GC
2 setlinecap
1 LJ
0.5 LW
N
75 112.071 M
77.232 112.071 L
S
GR
GS
0.149 GC
2 setlinecap
1 LJ
0.5 LW
N
75 106.274 M
77.232 106.274 L
S
GR
GS
0.149 GC
2 setlinecap
1 LJ
0.5 LW
N
75 95.256 M
77.232 95.256 L
S
GR
GS
0.149 GC
2 setlinecap
1 LJ
0.5 LW
N
75 90.011 M
77.232 90.011 L
S
GR
GS
0.149 GC
2 setlinecap
1 LJ
0.5 LW
N
75 84.927 M
77.232 84.927 L
S
GR
GS
0.149 GC
2 setlinecap
1 LJ
0.5 LW
N
75 79.995 M
77.232 79.995 L
S
GR
GS
0.149 GC
2 setlinecap
1 LJ
0.5 LW
N
75 70.552 M
77.232 70.552 L
S
GR
GS
0.149 GC
2 setlinecap
1 LJ
0.5 LW
N
75 66.026 M
77.232 66.026 L
S
GR
GS
0.149 GC
2 setlinecap
1 LJ
0.5 LW
N
75 61.62 M
77.232 61.62 L
S
GR
GS
0.149 GC
2 setlinecap
1 LJ
0.5 LW
N
75 57.329 M
77.232 57.329 L
S
GR
GS
0.149 GC
2 setlinecap
1 LJ
0.5 LW
N
75 49.067 M
77.232 49.067 L
S
GR
GS
0.149 GC
2 setlinecap
1 LJ
0.5 LW
N
75 45.086 M
77.232 45.086 L
S
GR
GS
0.149 GC
2 setlinecap
1 LJ
0.5 LW
N
75 41.198 M
77.232 41.198 L
S
GR
GS
0.149 GC
2 setlinecap
1 LJ
0.5 LW
N
75 37.4 M
77.232 37.4 L
S
GR
GS
[1 0 0 1 69 282.17047] CT
0.149 GC
/Helvetica 20 F
GS
[1 0 0 1 0 0] CT
-12 5.5 moveto 
1 -1 scale
(1) t 
GR
GR
GS
[1 0 0 1 69 215.18517] CT
0.149 GC
/Helvetica 20 F
GS
[1 0 0 1 0 0] CT
-28 5.5 moveto 
1 -1 scale
(1.5) t 
GR
GR
GS
[1 0 0 1 69 167.65831] CT
0.149 GC
/Helvetica 20 F
GS
[1 0 0 1 0 0] CT
-12 5.5 moveto 
1 -1 scale
(2) t 
GR
GR
GS
[1 0 0 1 69 130.79366] CT
0.149 GC
/Helvetica 20 F
GS
[1 0 0 1 0 0] CT
-28 5.5 moveto 
1 -1 scale
(2.5) t 
GR
GR
GS
[1 0 0 1 69 100.67303] CT
0.149 GC
/Helvetica 20 F
GS
[1 0 0 1 0 0] CT
-12 5.5 moveto 
1 -1 scale
(3) t 
GR
GR
GS
[1 0 0 1 69 75.2064] CT
0.149 GC
/Helvetica 20 F
GS
[1 0 0 1 0 0] CT
-28 5.5 moveto 
1 -1 scale
(3.5) t 
GR
GR
GS
[1 0 0 1 69 53.14619] CT
0.149 GC
/Helvetica 20 F
GS
[1 0 0 1 0 0] CT
-12 5.5 moveto 
1 -1 scale
(4) t 
GR
GR
GS
[1 0 0 1 69 33.68771] CT
0.149 GC
/Helvetica 20 F
GS
[1 0 0 1 0 0] CT
-28 5.5 moveto 
1 -1 scale
(4.5) t 
GR
GR
GS
[0 -1 1 0 38 208.24983] CT
0.149 GC
/Helvetica 20 F
GS
[1 0 0 1 0 0] CT
-54.5 -5 moveto 
1 -1 scale
(Train RMSE) t 
GR
GR
GS
0 0.447 0.741 RC
1 LJ
N
79.465 32.5 M
83.93 153.006 L
88.395 215.155 L
92.86 252.002 L
97.325 276.383 L
101.79 293.181 L
106.255 302.671 L
110.72 309.574 L
115.185 309.239 L
119.65 325.22 L
124.115 332.185 L
128.58 341.021 L
133.045 341.282 L
137.51 348.893 L
141.975 351.819 L
146.44 353.639 L
150.905 354.606 L
155.37 358.574 L
159.835 359.027 L
164.3 359.826 L
168.765 360.427 L
173.23 361.9 L
177.695 362.007 L
182.16 363.098 L
186.625 363.62 L
191.09 363.756 L
195.555 364.416 L
200.02 364.596 L
204.485 364.655 L
208.95 365.864 L
213.415 367.21 L
217.88 367.337 L
222.345 367.29 L
226.81 368.154 L
231.275 368.268 L
235.74 368.561 L
240.205 369.232 L
244.67 369.421 L
249.135 369.531 L
253.6 369.695 L
258.065 369.917 L
262.53 369.948 L
266.995 370.396 L
271.46 370.505 L
275.925 370.724 L
280.39 371.189 L
284.855 371.412 L
289.32 371.408 L
293.785 372.105 L
298.25 372.2 L
S
GR
GS
0 0.447 0.741 RC
1 LJ
N
293.785 372.105 M
298.25 372.2 L
302.715 372.492 L
307.18 372.722 L
311.645 372.934 L
316.11 373.061 L
320.575 373.38 L
325.04 373.475 L
329.505 373.587 L
333.97 373.702 L
338.435 373.75 L
342.9 373.9 L
347.365 374.156 L
351.83 374.204 L
356.295 374.527 L
360.76 374.661 L
365.225 374.757 L
369.69 374.77 L
374.155 375.052 L
378.62 375.099 L
383.085 375.311 L
387.55 375.354 L
392.015 375.706 L
396.48 375.905 L
400.945 375.97 L
405.41 376.072 L
409.875 376.207 L
414.34 376.305 L
418.805 376.398 L
423.27 376.499 L
427.735 376.531 L
432.2 376.759 L
436.665 376.849 L
441.13 376.938 L
445.595 377.184 L
450.06 377.408 L
454.525 377.561 L
458.99 377.644 L
463.455 377.666 L
467.92 378.01 L
472.385 378.129 L
476.85 378.172 L
481.315 378.335 L
S
GR
GS
0 0.447 0.741 RC
1 LJ
N
82.5 32.5 M
81.621 30.379 L
79.5 29.5 L
77.379 30.379 L
76.5 32.5 L
77.379 34.621 L
79.5 35.5 L
81.621 34.621 L
cp
S
GR
GS
0 0.447 0.741 RC
1 LJ
N
86.5 153.5 M
85.621 151.379 L
83.5 150.5 L
81.379 151.379 L
80.5 153.5 L
81.379 155.621 L
83.5 156.5 L
85.621 155.621 L
cp
S
GR
GS
0 0.447 0.741 RC
1 LJ
N
91.5 215.5 M
90.621 213.379 L
88.5 212.5 L
86.379 213.379 L
85.5 215.5 L
86.379 217.621 L
88.5 218.5 L
90.621 217.621 L
cp
S
GR
GS
0 0.447 0.741 RC
1 LJ
N
95.5 252.5 M
94.621 250.379 L
92.5 249.5 L
90.379 250.379 L
89.5 252.5 L
90.379 254.621 L
92.5 255.5 L
94.621 254.621 L
cp
S
GR
GS
0 0.447 0.741 RC
1 LJ
N
100.5 276.5 M
99.621 274.379 L
97.5 273.5 L
95.379 274.379 L
94.5 276.5 L
95.379 278.621 L
97.5 279.5 L
99.621 278.621 L
cp
S
GR
GS
0 0.447 0.741 RC
1 LJ
N
104.5 293.5 M
103.621 291.379 L
101.5 290.5 L
99.379 291.379 L
98.5 293.5 L
99.379 295.621 L
101.5 296.5 L
103.621 295.621 L
cp
S
GR
GS
0 0.447 0.741 RC
1 LJ
N
109.5 302.5 M
108.621 300.379 L
106.5 299.5 L
104.379 300.379 L
103.5 302.5 L
104.379 304.621 L
106.5 305.5 L
108.621 304.621 L
cp
S
GR
GS
0 0.447 0.741 RC
1 LJ
N
113.5 309.5 M
112.621 307.379 L
110.5 306.5 L
108.379 307.379 L
107.5 309.5 L
108.379 311.621 L
110.5 312.5 L
112.621 311.621 L
cp
S
GR
GS
0 0.447 0.741 RC
1 LJ
N
118.5 309.5 M
117.621 307.379 L
115.5 306.5 L
113.379 307.379 L
112.5 309.5 L
113.379 311.621 L
115.5 312.5 L
117.621 311.621 L
cp
S
GR
GS
0 0.447 0.741 RC
1 LJ
N
122.5 325.5 M
121.621 323.379 L
119.5 322.5 L
117.379 323.379 L
116.5 325.5 L
117.379 327.621 L
119.5 328.5 L
121.621 327.621 L
cp
S
GR
GS
0 0.447 0.741 RC
1 LJ
N
127.5 332.5 M
126.621 330.379 L
124.5 329.5 L
122.379 330.379 L
121.5 332.5 L
122.379 334.621 L
124.5 335.5 L
126.621 334.621 L
cp
S
GR
GS
0 0.447 0.741 RC
1 LJ
N
131.5 341.5 M
130.621 339.379 L
128.5 338.5 L
126.379 339.379 L
125.5 341.5 L
126.379 343.621 L
128.5 344.5 L
130.621 343.621 L
cp
S
GR
GS
0 0.447 0.741 RC
1 LJ
N
136.5 341.5 M
135.621 339.379 L
133.5 338.5 L
131.379 339.379 L
130.5 341.5 L
131.379 343.621 L
133.5 344.5 L
135.621 343.621 L
cp
S
GR
GS
0 0.447 0.741 RC
1 LJ
N
140.5 348.5 M
139.621 346.379 L
137.5 345.5 L
135.379 346.379 L
134.5 348.5 L
135.379 350.621 L
137.5 351.5 L
139.621 350.621 L
cp
S
GR
GS
0 0.447 0.741 RC
1 LJ
N
144.5 351.5 M
143.621 349.379 L
141.5 348.5 L
139.379 349.379 L
138.5 351.5 L
139.379 353.621 L
141.5 354.5 L
143.621 353.621 L
cp
S
GR
GS
0 0.447 0.741 RC
1 LJ
N
149.5 353.5 M
148.621 351.379 L
146.5 350.5 L
144.379 351.379 L
143.5 353.5 L
144.379 355.621 L
146.5 356.5 L
148.621 355.621 L
cp
S
GR
GS
0 0.447 0.741 RC
1 LJ
N
153.5 354.5 M
152.621 352.379 L
150.5 351.5 L
148.379 352.379 L
147.5 354.5 L
148.379 356.621 L
150.5 357.5 L
152.621 356.621 L
cp
S
GR
GS
0 0.447 0.741 RC
1 LJ
N
158.5 358.5 M
157.621 356.379 L
155.5 355.5 L
153.379 356.379 L
152.5 358.5 L
153.379 360.621 L
155.5 361.5 L
157.621 360.621 L
cp
S
GR
GS
0 0.447 0.741 RC
1 LJ
N
162.5 359.5 M
161.621 357.379 L
159.5 356.5 L
157.379 357.379 L
156.5 359.5 L
157.379 361.621 L
159.5 362.5 L
161.621 361.621 L
cp
S
GR
GS
0 0.447 0.741 RC
1 LJ
N
167.5 359.5 M
166.621 357.379 L
164.5 356.5 L
162.379 357.379 L
161.5 359.5 L
162.379 361.621 L
164.5 362.5 L
166.621 361.621 L
cp
S
GR
GS
0 0.447 0.741 RC
1 LJ
N
171.5 360.5 M
170.621 358.379 L
168.5 357.5 L
166.379 358.379 L
165.5 360.5 L
166.379 362.621 L
168.5 363.5 L
170.621 362.621 L
cp
S
GR
GS
0 0.447 0.741 RC
1 LJ
N
176.5 361.5 M
175.621 359.379 L
173.5 358.5 L
171.379 359.379 L
170.5 361.5 L
171.379 363.621 L
173.5 364.5 L
175.621 363.621 L
cp
S
GR
GS
0 0.447 0.741 RC
1 LJ
N
180.5 362.5 M
179.621 360.379 L
177.5 359.5 L
175.379 360.379 L
174.5 362.5 L
175.379 364.621 L
177.5 365.5 L
179.621 364.621 L
cp
S
GR
GS
0 0.447 0.741 RC
1 LJ
N
185.5 363.5 M
184.621 361.379 L
182.5 360.5 L
180.379 361.379 L
179.5 363.5 L
180.379 365.621 L
182.5 366.5 L
184.621 365.621 L
cp
S
GR
GS
0 0.447 0.741 RC
1 LJ
N
189.5 363.5 M
188.621 361.379 L
186.5 360.5 L
184.379 361.379 L
183.5 363.5 L
184.379 365.621 L
186.5 366.5 L
188.621 365.621 L
cp
S
GR
GS
0 0.447 0.741 RC
1 LJ
N
194.5 363.5 M
193.621 361.379 L
191.5 360.5 L
189.379 361.379 L
188.5 363.5 L
189.379 365.621 L
191.5 366.5 L
193.621 365.621 L
cp
S
GR
GS
0 0.447 0.741 RC
1 LJ
N
198.5 364.5 M
197.621 362.379 L
195.5 361.5 L
193.379 362.379 L
192.5 364.5 L
193.379 366.621 L
195.5 367.5 L
197.621 366.621 L
cp
S
GR
GS
0 0.447 0.741 RC
1 LJ
N
203.5 364.5 M
202.621 362.379 L
200.5 361.5 L
198.379 362.379 L
197.5 364.5 L
198.379 366.621 L
200.5 367.5 L
202.621 366.621 L
cp
S
GR
GS
0 0.447 0.741 RC
1 LJ
N
207.5 364.5 M
206.621 362.379 L
204.5 361.5 L
202.379 362.379 L
201.5 364.5 L
202.379 366.621 L
204.5 367.5 L
206.621 366.621 L
cp
S
GR
GS
0 0.447 0.741 RC
1 LJ
N
211.5 365.5 M
210.621 363.379 L
208.5 362.5 L
206.379 363.379 L
205.5 365.5 L
206.379 367.621 L
208.5 368.5 L
210.621 367.621 L
cp
S
GR
GS
0 0.447 0.741 RC
1 LJ
N
216.5 367.5 M
215.621 365.379 L
213.5 364.5 L
211.379 365.379 L
210.5 367.5 L
211.379 369.621 L
213.5 370.5 L
215.621 369.621 L
cp
S
GR
GS
0 0.447 0.741 RC
1 LJ
N
220.5 367.5 M
219.621 365.379 L
217.5 364.5 L
215.379 365.379 L
214.5 367.5 L
215.379 369.621 L
217.5 370.5 L
219.621 369.621 L
cp
S
GR
GS
0 0.447 0.741 RC
1 LJ
N
225.5 367.5 M
224.621 365.379 L
222.5 364.5 L
220.379 365.379 L
219.5 367.5 L
220.379 369.621 L
222.5 370.5 L
224.621 369.621 L
cp
S
GR
GS
0 0.447 0.741 RC
1 LJ
N
229.5 368.5 M
228.621 366.379 L
226.5 365.5 L
224.379 366.379 L
223.5 368.5 L
224.379 370.621 L
226.5 371.5 L
228.621 370.621 L
cp
S
GR
GS
0 0.447 0.741 RC
1 LJ
N
234.5 368.5 M
233.621 366.379 L
231.5 365.5 L
229.379 366.379 L
228.5 368.5 L
229.379 370.621 L
231.5 371.5 L
233.621 370.621 L
cp
S
GR
GS
0 0.447 0.741 RC
1 LJ
N
238.5 368.5 M
237.621 366.379 L
235.5 365.5 L
233.379 366.379 L
232.5 368.5 L
233.379 370.621 L
235.5 371.5 L
237.621 370.621 L
cp
S
GR
GS
0 0.447 0.741 RC
1 LJ
N
243.5 369.5 M
242.621 367.379 L
240.5 366.5 L
238.379 367.379 L
237.5 369.5 L
238.379 371.621 L
240.5 372.5 L
242.621 371.621 L
cp
S
GR
GS
0 0.447 0.741 RC
1 LJ
N
247.5 369.5 M
246.621 367.379 L
244.5 366.5 L
242.379 367.379 L
241.5 369.5 L
242.379 371.621 L
244.5 372.5 L
246.621 371.621 L
cp
S
GR
GS
0 0.447 0.741 RC
1 LJ
N
252.5 369.5 M
251.621 367.379 L
249.5 366.5 L
247.379 367.379 L
246.5 369.5 L
247.379 371.621 L
249.5 372.5 L
251.621 371.621 L
cp
S
GR
GS
0 0.447 0.741 RC
1 LJ
N
256.5 369.5 M
255.621 367.379 L
253.5 366.5 L
251.379 367.379 L
250.5 369.5 L
251.379 371.621 L
253.5 372.5 L
255.621 371.621 L
cp
S
GR
GS
0 0.447 0.741 RC
1 LJ
N
261.5 369.5 M
260.621 367.379 L
258.5 366.5 L
256.379 367.379 L
255.5 369.5 L
256.379 371.621 L
258.5 372.5 L
260.621 371.621 L
cp
S
GR
GS
0 0.447 0.741 RC
1 LJ
N
265.5 369.5 M
264.621 367.379 L
262.5 366.5 L
260.379 367.379 L
259.5 369.5 L
260.379 371.621 L
262.5 372.5 L
264.621 371.621 L
cp
S
GR
GS
0 0.447 0.741 RC
1 LJ
N
269.5 370.5 M
268.621 368.379 L
266.5 367.5 L
264.379 368.379 L
263.5 370.5 L
264.379 372.621 L
266.5 373.5 L
268.621 372.621 L
cp
S
GR
GS
0 0.447 0.741 RC
1 LJ
N
274.5 370.5 M
273.621 368.379 L
271.5 367.5 L
269.379 368.379 L
268.5 370.5 L
269.379 372.621 L
271.5 373.5 L
273.621 372.621 L
cp
S
GR
GS
0 0.447 0.741 RC
1 LJ
N
278.5 370.5 M
277.621 368.379 L
275.5 367.5 L
273.379 368.379 L
272.5 370.5 L
273.379 372.621 L
275.5 373.5 L
277.621 372.621 L
cp
S
GR
GS
0 0.447 0.741 RC
1 LJ
N
283.5 371.5 M
282.621 369.379 L
280.5 368.5 L
278.379 369.379 L
277.5 371.5 L
278.379 373.621 L
280.5 374.5 L
282.621 373.621 L
cp
S
GR
GS
0 0.447 0.741 RC
1 LJ
N
287.5 371.5 M
286.621 369.379 L
284.5 368.5 L
282.379 369.379 L
281.5 371.5 L
282.379 373.621 L
284.5 374.5 L
286.621 373.621 L
cp
S
GR
GS
0 0.447 0.741 RC
1 LJ
N
292.5 371.5 M
291.621 369.379 L
289.5 368.5 L
287.379 369.379 L
286.5 371.5 L
287.379 373.621 L
289.5 374.5 L
291.621 373.621 L
cp
S
GR
GS
0 0.447 0.741 RC
1 LJ
N
296.5 372.5 M
295.621 370.379 L
293.5 369.5 L
291.379 370.379 L
290.5 372.5 L
291.379 374.621 L
293.5 375.5 L
295.621 374.621 L
cp
S
GR
GS
0 0.447 0.741 RC
1 LJ
N
301.5 372.5 M
300.621 370.379 L
298.5 369.5 L
296.379 370.379 L
295.5 372.5 L
296.379 374.621 L
298.5 375.5 L
300.621 374.621 L
cp
S
GR
GS
0 0.447 0.741 RC
1 LJ
N
305.5 372.5 M
304.621 370.379 L
302.5 369.5 L
300.379 370.379 L
299.5 372.5 L
300.379 374.621 L
302.5 375.5 L
304.621 374.621 L
cp
S
GR
GS
0 0.447 0.741 RC
1 LJ
N
310.5 372.5 M
309.621 370.379 L
307.5 369.5 L
305.379 370.379 L
304.5 372.5 L
305.379 374.621 L
307.5 375.5 L
309.621 374.621 L
cp
S
GR
GS
0 0.447 0.741 RC
1 LJ
N
314.5 372.5 M
313.621 370.379 L
311.5 369.5 L
309.379 370.379 L
308.5 372.5 L
309.379 374.621 L
311.5 375.5 L
313.621 374.621 L
cp
S
GR
GS
0 0.447 0.741 RC
1 LJ
N
319.5 373.5 M
318.621 371.379 L
316.5 370.5 L
314.379 371.379 L
313.5 373.5 L
314.379 375.621 L
316.5 376.5 L
318.621 375.621 L
cp
S
GR
GS
0 0.447 0.741 RC
1 LJ
N
323.5 373.5 M
322.621 371.379 L
320.5 370.5 L
318.379 371.379 L
317.5 373.5 L
318.379 375.621 L
320.5 376.5 L
322.621 375.621 L
cp
S
GR
GS
0 0.447 0.741 RC
1 LJ
N
328.5 373.5 M
327.621 371.379 L
325.5 370.5 L
323.379 371.379 L
322.5 373.5 L
323.379 375.621 L
325.5 376.5 L
327.621 375.621 L
cp
S
GR
GS
0 0.447 0.741 RC
1 LJ
N
332.5 373.5 M
331.621 371.379 L
329.5 370.5 L
327.379 371.379 L
326.5 373.5 L
327.379 375.621 L
329.5 376.5 L
331.621 375.621 L
cp
S
GR
GS
0 0.447 0.741 RC
1 LJ
N
336.5 373.5 M
335.621 371.379 L
333.5 370.5 L
331.379 371.379 L
330.5 373.5 L
331.379 375.621 L
333.5 376.5 L
335.621 375.621 L
cp
S
GR
GS
0 0.447 0.741 RC
1 LJ
N
341.5 373.5 M
340.621 371.379 L
338.5 370.5 L
336.379 371.379 L
335.5 373.5 L
336.379 375.621 L
338.5 376.5 L
340.621 375.621 L
cp
S
GR
GS
0 0.447 0.741 RC
1 LJ
N
345.5 373.5 M
344.621 371.379 L
342.5 370.5 L
340.379 371.379 L
339.5 373.5 L
340.379 375.621 L
342.5 376.5 L
344.621 375.621 L
cp
S
GR
GS
0 0.447 0.741 RC
1 LJ
N
350.5 374.5 M
349.621 372.379 L
347.5 371.5 L
345.379 372.379 L
344.5 374.5 L
345.379 376.621 L
347.5 377.5 L
349.621 376.621 L
cp
S
GR
GS
0 0.447 0.741 RC
1 LJ
N
354.5 374.5 M
353.621 372.379 L
351.5 371.5 L
349.379 372.379 L
348.5 374.5 L
349.379 376.621 L
351.5 377.5 L
353.621 376.621 L
cp
S
GR
GS
0 0.447 0.741 RC
1 LJ
N
359.5 374.5 M
358.621 372.379 L
356.5 371.5 L
354.379 372.379 L
353.5 374.5 L
354.379 376.621 L
356.5 377.5 L
358.621 376.621 L
cp
S
GR
GS
0 0.447 0.741 RC
1 LJ
N
363.5 374.5 M
362.621 372.379 L
360.5 371.5 L
358.379 372.379 L
357.5 374.5 L
358.379 376.621 L
360.5 377.5 L
362.621 376.621 L
cp
S
GR
GS
0 0.447 0.741 RC
1 LJ
N
368.5 374.5 M
367.621 372.379 L
365.5 371.5 L
363.379 372.379 L
362.5 374.5 L
363.379 376.621 L
365.5 377.5 L
367.621 376.621 L
cp
S
GR
GS
0 0.447 0.741 RC
1 LJ
N
372.5 374.5 M
371.621 372.379 L
369.5 371.5 L
367.379 372.379 L
366.5 374.5 L
367.379 376.621 L
369.5 377.5 L
371.621 376.621 L
cp
S
GR
GS
0 0.447 0.741 RC
1 LJ
N
377.5 375.5 M
376.621 373.379 L
374.5 372.5 L
372.379 373.379 L
371.5 375.5 L
372.379 377.621 L
374.5 378.5 L
376.621 377.621 L
cp
S
GR
GS
0 0.447 0.741 RC
1 LJ
N
381.5 375.5 M
380.621 373.379 L
378.5 372.5 L
376.379 373.379 L
375.5 375.5 L
376.379 377.621 L
378.5 378.5 L
380.621 377.621 L
cp
S
GR
GS
0 0.447 0.741 RC
1 LJ
N
386.5 375.5 M
385.621 373.379 L
383.5 372.5 L
381.379 373.379 L
380.5 375.5 L
381.379 377.621 L
383.5 378.5 L
385.621 377.621 L
cp
S
GR
GS
0 0.447 0.741 RC
1 LJ
N
390.5 375.5 M
389.621 373.379 L
387.5 372.5 L
385.379 373.379 L
384.5 375.5 L
385.379 377.621 L
387.5 378.5 L
389.621 377.621 L
cp
S
GR
GS
0 0.447 0.741 RC
1 LJ
N
395.5 375.5 M
394.621 373.379 L
392.5 372.5 L
390.379 373.379 L
389.5 375.5 L
390.379 377.621 L
392.5 378.5 L
394.621 377.621 L
cp
S
GR
GS
0 0.447 0.741 RC
1 LJ
N
399.5 375.5 M
398.621 373.379 L
396.5 372.5 L
394.379 373.379 L
393.5 375.5 L
394.379 377.621 L
396.5 378.5 L
398.621 377.621 L
cp
S
GR
GS
0 0.447 0.741 RC
1 LJ
N
403.5 375.5 M
402.621 373.379 L
400.5 372.5 L
398.379 373.379 L
397.5 375.5 L
398.379 377.621 L
400.5 378.5 L
402.621 377.621 L
cp
S
GR
GS
0 0.447 0.741 RC
1 LJ
N
408.5 376.5 M
407.621 374.379 L
405.5 373.5 L
403.379 374.379 L
402.5 376.5 L
403.379 378.621 L
405.5 379.5 L
407.621 378.621 L
cp
S
GR
GS
0 0.447 0.741 RC
1 LJ
N
412.5 376.5 M
411.621 374.379 L
409.5 373.5 L
407.379 374.379 L
406.5 376.5 L
407.379 378.621 L
409.5 379.5 L
411.621 378.621 L
cp
S
GR
GS
0 0.447 0.741 RC
1 LJ
N
417.5 376.5 M
416.621 374.379 L
414.5 373.5 L
412.379 374.379 L
411.5 376.5 L
412.379 378.621 L
414.5 379.5 L
416.621 378.621 L
cp
S
GR
GS
0 0.447 0.741 RC
1 LJ
N
421.5 376.5 M
420.621 374.379 L
418.5 373.5 L
416.379 374.379 L
415.5 376.5 L
416.379 378.621 L
418.5 379.5 L
420.621 378.621 L
cp
S
GR
GS
0 0.447 0.741 RC
1 LJ
N
426.5 376.5 M
425.621 374.379 L
423.5 373.5 L
421.379 374.379 L
420.5 376.5 L
421.379 378.621 L
423.5 379.5 L
425.621 378.621 L
cp
S
GR
GS
0 0.447 0.741 RC
1 LJ
N
430.5 376.5 M
429.621 374.379 L
427.5 373.5 L
425.379 374.379 L
424.5 376.5 L
425.379 378.621 L
427.5 379.5 L
429.621 378.621 L
cp
S
GR
GS
0 0.447 0.741 RC
1 LJ
N
435.5 376.5 M
434.621 374.379 L
432.5 373.5 L
430.379 374.379 L
429.5 376.5 L
430.379 378.621 L
432.5 379.5 L
434.621 378.621 L
cp
S
GR
GS
0 0.447 0.741 RC
1 LJ
N
439.5 376.5 M
438.621 374.379 L
436.5 373.5 L
434.379 374.379 L
433.5 376.5 L
434.379 378.621 L
436.5 379.5 L
438.621 378.621 L
cp
S
GR
GS
0 0.447 0.741 RC
1 LJ
N
444.5 376.5 M
443.621 374.379 L
441.5 373.5 L
439.379 374.379 L
438.5 376.5 L
439.379 378.621 L
441.5 379.5 L
443.621 378.621 L
cp
S
GR
GS
0 0.447 0.741 RC
1 LJ
N
448.5 377.5 M
447.621 375.379 L
445.5 374.5 L
443.379 375.379 L
442.5 377.5 L
443.379 379.621 L
445.5 380.5 L
447.621 379.621 L
cp
S
GR
GS
0 0.447 0.741 RC
1 LJ
N
453.5 377.5 M
452.621 375.379 L
450.5 374.5 L
448.379 375.379 L
447.5 377.5 L
448.379 379.621 L
450.5 380.5 L
452.621 379.621 L
cp
S
GR
GS
0 0.447 0.741 RC
1 LJ
N
457.5 377.5 M
456.621 375.379 L
454.5 374.5 L
452.379 375.379 L
451.5 377.5 L
452.379 379.621 L
454.5 380.5 L
456.621 379.621 L
cp
S
GR
GS
0 0.447 0.741 RC
1 LJ
N
461.5 377.5 M
460.621 375.379 L
458.5 374.5 L
456.379 375.379 L
455.5 377.5 L
456.379 379.621 L
458.5 380.5 L
460.621 379.621 L
cp
S
GR
GS
0 0.447 0.741 RC
1 LJ
N
466.5 377.5 M
465.621 375.379 L
463.5 374.5 L
461.379 375.379 L
460.5 377.5 L
461.379 379.621 L
463.5 380.5 L
465.621 379.621 L
cp
S
GR
GS
0 0.447 0.741 RC
1 LJ
N
470.5 378.5 M
469.621 376.379 L
467.5 375.5 L
465.379 376.379 L
464.5 378.5 L
465.379 380.621 L
467.5 381.5 L
469.621 380.621 L
cp
S
GR
GS
0 0.447 0.741 RC
1 LJ
N
475.5 378.5 M
474.621 376.379 L
472.5 375.5 L
470.379 376.379 L
469.5 378.5 L
470.379 380.621 L
472.5 381.5 L
474.621 380.621 L
cp
S
GR
GS
0 0.447 0.741 RC
1 LJ
N
479.5 378.5 M
478.621 376.379 L
476.5 375.5 L
474.379 376.379 L
473.5 378.5 L
474.379 380.621 L
476.5 381.5 L
478.621 380.621 L
cp
S
GR
GS
0 0.447 0.741 RC
1 LJ
N
484.5 378.5 M
483.621 376.379 L
481.5 375.5 L
479.379 376.379 L
478.5 378.5 L
479.379 380.621 L
481.5 381.5 L
483.621 380.621 L
cp
S
GR
GS
0.929 0.694 0.125 RC
1 LJ
N
79.465 32.5 M
83.93 127.38 L
88.395 177.346 L
92.86 204.469 L
97.325 222.607 L
101.79 257.374 L
106.255 277.06 L
110.72 287.764 L
115.185 293.312 L
119.65 294.469 L
124.115 304.022 L
128.58 303.517 L
133.045 313.842 L
137.51 328.172 L
141.975 331.025 L
146.44 342.471 L
150.905 343.091 L
155.37 346.646 L
159.835 350.446 L
164.3 354.366 L
168.765 360.581 L
173.23 361.224 L
177.695 362.373 L
182.16 363.744 L
186.625 366.86 L
191.09 369.523 L
195.555 369.252 L
200.02 371.33 L
204.485 371.763 L
208.95 372.993 L
213.415 374.462 L
217.88 374.839 L
222.345 374.482 L
226.81 375.947 L
231.275 376.459 L
235.74 377.146 L
240.205 377.364 L
244.67 377.353 L
249.135 377.894 L
253.6 378.58 L
258.065 379.242 L
262.53 379.163 L
266.995 379.66 L
271.46 379.854 L
275.925 379.931 L
280.39 380.571 L
284.855 380.648 L
289.32 380.837 L
293.785 380.963 L
298.25 381.046 L
S
GR
GS
0.929 0.694 0.125 RC
1 LJ
N
293.785 380.963 M
298.25 381.046 L
302.715 381.383 L
307.18 381.487 L
311.645 381.62 L
316.11 381.719 L
320.575 381.791 L
325.04 382.055 L
329.505 382.162 L
333.97 382.199 L
338.435 382.236 L
342.9 382.378 L
347.365 382.596 L
351.83 382.649 L
356.295 382.736 L
360.76 382.804 L
365.225 382.817 L
369.69 382.925 L
374.155 382.995 L
378.62 383.034 L
383.085 383.083 L
387.55 383.12 L
392.015 383.212 L
396.48 383.291 L
400.945 383.285 L
405.41 383.38 L
409.875 383.422 L
414.34 383.509 L
418.805 383.558 L
423.27 383.591 L
427.735 383.615 L
432.2 383.627 L
436.665 383.695 L
441.13 383.733 L
445.595 383.769 L
450.06 383.772 L
454.525 383.821 L
458.99 383.854 L
463.455 383.879 L
467.92 383.898 L
472.385 383.892 L
476.85 383.946 L
481.315 384 L
S
GR
GS
0.929 0.694 0.125 RC
1 LJ
N
82.5 32.5 M
81.621 30.379 L
79.5 29.5 L
77.379 30.379 L
76.5 32.5 L
77.379 34.621 L
79.5 35.5 L
81.621 34.621 L
cp
S
GR
GS
0.929 0.694 0.125 RC
1 LJ
N
86.5 127.5 M
85.621 125.379 L
83.5 124.5 L
81.379 125.379 L
80.5 127.5 L
81.379 129.621 L
83.5 130.5 L
85.621 129.621 L
cp
S
GR
GS
0.929 0.694 0.125 RC
1 LJ
N
91.5 177.5 M
90.621 175.379 L
88.5 174.5 L
86.379 175.379 L
85.5 177.5 L
86.379 179.621 L
88.5 180.5 L
90.621 179.621 L
cp
S
GR
GS
0.929 0.694 0.125 RC
1 LJ
N
95.5 204.5 M
94.621 202.379 L
92.5 201.5 L
90.379 202.379 L
89.5 204.5 L
90.379 206.621 L
92.5 207.5 L
94.621 206.621 L
cp
S
GR
GS
0.929 0.694 0.125 RC
1 LJ
N
100.5 222.5 M
99.621 220.379 L
97.5 219.5 L
95.379 220.379 L
94.5 222.5 L
95.379 224.621 L
97.5 225.5 L
99.621 224.621 L
cp
S
GR
GS
0.929 0.694 0.125 RC
1 LJ
N
104.5 257.5 M
103.621 255.379 L
101.5 254.5 L
99.379 255.379 L
98.5 257.5 L
99.379 259.621 L
101.5 260.5 L
103.621 259.621 L
cp
S
GR
GS
0.929 0.694 0.125 RC
1 LJ
N
109.5 277.5 M
108.621 275.379 L
106.5 274.5 L
104.379 275.379 L
103.5 277.5 L
104.379 279.621 L
106.5 280.5 L
108.621 279.621 L
cp
S
GR
GS
0.929 0.694 0.125 RC
1 LJ
N
113.5 287.5 M
112.621 285.379 L
110.5 284.5 L
108.379 285.379 L
107.5 287.5 L
108.379 289.621 L
110.5 290.5 L
112.621 289.621 L
cp
S
GR
GS
0.929 0.694 0.125 RC
1 LJ
N
118.5 293.5 M
117.621 291.379 L
115.5 290.5 L
113.379 291.379 L
112.5 293.5 L
113.379 295.621 L
115.5 296.5 L
117.621 295.621 L
cp
S
GR
GS
0.929 0.694 0.125 RC
1 LJ
N
122.5 294.5 M
121.621 292.379 L
119.5 291.5 L
117.379 292.379 L
116.5 294.5 L
117.379 296.621 L
119.5 297.5 L
121.621 296.621 L
cp
S
GR
GS
0.929 0.694 0.125 RC
1 LJ
N
127.5 304.5 M
126.621 302.379 L
124.5 301.5 L
122.379 302.379 L
121.5 304.5 L
122.379 306.621 L
124.5 307.5 L
126.621 306.621 L
cp
S
GR
GS
0.929 0.694 0.125 RC
1 LJ
N
131.5 303.5 M
130.621 301.379 L
128.5 300.5 L
126.379 301.379 L
125.5 303.5 L
126.379 305.621 L
128.5 306.5 L
130.621 305.621 L
cp
S
GR
GS
0.929 0.694 0.125 RC
1 LJ
N
136.5 313.5 M
135.621 311.379 L
133.5 310.5 L
131.379 311.379 L
130.5 313.5 L
131.379 315.621 L
133.5 316.5 L
135.621 315.621 L
cp
S
GR
GS
0.929 0.694 0.125 RC
1 LJ
N
140.5 328.5 M
139.621 326.379 L
137.5 325.5 L
135.379 326.379 L
134.5 328.5 L
135.379 330.621 L
137.5 331.5 L
139.621 330.621 L
cp
S
GR
GS
0.929 0.694 0.125 RC
1 LJ
N
144.5 331.5 M
143.621 329.379 L
141.5 328.5 L
139.379 329.379 L
138.5 331.5 L
139.379 333.621 L
141.5 334.5 L
143.621 333.621 L
cp
S
GR
GS
0.929 0.694 0.125 RC
1 LJ
N
149.5 342.5 M
148.621 340.379 L
146.5 339.5 L
144.379 340.379 L
143.5 342.5 L
144.379 344.621 L
146.5 345.5 L
148.621 344.621 L
cp
S
GR
GS
0.929 0.694 0.125 RC
1 LJ
N
153.5 343.5 M
152.621 341.379 L
150.5 340.5 L
148.379 341.379 L
147.5 343.5 L
148.379 345.621 L
150.5 346.5 L
152.621 345.621 L
cp
S
GR
GS
0.929 0.694 0.125 RC
1 LJ
N
158.5 346.5 M
157.621 344.379 L
155.5 343.5 L
153.379 344.379 L
152.5 346.5 L
153.379 348.621 L
155.5 349.5 L
157.621 348.621 L
cp
S
GR
GS
0.929 0.694 0.125 RC
1 LJ
N
162.5 350.5 M
161.621 348.379 L
159.5 347.5 L
157.379 348.379 L
156.5 350.5 L
157.379 352.621 L
159.5 353.5 L
161.621 352.621 L
cp
S
GR
GS
0.929 0.694 0.125 RC
1 LJ
N
167.5 354.5 M
166.621 352.379 L
164.5 351.5 L
162.379 352.379 L
161.5 354.5 L
162.379 356.621 L
164.5 357.5 L
166.621 356.621 L
cp
S
GR
GS
0.929 0.694 0.125 RC
1 LJ
N
171.5 360.5 M
170.621 358.379 L
168.5 357.5 L
166.379 358.379 L
165.5 360.5 L
166.379 362.621 L
168.5 363.5 L
170.621 362.621 L
cp
S
GR
GS
0.929 0.694 0.125 RC
1 LJ
N
176.5 361.5 M
175.621 359.379 L
173.5 358.5 L
171.379 359.379 L
170.5 361.5 L
171.379 363.621 L
173.5 364.5 L
175.621 363.621 L
cp
S
GR
GS
0.929 0.694 0.125 RC
1 LJ
N
180.5 362.5 M
179.621 360.379 L
177.5 359.5 L
175.379 360.379 L
174.5 362.5 L
175.379 364.621 L
177.5 365.5 L
179.621 364.621 L
cp
S
GR
GS
0.929 0.694 0.125 RC
1 LJ
N
185.5 363.5 M
184.621 361.379 L
182.5 360.5 L
180.379 361.379 L
179.5 363.5 L
180.379 365.621 L
182.5 366.5 L
184.621 365.621 L
cp
S
GR
GS
0.929 0.694 0.125 RC
1 LJ
N
189.5 366.5 M
188.621 364.379 L
186.5 363.5 L
184.379 364.379 L
183.5 366.5 L
184.379 368.621 L
186.5 369.5 L
188.621 368.621 L
cp
S
GR
GS
0.929 0.694 0.125 RC
1 LJ
N
194.5 369.5 M
193.621 367.379 L
191.5 366.5 L
189.379 367.379 L
188.5 369.5 L
189.379 371.621 L
191.5 372.5 L
193.621 371.621 L
cp
S
GR
GS
0.929 0.694 0.125 RC
1 LJ
N
198.5 369.5 M
197.621 367.379 L
195.5 366.5 L
193.379 367.379 L
192.5 369.5 L
193.379 371.621 L
195.5 372.5 L
197.621 371.621 L
cp
S
GR
GS
0.929 0.694 0.125 RC
1 LJ
N
203.5 371.5 M
202.621 369.379 L
200.5 368.5 L
198.379 369.379 L
197.5 371.5 L
198.379 373.621 L
200.5 374.5 L
202.621 373.621 L
cp
S
GR
GS
0.929 0.694 0.125 RC
1 LJ
N
207.5 371.5 M
206.621 369.379 L
204.5 368.5 L
202.379 369.379 L
201.5 371.5 L
202.379 373.621 L
204.5 374.5 L
206.621 373.621 L
cp
S
GR
GS
0.929 0.694 0.125 RC
1 LJ
N
211.5 372.5 M
210.621 370.379 L
208.5 369.5 L
206.379 370.379 L
205.5 372.5 L
206.379 374.621 L
208.5 375.5 L
210.621 374.621 L
cp
S
GR
GS
0.929 0.694 0.125 RC
1 LJ
N
216.5 374.5 M
215.621 372.379 L
213.5 371.5 L
211.379 372.379 L
210.5 374.5 L
211.379 376.621 L
213.5 377.5 L
215.621 376.621 L
cp
S
GR
GS
0.929 0.694 0.125 RC
1 LJ
N
220.5 374.5 M
219.621 372.379 L
217.5 371.5 L
215.379 372.379 L
214.5 374.5 L
215.379 376.621 L
217.5 377.5 L
219.621 376.621 L
cp
S
GR
GS
0.929 0.694 0.125 RC
1 LJ
N
225.5 374.5 M
224.621 372.379 L
222.5 371.5 L
220.379 372.379 L
219.5 374.5 L
220.379 376.621 L
222.5 377.5 L
224.621 376.621 L
cp
S
GR
GS
0.929 0.694 0.125 RC
1 LJ
N
229.5 375.5 M
228.621 373.379 L
226.5 372.5 L
224.379 373.379 L
223.5 375.5 L
224.379 377.621 L
226.5 378.5 L
228.621 377.621 L
cp
S
GR
GS
0.929 0.694 0.125 RC
1 LJ
N
234.5 376.5 M
233.621 374.379 L
231.5 373.5 L
229.379 374.379 L
228.5 376.5 L
229.379 378.621 L
231.5 379.5 L
233.621 378.621 L
cp
S
GR
GS
0.929 0.694 0.125 RC
1 LJ
N
238.5 377.5 M
237.621 375.379 L
235.5 374.5 L
233.379 375.379 L
232.5 377.5 L
233.379 379.621 L
235.5 380.5 L
237.621 379.621 L
cp
S
GR
GS
0.929 0.694 0.125 RC
1 LJ
N
243.5 377.5 M
242.621 375.379 L
240.5 374.5 L
238.379 375.379 L
237.5 377.5 L
238.379 379.621 L
240.5 380.5 L
242.621 379.621 L
cp
S
GR
GS
0.929 0.694 0.125 RC
1 LJ
N
247.5 377.5 M
246.621 375.379 L
244.5 374.5 L
242.379 375.379 L
241.5 377.5 L
242.379 379.621 L
244.5 380.5 L
246.621 379.621 L
cp
S
GR
GS
0.929 0.694 0.125 RC
1 LJ
N
252.5 377.5 M
251.621 375.379 L
249.5 374.5 L
247.379 375.379 L
246.5 377.5 L
247.379 379.621 L
249.5 380.5 L
251.621 379.621 L
cp
S
GR
GS
0.929 0.694 0.125 RC
1 LJ
N
256.5 378.5 M
255.621 376.379 L
253.5 375.5 L
251.379 376.379 L
250.5 378.5 L
251.379 380.621 L
253.5 381.5 L
255.621 380.621 L
cp
S
GR
GS
0.929 0.694 0.125 RC
1 LJ
N
261.5 379.5 M
260.621 377.379 L
258.5 376.5 L
256.379 377.379 L
255.5 379.5 L
256.379 381.621 L
258.5 382.5 L
260.621 381.621 L
cp
S
GR
GS
0.929 0.694 0.125 RC
1 LJ
N
265.5 379.5 M
264.621 377.379 L
262.5 376.5 L
260.379 377.379 L
259.5 379.5 L
260.379 381.621 L
262.5 382.5 L
264.621 381.621 L
cp
S
GR
GS
0.929 0.694 0.125 RC
1 LJ
N
269.5 379.5 M
268.621 377.379 L
266.5 376.5 L
264.379 377.379 L
263.5 379.5 L
264.379 381.621 L
266.5 382.5 L
268.621 381.621 L
cp
S
GR
GS
0.929 0.694 0.125 RC
1 LJ
N
274.5 379.5 M
273.621 377.379 L
271.5 376.5 L
269.379 377.379 L
268.5 379.5 L
269.379 381.621 L
271.5 382.5 L
273.621 381.621 L
cp
S
GR
GS
0.929 0.694 0.125 RC
1 LJ
N
278.5 379.5 M
277.621 377.379 L
275.5 376.5 L
273.379 377.379 L
272.5 379.5 L
273.379 381.621 L
275.5 382.5 L
277.621 381.621 L
cp
S
GR
GS
0.929 0.694 0.125 RC
1 LJ
N
283.5 380.5 M
282.621 378.379 L
280.5 377.5 L
278.379 378.379 L
277.5 380.5 L
278.379 382.621 L
280.5 383.5 L
282.621 382.621 L
cp
S
GR
GS
0.929 0.694 0.125 RC
1 LJ
N
287.5 380.5 M
286.621 378.379 L
284.5 377.5 L
282.379 378.379 L
281.5 380.5 L
282.379 382.621 L
284.5 383.5 L
286.621 382.621 L
cp
S
GR
GS
0.929 0.694 0.125 RC
1 LJ
N
292.5 380.5 M
291.621 378.379 L
289.5 377.5 L
287.379 378.379 L
286.5 380.5 L
287.379 382.621 L
289.5 383.5 L
291.621 382.621 L
cp
S
GR
GS
0.929 0.694 0.125 RC
1 LJ
N
296.5 380.5 M
295.621 378.379 L
293.5 377.5 L
291.379 378.379 L
290.5 380.5 L
291.379 382.621 L
293.5 383.5 L
295.621 382.621 L
cp
S
GR
GS
0.929 0.694 0.125 RC
1 LJ
N
301.5 381.5 M
300.621 379.379 L
298.5 378.5 L
296.379 379.379 L
295.5 381.5 L
296.379 383.621 L
298.5 384.5 L
300.621 383.621 L
cp
S
GR
GS
0.929 0.694 0.125 RC
1 LJ
N
305.5 381.5 M
304.621 379.379 L
302.5 378.5 L
300.379 379.379 L
299.5 381.5 L
300.379 383.621 L
302.5 384.5 L
304.621 383.621 L
cp
S
GR
GS
0.929 0.694 0.125 RC
1 LJ
N
310.5 381.5 M
309.621 379.379 L
307.5 378.5 L
305.379 379.379 L
304.5 381.5 L
305.379 383.621 L
307.5 384.5 L
309.621 383.621 L
cp
S
GR
GS
0.929 0.694 0.125 RC
1 LJ
N
314.5 381.5 M
313.621 379.379 L
311.5 378.5 L
309.379 379.379 L
308.5 381.5 L
309.379 383.621 L
311.5 384.5 L
313.621 383.621 L
cp
S
GR
GS
0.929 0.694 0.125 RC
1 LJ
N
319.5 381.5 M
318.621 379.379 L
316.5 378.5 L
314.379 379.379 L
313.5 381.5 L
314.379 383.621 L
316.5 384.5 L
318.621 383.621 L
cp
S
GR
GS
0.929 0.694 0.125 RC
1 LJ
N
323.5 381.5 M
322.621 379.379 L
320.5 378.5 L
318.379 379.379 L
317.5 381.5 L
318.379 383.621 L
320.5 384.5 L
322.621 383.621 L
cp
S
GR
GS
0.929 0.694 0.125 RC
1 LJ
N
328.5 382.5 M
327.621 380.379 L
325.5 379.5 L
323.379 380.379 L
322.5 382.5 L
323.379 384.621 L
325.5 385.5 L
327.621 384.621 L
cp
S
GR
GS
0.929 0.694 0.125 RC
1 LJ
N
332.5 382.5 M
331.621 380.379 L
329.5 379.5 L
327.379 380.379 L
326.5 382.5 L
327.379 384.621 L
329.5 385.5 L
331.621 384.621 L
cp
S
GR
GS
0.929 0.694 0.125 RC
1 LJ
N
336.5 382.5 M
335.621 380.379 L
333.5 379.5 L
331.379 380.379 L
330.5 382.5 L
331.379 384.621 L
333.5 385.5 L
335.621 384.621 L
cp
S
GR
GS
0.929 0.694 0.125 RC
1 LJ
N
341.5 382.5 M
340.621 380.379 L
338.5 379.5 L
336.379 380.379 L
335.5 382.5 L
336.379 384.621 L
338.5 385.5 L
340.621 384.621 L
cp
S
GR
GS
0.929 0.694 0.125 RC
1 LJ
N
345.5 382.5 M
344.621 380.379 L
342.5 379.5 L
340.379 380.379 L
339.5 382.5 L
340.379 384.621 L
342.5 385.5 L
344.621 384.621 L
cp
S
GR
GS
0.929 0.694 0.125 RC
1 LJ
N
350.5 382.5 M
349.621 380.379 L
347.5 379.5 L
345.379 380.379 L
344.5 382.5 L
345.379 384.621 L
347.5 385.5 L
349.621 384.621 L
cp
S
GR
GS
0.929 0.694 0.125 RC
1 LJ
N
354.5 382.5 M
353.621 380.379 L
351.5 379.5 L
349.379 380.379 L
348.5 382.5 L
349.379 384.621 L
351.5 385.5 L
353.621 384.621 L
cp
S
GR
GS
0.929 0.694 0.125 RC
1 LJ
N
359.5 382.5 M
358.621 380.379 L
356.5 379.5 L
354.379 380.379 L
353.5 382.5 L
354.379 384.621 L
356.5 385.5 L
358.621 384.621 L
cp
S
GR
GS
0.929 0.694 0.125 RC
1 LJ
N
363.5 382.5 M
362.621 380.379 L
360.5 379.5 L
358.379 380.379 L
357.5 382.5 L
358.379 384.621 L
360.5 385.5 L
362.621 384.621 L
cp
S
GR
GS
0.929 0.694 0.125 RC
1 LJ
N
368.5 382.5 M
367.621 380.379 L
365.5 379.5 L
363.379 380.379 L
362.5 382.5 L
363.379 384.621 L
365.5 385.5 L
367.621 384.621 L
cp
S
GR
GS
0.929 0.694 0.125 RC
1 LJ
N
372.5 382.5 M
371.621 380.379 L
369.5 379.5 L
367.379 380.379 L
366.5 382.5 L
367.379 384.621 L
369.5 385.5 L
371.621 384.621 L
cp
S
GR
GS
0.929 0.694 0.125 RC
1 LJ
N
377.5 382.5 M
376.621 380.379 L
374.5 379.5 L
372.379 380.379 L
371.5 382.5 L
372.379 384.621 L
374.5 385.5 L
376.621 384.621 L
cp
S
GR
GS
0.929 0.694 0.125 RC
1 LJ
N
381.5 383.5 M
380.621 381.379 L
378.5 380.5 L
376.379 381.379 L
375.5 383.5 L
376.379 385.621 L
378.5 386.5 L
380.621 385.621 L
cp
S
GR
GS
0.929 0.694 0.125 RC
1 LJ
N
386.5 383.5 M
385.621 381.379 L
383.5 380.5 L
381.379 381.379 L
380.5 383.5 L
381.379 385.621 L
383.5 386.5 L
385.621 385.621 L
cp
S
GR
GS
0.929 0.694 0.125 RC
1 LJ
N
390.5 383.5 M
389.621 381.379 L
387.5 380.5 L
385.379 381.379 L
384.5 383.5 L
385.379 385.621 L
387.5 386.5 L
389.621 385.621 L
cp
S
GR
GS
0.929 0.694 0.125 RC
1 LJ
N
395.5 383.5 M
394.621 381.379 L
392.5 380.5 L
390.379 381.379 L
389.5 383.5 L
390.379 385.621 L
392.5 386.5 L
394.621 385.621 L
cp
S
GR
GS
0.929 0.694 0.125 RC
1 LJ
N
399.5 383.5 M
398.621 381.379 L
396.5 380.5 L
394.379 381.379 L
393.5 383.5 L
394.379 385.621 L
396.5 386.5 L
398.621 385.621 L
cp
S
GR
GS
0.929 0.694 0.125 RC
1 LJ
N
403.5 383.5 M
402.621 381.379 L
400.5 380.5 L
398.379 381.379 L
397.5 383.5 L
398.379 385.621 L
400.5 386.5 L
402.621 385.621 L
cp
S
GR
GS
0.929 0.694 0.125 RC
1 LJ
N
408.5 383.5 M
407.621 381.379 L
405.5 380.5 L
403.379 381.379 L
402.5 383.5 L
403.379 385.621 L
405.5 386.5 L
407.621 385.621 L
cp
S
GR
GS
0.929 0.694 0.125 RC
1 LJ
N
412.5 383.5 M
411.621 381.379 L
409.5 380.5 L
407.379 381.379 L
406.5 383.5 L
407.379 385.621 L
409.5 386.5 L
411.621 385.621 L
cp
S
GR
GS
0.929 0.694 0.125 RC
1 LJ
N
417.5 383.5 M
416.621 381.379 L
414.5 380.5 L
412.379 381.379 L
411.5 383.5 L
412.379 385.621 L
414.5 386.5 L
416.621 385.621 L
cp
S
GR
GS
0.929 0.694 0.125 RC
1 LJ
N
421.5 383.5 M
420.621 381.379 L
418.5 380.5 L
416.379 381.379 L
415.5 383.5 L
416.379 385.621 L
418.5 386.5 L
420.621 385.621 L
cp
S
GR
GS
0.929 0.694 0.125 RC
1 LJ
N
426.5 383.5 M
425.621 381.379 L
423.5 380.5 L
421.379 381.379 L
420.5 383.5 L
421.379 385.621 L
423.5 386.5 L
425.621 385.621 L
cp
S
GR
GS
0.929 0.694 0.125 RC
1 LJ
N
430.5 383.5 M
429.621 381.379 L
427.5 380.5 L
425.379 381.379 L
424.5 383.5 L
425.379 385.621 L
427.5 386.5 L
429.621 385.621 L
cp
S
GR
GS
0.929 0.694 0.125 RC
1 LJ
N
435.5 383.5 M
434.621 381.379 L
432.5 380.5 L
430.379 381.379 L
429.5 383.5 L
430.379 385.621 L
432.5 386.5 L
434.621 385.621 L
cp
S
GR
GS
0.929 0.694 0.125 RC
1 LJ
N
439.5 383.5 M
438.621 381.379 L
436.5 380.5 L
434.379 381.379 L
433.5 383.5 L
434.379 385.621 L
436.5 386.5 L
438.621 385.621 L
cp
S
GR
GS
0.929 0.694 0.125 RC
1 LJ
N
444.5 383.5 M
443.621 381.379 L
441.5 380.5 L
439.379 381.379 L
438.5 383.5 L
439.379 385.621 L
441.5 386.5 L
443.621 385.621 L
cp
S
GR
GS
0.929 0.694 0.125 RC
1 LJ
N
448.5 383.5 M
447.621 381.379 L
445.5 380.5 L
443.379 381.379 L
442.5 383.5 L
443.379 385.621 L
445.5 386.5 L
447.621 385.621 L
cp
S
GR
GS
0.929 0.694 0.125 RC
1 LJ
N
453.5 383.5 M
452.621 381.379 L
450.5 380.5 L
448.379 381.379 L
447.5 383.5 L
448.379 385.621 L
450.5 386.5 L
452.621 385.621 L
cp
S
GR
GS
0.929 0.694 0.125 RC
1 LJ
N
457.5 383.5 M
456.621 381.379 L
454.5 380.5 L
452.379 381.379 L
451.5 383.5 L
452.379 385.621 L
454.5 386.5 L
456.621 385.621 L
cp
S
GR
GS
0.929 0.694 0.125 RC
1 LJ
N
461.5 383.5 M
460.621 381.379 L
458.5 380.5 L
456.379 381.379 L
455.5 383.5 L
456.379 385.621 L
458.5 386.5 L
460.621 385.621 L
cp
S
GR
GS
0.929 0.694 0.125 RC
1 LJ
N
466.5 383.5 M
465.621 381.379 L
463.5 380.5 L
461.379 381.379 L
460.5 383.5 L
461.379 385.621 L
463.5 386.5 L
465.621 385.621 L
cp
S
GR
GS
0.929 0.694 0.125 RC
1 LJ
N
470.5 383.5 M
469.621 381.379 L
467.5 380.5 L
465.379 381.379 L
464.5 383.5 L
465.379 385.621 L
467.5 386.5 L
469.621 385.621 L
cp
S
GR
GS
0.929 0.694 0.125 RC
1 LJ
N
475.5 383.5 M
474.621 381.379 L
472.5 380.5 L
470.379 381.379 L
469.5 383.5 L
470.379 385.621 L
472.5 386.5 L
474.621 385.621 L
cp
S
GR
GS
0.929 0.694 0.125 RC
1 LJ
N
479.5 383.5 M
478.621 381.379 L
476.5 380.5 L
474.379 381.379 L
473.5 383.5 L
474.379 385.621 L
476.5 386.5 L
478.621 385.621 L
cp
S
GR
GS
0.929 0.694 0.125 RC
1 LJ
N
484.5 383.5 M
483.621 381.379 L
481.5 380.5 L
479.379 381.379 L
478.5 383.5 L
479.379 385.621 L
481.5 386.5 L
483.621 385.621 L
cp
S
GR
GS
0.851 0.325 0.098 RC
1 LJ
N
79.465 32.5 M
83.93 117.564 L
88.395 179.573 L
92.86 182.899 L
97.325 236.309 L
101.79 213.141 L
106.255 260.776 L
110.72 242.517 L
115.185 273.396 L
119.65 271.077 L
124.115 277.46 L
128.58 287.128 L
133.045 288.351 L
137.51 296.827 L
141.975 298.864 L
146.44 302.709 L
150.905 304.74 L
155.37 310.27 L
159.835 312.296 L
164.3 315.64 L
168.765 318.008 L
173.23 322.843 L
177.695 325.196 L
182.16 328.3 L
186.625 330.652 L
191.09 333.126 L
195.555 335.351 L
200.02 337.739 L
204.485 339.814 L
208.95 342.252 L
213.415 343.646 L
217.88 344.78 L
222.345 345.93 L
226.81 346.451 L
231.275 346.823 L
235.74 349.037 L
240.205 352.089 L
244.67 353.111 L
249.135 352.694 L
253.6 357.472 L
258.065 358.487 L
262.53 360.114 L
266.995 361.172 L
271.46 361.159 L
275.925 362.694 L
280.39 362.857 L
284.855 363.33 L
289.32 363.459 L
293.785 363.865 L
298.25 364.189 L
S
GR
GS
0.851 0.325 0.098 RC
1 LJ
N
293.785 363.865 M
298.25 364.189 L
302.715 364.692 L
307.18 364.898 L
311.645 365.19 L
316.11 365.329 L
320.575 365.425 L
325.04 365.737 L
329.505 365.824 L
333.97 366.065 L
338.435 366.191 L
342.9 366.334 L
347.365 366.333 L
351.83 366.977 L
356.295 367.26 L
360.76 367.426 L
365.225 367.497 L
369.69 367.856 L
374.155 367.914 L
378.62 368.178 L
383.085 368.386 L
387.55 368.479 L
392.015 368.591 L
396.48 368.664 L
400.945 368.839 L
405.41 368.886 L
409.875 369.301 L
414.34 369.284 L
418.805 369.744 L
423.27 369.827 L
427.735 369.907 L
432.2 370.171 L
436.665 370.281 L
441.13 370.415 L
445.595 370.514 L
450.06 370.571 L
454.525 370.758 L
458.99 370.798 L
463.455 371.036 L
467.92 371.209 L
472.385 371.314 L
476.85 371.402 L
481.315 371.527 L
S
GR
GS
0.851 0.325 0.098 RC
1 LJ
N
82.5 32.5 M
81.621 30.379 L
79.5 29.5 L
77.379 30.379 L
76.5 32.5 L
77.379 34.621 L
79.5 35.5 L
81.621 34.621 L
cp
S
GR
GS
0.851 0.325 0.098 RC
1 LJ
N
86.5 117.5 M
85.621 115.379 L
83.5 114.5 L
81.379 115.379 L
80.5 117.5 L
81.379 119.621 L
83.5 120.5 L
85.621 119.621 L
cp
S
GR
GS
0.851 0.325 0.098 RC
1 LJ
N
91.5 179.5 M
90.621 177.379 L
88.5 176.5 L
86.379 177.379 L
85.5 179.5 L
86.379 181.621 L
88.5 182.5 L
90.621 181.621 L
cp
S
GR
GS
0.851 0.325 0.098 RC
1 LJ
N
95.5 182.5 M
94.621 180.379 L
92.5 179.5 L
90.379 180.379 L
89.5 182.5 L
90.379 184.621 L
92.5 185.5 L
94.621 184.621 L
cp
S
GR
GS
0.851 0.325 0.098 RC
1 LJ
N
100.5 236.5 M
99.621 234.379 L
97.5 233.5 L
95.379 234.379 L
94.5 236.5 L
95.379 238.621 L
97.5 239.5 L
99.621 238.621 L
cp
S
GR
GS
0.851 0.325 0.098 RC
1 LJ
N
104.5 213.5 M
103.621 211.379 L
101.5 210.5 L
99.379 211.379 L
98.5 213.5 L
99.379 215.621 L
101.5 216.5 L
103.621 215.621 L
cp
S
GR
GS
0.851 0.325 0.098 RC
1 LJ
N
109.5 260.5 M
108.621 258.379 L
106.5 257.5 L
104.379 258.379 L
103.5 260.5 L
104.379 262.621 L
106.5 263.5 L
108.621 262.621 L
cp
S
GR
GS
0.851 0.325 0.098 RC
1 LJ
N
113.5 242.5 M
112.621 240.379 L
110.5 239.5 L
108.379 240.379 L
107.5 242.5 L
108.379 244.621 L
110.5 245.5 L
112.621 244.621 L
cp
S
GR
GS
0.851 0.325 0.098 RC
1 LJ
N
118.5 273.5 M
117.621 271.379 L
115.5 270.5 L
113.379 271.379 L
112.5 273.5 L
113.379 275.621 L
115.5 276.5 L
117.621 275.621 L
cp
S
GR
GS
0.851 0.325 0.098 RC
1 LJ
N
122.5 271.5 M
121.621 269.379 L
119.5 268.5 L
117.379 269.379 L
116.5 271.5 L
117.379 273.621 L
119.5 274.5 L
121.621 273.621 L
cp
S
GR
GS
0.851 0.325 0.098 RC
1 LJ
N
127.5 277.5 M
126.621 275.379 L
124.5 274.5 L
122.379 275.379 L
121.5 277.5 L
122.379 279.621 L
124.5 280.5 L
126.621 279.621 L
cp
S
GR
GS
0.851 0.325 0.098 RC
1 LJ
N
131.5 287.5 M
130.621 285.379 L
128.5 284.5 L
126.379 285.379 L
125.5 287.5 L
126.379 289.621 L
128.5 290.5 L
130.621 289.621 L
cp
S
GR
GS
0.851 0.325 0.098 RC
1 LJ
N
136.5 288.5 M
135.621 286.379 L
133.5 285.5 L
131.379 286.379 L
130.5 288.5 L
131.379 290.621 L
133.5 291.5 L
135.621 290.621 L
cp
S
GR
GS
0.851 0.325 0.098 RC
1 LJ
N
140.5 296.5 M
139.621 294.379 L
137.5 293.5 L
135.379 294.379 L
134.5 296.5 L
135.379 298.621 L
137.5 299.5 L
139.621 298.621 L
cp
S
GR
GS
0.851 0.325 0.098 RC
1 LJ
N
144.5 298.5 M
143.621 296.379 L
141.5 295.5 L
139.379 296.379 L
138.5 298.5 L
139.379 300.621 L
141.5 301.5 L
143.621 300.621 L
cp
S
GR
GS
0.851 0.325 0.098 RC
1 LJ
N
149.5 302.5 M
148.621 300.379 L
146.5 299.5 L
144.379 300.379 L
143.5 302.5 L
144.379 304.621 L
146.5 305.5 L
148.621 304.621 L
cp
S
GR
GS
0.851 0.325 0.098 RC
1 LJ
N
153.5 304.5 M
152.621 302.379 L
150.5 301.5 L
148.379 302.379 L
147.5 304.5 L
148.379 306.621 L
150.5 307.5 L
152.621 306.621 L
cp
S
GR
GS
0.851 0.325 0.098 RC
1 LJ
N
158.5 310.5 M
157.621 308.379 L
155.5 307.5 L
153.379 308.379 L
152.5 310.5 L
153.379 312.621 L
155.5 313.5 L
157.621 312.621 L
cp
S
GR
GS
0.851 0.325 0.098 RC
1 LJ
N
162.5 312.5 M
161.621 310.379 L
159.5 309.5 L
157.379 310.379 L
156.5 312.5 L
157.379 314.621 L
159.5 315.5 L
161.621 314.621 L
cp
S
GR
GS
0.851 0.325 0.098 RC
1 LJ
N
167.5 315.5 M
166.621 313.379 L
164.5 312.5 L
162.379 313.379 L
161.5 315.5 L
162.379 317.621 L
164.5 318.5 L
166.621 317.621 L
cp
S
GR
GS
0.851 0.325 0.098 RC
1 LJ
N
171.5 318.5 M
170.621 316.379 L
168.5 315.5 L
166.379 316.379 L
165.5 318.5 L
166.379 320.621 L
168.5 321.5 L
170.621 320.621 L
cp
S
GR
GS
0.851 0.325 0.098 RC
1 LJ
N
176.5 322.5 M
175.621 320.379 L
173.5 319.5 L
171.379 320.379 L
170.5 322.5 L
171.379 324.621 L
173.5 325.5 L
175.621 324.621 L
cp
S
GR
GS
0.851 0.325 0.098 RC
1 LJ
N
180.5 325.5 M
179.621 323.379 L
177.5 322.5 L
175.379 323.379 L
174.5 325.5 L
175.379 327.621 L
177.5 328.5 L
179.621 327.621 L
cp
S
GR
GS
0.851 0.325 0.098 RC
1 LJ
N
185.5 328.5 M
184.621 326.379 L
182.5 325.5 L
180.379 326.379 L
179.5 328.5 L
180.379 330.621 L
182.5 331.5 L
184.621 330.621 L
cp
S
GR
GS
0.851 0.325 0.098 RC
1 LJ
N
189.5 330.5 M
188.621 328.379 L
186.5 327.5 L
184.379 328.379 L
183.5 330.5 L
184.379 332.621 L
186.5 333.5 L
188.621 332.621 L
cp
S
GR
GS
0.851 0.325 0.098 RC
1 LJ
N
194.5 333.5 M
193.621 331.379 L
191.5 330.5 L
189.379 331.379 L
188.5 333.5 L
189.379 335.621 L
191.5 336.5 L
193.621 335.621 L
cp
S
GR
GS
0.851 0.325 0.098 RC
1 LJ
N
198.5 335.5 M
197.621 333.379 L
195.5 332.5 L
193.379 333.379 L
192.5 335.5 L
193.379 337.621 L
195.5 338.5 L
197.621 337.621 L
cp
S
GR
GS
0.851 0.325 0.098 RC
1 LJ
N
203.5 337.5 M
202.621 335.379 L
200.5 334.5 L
198.379 335.379 L
197.5 337.5 L
198.379 339.621 L
200.5 340.5 L
202.621 339.621 L
cp
S
GR
GS
0.851 0.325 0.098 RC
1 LJ
N
207.5 339.5 M
206.621 337.379 L
204.5 336.5 L
202.379 337.379 L
201.5 339.5 L
202.379 341.621 L
204.5 342.5 L
206.621 341.621 L
cp
S
GR
GS
0.851 0.325 0.098 RC
1 LJ
N
211.5 342.5 M
210.621 340.379 L
208.5 339.5 L
206.379 340.379 L
205.5 342.5 L
206.379 344.621 L
208.5 345.5 L
210.621 344.621 L
cp
S
GR
GS
0.851 0.325 0.098 RC
1 LJ
N
216.5 343.5 M
215.621 341.379 L
213.5 340.5 L
211.379 341.379 L
210.5 343.5 L
211.379 345.621 L
213.5 346.5 L
215.621 345.621 L
cp
S
GR
GS
0.851 0.325 0.098 RC
1 LJ
N
220.5 344.5 M
219.621 342.379 L
217.5 341.5 L
215.379 342.379 L
214.5 344.5 L
215.379 346.621 L
217.5 347.5 L
219.621 346.621 L
cp
S
GR
GS
0.851 0.325 0.098 RC
1 LJ
N
225.5 345.5 M
224.621 343.379 L
222.5 342.5 L
220.379 343.379 L
219.5 345.5 L
220.379 347.621 L
222.5 348.5 L
224.621 347.621 L
cp
S
GR
GS
0.851 0.325 0.098 RC
1 LJ
N
229.5 346.5 M
228.621 344.379 L
226.5 343.5 L
224.379 344.379 L
223.5 346.5 L
224.379 348.621 L
226.5 349.5 L
228.621 348.621 L
cp
S
GR
GS
0.851 0.325 0.098 RC
1 LJ
N
234.5 346.5 M
233.621 344.379 L
231.5 343.5 L
229.379 344.379 L
228.5 346.5 L
229.379 348.621 L
231.5 349.5 L
233.621 348.621 L
cp
S
GR
GS
0.851 0.325 0.098 RC
1 LJ
N
238.5 349.5 M
237.621 347.379 L
235.5 346.5 L
233.379 347.379 L
232.5 349.5 L
233.379 351.621 L
235.5 352.5 L
237.621 351.621 L
cp
S
GR
GS
0.851 0.325 0.098 RC
1 LJ
N
243.5 352.5 M
242.621 350.379 L
240.5 349.5 L
238.379 350.379 L
237.5 352.5 L
238.379 354.621 L
240.5 355.5 L
242.621 354.621 L
cp
S
GR
GS
0.851 0.325 0.098 RC
1 LJ
N
247.5 353.5 M
246.621 351.379 L
244.5 350.5 L
242.379 351.379 L
241.5 353.5 L
242.379 355.621 L
244.5 356.5 L
246.621 355.621 L
cp
S
GR
GS
0.851 0.325 0.098 RC
1 LJ
N
252.5 352.5 M
251.621 350.379 L
249.5 349.5 L
247.379 350.379 L
246.5 352.5 L
247.379 354.621 L
249.5 355.5 L
251.621 354.621 L
cp
S
GR
GS
0.851 0.325 0.098 RC
1 LJ
N
256.5 357.5 M
255.621 355.379 L
253.5 354.5 L
251.379 355.379 L
250.5 357.5 L
251.379 359.621 L
253.5 360.5 L
255.621 359.621 L
cp
S
GR
GS
0.851 0.325 0.098 RC
1 LJ
N
261.5 358.5 M
260.621 356.379 L
258.5 355.5 L
256.379 356.379 L
255.5 358.5 L
256.379 360.621 L
258.5 361.5 L
260.621 360.621 L
cp
S
GR
GS
0.851 0.325 0.098 RC
1 LJ
N
265.5 360.5 M
264.621 358.379 L
262.5 357.5 L
260.379 358.379 L
259.5 360.5 L
260.379 362.621 L
262.5 363.5 L
264.621 362.621 L
cp
S
GR
GS
0.851 0.325 0.098 RC
1 LJ
N
269.5 361.5 M
268.621 359.379 L
266.5 358.5 L
264.379 359.379 L
263.5 361.5 L
264.379 363.621 L
266.5 364.5 L
268.621 363.621 L
cp
S
GR
GS
0.851 0.325 0.098 RC
1 LJ
N
274.5 361.5 M
273.621 359.379 L
271.5 358.5 L
269.379 359.379 L
268.5 361.5 L
269.379 363.621 L
271.5 364.5 L
273.621 363.621 L
cp
S
GR
GS
0.851 0.325 0.098 RC
1 LJ
N
278.5 362.5 M
277.621 360.379 L
275.5 359.5 L
273.379 360.379 L
272.5 362.5 L
273.379 364.621 L
275.5 365.5 L
277.621 364.621 L
cp
S
GR
GS
0.851 0.325 0.098 RC
1 LJ
N
283.5 362.5 M
282.621 360.379 L
280.5 359.5 L
278.379 360.379 L
277.5 362.5 L
278.379 364.621 L
280.5 365.5 L
282.621 364.621 L
cp
S
GR
GS
0.851 0.325 0.098 RC
1 LJ
N
287.5 363.5 M
286.621 361.379 L
284.5 360.5 L
282.379 361.379 L
281.5 363.5 L
282.379 365.621 L
284.5 366.5 L
286.621 365.621 L
cp
S
GR
GS
0.851 0.325 0.098 RC
1 LJ
N
292.5 363.5 M
291.621 361.379 L
289.5 360.5 L
287.379 361.379 L
286.5 363.5 L
287.379 365.621 L
289.5 366.5 L
291.621 365.621 L
cp
S
GR
GS
0.851 0.325 0.098 RC
1 LJ
N
296.5 363.5 M
295.621 361.379 L
293.5 360.5 L
291.379 361.379 L
290.5 363.5 L
291.379 365.621 L
293.5 366.5 L
295.621 365.621 L
cp
S
GR
GS
0.851 0.325 0.098 RC
1 LJ
N
301.5 364.5 M
300.621 362.379 L
298.5 361.5 L
296.379 362.379 L
295.5 364.5 L
296.379 366.621 L
298.5 367.5 L
300.621 366.621 L
cp
S
GR
GS
0.851 0.325 0.098 RC
1 LJ
N
305.5 364.5 M
304.621 362.379 L
302.5 361.5 L
300.379 362.379 L
299.5 364.5 L
300.379 366.621 L
302.5 367.5 L
304.621 366.621 L
cp
S
GR
GS
0.851 0.325 0.098 RC
1 LJ
N
310.5 364.5 M
309.621 362.379 L
307.5 361.5 L
305.379 362.379 L
304.5 364.5 L
305.379 366.621 L
307.5 367.5 L
309.621 366.621 L
cp
S
GR
GS
0.851 0.325 0.098 RC
1 LJ
N
314.5 365.5 M
313.621 363.379 L
311.5 362.5 L
309.379 363.379 L
308.5 365.5 L
309.379 367.621 L
311.5 368.5 L
313.621 367.621 L
cp
S
GR
GS
0.851 0.325 0.098 RC
1 LJ
N
319.5 365.5 M
318.621 363.379 L
316.5 362.5 L
314.379 363.379 L
313.5 365.5 L
314.379 367.621 L
316.5 368.5 L
318.621 367.621 L
cp
S
GR
GS
0.851 0.325 0.098 RC
1 LJ
N
323.5 365.5 M
322.621 363.379 L
320.5 362.5 L
318.379 363.379 L
317.5 365.5 L
318.379 367.621 L
320.5 368.5 L
322.621 367.621 L
cp
S
GR
GS
0.851 0.325 0.098 RC
1 LJ
N
328.5 365.5 M
327.621 363.379 L
325.5 362.5 L
323.379 363.379 L
322.5 365.5 L
323.379 367.621 L
325.5 368.5 L
327.621 367.621 L
cp
S
GR
GS
0.851 0.325 0.098 RC
1 LJ
N
332.5 365.5 M
331.621 363.379 L
329.5 362.5 L
327.379 363.379 L
326.5 365.5 L
327.379 367.621 L
329.5 368.5 L
331.621 367.621 L
cp
S
GR
GS
0.851 0.325 0.098 RC
1 LJ
N
336.5 366.5 M
335.621 364.379 L
333.5 363.5 L
331.379 364.379 L
330.5 366.5 L
331.379 368.621 L
333.5 369.5 L
335.621 368.621 L
cp
S
GR
GS
0.851 0.325 0.098 RC
1 LJ
N
341.5 366.5 M
340.621 364.379 L
338.5 363.5 L
336.379 364.379 L
335.5 366.5 L
336.379 368.621 L
338.5 369.5 L
340.621 368.621 L
cp
S
GR
GS
0.851 0.325 0.098 RC
1 LJ
N
345.5 366.5 M
344.621 364.379 L
342.5 363.5 L
340.379 364.379 L
339.5 366.5 L
340.379 368.621 L
342.5 369.5 L
344.621 368.621 L
cp
S
GR
GS
0.851 0.325 0.098 RC
1 LJ
N
350.5 366.5 M
349.621 364.379 L
347.5 363.5 L
345.379 364.379 L
344.5 366.5 L
345.379 368.621 L
347.5 369.5 L
349.621 368.621 L
cp
S
GR
GS
0.851 0.325 0.098 RC
1 LJ
N
354.5 366.5 M
353.621 364.379 L
351.5 363.5 L
349.379 364.379 L
348.5 366.5 L
349.379 368.621 L
351.5 369.5 L
353.621 368.621 L
cp
S
GR
GS
0.851 0.325 0.098 RC
1 LJ
N
359.5 367.5 M
358.621 365.379 L
356.5 364.5 L
354.379 365.379 L
353.5 367.5 L
354.379 369.621 L
356.5 370.5 L
358.621 369.621 L
cp
S
GR
GS
0.851 0.325 0.098 RC
1 LJ
N
363.5 367.5 M
362.621 365.379 L
360.5 364.5 L
358.379 365.379 L
357.5 367.5 L
358.379 369.621 L
360.5 370.5 L
362.621 369.621 L
cp
S
GR
GS
0.851 0.325 0.098 RC
1 LJ
N
368.5 367.5 M
367.621 365.379 L
365.5 364.5 L
363.379 365.379 L
362.5 367.5 L
363.379 369.621 L
365.5 370.5 L
367.621 369.621 L
cp
S
GR
GS
0.851 0.325 0.098 RC
1 LJ
N
372.5 367.5 M
371.621 365.379 L
369.5 364.5 L
367.379 365.379 L
366.5 367.5 L
367.379 369.621 L
369.5 370.5 L
371.621 369.621 L
cp
S
GR
GS
0.851 0.325 0.098 RC
1 LJ
N
377.5 367.5 M
376.621 365.379 L
374.5 364.5 L
372.379 365.379 L
371.5 367.5 L
372.379 369.621 L
374.5 370.5 L
376.621 369.621 L
cp
S
GR
GS
0.851 0.325 0.098 RC
1 LJ
N
381.5 368.5 M
380.621 366.379 L
378.5 365.5 L
376.379 366.379 L
375.5 368.5 L
376.379 370.621 L
378.5 371.5 L
380.621 370.621 L
cp
S
GR
GS
0.851 0.325 0.098 RC
1 LJ
N
386.5 368.5 M
385.621 366.379 L
383.5 365.5 L
381.379 366.379 L
380.5 368.5 L
381.379 370.621 L
383.5 371.5 L
385.621 370.621 L
cp
S
GR
GS
0.851 0.325 0.098 RC
1 LJ
N
390.5 368.5 M
389.621 366.379 L
387.5 365.5 L
385.379 366.379 L
384.5 368.5 L
385.379 370.621 L
387.5 371.5 L
389.621 370.621 L
cp
S
GR
GS
0.851 0.325 0.098 RC
1 LJ
N
395.5 368.5 M
394.621 366.379 L
392.5 365.5 L
390.379 366.379 L
389.5 368.5 L
390.379 370.621 L
392.5 371.5 L
394.621 370.621 L
cp
S
GR
GS
0.851 0.325 0.098 RC
1 LJ
N
399.5 368.5 M
398.621 366.379 L
396.5 365.5 L
394.379 366.379 L
393.5 368.5 L
394.379 370.621 L
396.5 371.5 L
398.621 370.621 L
cp
S
GR
GS
0.851 0.325 0.098 RC
1 LJ
N
403.5 368.5 M
402.621 366.379 L
400.5 365.5 L
398.379 366.379 L
397.5 368.5 L
398.379 370.621 L
400.5 371.5 L
402.621 370.621 L
cp
S
GR
GS
0.851 0.325 0.098 RC
1 LJ
N
408.5 368.5 M
407.621 366.379 L
405.5 365.5 L
403.379 366.379 L
402.5 368.5 L
403.379 370.621 L
405.5 371.5 L
407.621 370.621 L
cp
S
GR
GS
0.851 0.325 0.098 RC
1 LJ
N
412.5 369.5 M
411.621 367.379 L
409.5 366.5 L
407.379 367.379 L
406.5 369.5 L
407.379 371.621 L
409.5 372.5 L
411.621 371.621 L
cp
S
GR
GS
0.851 0.325 0.098 RC
1 LJ
N
417.5 369.5 M
416.621 367.379 L
414.5 366.5 L
412.379 367.379 L
411.5 369.5 L
412.379 371.621 L
414.5 372.5 L
416.621 371.621 L
cp
S
GR
GS
0.851 0.325 0.098 RC
1 LJ
N
421.5 369.5 M
420.621 367.379 L
418.5 366.5 L
416.379 367.379 L
415.5 369.5 L
416.379 371.621 L
418.5 372.5 L
420.621 371.621 L
cp
S
GR
GS
0.851 0.325 0.098 RC
1 LJ
N
426.5 369.5 M
425.621 367.379 L
423.5 366.5 L
421.379 367.379 L
420.5 369.5 L
421.379 371.621 L
423.5 372.5 L
425.621 371.621 L
cp
S
GR
GS
0.851 0.325 0.098 RC
1 LJ
N
430.5 369.5 M
429.621 367.379 L
427.5 366.5 L
425.379 367.379 L
424.5 369.5 L
425.379 371.621 L
427.5 372.5 L
429.621 371.621 L
cp
S
GR
GS
0.851 0.325 0.098 RC
1 LJ
N
435.5 370.5 M
434.621 368.379 L
432.5 367.5 L
430.379 368.379 L
429.5 370.5 L
430.379 372.621 L
432.5 373.5 L
434.621 372.621 L
cp
S
GR
GS
0.851 0.325 0.098 RC
1 LJ
N
439.5 370.5 M
438.621 368.379 L
436.5 367.5 L
434.379 368.379 L
433.5 370.5 L
434.379 372.621 L
436.5 373.5 L
438.621 372.621 L
cp
S
GR
GS
0.851 0.325 0.098 RC
1 LJ
N
444.5 370.5 M
443.621 368.379 L
441.5 367.5 L
439.379 368.379 L
438.5 370.5 L
439.379 372.621 L
441.5 373.5 L
443.621 372.621 L
cp
S
GR
GS
0.851 0.325 0.098 RC
1 LJ
N
448.5 370.5 M
447.621 368.379 L
445.5 367.5 L
443.379 368.379 L
442.5 370.5 L
443.379 372.621 L
445.5 373.5 L
447.621 372.621 L
cp
S
GR
GS
0.851 0.325 0.098 RC
1 LJ
N
453.5 370.5 M
452.621 368.379 L
450.5 367.5 L
448.379 368.379 L
447.5 370.5 L
448.379 372.621 L
450.5 373.5 L
452.621 372.621 L
cp
S
GR
GS
0.851 0.325 0.098 RC
1 LJ
N
457.5 370.5 M
456.621 368.379 L
454.5 367.5 L
452.379 368.379 L
451.5 370.5 L
452.379 372.621 L
454.5 373.5 L
456.621 372.621 L
cp
S
GR
GS
0.851 0.325 0.098 RC
1 LJ
N
461.5 370.5 M
460.621 368.379 L
458.5 367.5 L
456.379 368.379 L
455.5 370.5 L
456.379 372.621 L
458.5 373.5 L
460.621 372.621 L
cp
S
GR
GS
0.851 0.325 0.098 RC
1 LJ
N
466.5 371.5 M
465.621 369.379 L
463.5 368.5 L
461.379 369.379 L
460.5 371.5 L
461.379 373.621 L
463.5 374.5 L
465.621 373.621 L
cp
S
GR
GS
0.851 0.325 0.098 RC
1 LJ
N
470.5 371.5 M
469.621 369.379 L
467.5 368.5 L
465.379 369.379 L
464.5 371.5 L
465.379 373.621 L
467.5 374.5 L
469.621 373.621 L
cp
S
GR
GS
0.851 0.325 0.098 RC
1 LJ
N
475.5 371.5 M
474.621 369.379 L
472.5 368.5 L
470.379 369.379 L
469.5 371.5 L
470.379 373.621 L
472.5 374.5 L
474.621 373.621 L
cp
S
GR
GS
0.851 0.325 0.098 RC
1 LJ
N
479.5 371.5 M
478.621 369.379 L
476.5 368.5 L
474.379 369.379 L
473.5 371.5 L
474.379 373.621 L
476.5 374.5 L
478.621 373.621 L
cp
S
GR
GS
0.851 0.325 0.098 RC
1 LJ
N
484.5 371.5 M
483.621 369.379 L
481.5 368.5 L
479.379 369.379 L
478.5 371.5 L
479.379 373.621 L
481.5 374.5 L
483.621 373.621 L
cp
S
GR
GS
[1 0 0 1 360 53.75] CT
/Helvetica 18 F
GS
[1 0 0 1 0 0] CT
0 4.5 moveto 
1 -1 scale
(Random shuffling) t 
GR
GR
GS
0 0.447 0.741 RC
1 LJ
N
327 53.75 M
357 53.75 L
S
GR
GS
0 0.447 0.741 RC
1 LJ
N
344.5 53.5 M
343.621 51.379 L
341.5 50.5 L
339.379 51.379 L
338.5 53.5 L
339.379 55.621 L
341.5 56.5 L
343.621 55.621 L
cp
S
GR
GS
[1 0 0 1 360 72.75] CT
/Helvetica 18 F
GS
[1 0 0 1 0 0] CT
0 4.5 moveto 
1 -1 scale
(Smart shuffling) t 
GR
GR
GS
0.851 0.325 0.098 RC
1 LJ
N
327 72.75 M
357 72.75 L
S
GR
GS
0.851 0.325 0.098 RC
1 LJ
N
344.5 72.5 M
343.621 70.379 L
341.5 69.5 L
339.379 70.379 L
338.5 72.5 L
339.379 74.621 L
341.5 75.5 L
343.621 74.621 L
cp
S
GR
GS
[1 0 0 1 360 91.75] CT
/Helvetica 18 F
GS
[1 0 0 1 0 0] CT
0 4.5 moveto 
1 -1 scale
(Weighted shuffling) t 
GR
GR
GS
0.929 0.694 0.125 RC
1 LJ
N
327 91.75 M
357 91.75 L
S
GR
GS
0.929 0.694 0.125 RC
1 LJ
N
344.5 91.5 M
343.621 89.379 L
341.5 88.5 L
339.379 89.379 L
338.5 91.5 L
339.379 93.621 L
341.5 94.5 L
343.621 93.621 L
cp
S
GR
%%Trailer
%%Pages: 1
%%EOF
