%!PS-Adobe-3.0 EPSF-3.0
%%Creator: (MATLAB, The Mathworks, Inc. Version 8.6.0.267246 \(R2015b\). Operating System: Mac OS X)
%%Title: /Users/gauthiermuguerza/Desktop/rsgd/report/images/rank.eps
%%CreationDate: 2018-05-10T17:41:12
%%Pages: (atend)
%%BoundingBox: 0 0 762 630
%%LanguageLevel: 2
%%EndComments
%%BeginProlog
%%BeginResource: procset (Apache XML Graphics Std ProcSet) 1.2 0
%%Version: 1.2 0
%%Copyright: (Copyright 2001-2003,2010 The Apache Software Foundation. License terms: http://www.apache.org/licenses/LICENSE-2.0)
/bd{bind def}bind def
/ld{load def}bd
/GR/grestore ld
/M/moveto ld
/LJ/setlinejoin ld
/C/curveto ld
/f/fill ld
/LW/setlinewidth ld
/GC/setgray ld
/t/show ld
/N/newpath ld
/CT/concat ld
/cp/closepath ld
/S/stroke ld
/L/lineto ld
/CC/setcmykcolor ld
/A/ashow ld
/GS/gsave ld
/RC/setrgbcolor ld
/RM/rmoveto ld
/ML/setmiterlimit ld
/re {4 2 roll M
1 index 0 rlineto
0 exch rlineto
neg 0 rlineto
cp } bd
/_ctm matrix def
/_tm matrix def
/BT { _ctm currentmatrix pop matrix _tm copy pop 0 0 moveto } bd
/ET { _ctm setmatrix } bd
/iTm { _ctm setmatrix _tm concat } bd
/Tm { _tm astore pop iTm 0 0 moveto } bd
/ux 0.0 def
/uy 0.0 def
/F {
  /Tp exch def
  /Tf exch def
  Tf findfont Tp scalefont setfont
  /cf Tf def  /cs Tp def
} bd
/ULS {currentpoint /uy exch def /ux exch def} bd
/ULE {
  /Tcx currentpoint pop def
  gsave
  newpath
  cf findfont cs scalefont dup
  /FontMatrix get 0 get /Ts exch def /FontInfo get dup
  /UnderlinePosition get Ts mul /To exch def
  /UnderlineThickness get Ts mul /Tt exch def
  ux uy To add moveto  Tcx uy To add lineto
  Tt setlinewidth stroke
  grestore
} bd
/OLE {
  /Tcx currentpoint pop def
  gsave
  newpath
  cf findfont cs scalefont dup
  /FontMatrix get 0 get /Ts exch def /FontInfo get dup
  /UnderlinePosition get Ts mul /To exch def
  /UnderlineThickness get Ts mul /Tt exch def
  ux uy To add cs add moveto Tcx uy To add cs add lineto
  Tt setlinewidth stroke
  grestore
} bd
/SOE {
  /Tcx currentpoint pop def
  gsave
  newpath
  cf findfont cs scalefont dup
  /FontMatrix get 0 get /Ts exch def /FontInfo get dup
  /UnderlinePosition get Ts mul /To exch def
  /UnderlineThickness get Ts mul /Tt exch def
  ux uy To add cs 10 mul 26 idiv add moveto Tcx uy To add cs 10 mul 26 idiv add lineto
  Tt setlinewidth stroke
  grestore
} bd
/QT {
/Y22 exch store
/X22 exch store
/Y21 exch store
/X21 exch store
currentpoint
/Y21 load 2 mul add 3 div exch
/X21 load 2 mul add 3 div exch
/X21 load 2 mul /X22 load add 3 div
/Y21 load 2 mul /Y22 load add 3 div
/X22 load /Y22 load curveto
} bd
/SSPD {
dup length /d exch dict def
{
/v exch def
/k exch def
currentpagedevice k known {
/cpdv currentpagedevice k get def
v cpdv ne {
/upd false def
/nullv v type /nulltype eq def
/nullcpdv cpdv type /nulltype eq def
nullv nullcpdv or
{
/upd true def
} {
/sametype v type cpdv type eq def
sametype {
v type /arraytype eq {
/vlen v length def
/cpdvlen cpdv length def
vlen cpdvlen eq {
0 1 vlen 1 sub {
/i exch def
/obj v i get def
/cpdobj cpdv i get def
obj cpdobj ne {
/upd true def
exit
} if
} for
} {
/upd true def
} ifelse
} {
v type /dicttype eq {
v {
/dv exch def
/dk exch def
/cpddv cpdv dk get def
dv cpddv ne {
/upd true def
exit
} if
} forall
} {
/upd true def
} ifelse
} ifelse
} if
} ifelse
upd true eq {
d k v put
} if
} if
} if
} forall
d length 0 gt {
d setpagedevice
} if
} bd
%%EndResource
%%BeginResource: procset (Apache XML Graphics EPS ProcSet) 1.0 0
%%Version: 1.0 0
%%Copyright: (Copyright 2002-2003 The Apache Software Foundation. License terms: http://www.apache.org/licenses/LICENSE-2.0)
/BeginEPSF { %def
/b4_Inc_state save def         % Save state for cleanup
/dict_count countdictstack def % Count objects on dict stack
/op_count count 1 sub def      % Count objects on operand stack
userdict begin                 % Push userdict on dict stack
/showpage { } def              % Redefine showpage, { } = null proc
0 setgray 0 setlinecap         % Prepare graphics state
1 setlinewidth 0 setlinejoin
10 setmiterlimit [ ] 0 setdash newpath
/languagelevel where           % If level not equal to 1 then
{pop languagelevel             % set strokeadjust and
1 ne                           % overprint to their defaults.
{false setstrokeadjust false setoverprint
} if
} if
} bd
/EndEPSF { %def
count op_count sub {pop} repeat            % Clean up stacks
countdictstack dict_count sub {end} repeat
b4_Inc_state restore
} bd
%%EndResource
%FOPBeginFontDict
%%IncludeResource: font Courier-Bold
%%IncludeResource: font Helvetica
%%IncludeResource: font Courier-BoldOblique
%%IncludeResource: font Courier-Oblique
%%IncludeResource: font Times-Roman
%%IncludeResource: font Helvetica-BoldOblique
%%IncludeResource: font Helvetica-Bold
%%IncludeResource: font Helvetica-Oblique
%%IncludeResource: font Times-BoldItalic
%%IncludeResource: font Courier
%%IncludeResource: font Times-Italic
%%IncludeResource: font Times-Bold
%%IncludeResource: font Symbol
%%IncludeResource: font ZapfDingbats
%FOPEndFontDict
%%BeginResource: encoding WinAnsiEncoding
/WinAnsiEncoding [
/.notdef /.notdef /.notdef /.notdef /.notdef
/.notdef /.notdef /.notdef /.notdef /.notdef
/.notdef /.notdef /.notdef /.notdef /.notdef
/.notdef /.notdef /.notdef /.notdef /.notdef
/.notdef /.notdef /.notdef /.notdef /.notdef
/.notdef /.notdef /.notdef /.notdef /.notdef
/.notdef /.notdef /space /exclam /quotedbl
/numbersign /dollar /percent /ampersand /quotesingle
/parenleft /parenright /asterisk /plus /comma
/hyphen /period /slash /zero /one
/two /three /four /five /six
/seven /eight /nine /colon /semicolon
/less /equal /greater /question /at
/A /B /C /D /E
/F /G /H /I /J
/K /L /M /N /O
/P /Q /R /S /T
/U /V /W /X /Y
/Z /bracketleft /backslash /bracketright /asciicircum
/underscore /quoteleft /a /b /c
/d /e /f /g /h
/i /j /k /l /m
/n /o /p /q /r
/s /t /u /v /w
/x /y /z /braceleft /bar
/braceright /asciitilde /bullet /Euro /bullet
/quotesinglbase /florin /quotedblbase /ellipsis /dagger
/daggerdbl /circumflex /perthousand /Scaron /guilsinglleft
/OE /bullet /Zcaron /bullet /bullet
/quoteleft /quoteright /quotedblleft /quotedblright /bullet
/endash /emdash /asciitilde /trademark /scaron
/guilsinglright /oe /bullet /zcaron /Ydieresis
/space /exclamdown /cent /sterling /currency
/yen /brokenbar /section /dieresis /copyright
/ordfeminine /guillemotleft /logicalnot /sfthyphen /registered
/macron /degree /plusminus /twosuperior /threesuperior
/acute /mu /paragraph /middot /cedilla
/onesuperior /ordmasculine /guillemotright /onequarter /onehalf
/threequarters /questiondown /Agrave /Aacute /Acircumflex
/Atilde /Adieresis /Aring /AE /Ccedilla
/Egrave /Eacute /Ecircumflex /Edieresis /Igrave
/Iacute /Icircumflex /Idieresis /Eth /Ntilde
/Ograve /Oacute /Ocircumflex /Otilde /Odieresis
/multiply /Oslash /Ugrave /Uacute /Ucircumflex
/Udieresis /Yacute /Thorn /germandbls /agrave
/aacute /acircumflex /atilde /adieresis /aring
/ae /ccedilla /egrave /eacute /ecircumflex
/edieresis /igrave /iacute /icircumflex /idieresis
/eth /ntilde /ograve /oacute /ocircumflex
/otilde /odieresis /divide /oslash /ugrave
/uacute /ucircumflex /udieresis /yacute /thorn
/ydieresis
] def
%%EndResource
%FOPBeginFontReencode
/Courier-Bold findfont
dup length dict begin
  {1 index /FID ne {def} {pop pop} ifelse} forall
  /Encoding WinAnsiEncoding def
  currentdict
end
/Courier-Bold exch definefont pop
/Helvetica findfont
dup length dict begin
  {1 index /FID ne {def} {pop pop} ifelse} forall
  /Encoding WinAnsiEncoding def
  currentdict
end
/Helvetica exch definefont pop
/Courier-BoldOblique findfont
dup length dict begin
  {1 index /FID ne {def} {pop pop} ifelse} forall
  /Encoding WinAnsiEncoding def
  currentdict
end
/Courier-BoldOblique exch definefont pop
/Courier-Oblique findfont
dup length dict begin
  {1 index /FID ne {def} {pop pop} ifelse} forall
  /Encoding WinAnsiEncoding def
  currentdict
end
/Courier-Oblique exch definefont pop
/Times-Roman findfont
dup length dict begin
  {1 index /FID ne {def} {pop pop} ifelse} forall
  /Encoding WinAnsiEncoding def
  currentdict
end
/Times-Roman exch definefont pop
/Helvetica-BoldOblique findfont
dup length dict begin
  {1 index /FID ne {def} {pop pop} ifelse} forall
  /Encoding WinAnsiEncoding def
  currentdict
end
/Helvetica-BoldOblique exch definefont pop
/Helvetica-Bold findfont
dup length dict begin
  {1 index /FID ne {def} {pop pop} ifelse} forall
  /Encoding WinAnsiEncoding def
  currentdict
end
/Helvetica-Bold exch definefont pop
/Helvetica-Oblique findfont
dup length dict begin
  {1 index /FID ne {def} {pop pop} ifelse} forall
  /Encoding WinAnsiEncoding def
  currentdict
end
/Helvetica-Oblique exch definefont pop
/Times-BoldItalic findfont
dup length dict begin
  {1 index /FID ne {def} {pop pop} ifelse} forall
  /Encoding WinAnsiEncoding def
  currentdict
end
/Times-BoldItalic exch definefont pop
/Courier findfont
dup length dict begin
  {1 index /FID ne {def} {pop pop} ifelse} forall
  /Encoding WinAnsiEncoding def
  currentdict
end
/Courier exch definefont pop
/Times-Italic findfont
dup length dict begin
  {1 index /FID ne {def} {pop pop} ifelse} forall
  /Encoding WinAnsiEncoding def
  currentdict
end
/Times-Italic exch definefont pop
/Times-Bold findfont
dup length dict begin
  {1 index /FID ne {def} {pop pop} ifelse} forall
  /Encoding WinAnsiEncoding def
  currentdict
end
/Times-Bold exch definefont pop
%FOPEndFontReencode
%%EndProlog
%%Page: 1 1
%%PageBoundingBox: 0 0 762 630
%%BeginPageSetup
[1 0 0 -1 0 630] CT
%%EndPageSetup
GS
1 GC
N
0 0 762 630 re
f
GR
GS
1 GC
N
0 0 762 630 re
f
GR
GS
1 GC
N
99 560.5 M
689.5 560.5 L
689.5 47 L
99 47 L
cp
f
GR
GS
0.149 GC
2 setlinecap
1 LJ
0.5 LW
N
99 560.5 M
689.5 560.5 L
S
GR
GS
0.149 GC
2 setlinecap
1 LJ
0.5 LW
N
102 560.5 M
102 554.595 L
S
GR
GS
0.149 GC
2 setlinecap
1 LJ
0.5 LW
N
180.733 560.5 M
180.733 554.595 L
S
GR
GS
0.149 GC
2 setlinecap
1 LJ
0.5 LW
N
259.466 560.5 M
259.466 554.595 L
S
GR
GS
0.149 GC
2 setlinecap
1 LJ
0.5 LW
N
338.2 560.5 M
338.2 554.595 L
S
GR
GS
0.149 GC
2 setlinecap
1 LJ
0.5 LW
N
416.933 560.5 M
416.933 554.595 L
S
GR
GS
0.149 GC
2 setlinecap
1 LJ
0.5 LW
N
495.666 560.5 M
495.666 554.595 L
S
GR
GS
0.149 GC
2 setlinecap
1 LJ
0.5 LW
N
574.4 560.5 M
574.4 554.595 L
S
GR
GS
0.149 GC
2 setlinecap
1 LJ
0.5 LW
N
653.133 560.5 M
653.133 554.595 L
S
GR
GS
[1 0 0 1 101.99975 566.5] CT
0.149 GC
/Helvetica 20 F
GS
[1 0 0 1 0 0] CT
-6 16 moveto 
1 -1 scale
(0) t 
GR
GR
GS
[1 0 0 1 180.73308 566.5] CT
0.149 GC
/Helvetica 20 F
GS
[1 0 0 1 0 0] CT
-6 16 moveto 
1 -1 scale
(2) t 
GR
GR
GS
[1 0 0 1 259.4664 566.5] CT
0.149 GC
/Helvetica 20 F
GS
[1 0 0 1 0 0] CT
-6 16 moveto 
1 -1 scale
(4) t 
GR
GR
GS
[1 0 0 1 338.19974 566.5] CT
0.149 GC
/Helvetica 20 F
GS
[1 0 0 1 0 0] CT
-6 16 moveto 
1 -1 scale
(6) t 
GR
GR
GS
[1 0 0 1 416.93307 566.5] CT
0.149 GC
/Helvetica 20 F
GS
[1 0 0 1 0 0] CT
-6 16 moveto 
1 -1 scale
(8) t 
GR
GR
GS
[1 0 0 1 495.66641 566.5] CT
0.149 GC
/Helvetica 20 F
GS
[1 0 0 1 0 0] CT
-11.5 16 moveto 
1 -1 scale
(10) t 
GR
GR
GS
[1 0 0 1 574.39972 566.5] CT
0.149 GC
/Helvetica 20 F
GS
[1 0 0 1 0 0] CT
-11.5 16 moveto 
1 -1 scale
(12) t 
GR
GR
GS
[1 0 0 1 653.13306 566.5] CT
0.149 GC
/Helvetica 20 F
GS
[1 0 0 1 0 0] CT
-11.5 16 moveto 
1 -1 scale
(14) t 
GR
GR
GS
[1 0 0 1 394.25027 588] CT
0.149 GC
/Helvetica 22 F
GS
[1 0 0 1 0 0] CT
-26 17 moveto 
1 -1 scale
(Rank) t 
GR
GR
GS
0.149 GC
2 setlinecap
1 LJ
0.5 LW
N
99 560.5 M
99 47 L
S
GR
GS
0.149 GC
2 setlinecap
1 LJ
0.5 LW
N
99 522.496 M
104.905 522.496 L
S
GR
GS
0.149 GC
2 setlinecap
1 LJ
0.5 LW
N
99 449.139 M
104.905 449.139 L
S
GR
GS
0.149 GC
2 setlinecap
1 LJ
0.5 LW
N
99 375.782 M
104.905 375.782 L
S
GR
GS
0.149 GC
2 setlinecap
1 LJ
0.5 LW
N
99 302.425 M
104.905 302.425 L
S
GR
GS
0.149 GC
2 setlinecap
1 LJ
0.5 LW
N
99 229.068 M
104.905 229.068 L
S
GR
GS
0.149 GC
2 setlinecap
1 LJ
0.5 LW
N
99 155.711 M
104.905 155.711 L
S
GR
GS
0.149 GC
2 setlinecap
1 LJ
0.5 LW
N
99 82.353 M
104.905 82.353 L
S
GR
GS
0.149 GC
2 setlinecap
1 LJ
0.5 LW
N
99 551.688 M
101.952 551.688 L
S
GR
GS
0.149 GC
2 setlinecap
1 LJ
0.5 LW
N
99 544.579 M
101.952 544.579 L
S
GR
GS
0.149 GC
2 setlinecap
1 LJ
0.5 LW
N
99 538.771 M
101.952 538.771 L
S
GR
GS
0.149 GC
2 setlinecap
1 LJ
0.5 LW
N
99 533.859 M
101.952 533.859 L
S
GR
GS
0.149 GC
2 setlinecap
1 LJ
0.5 LW
N
99 529.605 M
101.952 529.605 L
S
GR
GS
0.149 GC
2 setlinecap
1 LJ
0.5 LW
N
99 525.853 M
101.952 525.853 L
S
GR
GS
0.149 GC
2 setlinecap
1 LJ
0.5 LW
N
99 500.414 M
101.952 500.414 L
S
GR
GS
0.149 GC
2 setlinecap
1 LJ
0.5 LW
N
99 487.496 M
101.952 487.496 L
S
GR
GS
0.149 GC
2 setlinecap
1 LJ
0.5 LW
N
99 478.331 M
101.952 478.331 L
S
GR
GS
0.149 GC
2 setlinecap
1 LJ
0.5 LW
N
99 471.222 M
101.952 471.222 L
S
GR
GS
0.149 GC
2 setlinecap
1 LJ
0.5 LW
N
99 465.413 M
101.952 465.413 L
S
GR
GS
0.149 GC
2 setlinecap
1 LJ
0.5 LW
N
99 460.502 M
101.952 460.502 L
S
GR
GS
0.149 GC
2 setlinecap
1 LJ
0.5 LW
N
99 456.248 M
101.952 456.248 L
S
GR
GS
0.149 GC
2 setlinecap
1 LJ
0.5 LW
N
99 452.496 M
101.952 452.496 L
S
GR
GS
0.149 GC
2 setlinecap
1 LJ
0.5 LW
N
99 427.056 M
101.952 427.056 L
S
GR
GS
0.149 GC
2 setlinecap
1 LJ
0.5 LW
N
99 414.139 M
101.952 414.139 L
S
GR
GS
0.149 GC
2 setlinecap
1 LJ
0.5 LW
N
99 404.974 M
101.952 404.974 L
S
GR
GS
0.149 GC
2 setlinecap
1 LJ
0.5 LW
N
99 397.865 M
101.952 397.865 L
S
GR
GS
0.149 GC
2 setlinecap
1 LJ
0.5 LW
N
99 392.056 M
101.952 392.056 L
S
GR
GS
0.149 GC
2 setlinecap
1 LJ
0.5 LW
N
99 387.145 M
101.952 387.145 L
S
GR
GS
0.149 GC
2 setlinecap
1 LJ
0.5 LW
N
99 382.891 M
101.952 382.891 L
S
GR
GS
0.149 GC
2 setlinecap
1 LJ
0.5 LW
N
99 379.139 M
101.952 379.139 L
S
GR
GS
0.149 GC
2 setlinecap
1 LJ
0.5 LW
N
99 353.699 M
101.952 353.699 L
S
GR
GS
0.149 GC
2 setlinecap
1 LJ
0.5 LW
N
99 340.782 M
101.952 340.782 L
S
GR
GS
0.149 GC
2 setlinecap
1 LJ
0.5 LW
N
99 331.617 M
101.952 331.617 L
S
GR
GS
0.149 GC
2 setlinecap
1 LJ
0.5 LW
N
99 324.508 M
101.952 324.508 L
S
GR
GS
0.149 GC
2 setlinecap
1 LJ
0.5 LW
N
99 318.699 M
101.952 318.699 L
S
GR
GS
0.149 GC
2 setlinecap
1 LJ
0.5 LW
N
99 313.788 M
101.952 313.788 L
S
GR
GS
0.149 GC
2 setlinecap
1 LJ
0.5 LW
N
99 309.534 M
101.952 309.534 L
S
GR
GS
0.149 GC
2 setlinecap
1 LJ
0.5 LW
N
99 305.781 M
101.952 305.781 L
S
GR
GS
0.149 GC
2 setlinecap
1 LJ
0.5 LW
N
99 280.342 M
101.952 280.342 L
S
GR
GS
0.149 GC
2 setlinecap
1 LJ
0.5 LW
N
99 267.425 M
101.952 267.425 L
S
GR
GS
0.149 GC
2 setlinecap
1 LJ
0.5 LW
N
99 258.259 M
101.952 258.259 L
S
GR
GS
0.149 GC
2 setlinecap
1 LJ
0.5 LW
N
99 251.15 M
101.952 251.15 L
S
GR
GS
0.149 GC
2 setlinecap
1 LJ
0.5 LW
N
99 245.342 M
101.952 245.342 L
S
GR
GS
0.149 GC
2 setlinecap
1 LJ
0.5 LW
N
99 240.431 M
101.952 240.431 L
S
GR
GS
0.149 GC
2 setlinecap
1 LJ
0.5 LW
N
99 236.177 M
101.952 236.177 L
S
GR
GS
0.149 GC
2 setlinecap
1 LJ
0.5 LW
N
99 232.424 M
101.952 232.424 L
S
GR
GS
0.149 GC
2 setlinecap
1 LJ
0.5 LW
N
99 206.985 M
101.952 206.985 L
S
GR
GS
0.149 GC
2 setlinecap
1 LJ
0.5 LW
N
99 194.067 M
101.952 194.067 L
S
GR
GS
0.149 GC
2 setlinecap
1 LJ
0.5 LW
N
99 184.902 M
101.952 184.902 L
S
GR
GS
0.149 GC
2 setlinecap
1 LJ
0.5 LW
N
99 177.793 M
101.952 177.793 L
S
GR
GS
0.149 GC
2 setlinecap
1 LJ
0.5 LW
N
99 171.985 M
101.952 171.985 L
S
GR
GS
0.149 GC
2 setlinecap
1 LJ
0.5 LW
N
99 167.074 M
101.952 167.074 L
S
GR
GS
0.149 GC
2 setlinecap
1 LJ
0.5 LW
N
99 162.82 M
101.952 162.82 L
S
GR
GS
0.149 GC
2 setlinecap
1 LJ
0.5 LW
N
99 159.067 M
101.952 159.067 L
S
GR
GS
0.149 GC
2 setlinecap
1 LJ
0.5 LW
N
99 133.628 M
101.952 133.628 L
S
GR
GS
0.149 GC
2 setlinecap
1 LJ
0.5 LW
N
99 120.71 M
101.952 120.71 L
S
GR
GS
0.149 GC
2 setlinecap
1 LJ
0.5 LW
N
99 111.545 M
101.952 111.545 L
S
GR
GS
0.149 GC
2 setlinecap
1 LJ
0.5 LW
N
99 104.436 M
101.952 104.436 L
S
GR
GS
0.149 GC
2 setlinecap
1 LJ
0.5 LW
N
99 98.628 M
101.952 98.628 L
S
GR
GS
0.149 GC
2 setlinecap
1 LJ
0.5 LW
N
99 93.717 M
101.952 93.717 L
S
GR
GS
0.149 GC
2 setlinecap
1 LJ
0.5 LW
N
99 89.462 M
101.952 89.462 L
S
GR
GS
0.149 GC
2 setlinecap
1 LJ
0.5 LW
N
99 85.71 M
101.952 85.71 L
S
GR
GS
0.149 GC
2 setlinecap
1 LJ
0.5 LW
N
99 60.271 M
101.952 60.271 L
S
GR
GS
0.149 GC
2 setlinecap
1 LJ
0.5 LW
N
99 47.353 M
101.952 47.353 L
S
GR
GS
[1 0 0 1 55 531] CT
0.149 GC
/Helvetica 20 F
GS
[1 0 0 1 0 0] CT
0 0 moveto 
1 -1 scale
(10) t 
GR
GR
GS
[1 0 0 1 78 521] CT
0.149 GC
/Helvetica 16 F
GS
[1 0 0 1 0 0] CT
0 0 moveto 
1 -1 scale
(-4) t 
GR
GR
GS
[1 0 0 1 55 458] CT
0.149 GC
/Helvetica 20 F
GS
[1 0 0 1 0 0] CT
0 0 moveto 
1 -1 scale
(10) t 
GR
GR
GS
[1 0 0 1 78 448] CT
0.149 GC
/Helvetica 16 F
GS
[1 0 0 1 0 0] CT
0 0 moveto 
1 -1 scale
(-3) t 
GR
GR
GS
[1 0 0 1 55 385] CT
0.149 GC
/Helvetica 20 F
GS
[1 0 0 1 0 0] CT
0 0 moveto 
1 -1 scale
(10) t 
GR
GR
GS
[1 0 0 1 78 375] CT
0.149 GC
/Helvetica 16 F
GS
[1 0 0 1 0 0] CT
0 0 moveto 
1 -1 scale
(-2) t 
GR
GR
GS
[1 0 0 1 55 311] CT
0.149 GC
/Helvetica 20 F
GS
[1 0 0 1 0 0] CT
0 0 moveto 
1 -1 scale
(10) t 
GR
GR
GS
[1 0 0 1 78 301] CT
0.149 GC
/Helvetica 16 F
GS
[1 0 0 1 0 0] CT
0 0 moveto 
1 -1 scale
(-1) t 
GR
GR
GS
[1 0 0 1 61 238] CT
0.149 GC
/Helvetica 20 F
GS
[1 0 0 1 0 0] CT
0 0 moveto 
1 -1 scale
(10) t 
GR
GR
GS
[1 0 0 1 84 228] CT
0.149 GC
/Helvetica 16 F
GS
[1 0 0 1 0 0] CT
0 0 moveto 
1 -1 scale
(0) t 
GR
GR
GS
[1 0 0 1 61 165] CT
0.149 GC
/Helvetica 20 F
GS
[1 0 0 1 0 0] CT
0 0 moveto 
1 -1 scale
(10) t 
GR
GR
GS
[1 0 0 1 84 155] CT
0.149 GC
/Helvetica 16 F
GS
[1 0 0 1 0 0] CT
0 0 moveto 
1 -1 scale
(1) t 
GR
GR
GS
[1 0 0 1 61 91] CT
0.149 GC
/Helvetica 20 F
GS
[1 0 0 1 0 0] CT
0 0 moveto 
1 -1 scale
(10) t 
GR
GR
GS
[1 0 0 1 84 81] CT
0.149 GC
/Helvetica 16 F
GS
[1 0 0 1 0 0] CT
0 0 moveto 
1 -1 scale
(2) t 
GR
GR
GS
[0 -1 1 0 53 303.74976] CT
0.149 GC
/Helvetica 22 F
GS
[1 0 0 1 0 0] CT
-24.5 -6 moveto 
1 -1 scale
(Error) t 
GR
GR
GS
[1 0 0 1 394.2504 44.25002] CT
/Helvetica-Bold 22 F
GS
[1 0 0 1 0 0] CT
-260 -6 moveto 
1 -1 scale
(50 by 20, rank 5, over-sampling 2, Condition No. 0) t 
GR
GR
GS
0 0.447 0.741 RC
1 LJ
2 LW
N
141.366 190.108 M
180.733 209.879 L
220.1 231.675 L
259.466 258.346 L
298.833 547.991 L
338.2 523.074 L
377.566 523.741 L
416.933 523.087 L
456.3 522.519 L
495.666 522.546 L
535.033 522.631 L
574.4 522.586 L
613.766 522.502 L
653.133 522.603 L
689.559 525.328 L
S
GR
GS
0.851 0.325 0.098 RC
1 LJ
2 LW
N
141.366 185.516 M
180.733 199.702 L
220.1 218.36 L
259.466 241.978 L
298.833 489.447 L
338.2 285.168 L
377.566 283.382 L
416.933 264.329 L
456.3 280.475 L
495.666 249.772 L
535.033 238.288 L
574.4 228.812 L
613.766 215.393 L
653.133 197.248 L
689.559 181.25 L
S
GR
GS
[1 0 0 1 568 68.25] CT
/Helvetica 18 F
GS
[1 0 0 1 0 0] CT
0 4.5 moveto 
1 -1 scale
(Training error) t 
GR
GR
GS
0 0.447 0.741 RC
1 LJ
2 LW
N
535 68.25 M
565 68.25 L
S
GR
GS
[1 0 0 1 568 87.25] CT
/Helvetica 18 F
GS
[1 0 0 1 0 0] CT
0 4.5 moveto 
1 -1 scale
(Testing error) t 
GR
GR
GS
0.851 0.325 0.098 RC
1 LJ
2 LW
N
535 87.25 M
565 87.25 L
S
GR
%%Trailer
%%Pages: 1
%%EOF
