%!PS-Adobe-3.0 EPSF-3.0
%%Creator: (MATLAB, The Mathworks, Inc. Version 8.6.0.267246 \(R2015b\). Operating System: Mac OS X)
%%Title: /Users/gauthiermuguerza/Desktop/rsgd/report/images/rankJokes.eps
%%CreationDate: 2018-05-30T20:09:39
%%Pages: (atend)
%%BoundingBox: 0 0 569 420
%%LanguageLevel: 2
%%EndComments
%%BeginProlog
%%BeginResource: procset (Apache XML Graphics Std ProcSet) 1.2 0
%%Version: 1.2 0
%%Copyright: (Copyright 2001-2003,2010 The Apache Software Foundation. License terms: http://www.apache.org/licenses/LICENSE-2.0)
/bd{bind def}bind def
/ld{load def}bd
/GR/grestore ld
/M/moveto ld
/LJ/setlinejoin ld
/C/curveto ld
/f/fill ld
/LW/setlinewidth ld
/GC/setgray ld
/t/show ld
/N/newpath ld
/CT/concat ld
/cp/closepath ld
/S/stroke ld
/L/lineto ld
/CC/setcmykcolor ld
/A/ashow ld
/GS/gsave ld
/RC/setrgbcolor ld
/RM/rmoveto ld
/ML/setmiterlimit ld
/re {4 2 roll M
1 index 0 rlineto
0 exch rlineto
neg 0 rlineto
cp } bd
/_ctm matrix def
/_tm matrix def
/BT { _ctm currentmatrix pop matrix _tm copy pop 0 0 moveto } bd
/ET { _ctm setmatrix } bd
/iTm { _ctm setmatrix _tm concat } bd
/Tm { _tm astore pop iTm 0 0 moveto } bd
/ux 0.0 def
/uy 0.0 def
/F {
  /Tp exch def
  /Tf exch def
  Tf findfont Tp scalefont setfont
  /cf Tf def  /cs Tp def
} bd
/ULS {currentpoint /uy exch def /ux exch def} bd
/ULE {
  /Tcx currentpoint pop def
  gsave
  newpath
  cf findfont cs scalefont dup
  /FontMatrix get 0 get /Ts exch def /FontInfo get dup
  /UnderlinePosition get Ts mul /To exch def
  /UnderlineThickness get Ts mul /Tt exch def
  ux uy To add moveto  Tcx uy To add lineto
  Tt setlinewidth stroke
  grestore
} bd
/OLE {
  /Tcx currentpoint pop def
  gsave
  newpath
  cf findfont cs scalefont dup
  /FontMatrix get 0 get /Ts exch def /FontInfo get dup
  /UnderlinePosition get Ts mul /To exch def
  /UnderlineThickness get Ts mul /Tt exch def
  ux uy To add cs add moveto Tcx uy To add cs add lineto
  Tt setlinewidth stroke
  grestore
} bd
/SOE {
  /Tcx currentpoint pop def
  gsave
  newpath
  cf findfont cs scalefont dup
  /FontMatrix get 0 get /Ts exch def /FontInfo get dup
  /UnderlinePosition get Ts mul /To exch def
  /UnderlineThickness get Ts mul /Tt exch def
  ux uy To add cs 10 mul 26 idiv add moveto Tcx uy To add cs 10 mul 26 idiv add lineto
  Tt setlinewidth stroke
  grestore
} bd
/QT {
/Y22 exch store
/X22 exch store
/Y21 exch store
/X21 exch store
currentpoint
/Y21 load 2 mul add 3 div exch
/X21 load 2 mul add 3 div exch
/X21 load 2 mul /X22 load add 3 div
/Y21 load 2 mul /Y22 load add 3 div
/X22 load /Y22 load curveto
} bd
/SSPD {
dup length /d exch dict def
{
/v exch def
/k exch def
currentpagedevice k known {
/cpdv currentpagedevice k get def
v cpdv ne {
/upd false def
/nullv v type /nulltype eq def
/nullcpdv cpdv type /nulltype eq def
nullv nullcpdv or
{
/upd true def
} {
/sametype v type cpdv type eq def
sametype {
v type /arraytype eq {
/vlen v length def
/cpdvlen cpdv length def
vlen cpdvlen eq {
0 1 vlen 1 sub {
/i exch def
/obj v i get def
/cpdobj cpdv i get def
obj cpdobj ne {
/upd true def
exit
} if
} for
} {
/upd true def
} ifelse
} {
v type /dicttype eq {
v {
/dv exch def
/dk exch def
/cpddv cpdv dk get def
dv cpddv ne {
/upd true def
exit
} if
} forall
} {
/upd true def
} ifelse
} ifelse
} if
} ifelse
upd true eq {
d k v put
} if
} if
} if
} forall
d length 0 gt {
d setpagedevice
} if
} bd
%%EndResource
%%BeginResource: procset (Apache XML Graphics EPS ProcSet) 1.0 0
%%Version: 1.0 0
%%Copyright: (Copyright 2002-2003 The Apache Software Foundation. License terms: http://www.apache.org/licenses/LICENSE-2.0)
/BeginEPSF { %def
/b4_Inc_state save def         % Save state for cleanup
/dict_count countdictstack def % Count objects on dict stack
/op_count count 1 sub def      % Count objects on operand stack
userdict begin                 % Push userdict on dict stack
/showpage { } def              % Redefine showpage, { } = null proc
0 setgray 0 setlinecap         % Prepare graphics state
1 setlinewidth 0 setlinejoin
10 setmiterlimit [ ] 0 setdash newpath
/languagelevel where           % If level not equal to 1 then
{pop languagelevel             % set strokeadjust and
1 ne                           % overprint to their defaults.
{false setstrokeadjust false setoverprint
} if
} if
} bd
/EndEPSF { %def
count op_count sub {pop} repeat            % Clean up stacks
countdictstack dict_count sub {end} repeat
b4_Inc_state restore
} bd
%%EndResource
%FOPBeginFontDict
%%IncludeResource: font Courier-Bold
%%IncludeResource: font Helvetica
%%IncludeResource: font Courier-BoldOblique
%%IncludeResource: font Courier-Oblique
%%IncludeResource: font Times-Roman
%%IncludeResource: font Helvetica-BoldOblique
%%IncludeResource: font Helvetica-Bold
%%IncludeResource: font Helvetica-Oblique
%%IncludeResource: font Times-BoldItalic
%%IncludeResource: font Courier
%%IncludeResource: font Times-Italic
%%IncludeResource: font Times-Bold
%%IncludeResource: font Symbol
%%IncludeResource: font ZapfDingbats
%FOPEndFontDict
%%BeginResource: encoding WinAnsiEncoding
/WinAnsiEncoding [
/.notdef /.notdef /.notdef /.notdef /.notdef
/.notdef /.notdef /.notdef /.notdef /.notdef
/.notdef /.notdef /.notdef /.notdef /.notdef
/.notdef /.notdef /.notdef /.notdef /.notdef
/.notdef /.notdef /.notdef /.notdef /.notdef
/.notdef /.notdef /.notdef /.notdef /.notdef
/.notdef /.notdef /space /exclam /quotedbl
/numbersign /dollar /percent /ampersand /quotesingle
/parenleft /parenright /asterisk /plus /comma
/hyphen /period /slash /zero /one
/two /three /four /five /six
/seven /eight /nine /colon /semicolon
/less /equal /greater /question /at
/A /B /C /D /E
/F /G /H /I /J
/K /L /M /N /O
/P /Q /R /S /T
/U /V /W /X /Y
/Z /bracketleft /backslash /bracketright /asciicircum
/underscore /quoteleft /a /b /c
/d /e /f /g /h
/i /j /k /l /m
/n /o /p /q /r
/s /t /u /v /w
/x /y /z /braceleft /bar
/braceright /asciitilde /bullet /Euro /bullet
/quotesinglbase /florin /quotedblbase /ellipsis /dagger
/daggerdbl /circumflex /perthousand /Scaron /guilsinglleft
/OE /bullet /Zcaron /bullet /bullet
/quoteleft /quoteright /quotedblleft /quotedblright /bullet
/endash /emdash /asciitilde /trademark /scaron
/guilsinglright /oe /bullet /zcaron /Ydieresis
/space /exclamdown /cent /sterling /currency
/yen /brokenbar /section /dieresis /copyright
/ordfeminine /guillemotleft /logicalnot /sfthyphen /registered
/macron /degree /plusminus /twosuperior /threesuperior
/acute /mu /paragraph /middot /cedilla
/onesuperior /ordmasculine /guillemotright /onequarter /onehalf
/threequarters /questiondown /Agrave /Aacute /Acircumflex
/Atilde /Adieresis /Aring /AE /Ccedilla
/Egrave /Eacute /Ecircumflex /Edieresis /Igrave
/Iacute /Icircumflex /Idieresis /Eth /Ntilde
/Ograve /Oacute /Ocircumflex /Otilde /Odieresis
/multiply /Oslash /Ugrave /Uacute /Ucircumflex
/Udieresis /Yacute /Thorn /germandbls /agrave
/aacute /acircumflex /atilde /adieresis /aring
/ae /ccedilla /egrave /eacute /ecircumflex
/edieresis /igrave /iacute /icircumflex /idieresis
/eth /ntilde /ograve /oacute /ocircumflex
/otilde /odieresis /divide /oslash /ugrave
/uacute /ucircumflex /udieresis /yacute /thorn
/ydieresis
] def
%%EndResource
%FOPBeginFontReencode
/Courier-Bold findfont
dup length dict begin
  {1 index /FID ne {def} {pop pop} ifelse} forall
  /Encoding WinAnsiEncoding def
  currentdict
end
/Courier-Bold exch definefont pop
/Helvetica findfont
dup length dict begin
  {1 index /FID ne {def} {pop pop} ifelse} forall
  /Encoding WinAnsiEncoding def
  currentdict
end
/Helvetica exch definefont pop
/Courier-BoldOblique findfont
dup length dict begin
  {1 index /FID ne {def} {pop pop} ifelse} forall
  /Encoding WinAnsiEncoding def
  currentdict
end
/Courier-BoldOblique exch definefont pop
/Courier-Oblique findfont
dup length dict begin
  {1 index /FID ne {def} {pop pop} ifelse} forall
  /Encoding WinAnsiEncoding def
  currentdict
end
/Courier-Oblique exch definefont pop
/Times-Roman findfont
dup length dict begin
  {1 index /FID ne {def} {pop pop} ifelse} forall
  /Encoding WinAnsiEncoding def
  currentdict
end
/Times-Roman exch definefont pop
/Helvetica-BoldOblique findfont
dup length dict begin
  {1 index /FID ne {def} {pop pop} ifelse} forall
  /Encoding WinAnsiEncoding def
  currentdict
end
/Helvetica-BoldOblique exch definefont pop
/Helvetica-Bold findfont
dup length dict begin
  {1 index /FID ne {def} {pop pop} ifelse} forall
  /Encoding WinAnsiEncoding def
  currentdict
end
/Helvetica-Bold exch definefont pop
/Helvetica-Oblique findfont
dup length dict begin
  {1 index /FID ne {def} {pop pop} ifelse} forall
  /Encoding WinAnsiEncoding def
  currentdict
end
/Helvetica-Oblique exch definefont pop
/Times-BoldItalic findfont
dup length dict begin
  {1 index /FID ne {def} {pop pop} ifelse} forall
  /Encoding WinAnsiEncoding def
  currentdict
end
/Times-BoldItalic exch definefont pop
/Courier findfont
dup length dict begin
  {1 index /FID ne {def} {pop pop} ifelse} forall
  /Encoding WinAnsiEncoding def
  currentdict
end
/Courier exch definefont pop
/Times-Italic findfont
dup length dict begin
  {1 index /FID ne {def} {pop pop} ifelse} forall
  /Encoding WinAnsiEncoding def
  currentdict
end
/Times-Italic exch definefont pop
/Times-Bold findfont
dup length dict begin
  {1 index /FID ne {def} {pop pop} ifelse} forall
  /Encoding WinAnsiEncoding def
  currentdict
end
/Times-Bold exch definefont pop
%FOPEndFontReencode
%%EndProlog
%%Page: 1 1
%%PageBoundingBox: 0 0 569 420
%%BeginPageSetup
[1 0 0 -1 0 420] CT
%%EndPageSetup
GS
1 GC
N
0 0 569 420 re
f
GR
GS
1 GC
N
0 0 569 420 re
f
GR
GS
1 GC
N
74 374 M
515 374 L
515 31.5 L
74 31.5 L
cp
f
GR
GS
0.149 GC
2 setlinecap
1 LJ
0.5 LW
N
74 374 M
515 374 L
S
GR
GS
0.149 GC
2 setlinecap
1 LJ
0.5 LW
N
74 374 M
74 369.59 L
S
GR
GS
0.149 GC
2 setlinecap
1 LJ
0.5 LW
N
162.2 374 M
162.2 369.59 L
S
GR
GS
0.149 GC
2 setlinecap
1 LJ
0.5 LW
N
250.4 374 M
250.4 369.59 L
S
GR
GS
0.149 GC
2 setlinecap
1 LJ
0.5 LW
N
338.6 374 M
338.6 369.59 L
S
GR
GS
0.149 GC
2 setlinecap
1 LJ
0.5 LW
N
426.8 374 M
426.8 369.59 L
S
GR
GS
0.149 GC
2 setlinecap
1 LJ
0.5 LW
N
515 374 M
515 369.59 L
S
GR
GS
[1 0 0 1 74 379] CT
0.149 GC
/Helvetica 15 F
GS
[1 0 0 1 0 0] CT
-4.5 12 moveto 
1 -1 scale
(0) t 
GR
GR
GS
[1 0 0 1 162.2 379] CT
0.149 GC
/Helvetica 15 F
GS
[1 0 0 1 0 0] CT
-4.5 12 moveto 
1 -1 scale
(2) t 
GR
GR
GS
[1 0 0 1 250.39999 379] CT
0.149 GC
/Helvetica 15 F
GS
[1 0 0 1 0 0] CT
-4.5 12 moveto 
1 -1 scale
(4) t 
GR
GR
GS
[1 0 0 1 338.60001 379] CT
0.149 GC
/Helvetica 15 F
GS
[1 0 0 1 0 0] CT
-4.5 12 moveto 
1 -1 scale
(6) t 
GR
GR
GS
[1 0 0 1 426.79999 379] CT
0.149 GC
/Helvetica 15 F
GS
[1 0 0 1 0 0] CT
-4.5 12 moveto 
1 -1 scale
(8) t 
GR
GR
GS
[1 0 0 1 515 379] CT
0.149 GC
/Helvetica 15 F
GS
[1 0 0 1 0 0] CT
-8.5 12 moveto 
1 -1 scale
(10) t 
GR
GR
GS
[1 0 0 1 294.50021 395.5] CT
0.149 GC
/Helvetica 17 F
GS
[1 0 0 1 0 0] CT
-24.5 14 moveto 
1 -1 scale
(Ranks) t 
GR
GR
GS
0.149 GC
2 setlinecap
1 LJ
0.5 LW
N
74 374 M
74 31.5 L
S
GR
GS
0.149 GC
2 setlinecap
1 LJ
0.5 LW
N
74 374 M
78.41 374 L
S
GR
GS
0.149 GC
2 setlinecap
1 LJ
0.5 LW
N
74 325.071 M
78.41 325.071 L
S
GR
GS
0.149 GC
2 setlinecap
1 LJ
0.5 LW
N
74 276.143 M
78.41 276.143 L
S
GR
GS
0.149 GC
2 setlinecap
1 LJ
0.5 LW
N
74 227.214 M
78.41 227.214 L
S
GR
GS
0.149 GC
2 setlinecap
1 LJ
0.5 LW
N
74 178.286 M
78.41 178.286 L
S
GR
GS
0.149 GC
2 setlinecap
1 LJ
0.5 LW
N
74 129.357 M
78.41 129.357 L
S
GR
GS
0.149 GC
2 setlinecap
1 LJ
0.5 LW
N
74 80.429 M
78.41 80.429 L
S
GR
GS
0.149 GC
2 setlinecap
1 LJ
0.5 LW
N
74 31.5 M
78.41 31.5 L
S
GR
GS
[1 0 0 1 69 374] CT
0.149 GC
/Helvetica 15 F
GS
[1 0 0 1 0 0] CT
-17 4 moveto 
1 -1 scale
(10) t 
GR
GR
GS
[1 0 0 1 69 325.07144] CT
0.149 GC
/Helvetica 15 F
GS
[1 0 0 1 0 0] CT
-17 4 moveto 
1 -1 scale
(12) t 
GR
GR
GS
[1 0 0 1 69 276.14285] CT
0.149 GC
/Helvetica 15 F
GS
[1 0 0 1 0 0] CT
-17 4 moveto 
1 -1 scale
(14) t 
GR
GR
GS
[1 0 0 1 69 227.21428] CT
0.149 GC
/Helvetica 15 F
GS
[1 0 0 1 0 0] CT
-17 4 moveto 
1 -1 scale
(16) t 
GR
GR
GS
[1 0 0 1 69 178.28572] CT
0.149 GC
/Helvetica 15 F
GS
[1 0 0 1 0 0] CT
-17 4 moveto 
1 -1 scale
(18) t 
GR
GR
GS
[1 0 0 1 69 129.35715] CT
0.149 GC
/Helvetica 15 F
GS
[1 0 0 1 0 0] CT
-17 4 moveto 
1 -1 scale
(20) t 
GR
GR
GS
[1 0 0 1 69 80.42857] CT
0.149 GC
/Helvetica 15 F
GS
[1 0 0 1 0 0] CT
-17 4 moveto 
1 -1 scale
(22) t 
GR
GR
GS
[1 0 0 1 69 31.5] CT
0.149 GC
/Helvetica 15 F
GS
[1 0 0 1 0 0] CT
-17 4 moveto 
1 -1 scale
(24) t 
GR
GR
GS
[0 -1 1 0 49 202.74982] CT
0.149 GC
/Helvetica 17 F
GS
[1 0 0 1 0 0] CT
-18.5 -4 moveto 
1 -1 scale
(MSE) t 
GR
GR
GS
[1 0 0 1 294.50027 29.4375] CT
/Helvetica-Bold 17 F
GS
[1 0 0 1 0 0] CT
-190 -4 moveto 
1 -1 scale
( ) t 
GR
GR
GS
0 0.447 0.741 RC
1 LJ
N
118.1 118.955 M
162.2 196.753 L
206.3 224.047 L
250.4 246.035 L
294.5 264.748 L
338.6 282.055 L
382.7 298.392 L
426.8 312.974 L
470.9 328.028 L
515 342.109 L
S
GR
GS
0 0.447 0.741 RC
1 LJ
N
121.5 118.5 M
120.621 116.379 L
118.5 115.5 L
116.379 116.379 L
115.5 118.5 L
116.379 120.621 L
118.5 121.5 L
120.621 120.621 L
cp
S
GR
GS
0 0.447 0.741 RC
1 LJ
N
165.5 196.5 M
164.621 194.379 L
162.5 193.5 L
160.379 194.379 L
159.5 196.5 L
160.379 198.621 L
162.5 199.5 L
164.621 198.621 L
cp
S
GR
GS
0 0.447 0.741 RC
1 LJ
N
209.5 224.5 M
208.621 222.379 L
206.5 221.5 L
204.379 222.379 L
203.5 224.5 L
204.379 226.621 L
206.5 227.5 L
208.621 226.621 L
cp
S
GR
GS
0 0.447 0.741 RC
1 LJ
N
253.5 246.5 M
252.621 244.379 L
250.5 243.5 L
248.379 244.379 L
247.5 246.5 L
248.379 248.621 L
250.5 249.5 L
252.621 248.621 L
cp
S
GR
GS
0 0.447 0.741 RC
1 LJ
N
297.5 264.5 M
296.621 262.379 L
294.5 261.5 L
292.379 262.379 L
291.5 264.5 L
292.379 266.621 L
294.5 267.5 L
296.621 266.621 L
cp
S
GR
GS
0 0.447 0.741 RC
1 LJ
N
341.5 282.5 M
340.621 280.379 L
338.5 279.5 L
336.379 280.379 L
335.5 282.5 L
336.379 284.621 L
338.5 285.5 L
340.621 284.621 L
cp
S
GR
GS
0 0.447 0.741 RC
1 LJ
N
385.5 298.5 M
384.621 296.379 L
382.5 295.5 L
380.379 296.379 L
379.5 298.5 L
380.379 300.621 L
382.5 301.5 L
384.621 300.621 L
cp
S
GR
GS
0 0.447 0.741 RC
1 LJ
N
429.5 312.5 M
428.621 310.379 L
426.5 309.5 L
424.379 310.379 L
423.5 312.5 L
424.379 314.621 L
426.5 315.5 L
428.621 314.621 L
cp
S
GR
GS
0 0.447 0.741 RC
1 LJ
N
473.5 328.5 M
472.621 326.379 L
470.5 325.5 L
468.379 326.379 L
467.5 328.5 L
468.379 330.621 L
470.5 331.5 L
472.621 330.621 L
cp
S
GR
GS
0 0.447 0.741 RC
1 LJ
N
518.5 342.5 M
517.621 340.379 L
515.5 339.5 L
513.379 340.379 L
512.5 342.5 L
513.379 344.621 L
515.5 345.5 L
517.621 344.621 L
cp
S
GR
GS
0.851 0.325 0.098 RC
1 LJ
N
118.1 83.883 M
162.2 141.5 L
206.3 150.595 L
250.4 137.505 L
294.5 138.793 L
338.6 109.399 L
382.7 91.584 L
426.8 90.959 L
470.9 57.904 L
515 63.579 L
S
GR
GS
0.851 0.325 0.098 RC
1 LJ
N
121.5 83.5 M
120.621 81.379 L
118.5 80.5 L
116.379 81.379 L
115.5 83.5 L
116.379 85.621 L
118.5 86.5 L
120.621 85.621 L
cp
S
GR
GS
0.851 0.325 0.098 RC
1 LJ
N
165.5 141.5 M
164.621 139.379 L
162.5 138.5 L
160.379 139.379 L
159.5 141.5 L
160.379 143.621 L
162.5 144.5 L
164.621 143.621 L
cp
S
GR
GS
0.851 0.325 0.098 RC
1 LJ
N
209.5 150.5 M
208.621 148.379 L
206.5 147.5 L
204.379 148.379 L
203.5 150.5 L
204.379 152.621 L
206.5 153.5 L
208.621 152.621 L
cp
S
GR
GS
0.851 0.325 0.098 RC
1 LJ
N
253.5 137.5 M
252.621 135.379 L
250.5 134.5 L
248.379 135.379 L
247.5 137.5 L
248.379 139.621 L
250.5 140.5 L
252.621 139.621 L
cp
S
GR
GS
0.851 0.325 0.098 RC
1 LJ
N
297.5 138.5 M
296.621 136.379 L
294.5 135.5 L
292.379 136.379 L
291.5 138.5 L
292.379 140.621 L
294.5 141.5 L
296.621 140.621 L
cp
S
GR
GS
0.851 0.325 0.098 RC
1 LJ
N
341.5 109.5 M
340.621 107.379 L
338.5 106.5 L
336.379 107.379 L
335.5 109.5 L
336.379 111.621 L
338.5 112.5 L
340.621 111.621 L
cp
S
GR
GS
0.851 0.325 0.098 RC
1 LJ
N
385.5 91.5 M
384.621 89.379 L
382.5 88.5 L
380.379 89.379 L
379.5 91.5 L
380.379 93.621 L
382.5 94.5 L
384.621 93.621 L
cp
S
GR
GS
0.851 0.325 0.098 RC
1 LJ
N
429.5 90.5 M
428.621 88.379 L
426.5 87.5 L
424.379 88.379 L
423.5 90.5 L
424.379 92.621 L
426.5 93.5 L
428.621 92.621 L
cp
S
GR
GS
0.851 0.325 0.098 RC
1 LJ
N
473.5 57.5 M
472.621 55.379 L
470.5 54.5 L
468.379 55.379 L
467.5 57.5 L
468.379 59.621 L
470.5 60.5 L
472.621 59.621 L
cp
S
GR
GS
0.851 0.325 0.098 RC
1 LJ
N
518.5 63.5 M
517.621 61.379 L
515.5 60.5 L
513.379 61.379 L
512.5 63.5 L
513.379 65.621 L
515.5 66.5 L
517.621 65.621 L
cp
S
GR
GS
[1 0 0 1 469.5 149.5] CT
/Helvetica 17 F
GS
[1 0 0 1 0 0] CT
0 3.5 moveto 
1 -1 scale
(Train) t 
GR
GR
GS
0 0.447 0.741 RC
1 LJ
N
436.5 149.5 M
466.5 149.5 L
S
GR
GS
0 0.447 0.741 RC
1 LJ
N
454.5 149.5 M
453.621 147.379 L
451.5 146.5 L
449.379 147.379 L
448.5 149.5 L
449.379 151.621 L
451.5 152.5 L
453.621 151.621 L
cp
S
GR
GS
[1 0 0 1 469.5 164] CT
/Helvetica 17 F
GS
[1 0 0 1 0 0] CT
0 3.5 moveto 
1 -1 scale
(Test) t 
GR
GR
GS
0.851 0.325 0.098 RC
1 LJ
N
436.5 164 M
466.5 164 L
S
GR
GS
0.851 0.325 0.098 RC
1 LJ
N
454.5 163.5 M
453.621 161.379 L
451.5 160.5 L
449.379 161.379 L
448.5 163.5 L
449.379 165.621 L
451.5 166.5 L
453.621 165.621 L
cp
S
GR
%%Trailer
%%Pages: 1
%%EOF
