%!PS-Adobe-3.0 EPSF-3.0
%%Creator: (MATLAB, The Mathworks, Inc. Version 8.6.0.267246 \(R2015b\). Operating System: Mac OS X)
%%Title: /Users/gauthiermuguerza/Desktop/rsgd/report/images/smallConstant.eps
%%CreationDate: 2018-05-27T09:55:56
%%Pages: (atend)
%%BoundingBox: 0 0 560 420
%%LanguageLevel: 2
%%EndComments
%%BeginProlog
%%BeginResource: procset (Apache XML Graphics Std ProcSet) 1.2 0
%%Version: 1.2 0
%%Copyright: (Copyright 2001-2003,2010 The Apache Software Foundation. License terms: http://www.apache.org/licenses/LICENSE-2.0)
/bd{bind def}bind def
/ld{load def}bd
/GR/grestore ld
/M/moveto ld
/LJ/setlinejoin ld
/C/curveto ld
/f/fill ld
/LW/setlinewidth ld
/GC/setgray ld
/t/show ld
/N/newpath ld
/CT/concat ld
/cp/closepath ld
/S/stroke ld
/L/lineto ld
/CC/setcmykcolor ld
/A/ashow ld
/GS/gsave ld
/RC/setrgbcolor ld
/RM/rmoveto ld
/ML/setmiterlimit ld
/re {4 2 roll M
1 index 0 rlineto
0 exch rlineto
neg 0 rlineto
cp } bd
/_ctm matrix def
/_tm matrix def
/BT { _ctm currentmatrix pop matrix _tm copy pop 0 0 moveto } bd
/ET { _ctm setmatrix } bd
/iTm { _ctm setmatrix _tm concat } bd
/Tm { _tm astore pop iTm 0 0 moveto } bd
/ux 0.0 def
/uy 0.0 def
/F {
  /Tp exch def
  /Tf exch def
  Tf findfont Tp scalefont setfont
  /cf Tf def  /cs Tp def
} bd
/ULS {currentpoint /uy exch def /ux exch def} bd
/ULE {
  /Tcx currentpoint pop def
  gsave
  newpath
  cf findfont cs scalefont dup
  /FontMatrix get 0 get /Ts exch def /FontInfo get dup
  /UnderlinePosition get Ts mul /To exch def
  /UnderlineThickness get Ts mul /Tt exch def
  ux uy To add moveto  Tcx uy To add lineto
  Tt setlinewidth stroke
  grestore
} bd
/OLE {
  /Tcx currentpoint pop def
  gsave
  newpath
  cf findfont cs scalefont dup
  /FontMatrix get 0 get /Ts exch def /FontInfo get dup
  /UnderlinePosition get Ts mul /To exch def
  /UnderlineThickness get Ts mul /Tt exch def
  ux uy To add cs add moveto Tcx uy To add cs add lineto
  Tt setlinewidth stroke
  grestore
} bd
/SOE {
  /Tcx currentpoint pop def
  gsave
  newpath
  cf findfont cs scalefont dup
  /FontMatrix get 0 get /Ts exch def /FontInfo get dup
  /UnderlinePosition get Ts mul /To exch def
  /UnderlineThickness get Ts mul /Tt exch def
  ux uy To add cs 10 mul 26 idiv add moveto Tcx uy To add cs 10 mul 26 idiv add lineto
  Tt setlinewidth stroke
  grestore
} bd
/QT {
/Y22 exch store
/X22 exch store
/Y21 exch store
/X21 exch store
currentpoint
/Y21 load 2 mul add 3 div exch
/X21 load 2 mul add 3 div exch
/X21 load 2 mul /X22 load add 3 div
/Y21 load 2 mul /Y22 load add 3 div
/X22 load /Y22 load curveto
} bd
/SSPD {
dup length /d exch dict def
{
/v exch def
/k exch def
currentpagedevice k known {
/cpdv currentpagedevice k get def
v cpdv ne {
/upd false def
/nullv v type /nulltype eq def
/nullcpdv cpdv type /nulltype eq def
nullv nullcpdv or
{
/upd true def
} {
/sametype v type cpdv type eq def
sametype {
v type /arraytype eq {
/vlen v length def
/cpdvlen cpdv length def
vlen cpdvlen eq {
0 1 vlen 1 sub {
/i exch def
/obj v i get def
/cpdobj cpdv i get def
obj cpdobj ne {
/upd true def
exit
} if
} for
} {
/upd true def
} ifelse
} {
v type /dicttype eq {
v {
/dv exch def
/dk exch def
/cpddv cpdv dk get def
dv cpddv ne {
/upd true def
exit
} if
} forall
} {
/upd true def
} ifelse
} ifelse
} if
} ifelse
upd true eq {
d k v put
} if
} if
} if
} forall
d length 0 gt {
d setpagedevice
} if
} bd
%%EndResource
%%BeginResource: procset (Apache XML Graphics EPS ProcSet) 1.0 0
%%Version: 1.0 0
%%Copyright: (Copyright 2002-2003 The Apache Software Foundation. License terms: http://www.apache.org/licenses/LICENSE-2.0)
/BeginEPSF { %def
/b4_Inc_state save def         % Save state for cleanup
/dict_count countdictstack def % Count objects on dict stack
/op_count count 1 sub def      % Count objects on operand stack
userdict begin                 % Push userdict on dict stack
/showpage { } def              % Redefine showpage, { } = null proc
0 setgray 0 setlinecap         % Prepare graphics state
1 setlinewidth 0 setlinejoin
10 setmiterlimit [ ] 0 setdash newpath
/languagelevel where           % If level not equal to 1 then
{pop languagelevel             % set strokeadjust and
1 ne                           % overprint to their defaults.
{false setstrokeadjust false setoverprint
} if
} if
} bd
/EndEPSF { %def
count op_count sub {pop} repeat            % Clean up stacks
countdictstack dict_count sub {end} repeat
b4_Inc_state restore
} bd
%%EndResource
%FOPBeginFontDict
%%IncludeResource: font Courier-Bold
%%IncludeResource: font Helvetica
%%IncludeResource: font Courier-BoldOblique
%%IncludeResource: font Courier-Oblique
%%IncludeResource: font Times-Roman
%%IncludeResource: font Helvetica-BoldOblique
%%IncludeResource: font Helvetica-Bold
%%IncludeResource: font Helvetica-Oblique
%%IncludeResource: font Times-BoldItalic
%%IncludeResource: font Courier
%%IncludeResource: font Times-Italic
%%IncludeResource: font Times-Bold
%%IncludeResource: font Symbol
%%IncludeResource: font ZapfDingbats
%FOPEndFontDict
%%BeginResource: encoding WinAnsiEncoding
/WinAnsiEncoding [
/.notdef /.notdef /.notdef /.notdef /.notdef
/.notdef /.notdef /.notdef /.notdef /.notdef
/.notdef /.notdef /.notdef /.notdef /.notdef
/.notdef /.notdef /.notdef /.notdef /.notdef
/.notdef /.notdef /.notdef /.notdef /.notdef
/.notdef /.notdef /.notdef /.notdef /.notdef
/.notdef /.notdef /space /exclam /quotedbl
/numbersign /dollar /percent /ampersand /quotesingle
/parenleft /parenright /asterisk /plus /comma
/hyphen /period /slash /zero /one
/two /three /four /five /six
/seven /eight /nine /colon /semicolon
/less /equal /greater /question /at
/A /B /C /D /E
/F /G /H /I /J
/K /L /M /N /O
/P /Q /R /S /T
/U /V /W /X /Y
/Z /bracketleft /backslash /bracketright /asciicircum
/underscore /quoteleft /a /b /c
/d /e /f /g /h
/i /j /k /l /m
/n /o /p /q /r
/s /t /u /v /w
/x /y /z /braceleft /bar
/braceright /asciitilde /bullet /Euro /bullet
/quotesinglbase /florin /quotedblbase /ellipsis /dagger
/daggerdbl /circumflex /perthousand /Scaron /guilsinglleft
/OE /bullet /Zcaron /bullet /bullet
/quoteleft /quoteright /quotedblleft /quotedblright /bullet
/endash /emdash /asciitilde /trademark /scaron
/guilsinglright /oe /bullet /zcaron /Ydieresis
/space /exclamdown /cent /sterling /currency
/yen /brokenbar /section /dieresis /copyright
/ordfeminine /guillemotleft /logicalnot /sfthyphen /registered
/macron /degree /plusminus /twosuperior /threesuperior
/acute /mu /paragraph /middot /cedilla
/onesuperior /ordmasculine /guillemotright /onequarter /onehalf
/threequarters /questiondown /Agrave /Aacute /Acircumflex
/Atilde /Adieresis /Aring /AE /Ccedilla
/Egrave /Eacute /Ecircumflex /Edieresis /Igrave
/Iacute /Icircumflex /Idieresis /Eth /Ntilde
/Ograve /Oacute /Ocircumflex /Otilde /Odieresis
/multiply /Oslash /Ugrave /Uacute /Ucircumflex
/Udieresis /Yacute /Thorn /germandbls /agrave
/aacute /acircumflex /atilde /adieresis /aring
/ae /ccedilla /egrave /eacute /ecircumflex
/edieresis /igrave /iacute /icircumflex /idieresis
/eth /ntilde /ograve /oacute /ocircumflex
/otilde /odieresis /divide /oslash /ugrave
/uacute /ucircumflex /udieresis /yacute /thorn
/ydieresis
] def
%%EndResource
%FOPBeginFontReencode
/Courier-Bold findfont
dup length dict begin
  {1 index /FID ne {def} {pop pop} ifelse} forall
  /Encoding WinAnsiEncoding def
  currentdict
end
/Courier-Bold exch definefont pop
/Helvetica findfont
dup length dict begin
  {1 index /FID ne {def} {pop pop} ifelse} forall
  /Encoding WinAnsiEncoding def
  currentdict
end
/Helvetica exch definefont pop
/Courier-BoldOblique findfont
dup length dict begin
  {1 index /FID ne {def} {pop pop} ifelse} forall
  /Encoding WinAnsiEncoding def
  currentdict
end
/Courier-BoldOblique exch definefont pop
/Courier-Oblique findfont
dup length dict begin
  {1 index /FID ne {def} {pop pop} ifelse} forall
  /Encoding WinAnsiEncoding def
  currentdict
end
/Courier-Oblique exch definefont pop
/Times-Roman findfont
dup length dict begin
  {1 index /FID ne {def} {pop pop} ifelse} forall
  /Encoding WinAnsiEncoding def
  currentdict
end
/Times-Roman exch definefont pop
/Helvetica-BoldOblique findfont
dup length dict begin
  {1 index /FID ne {def} {pop pop} ifelse} forall
  /Encoding WinAnsiEncoding def
  currentdict
end
/Helvetica-BoldOblique exch definefont pop
/Helvetica-Bold findfont
dup length dict begin
  {1 index /FID ne {def} {pop pop} ifelse} forall
  /Encoding WinAnsiEncoding def
  currentdict
end
/Helvetica-Bold exch definefont pop
/Helvetica-Oblique findfont
dup length dict begin
  {1 index /FID ne {def} {pop pop} ifelse} forall
  /Encoding WinAnsiEncoding def
  currentdict
end
/Helvetica-Oblique exch definefont pop
/Times-BoldItalic findfont
dup length dict begin
  {1 index /FID ne {def} {pop pop} ifelse} forall
  /Encoding WinAnsiEncoding def
  currentdict
end
/Times-BoldItalic exch definefont pop
/Courier findfont
dup length dict begin
  {1 index /FID ne {def} {pop pop} ifelse} forall
  /Encoding WinAnsiEncoding def
  currentdict
end
/Courier exch definefont pop
/Times-Italic findfont
dup length dict begin
  {1 index /FID ne {def} {pop pop} ifelse} forall
  /Encoding WinAnsiEncoding def
  currentdict
end
/Times-Italic exch definefont pop
/Times-Bold findfont
dup length dict begin
  {1 index /FID ne {def} {pop pop} ifelse} forall
  /Encoding WinAnsiEncoding def
  currentdict
end
/Times-Bold exch definefont pop
%FOPEndFontReencode
%%EndProlog
%%Page: 1 1
%%PageBoundingBox: 0 0 560 420
%%BeginPageSetup
[1 0 0 -1 0 420] CT
%%EndPageSetup
GS
1 GC
N
0 0 560 420 re
f
GR
GS
1 GC
N
0 0 560 420 re
f
GR
GS
1 GC
N
73 370 M
507 370 L
507 31.5 L
73 31.5 L
cp
f
GR
GS
0.149 GC
2 setlinecap
1 LJ
0.5 LW
N
73 370 M
507 370 L
S
GR
GS
0.149 GC
2 setlinecap
1 LJ
0.5 LW
N
73 370 M
73 365.66 L
S
GR
GS
0.149 GC
2 setlinecap
1 LJ
0.5 LW
N
145.333 370 M
145.333 365.66 L
S
GR
GS
0.149 GC
2 setlinecap
1 LJ
0.5 LW
N
217.667 370 M
217.667 365.66 L
S
GR
GS
0.149 GC
2 setlinecap
1 LJ
0.5 LW
N
290 370 M
290 365.66 L
S
GR
GS
0.149 GC
2 setlinecap
1 LJ
0.5 LW
N
362.333 370 M
362.333 365.66 L
S
GR
GS
0.149 GC
2 setlinecap
1 LJ
0.5 LW
N
434.667 370 M
434.667 365.66 L
S
GR
GS
0.149 GC
2 setlinecap
1 LJ
0.5 LW
N
507 370 M
507 365.66 L
S
GR
GS
[1 0 0 1 73 376] CT
0.149 GC
/Helvetica 20 F
GS
[1 0 0 1 0 0] CT
-6 16 moveto 
1 -1 scale
(0) t 
GR
GR
GS
[1 0 0 1 145.33333 376] CT
0.149 GC
/Helvetica 20 F
GS
[1 0 0 1 0 0] CT
-11.5 16 moveto 
1 -1 scale
(10) t 
GR
GR
GS
[1 0 0 1 217.66667 376] CT
0.149 GC
/Helvetica 20 F
GS
[1 0 0 1 0 0] CT
-11.5 16 moveto 
1 -1 scale
(20) t 
GR
GR
GS
[1 0 0 1 290 376] CT
0.149 GC
/Helvetica 20 F
GS
[1 0 0 1 0 0] CT
-11.5 16 moveto 
1 -1 scale
(30) t 
GR
GR
GS
[1 0 0 1 362.33334 376] CT
0.149 GC
/Helvetica 20 F
GS
[1 0 0 1 0 0] CT
-11.5 16 moveto 
1 -1 scale
(40) t 
GR
GR
GS
[1 0 0 1 434.66666 376] CT
0.149 GC
/Helvetica 20 F
GS
[1 0 0 1 0 0] CT
-11.5 16 moveto 
1 -1 scale
(50) t 
GR
GR
GS
[1 0 0 1 507 376] CT
0.149 GC
/Helvetica 20 F
GS
[1 0 0 1 0 0] CT
-11.5 16 moveto 
1 -1 scale
(60) t 
GR
GR
GS
[1 0 0 1 290.00021 397.5] CT
0.149 GC
/Helvetica 22 F
GS
[1 0 0 1 0 0] CT
-40.5 17 moveto 
1 -1 scale
(Time \(s\)) t 
GR
GR
GS
0.149 GC
2 setlinecap
1 LJ
0.5 LW
N
73 370 M
73 31.5 L
S
GR
GS
0.149 GC
2 setlinecap
1 LJ
0.5 LW
N
73 370 M
77.34 370 L
S
GR
GS
0.149 GC
2 setlinecap
1 LJ
0.5 LW
N
73 313.583 M
77.34 313.583 L
S
GR
GS
0.149 GC
2 setlinecap
1 LJ
0.5 LW
N
73 257.167 M
77.34 257.167 L
S
GR
GS
0.149 GC
2 setlinecap
1 LJ
0.5 LW
N
73 200.75 M
77.34 200.75 L
S
GR
GS
0.149 GC
2 setlinecap
1 LJ
0.5 LW
N
73 144.333 M
77.34 144.333 L
S
GR
GS
0.149 GC
2 setlinecap
1 LJ
0.5 LW
N
73 87.917 M
77.34 87.917 L
S
GR
GS
0.149 GC
2 setlinecap
1 LJ
0.5 LW
N
73 31.5 M
77.34 31.5 L
S
GR
GS
0.149 GC
2 setlinecap
1 LJ
0.5 LW
N
73 353.017 M
75.17 353.017 L
S
GR
GS
0.149 GC
2 setlinecap
1 LJ
0.5 LW
N
73 343.082 M
75.17 343.082 L
S
GR
GS
0.149 GC
2 setlinecap
1 LJ
0.5 LW
N
73 336.034 M
75.17 336.034 L
S
GR
GS
0.149 GC
2 setlinecap
1 LJ
0.5 LW
N
73 330.566 M
75.17 330.566 L
S
GR
GS
0.149 GC
2 setlinecap
1 LJ
0.5 LW
N
73 326.099 M
75.17 326.099 L
S
GR
GS
0.149 GC
2 setlinecap
1 LJ
0.5 LW
N
73 322.322 M
75.17 322.322 L
S
GR
GS
0.149 GC
2 setlinecap
1 LJ
0.5 LW
N
73 319.051 M
75.17 319.051 L
S
GR
GS
0.149 GC
2 setlinecap
1 LJ
0.5 LW
N
73 316.165 M
75.17 316.165 L
S
GR
GS
0.149 GC
2 setlinecap
1 LJ
0.5 LW
N
73 296.6 M
75.17 296.6 L
S
GR
GS
0.149 GC
2 setlinecap
1 LJ
0.5 LW
N
73 286.666 M
75.17 286.666 L
S
GR
GS
0.149 GC
2 setlinecap
1 LJ
0.5 LW
N
73 279.617 M
75.17 279.617 L
S
GR
GS
0.149 GC
2 setlinecap
1 LJ
0.5 LW
N
73 274.15 M
75.17 274.15 L
S
GR
GS
0.149 GC
2 setlinecap
1 LJ
0.5 LW
N
73 269.683 M
75.17 269.683 L
S
GR
GS
0.149 GC
2 setlinecap
1 LJ
0.5 LW
N
73 265.906 M
75.17 265.906 L
S
GR
GS
0.149 GC
2 setlinecap
1 LJ
0.5 LW
N
73 262.634 M
75.17 262.634 L
S
GR
GS
0.149 GC
2 setlinecap
1 LJ
0.5 LW
N
73 259.748 M
75.17 259.748 L
S
GR
GS
0.149 GC
2 setlinecap
1 LJ
0.5 LW
N
73 240.184 M
75.17 240.184 L
S
GR
GS
0.149 GC
2 setlinecap
1 LJ
0.5 LW
N
73 230.249 M
75.17 230.249 L
S
GR
GS
0.149 GC
2 setlinecap
1 LJ
0.5 LW
N
73 223.2 M
75.17 223.2 L
S
GR
GS
0.149 GC
2 setlinecap
1 LJ
0.5 LW
N
73 217.733 M
75.17 217.733 L
S
GR
GS
0.149 GC
2 setlinecap
1 LJ
0.5 LW
N
73 213.266 M
75.17 213.266 L
S
GR
GS
0.149 GC
2 setlinecap
1 LJ
0.5 LW
N
73 209.489 M
75.17 209.489 L
S
GR
GS
0.149 GC
2 setlinecap
1 LJ
0.5 LW
N
73 206.217 M
75.17 206.217 L
S
GR
GS
0.149 GC
2 setlinecap
1 LJ
0.5 LW
N
73 203.331 M
75.17 203.331 L
S
GR
GS
0.149 GC
2 setlinecap
1 LJ
0.5 LW
N
73 183.767 M
75.17 183.767 L
S
GR
GS
0.149 GC
2 setlinecap
1 LJ
0.5 LW
N
73 173.832 M
75.17 173.832 L
S
GR
GS
0.149 GC
2 setlinecap
1 LJ
0.5 LW
N
73 166.784 M
75.17 166.784 L
S
GR
GS
0.149 GC
2 setlinecap
1 LJ
0.5 LW
N
73 161.316 M
75.17 161.316 L
S
GR
GS
0.149 GC
2 setlinecap
1 LJ
0.5 LW
N
73 156.849 M
75.17 156.849 L
S
GR
GS
0.149 GC
2 setlinecap
1 LJ
0.5 LW
N
73 153.072 M
75.17 153.072 L
S
GR
GS
0.149 GC
2 setlinecap
1 LJ
0.5 LW
N
73 149.801 M
75.17 149.801 L
S
GR
GS
0.149 GC
2 setlinecap
1 LJ
0.5 LW
N
73 146.915 M
75.17 146.915 L
S
GR
GS
0.149 GC
2 setlinecap
1 LJ
0.5 LW
N
73 127.35 M
75.17 127.35 L
S
GR
GS
0.149 GC
2 setlinecap
1 LJ
0.5 LW
N
73 117.416 M
75.17 117.416 L
S
GR
GS
0.149 GC
2 setlinecap
1 LJ
0.5 LW
N
73 110.367 M
75.17 110.367 L
S
GR
GS
0.149 GC
2 setlinecap
1 LJ
0.5 LW
N
73 104.9 M
75.17 104.9 L
S
GR
GS
0.149 GC
2 setlinecap
1 LJ
0.5 LW
N
73 100.433 M
75.17 100.433 L
S
GR
GS
0.149 GC
2 setlinecap
1 LJ
0.5 LW
N
73 96.656 M
75.17 96.656 L
S
GR
GS
0.149 GC
2 setlinecap
1 LJ
0.5 LW
N
73 93.384 M
75.17 93.384 L
S
GR
GS
0.149 GC
2 setlinecap
1 LJ
0.5 LW
N
73 90.498 M
75.17 90.498 L
S
GR
GS
0.149 GC
2 setlinecap
1 LJ
0.5 LW
N
73 70.934 M
75.17 70.934 L
S
GR
GS
0.149 GC
2 setlinecap
1 LJ
0.5 LW
N
73 60.999 M
75.17 60.999 L
S
GR
GS
0.149 GC
2 setlinecap
1 LJ
0.5 LW
N
73 53.95 M
75.17 53.95 L
S
GR
GS
0.149 GC
2 setlinecap
1 LJ
0.5 LW
N
73 48.483 M
75.17 48.483 L
S
GR
GS
0.149 GC
2 setlinecap
1 LJ
0.5 LW
N
73 44.016 M
75.17 44.016 L
S
GR
GS
0.149 GC
2 setlinecap
1 LJ
0.5 LW
N
73 40.239 M
75.17 40.239 L
S
GR
GS
0.149 GC
2 setlinecap
1 LJ
0.5 LW
N
73 36.967 M
75.17 36.967 L
S
GR
GS
0.149 GC
2 setlinecap
1 LJ
0.5 LW
N
73 34.081 M
75.17 34.081 L
S
GR
GS
[1 0 0 1 29 379] CT
0.149 GC
/Helvetica 20 F
GS
[1 0 0 1 0 0] CT
0 0 moveto 
1 -1 scale
(10) t 
GR
GR
GS
[1 0 0 1 52 369] CT
0.149 GC
/Helvetica 16 F
GS
[1 0 0 1 0 0] CT
0 0 moveto 
1 -1 scale
(-5) t 
GR
GR
GS
[1 0 0 1 29 323] CT
0.149 GC
/Helvetica 20 F
GS
[1 0 0 1 0 0] CT
0 0 moveto 
1 -1 scale
(10) t 
GR
GR
GS
[1 0 0 1 52 313] CT
0.149 GC
/Helvetica 16 F
GS
[1 0 0 1 0 0] CT
0 0 moveto 
1 -1 scale
(-4) t 
GR
GR
GS
[1 0 0 1 29 266] CT
0.149 GC
/Helvetica 20 F
GS
[1 0 0 1 0 0] CT
0 0 moveto 
1 -1 scale
(10) t 
GR
GR
GS
[1 0 0 1 52 256] CT
0.149 GC
/Helvetica 16 F
GS
[1 0 0 1 0 0] CT
0 0 moveto 
1 -1 scale
(-3) t 
GR
GR
GS
[1 0 0 1 29 210] CT
0.149 GC
/Helvetica 20 F
GS
[1 0 0 1 0 0] CT
0 0 moveto 
1 -1 scale
(10) t 
GR
GR
GS
[1 0 0 1 52 200] CT
0.149 GC
/Helvetica 16 F
GS
[1 0 0 1 0 0] CT
0 0 moveto 
1 -1 scale
(-2) t 
GR
GR
GS
[1 0 0 1 29 153] CT
0.149 GC
/Helvetica 20 F
GS
[1 0 0 1 0 0] CT
0 0 moveto 
1 -1 scale
(10) t 
GR
GR
GS
[1 0 0 1 52 143] CT
0.149 GC
/Helvetica 16 F
GS
[1 0 0 1 0 0] CT
0 0 moveto 
1 -1 scale
(-1) t 
GR
GR
GS
[1 0 0 1 35 97] CT
0.149 GC
/Helvetica 20 F
GS
[1 0 0 1 0 0] CT
0 0 moveto 
1 -1 scale
(10) t 
GR
GR
GS
[1 0 0 1 58 87] CT
0.149 GC
/Helvetica 16 F
GS
[1 0 0 1 0 0] CT
0 0 moveto 
1 -1 scale
(0) t 
GR
GR
GS
[1 0 0 1 35 41] CT
0.149 GC
/Helvetica 20 F
GS
[1 0 0 1 0 0] CT
0 0 moveto 
1 -1 scale
(10) t 
GR
GR
GS
[1 0 0 1 58 31] CT
0.149 GC
/Helvetica 16 F
GS
[1 0 0 1 0 0] CT
0 0 moveto 
1 -1 scale
(1) t 
GR
GR
GS
[0 -1 1 0 27 200.74983] CT
0.149 GC
/Helvetica 22 F
GS
[1 0 0 1 0 0] CT
-32 -6 moveto 
1 -1 scale
(Train RMSE) t 
GR
GR
GS
[1 0 0 1 290.00027 28.74999] CT
/Helvetica-Bold 22 F
GS
[1 0 0 1 0 0] CT
-203.5 -6 moveto 
1 -1 scale
( ) t 
GR
GR
GS
0 0.447 0.741 RC
1 LJ
2 LW
N
73 51.247 M
118.503 71.039 L
163.887 113.079 L
209.362 152.833 L
254.743 189.649 L
300.316 226.908 L
366.158 265.496 L
417.842 306.41 L
472.413 343.823 L
S
GR
GS
0.851 0.325 0.098 RC
1 LJ
2 LW
N
73 51.247 M
73.273 51.25 L
73.554 51.255 L
73.835 51.259 L
74.117 51.264 L
74.365 51.27 L
74.639 51.276 L
74.872 51.282 L
75.125 51.289 L
75.357 51.297 L
75.584 51.305 L
75.812 51.314 L
76.044 51.324 L
76.267 51.335 L
76.485 51.348 L
76.71 51.362 L
76.94 51.378 L
77.171 51.394 L
77.39 51.412 L
77.612 51.431 L
77.889 51.453 L
78.115 51.48 L
78.35 51.506 L
78.571 51.535 L
78.79 51.565 L
79.02 51.599 L
79.248 51.638 L
79.471 51.678 L
79.695 51.727 L
79.917 51.777 L
80.135 51.833 L
80.352 51.888 L
80.579 51.95 L
80.805 52.018 L
81.022 52.097 L
81.252 52.177 L
81.518 52.265 L
81.774 52.372 L
82.035 52.48 L
82.304 52.6 L
82.561 52.731 L
82.795 52.846 L
83.029 52.996 L
83.255 53.151 L
83.481 53.321 L
83.705 53.501 L
83.933 53.688 L
84.163 53.879 L
84.402 54.106 L
84.631 54.324 L
S
GR
GS
0.851 0.325 0.098 RC
1 LJ
2 LW
N
84.402 54.106 M
84.631 54.324 L
84.86 54.576 L
85.095 54.815 L
85.328 55.085 L
85.556 55.362 L
85.781 55.634 L
86.004 55.867 L
86.24 56.148 L
86.47 56.407 L
86.72 56.65 L
86.961 56.876 L
87.196 57.081 L
87.429 57.291 L
87.651 57.378 L
87.881 57.38 L
88.106 57.367 L
88.351 57.55 L
88.612 57.729 L
88.859 57.911 L
89.108 58.055 L
89.347 58.172 L
89.578 58.154 L
89.805 58.297 L
90.047 58.404 L
90.278 58.511 L
90.497 58.651 L
90.72 58.77 L
90.955 58.829 L
91.233 58.846 L
91.474 58.854 L
91.721 58.884 L
91.973 58.839 L
92.208 58.989 L
92.453 59.091 L
92.686 59.197 L
92.914 59.267 L
93.139 59.345 L
93.363 59.336 L
93.583 59.448 L
93.811 59.561 L
94.029 59.685 L
94.251 59.764 L
94.478 59.873 L
94.702 59.926 L
94.935 59.958 L
95.16 59.98 L
95.388 59.927 L
95.637 60.054 L
95.874 60.144 L
96.106 60.263 L
96.332 60.408 L
S
GR
GS
0.851 0.325 0.098 RC
1 LJ
2 LW
N
96.106 60.263 M
96.332 60.408 L
96.554 60.489 L
96.773 60.579 L
97.011 60.611 L
97.24 60.582 L
97.463 60.705 L
97.688 60.811 L
97.918 60.926 L
98.135 61.045 L
98.361 61.11 L
98.585 61.203 L
98.81 61.283 L
99.04 61.279 L
99.272 61.424 L
99.497 61.564 L
99.726 61.678 L
99.955 61.797 L
100.181 61.912 L
100.41 62.013 L
100.635 62.073 L
100.875 62.135 L
101.105 62.125 L
101.327 62.261 L
101.55 62.396 L
101.776 62.538 L
101.996 62.681 L
102.217 62.788 L
102.444 62.901 L
102.663 62.969 L
102.887 63.029 L
103.109 63.069 L
103.333 63.024 L
103.561 63.183 L
103.785 63.369 L
104.014 63.569 L
104.245 63.715 L
104.474 63.905 L
104.706 64.047 L
104.959 64.191 L
105.192 64.237 L
105.42 64.238 L
105.653 64.13 L
105.887 64.385 L
106.111 64.627 L
106.348 64.832 L
106.585 65.008 L
106.812 65.194 L
107.081 65.207 L
107.401 65.315 L
107.758 65.277 L
108.11 65.547 L
S
GR
GS
0.851 0.325 0.098 RC
1 LJ
2 LW
N
107.758 65.277 M
108.11 65.547 L
108.394 65.826 L
108.665 66.087 L
108.917 66.329 L
109.172 66.543 L
109.46 66.721 L
109.752 66.875 L
110.02 66.921 L
110.291 67.02 L
110.554 66.98 L
110.818 67.278 L
111.065 67.597 L
111.301 67.928 L
111.568 68.255 L
111.884 68.495 L
112.174 68.657 L
112.411 68.823 L
112.636 68.877 L
112.872 68.701 L
113.229 69.111 L
113.521 69.486 L
113.785 69.833 L
114.032 70.154 L
114.267 70.385 L
114.591 70.65 L
114.865 70.841 L
115.335 70.968 L
115.793 70.963 L
116.176 71.394 L
116.542 71.804 L
116.917 72.245 L
117.281 72.633 L
117.657 72.971 L
118.089 73.245 L
118.519 73.358 L
118.832 73.467 L
119.302 73.375 L
119.995 73.885 L
120.383 74.38 L
120.797 74.842 L
121.232 75.312 L
121.622 75.677 L
121.953 75.964 L
122.184 76.252 L
122.412 76.214 L
122.648 76.755 L
122.899 77.293 L
123.13 77.784 L
123.366 78.202 L
123.596 78.637 L
123.822 79.011 L
S
GR
GS
0.851 0.325 0.098 RC
1 LJ
2 LW
N
123.596 78.637 M
123.822 79.011 L
124.056 79.226 L
124.288 79.328 L
124.528 79.3 L
124.768 79.841 L
124.999 80.38 L
125.229 80.922 L
125.455 81.354 L
125.693 81.712 L
125.927 82.015 L
126.154 82.117 L
126.384 82.101 L
126.616 82.701 L
126.842 83.281 L
127.073 83.774 L
127.312 84.287 L
127.551 84.774 L
127.79 85.143 L
128.023 85.404 L
128.252 85.48 L
128.544 85.194 L
128.831 85.802 L
129.13 86.376 L
129.434 86.974 L
129.757 87.468 L
130.087 87.87 L
130.386 88.109 L
130.691 88.301 L
130.971 88.311 L
131.268 87.937 L
131.506 88.508 L
131.736 89.043 L
131.979 89.598 L
132.232 90.103 L
132.472 90.43 L
132.711 90.683 L
132.951 90.678 L
133.209 91.302 L
133.464 91.892 L
133.697 92.455 L
133.928 93.082 L
134.149 93.419 L
134.372 93.753 L
134.596 93.996 L
134.818 94.006 L
135.042 93.991 L
135.262 94.631 L
135.482 95.175 L
135.703 95.723 L
135.928 96.271 L
136.178 96.648 L
S
GR
GS
0.851 0.325 0.098 RC
1 LJ
2 LW
N
135.928 96.271 M
136.178 96.648 L
136.425 96.926 L
136.68 97.009 L
136.911 97.008 L
137.142 97.648 L
137.368 98.187 L
137.595 98.802 L
137.813 99.306 L
138.037 99.755 L
138.269 100.098 L
138.497 100.387 L
138.73 100.433 L
138.969 100.264 L
139.201 100.891 L
139.435 101.503 L
139.669 102.025 L
139.897 102.514 L
140.123 102.783 L
140.359 103.027 L
140.583 103.238 L
140.813 103.111 L
141.038 103.818 L
141.272 104.434 L
141.495 105.04 L
141.72 105.611 L
141.947 105.981 L
142.171 106.293 L
142.4 106.423 L
142.626 106.139 L
142.858 106.868 L
143.083 107.491 L
143.313 108.042 L
143.538 108.583 L
143.762 109.13 L
143.99 109.381 L
144.226 109.596 L
144.454 109.607 L
144.679 109.369 L
144.901 110.042 L
145.119 110.66 L
145.375 111.219 L
145.613 111.658 L
145.855 112.114 L
146.081 112.356 L
146.305 112.358 L
146.529 112.191 L
146.753 112.786 L
146.982 113.316 L
147.229 113.898 L
147.474 114.403 L
147.816 114.722 L
S
GR
GS
0.851 0.325 0.098 RC
1 LJ
2 LW
N
147.474 114.403 M
147.816 114.722 L
148.096 114.985 L
148.371 114.962 L
148.688 115.588 L
148.974 116.253 L
149.235 116.872 L
149.491 117.468 L
149.747 118.052 L
150.043 118.464 L
150.34 118.717 L
150.61 118.698 L
150.877 119.291 L
151.169 119.972 L
151.465 120.541 L
151.826 121.18 L
152.175 121.671 L
152.489 122.13 L
152.773 122.53 L
153.055 122.699 L
153.345 122.639 L
153.769 123.23 L
154.053 123.788 L
154.319 124.418 L
154.6 124.926 L
154.845 125.301 L
155.087 125.709 L
155.32 125.881 L
155.557 125.873 L
155.79 126.509 L
156.057 127.175 L
156.507 127.775 L
156.806 128.293 L
157.057 128.755 L
157.291 129.108 L
157.54 129.504 L
157.767 129.485 L
157.998 130.161 L
158.219 130.746 L
158.444 131.353 L
158.671 131.951 L
158.928 132.456 L
159.188 132.833 L
159.413 133.164 L
159.639 133.305 L
159.876 133.204 L
160.118 133.844 L
160.36 134.494 L
160.622 135.041 L
160.858 135.576 L
161.101 135.988 L
161.379 136.34 L
S
GR
GS
0.851 0.325 0.098 RC
1 LJ
2 LW
N
161.101 135.988 M
161.379 136.34 L
161.634 136.514 L
161.877 136.51 L
162.11 137.24 L
162.345 137.828 L
162.609 138.379 L
162.848 138.922 L
163.078 139.425 L
163.315 139.731 L
163.553 139.966 L
163.805 139.942 L
164.042 140.528 L
164.304 141.133 L
164.562 141.701 L
164.797 142.3 L
165.031 142.852 L
165.252 143.208 L
165.478 143.501 L
165.695 143.533 L
165.933 143.407 L
166.156 144.023 L
166.376 144.668 L
166.593 145.253 L
166.816 145.776 L
167.04 146.226 L
167.265 146.64 L
167.492 146.856 L
167.709 146.624 L
167.94 147.246 L
168.161 147.857 L
168.398 148.473 L
168.638 149.054 L
168.863 149.474 L
169.082 149.747 L
169.306 149.969 L
169.527 149.847 L
169.75 150.461 L
169.966 151.108 L
170.185 151.662 L
170.413 152.196 L
170.635 152.685 L
170.862 153.007 L
171.089 153.237 L
171.311 153.343 L
171.533 153.163 L
171.757 153.747 L
171.995 154.343 L
172.255 154.878 L
172.508 155.316 L
172.769 155.681 L
173.009 156.001 L
S
GR
GS
0.851 0.325 0.098 RC
1 LJ
2 LW
N
172.769 155.681 M
173.009 156.001 L
173.233 156.17 L
173.455 156.217 L
173.68 155.775 L
173.904 156.346 L
174.135 156.948 L
174.355 157.402 L
174.577 157.841 L
174.797 158.208 L
175.035 158.404 L
175.266 158.385 L
175.513 159.037 L
175.752 159.671 L
175.985 160.294 L
176.218 160.886 L
176.436 161.319 L
176.666 161.668 L
176.897 161.673 L
177.152 161.696 L
177.383 161.566 L
177.612 162.201 L
177.844 162.864 L
178.071 163.45 L
178.304 163.949 L
178.53 164.373 L
178.76 164.652 L
178.993 164.698 L
179.237 164.61 L
179.498 165.237 L
179.757 165.879 L
180 166.455 L
180.227 166.998 L
180.461 167.413 L
180.693 167.635 L
180.923 167.76 L
181.16 167.556 L
181.4 168.166 L
181.655 168.848 L
181.895 169.508 L
182.163 170.045 L
182.443 170.533 L
182.736 170.837 L
183.02 171.023 L
183.325 171.192 L
183.652 170.869 L
183.983 171.569 L
184.248 172.26 L
184.545 172.78 L
184.829 173.291 L
185.096 173.716 L
185.346 173.837 L
S
GR
GS
0.851 0.325 0.098 RC
1 LJ
2 LW
N
185.096 173.716 M
185.346 173.837 L
185.596 173.922 L
185.845 173.838 L
186.109 174.512 L
186.373 175.182 L
186.65 175.828 L
186.916 176.362 L
187.179 176.761 L
187.44 177.027 L
187.703 177.057 L
187.974 176.984 L
188.254 177.621 L
188.505 178.343 L
188.789 178.865 L
189.071 179.403 L
189.337 179.833 L
189.601 180.141 L
189.913 180.29 L
190.285 180.234 L
190.565 180.837 L
190.849 181.432 L
191.124 181.986 L
191.371 182.494 L
191.629 182.925 L
191.89 183.238 L
192.134 183.511 L
192.372 183.468 L
192.713 184.164 L
193.068 184.747 L
193.389 185.339 L
193.642 185.858 L
193.904 186.366 L
194.128 186.702 L
194.359 187.045 L
194.584 186.975 L
194.806 187.632 L
195.032 188.269 L
195.272 188.928 L
195.501 189.474 L
195.761 189.892 L
196.038 190.316 L
196.268 190.689 L
196.49 190.765 L
196.714 190.683 L
196.949 191.298 L
197.18 191.918 L
197.406 192.394 L
197.647 192.937 L
197.89 193.353 L
198.127 193.702 L
198.371 193.872 L
S
GR
GS
0.851 0.325 0.098 RC
1 LJ
2 LW
N
198.127 193.702 M
198.371 193.872 L
198.602 193.617 L
198.836 194.342 L
199.07 194.998 L
199.312 195.545 L
199.55 196.083 L
199.808 196.5 L
200.088 196.863 L
200.45 197.165 L
200.769 197.285 L
201.079 196.89 L
201.338 197.55 L
201.609 198.219 L
201.971 198.822 L
202.297 199.346 L
202.659 199.745 L
203.003 200.122 L
203.331 200.241 L
203.647 200.052 L
203.972 200.706 L
204.292 201.329 L
204.582 201.927 L
204.913 202.457 L
205.218 202.898 L
205.494 203.33 L
205.801 203.359 L
206.082 203.325 L
206.325 203.967 L
206.574 204.56 L
206.809 205.154 L
207.128 205.679 L
207.405 206.104 L
207.66 206.409 L
207.903 206.537 L
208.145 206.624 L
208.437 206.094 L
208.695 206.815 L
208.958 207.425 L
209.23 207.941 L
209.467 208.44 L
209.698 208.848 L
209.937 208.907 L
210.167 208.946 L
210.394 208.839 L
210.622 209.542 L
210.844 210.132 L
211.068 210.668 L
211.296 211.191 L
211.516 211.634 L
211.758 211.697 L
212.05 211.806 L
S
GR
GS
0.851 0.325 0.098 RC
1 LJ
2 LW
N
211.758 211.697 M
212.05 211.806 L
212.337 211.893 L
212.648 211.408 L
212.911 212.077 L
213.159 212.641 L
213.408 213.137 L
213.664 213.656 L
213.922 214.017 L
214.185 214.286 L
214.46 214.319 L
214.724 214.128 L
215.021 214.727 L
215.335 215.262 L
215.611 215.724 L
215.859 216.255 L
216.105 216.67 L
216.354 216.953 L
216.603 217.025 L
216.871 216.713 L
217.209 217.421 L
217.511 218.035 L
217.835 218.604 L
218.112 219.1 L
218.445 219.496 L
218.713 219.831 L
218.988 219.942 L
219.25 219.744 L
219.508 220.357 L
219.779 220.995 L
220.137 221.619 L
220.46 222.124 L
220.78 222.498 L
221.095 222.712 L
221.447 222.925 L
221.768 222.864 L
222.106 223.516 L
222.407 224.133 L
222.715 224.731 L
223.013 225.303 L
223.359 225.775 L
223.643 226.089 L
223.91 226.274 L
224.166 226.364 L
224.419 226.236 L
224.663 226.912 L
224.906 227.573 L
225.151 228.225 L
225.399 228.746 L
225.653 229.151 L
225.9 229.352 L
226.143 229.525 L
S
GR
GS
0.851 0.325 0.098 RC
1 LJ
2 LW
N
225.9 229.352 M
226.143 229.525 L
226.396 229.296 L
226.643 229.922 L
226.896 230.527 L
227.153 231.049 L
227.405 231.488 L
227.644 231.901 L
227.89 232.254 L
228.18 232.414 L
228.494 232.441 L
228.796 232.196 L
229.134 232.776 L
229.383 233.388 L
229.635 233.99 L
229.888 234.434 L
230.14 234.691 L
230.384 234.93 L
230.629 234.891 L
230.902 235.537 L
231.162 236.119 L
231.417 236.747 L
231.677 237.229 L
231.943 237.666 L
232.187 237.973 L
232.431 238.232 L
232.675 238.203 L
232.924 238.776 L
233.173 239.374 L
233.428 239.961 L
233.676 240.561 L
233.947 241.133 L
234.21 241.564 L
234.47 241.84 L
234.713 241.815 L
234.951 242.46 L
235.188 243.052 L
235.419 243.653 L
235.656 244.195 L
235.891 244.69 L
236.142 245.031 L
236.376 245.31 L
236.612 245.42 L
236.85 245.401 L
237.082 246.062 L
237.317 246.731 L
237.555 247.288 L
237.79 247.823 L
238.026 248.251 L
238.263 248.501 L
238.501 248.671 L
238.746 248.567 L
S
GR
GS
0.851 0.325 0.098 RC
1 LJ
2 LW
N
238.501 248.671 M
238.746 248.567 L
238.979 249.21 L
239.216 249.844 L
239.45 250.502 L
239.686 250.961 L
239.911 251.393 L
240.146 251.741 L
240.38 251.995 L
240.614 252.043 L
240.851 251.623 L
241.088 252.257 L
241.33 252.946 L
241.568 253.576 L
241.798 254.157 L
242.032 254.505 L
242.272 254.792 L
242.507 254.977 L
242.741 254.686 L
242.98 255.352 L
243.222 256.068 L
243.47 256.643 L
243.706 257.09 L
243.946 257.599 L
244.184 257.975 L
244.418 258.127 L
244.657 257.9 L
244.902 258.506 L
245.178 259.184 L
245.432 259.752 L
245.692 260.299 L
245.951 260.755 L
246.19 261.106 L
246.457 261.292 L
246.753 261.26 L
247.019 261.916 L
247.293 262.538 L
247.537 263.185 L
247.777 263.739 L
248.018 264.195 L
248.263 264.484 L
248.501 264.754 L
248.745 264.723 L
248.988 265.383 L
249.225 265.996 L
249.477 266.631 L
249.721 267.144 L
249.961 267.554 L
250.209 267.941 L
250.465 268.247 L
250.705 268.334 L
250.956 268.267 L
S
GR
GS
0.851 0.325 0.098 RC
1 LJ
2 LW
N
250.705 268.334 M
250.956 268.267 L
251.203 268.866 L
251.451 269.473 L
251.701 270.056 L
251.94 270.599 L
252.186 271 L
252.428 271.259 L
252.666 271.301 L
252.914 271.132 L
253.16 271.814 L
253.413 272.474 L
253.747 273.01 L
254.09 273.534 L
254.425 274.005 L
254.801 274.345 L
255.159 274.51 L
255.457 274.514 L
255.7 274.184 L
255.933 274.861 L
256.169 275.436 L
256.408 276.051 L
256.647 276.548 L
256.881 276.979 L
257.117 277.226 L
257.362 277.292 L
257.598 276.954 L
257.85 277.613 L
258.17 278.2 L
258.485 278.766 L
258.788 279.351 L
259.107 279.672 L
259.405 279.952 L
259.649 279.779 L
259.88 280.4 L
260.108 281.026 L
260.337 281.626 L
260.568 282.126 L
260.794 282.636 L
261.021 283.051 L
261.249 283.393 L
261.478 283.536 L
261.702 283.52 L
261.928 284.149 L
262.16 284.707 L
262.393 285.37 L
262.629 285.892 L
262.851 286.348 L
263.08 286.781 L
263.334 287.081 L
263.567 287.232 L
263.801 286.817 L
S
GR
GS
0.851 0.325 0.098 RC
1 LJ
2 LW
N
263.567 287.232 M
263.801 286.817 L
264.033 287.504 L
264.289 288.118 L
264.532 288.687 L
264.785 289.2 L
265.059 289.626 L
265.309 289.933 L
265.558 289.678 L
265.811 290.335 L
266.054 290.905 L
266.295 291.549 L
266.536 292.087 L
266.785 292.599 L
267.022 292.976 L
267.258 293.262 L
267.491 293.407 L
267.722 293.214 L
267.959 293.845 L
268.194 294.381 L
268.428 294.946 L
268.658 295.502 L
268.887 295.892 L
269.122 296.198 L
269.356 296.51 L
269.592 296.4 L
269.827 297.04 L
270.063 297.648 L
270.295 298.264 L
270.531 298.708 L
270.783 299.185 L
271.112 299.576 L
271.432 299.749 L
271.707 299.638 L
272.004 300.163 L
272.302 300.758 L
272.597 301.358 L
272.878 301.89 L
273.146 302.365 L
273.457 302.759 L
273.725 302.977 L
273.997 303.13 L
274.299 303.076 L
274.576 303.692 L
274.857 304.277 L
275.122 304.799 L
275.396 305.3 L
275.69 305.698 L
275.946 305.984 L
276.203 306.195 L
276.486 306.042 L
276.739 306.737 L
S
GR
GS
0.851 0.325 0.098 RC
1 LJ
2 LW
N
276.486 306.042 M
276.739 306.737 L
276.993 307.349 L
277.245 307.942 L
277.481 308.433 L
277.721 308.857 L
277.959 309.143 L
278.199 309.308 L
278.445 309.309 L
278.69 309.162 L
278.935 309.865 L
279.172 310.393 L
279.416 310.904 L
279.766 311.435 L
280.009 311.78 L
280.249 312.075 L
280.506 312.182 L
280.744 312.079 L
280.984 312.721 L
281.225 313.386 L
281.472 313.991 L
S
GR
GS
0.929 0.694 0.125 RC
1 LJ
2 LW
N
73 51.247 M
73.529 51.251 L
73.872 51.256 L
74.196 51.261 L
74.507 51.267 L
74.801 51.273 L
75.127 51.28 L
75.434 51.287 L
75.734 51.295 L
76.03 51.305 L
76.336 51.315 L
76.638 51.326 L
76.952 51.338 L
77.254 51.352 L
77.583 51.366 L
78.025 51.382 L
78.345 51.399 L
78.644 51.419 L
78.951 51.439 L
79.252 51.461 L
79.559 51.486 L
79.865 51.514 L
80.175 51.544 L
80.472 51.576 L
80.78 51.613 L
81.076 51.654 L
81.402 51.698 L
81.712 51.745 L
82.014 51.8 L
82.321 51.858 L
82.625 51.92 L
82.931 51.988 L
83.224 52.061 L
83.539 52.146 L
83.842 52.235 L
84.147 52.331 L
84.445 52.434 L
84.748 52.549 L
85.04 52.678 L
85.349 52.816 L
85.645 52.961 L
85.952 53.129 L
86.252 53.297 L
86.559 53.479 L
86.856 53.668 L
87.175 53.87 L
87.484 54.102 L
87.795 54.33 L
88.094 54.561 L
88.398 54.818 L
S
GR
GS
0.929 0.694 0.125 RC
1 LJ
2 LW
N
88.094 54.561 M
88.398 54.818 L
88.695 55.084 L
88.988 55.366 L
89.299 55.645 L
89.64 55.945 L
89.988 56.27 L
90.291 56.596 L
90.59 56.898 L
90.886 57.191 L
91.197 57.492 L
91.506 57.785 L
91.802 58.066 L
92.098 58.31 L
92.402 58.509 L
92.7 58.679 L
92.997 58.82 L
93.302 58.903 L
93.6 58.947 L
93.902 58.926 L
94.21 59.153 L
94.517 59.327 L
94.821 59.522 L
95.127 59.649 L
95.424 59.763 L
95.723 59.829 L
96.054 59.88 L
96.446 59.799 L
96.796 60.031 L
97.098 60.243 L
97.426 60.452 L
97.743 60.567 L
98.053 60.694 L
98.371 60.811 L
98.675 60.882 L
98.993 60.97 L
99.312 60.975 L
99.647 60.918 L
100.002 61.264 L
100.319 61.615 L
100.64 61.902 L
100.942 62.145 L
101.271 62.367 L
101.581 62.536 L
101.889 62.722 L
102.202 62.858 L
102.512 62.949 L
102.827 62.937 L
103.183 63.374 L
103.636 63.854 L
103.977 64.204 L
104.294 64.54 L
S
GR
GS
0.929 0.694 0.125 RC
1 LJ
2 LW
N
103.977 64.204 M
104.294 64.54 L
104.609 64.872 L
104.918 65.134 L
105.235 65.306 L
105.54 65.46 L
105.86 65.505 L
106.176 65.449 L
106.523 66.065 L
106.865 66.646 L
107.171 67.242 L
107.462 67.74 L
107.754 68.235 L
108.053 68.551 L
108.365 68.879 L
108.667 68.86 L
108.985 69.567 L
109.31 70.2 L
109.603 70.83 L
109.891 71.385 L
110.178 71.851 L
110.48 72.223 L
110.773 72.585 L
111.062 72.746 L
111.359 72.851 L
111.671 72.736 L
111.972 73.521 L
112.267 74.196 L
112.554 74.86 L
112.845 75.509 L
113.131 76 L
113.418 76.449 L
113.698 76.749 L
113.987 76.989 L
114.282 76.96 L
114.581 78.008 L
114.868 78.999 L
115.149 80.01 L
115.433 80.929 L
115.727 81.724 L
116.018 82.488 L
116.311 82.882 L
116.617 83.265 L
116.99 83.132 L
117.372 84.272 L
117.682 85.359 L
117.991 86.399 L
118.294 87.474 L
118.622 88.173 L
118.919 88.772 L
119.234 89.152 L
119.547 89.345 L
S
GR
GS
0.929 0.694 0.125 RC
1 LJ
2 LW
N
119.234 89.152 M
119.547 89.345 L
119.847 89.289 L
120.147 90.532 L
120.453 91.725 L
120.759 92.731 L
121.068 93.674 L
121.396 94.567 L
121.704 95.209 L
122 95.403 L
122.303 95.32 L
122.673 96.583 L
123.065 97.762 L
123.469 98.8 L
123.864 99.8 L
124.254 100.637 L
124.581 101.38 L
124.898 101.845 L
125.19 101.874 L
125.491 101.339 L
125.785 102.586 L
126.103 103.793 L
126.397 104.805 L
126.703 105.671 L
127.016 106.377 L
127.286 106.857 L
127.557 106.983 L
127.827 106.875 L
128.091 108.179 L
128.365 109.473 L
128.633 110.569 L
128.899 111.611 L
129.162 112.446 L
129.425 113.014 L
129.687 113.377 L
129.949 113.153 L
130.213 114.376 L
130.477 115.651 L
130.742 116.821 L
131.009 117.833 L
131.276 118.645 L
131.543 119.119 L
131.811 119.602 L
132.074 119.596 L
132.337 120.84 L
132.602 121.979 L
132.866 123.082 L
133.131 124.162 L
133.397 125.004 L
133.66 125.617 L
133.926 126.158 L
134.188 126.291 L
S
GR
GS
0.929 0.694 0.125 RC
1 LJ
2 LW
N
133.926 126.158 M
134.188 126.291 L
134.452 125.994 L
134.722 127.28 L
134.991 128.526 L
135.27 129.629 L
135.546 130.609 L
135.828 131.302 L
136.11 131.788 L
136.391 132.171 L
136.692 132.069 L
136.969 133.328 L
137.24 134.646 L
137.509 135.783 L
137.775 136.78 L
138.053 137.56 L
138.334 138.301 L
138.63 138.51 L
138.911 138.386 L
139.19 139.678 L
139.469 140.943 L
139.745 142.137 L
140.014 143.139 L
140.28 143.824 L
140.557 144.492 L
140.825 144.866 L
141.094 144.684 L
141.372 145.963 L
141.635 147.081 L
141.908 148.224 L
142.175 149.323 L
142.439 150.292 L
142.704 150.975 L
143.005 151.377 L
143.28 151.288 L
143.547 152.639 L
143.816 153.873 L
144.088 155.045 L
144.37 156.015 L
144.655 157.019 L
144.932 157.773 L
145.214 158.308 L
145.493 158.575 L
145.777 158.532 L
146.061 159.86 L
146.335 161.072 L
146.607 162.241 L
146.873 163.299 L
147.149 164.096 L
147.432 164.673 L
147.714 165.036 L
148.002 164.905 L
S
GR
GS
0.929 0.694 0.125 RC
1 LJ
2 LW
N
147.714 165.036 M
148.002 164.905 L
148.283 166.123 L
148.564 167.303 L
148.85 168.486 L
149.134 169.416 L
149.43 170.245 L
149.747 170.874 L
150.118 171.211 L
150.474 171.224 L
150.819 171.056 L
151.153 172.331 L
151.505 173.514 L
151.912 174.584 L
152.375 175.472 L
152.757 176.085 L
153.06 176.598 L
153.367 176.625 L
153.839 175.541 L
154.159 177.036 L
154.552 178.343 L
154.917 179.637 L
155.32 180.646 L
155.799 181.447 L
156.251 182.146 L
156.672 182.318 L
157.118 182.036 L
157.585 183.225 L
158.012 184.494 L
158.483 185.646 L
158.944 186.689 L
159.356 187.613 L
159.845 188.213 L
160.301 188.61 L
160.745 188.68 L
161.207 188.327 L
161.675 189.477 L
162.018 190.663 L
162.296 191.827 L
162.573 192.736 L
162.835 193.563 L
163.107 194.02 L
163.384 194.126 L
163.649 193.787 L
163.923 195.026 L
164.199 196.285 L
164.535 197.501 L
165.182 198.411 L
165.625 199.142 L
166.043 199.743 L
166.465 199.914 L
166.848 199.596 L
S
GR
GS
0.929 0.694 0.125 RC
1 LJ
2 LW
N
166.465 199.914 M
166.848 199.596 L
167.25 200.949 L
167.659 202.211 L
168.024 203.451 L
168.419 204.455 L
168.828 205.236 L
169.197 205.882 L
169.585 205.851 L
169.941 207.039 L
170.367 208.266 L
170.817 209.502 L
171.253 210.627 L
171.696 211.532 L
172.17 212.445 L
172.64 213.03 L
173.295 213.343 L
173.988 213.225 L
174.676 214.514 L
175.315 215.689 L
175.911 216.999 L
176.605 218.128 L
177.27 219.053 L
177.657 219.828 L
177.994 220.153 L
178.274 220.147 L
178.556 221.355 L
178.854 222.571 L
179.145 223.745 L
179.422 224.838 L
179.701 225.887 L
179.983 226.618 L
180.275 227.051 L
180.572 227.264 L
180.86 227.169 L
181.143 228.477 L
181.42 229.73 L
181.696 230.806 L
181.973 231.791 L
182.253 232.722 L
182.538 233.37 L
182.851 233.607 L
183.197 233.463 L
183.529 234.777 L
183.882 236.132 L
184.198 237.361 L
184.499 238.406 L
184.804 239.184 L
185.179 239.9 L
185.503 240.219 L
185.83 240.157 L
186.168 241.366 L
S
GR
GS
0.929 0.694 0.125 RC
1 LJ
2 LW
N
185.83 240.157 M
186.168 241.366 L
186.539 242.614 L
186.963 243.785 L
187.311 244.791 L
187.673 245.647 L
188.024 246.283 L
188.385 246.747 L
188.737 246.982 L
189.086 246.785 L
189.409 247.922 L
189.724 249.115 L
190.046 250.186 L
190.348 251.231 L
190.641 252.001 L
190.94 252.586 L
191.251 252.765 L
191.544 252.57 L
191.843 253.8 L
192.129 255.115 L
192.424 256.328 L
192.757 257.34 L
193.098 258.188 L
193.377 258.858 L
193.687 259.082 L
193.97 259.184 L
194.265 258.677 L
194.553 259.987 L
194.853 261.205 L
195.14 262.389 L
195.419 263.362 L
195.719 264.066 L
196.063 264.499 L
196.359 264.66 L
196.669 264.349 L
196.956 265.743 L
197.245 266.986 L
197.524 268.014 L
197.8 268.928 L
198.086 269.739 L
198.384 270.322 L
198.662 270.388 L
198.928 270.474 L
199.202 269.515 L
199.48 270.864 L
199.759 272.02 L
200.027 273.099 L
200.303 273.953 L
200.596 274.5 L
200.878 274.877 L
201.16 274.811 L
201.446 276.141 L
S
GR
GS
0.929 0.694 0.125 RC
1 LJ
2 LW
N
201.16 274.811 M
201.446 276.141 L
201.725 277.393 L
202.006 278.521 L
202.29 279.631 L
202.569 280.614 L
202.855 281.292 L
203.147 281.678 L
203.427 281.767 L
203.697 281.179 L
203.968 282.547 L
204.243 283.846 L
204.519 284.963 L
204.791 285.883 L
205.057 286.701 L
205.346 287.118 L
205.632 287.282 L
205.903 287.292 L
206.176 286.647 L
206.462 287.876 L
206.742 289.091 L
207.019 290.15 L
207.292 291.038 L
207.569 291.721 L
207.842 292.095 L
208.125 291.853 L
208.402 293.309 L
208.699 294.53 L
208.991 295.66 L
209.268 296.724 L
209.549 297.583 L
209.832 298.288 L
210.132 298.611 L
210.406 298.612 L
210.687 298.251 L
210.97 299.533 L
211.244 300.732 L
211.522 301.878 L
211.814 302.785 L
212.091 303.393 L
212.369 303.78 L
212.651 303.903 L
212.931 303.322 L
213.212 304.548 L
213.494 305.739 L
213.776 306.788 L
214.058 307.743 L
214.347 308.481 L
214.64 308.97 L
214.932 309.215 L
215.23 309.1 L
215.508 310.39 L
S
GR
GS
0.929 0.694 0.125 RC
1 LJ
2 LW
N
215.23 309.1 M
215.508 310.39 L
215.787 311.566 L
216.078 312.696 L
216.363 313.625 L
S
GR
GS
0.494 0.184 0.557 RC
1 LJ
2 LW
N
73 51.247 M
73.49 51.252 L
73.995 51.258 L
74.492 51.264 L
74.995 51.271 L
75.506 51.278 L
76.023 51.287 L
76.524 51.296 L
77.016 51.306 L
77.536 51.317 L
78.056 51.328 L
78.622 51.342 L
79.262 51.356 L
79.913 51.373 L
80.538 51.39 L
81.123 51.409 L
81.687 51.431 L
82.226 51.453 L
82.787 51.479 L
83.39 51.507 L
84.075 51.538 L
84.723 51.573 L
85.395 51.609 L
86.133 51.651 L
86.959 51.696 L
87.699 51.745 L
88.284 51.798 L
88.892 51.855 L
89.625 51.92 L
90.45 51.99 L
91.063 52.064 L
91.602 52.148 L
92.152 52.239 L
92.717 52.336 L
93.335 52.444 L
93.952 52.561 L
94.492 52.689 L
95.033 52.831 L
95.577 52.982 L
96.122 53.141 L
96.674 53.314 L
97.308 53.502 L
97.861 53.709 L
98.449 53.93 L
99.165 54.161 L
99.833 54.415 L
100.646 54.687 L
101.322 54.973 L
101.958 55.273 L
102.607 55.583 L
S
GR
GS
0.494 0.184 0.557 RC
1 LJ
2 LW
N
101.958 55.273 M
102.607 55.583 L
103.269 55.914 L
103.824 56.253 L
104.405 56.598 L
105.022 56.965 L
105.632 57.329 L
106.168 57.684 L
106.769 58.05 L
107.355 58.412 L
107.949 58.759 L
108.719 59.099 L
109.328 59.41 L
109.943 59.71 L
110.574 59.993 L
111.147 60.276 L
111.698 60.546 L
112.257 60.82 L
112.819 61.112 L
113.376 61.445 L
114.059 61.807 L
114.719 62.25 L
115.437 62.794 L
115.997 63.402 L
116.547 64.167 L
117.109 65.082 L
117.668 66.052 L
118.252 67.226 L
118.873 68.646 L
119.481 70.312 L
120.093 72.323 L
120.687 74.565 L
121.252 77.013 L
121.855 79.782 L
122.493 82.797 L
123.037 85.457 L
123.613 87.883 L
124.171 89.319 L
124.733 89.693 L
125.336 88.9 L
125.929 94.747 L
126.508 99.663 L
127.069 103.732 L
127.713 107.44 L
128.335 110.528 L
128.956 112.611 L
129.535 113.693 L
130.09 113.02 L
130.645 119.065 L
131.604 124.432 L
132.841 129.1 L
133.614 133.035 L
S
GR
GS
0.494 0.184 0.557 RC
1 LJ
2 LW
N
132.841 129.1 M
133.614 133.035 L
134.368 136.123 L
135.062 138.582 L
135.659 139.475 L
136.235 138.958 L
136.812 145.012 L
137.379 150.258 L
137.971 154.686 L
138.729 158.713 L
139.434 162.149 L
140.192 164.501 L
141.028 165.88 L
141.847 165.613 L
142.569 171.536 L
143.268 176.898 L
143.876 181.572 L
144.435 185.852 L
144.97 189.411 L
145.568 192.096 L
146.141 193.584 L
146.718 193.867 L
147.3 191.281 L
147.843 197.433 L
148.411 202.385 L
148.957 206.339 L
149.522 210.328 L
150.092 212.187 L
150.706 214.413 L
151.274 215.073 L
151.897 213.98 L
152.532 219.531 L
153.102 224.657 L
153.719 229.212 L
154.348 232.515 L
154.991 235.746 L
155.632 238.208 L
156.236 239.053 L
156.818 238.263 L
157.404 243.879 L
157.993 248.974 L
158.592 253.659 L
159.139 257.84 L
159.673 261.235 L
160.596 262.924 L
161.405 264.24 L
161.959 264.298 L
162.511 263.137 L
163.054 269.16 L
163.607 274.49 L
164.133 278.665 L
164.644 282.283 L
S
GR
GS
0.494 0.184 0.557 RC
1 LJ
2 LW
N
164.133 278.665 M
164.644 282.283 L
165.205 284.166 L
165.831 285.731 L
166.435 286.755 L
166.979 285.594 L
167.476 291.903 L
167.971 297.001 L
168.462 301.586 L
168.961 305.416 L
169.458 308.508 L
169.978 310.527 L
170.505 310.854 L
171.019 310.977 L
171.541 308.488 L
172.036 314.57 L
S
GR
GS
[1 0 0 1 345 52.75] CT
/Helvetica 18 F
GS
[1 0 0 1 0 0] CT
0 4.5 moveto 
1 -1 scale
(Random shuffling) t 
GR
GR
GS
0 0.447 0.741 RC
1 LJ
2 LW
N
312 52.75 M
342 52.75 L
S
GR
GS
[1 0 0 1 345 71.75] CT
/Helvetica 18 F
GS
[1 0 0 1 0 0] CT
0 4.5 moveto 
1 -1 scale
(Batch-size = N/100) t 
GR
GR
GS
0.851 0.325 0.098 RC
1 LJ
2 LW
N
312 71.75 M
342 71.75 L
S
GR
GS
[1 0 0 1 345 90.75] CT
/Helvetica 18 F
GS
[1 0 0 1 0 0] CT
0 4.5 moveto 
1 -1 scale
(Batch-size = N/50) t 
GR
GR
GS
0.929 0.694 0.125 RC
1 LJ
2 LW
N
312 90.75 M
342 90.75 L
S
GR
GS
[1 0 0 1 345 109.75] CT
/Helvetica 18 F
GS
[1 0 0 1 0 0] CT
0 4.5 moveto 
1 -1 scale
(Batch-size = N/10) t 
GR
GR
GS
0.494 0.184 0.557 RC
1 LJ
2 LW
N
312 109.75 M
342 109.75 L
S
GR
%%Trailer
%%Pages: 1
%%EOF
