%!PS-Adobe-3.0 EPSF-3.0
%%Creator: (MATLAB, The Mathworks, Inc. Version 8.6.0.267246 \(R2015b\). Operating System: Mac OS X)
%%Title: /Users/gauthiermuguerza/Desktop/rsgd/report/images/syntheticFourTest.eps
%%CreationDate: 2018-06-07T12:04:30
%%Pages: (atend)
%%BoundingBox:     8     0   533   413
%%LanguageLevel: 3
%%EndComments
%%BeginProlog
%%BeginResource: procset (Apache XML Graphics Std ProcSet) 1.2 0
%%Version: 1.2 0
%%Copyright: (Copyright 2001-2003,2010 The Apache Software Foundation. License terms: http://www.apache.org/licenses/LICENSE-2.0)
/bd{bind def}bind def
/ld{load def}bd
/GR/grestore ld
/M/moveto ld
/LJ/setlinejoin ld
/C/curveto ld
/f/fill ld
/LW/setlinewidth ld
/GC/setgray ld
/t/show ld
/N/newpath ld
/CT/concat ld
/cp/closepath ld
/S/stroke ld
/L/lineto ld
/CC/setcmykcolor ld
/A/ashow ld
/GS/gsave ld
/RC/setrgbcolor ld
/RM/rmoveto ld
/ML/setmiterlimit ld
/re {4 2 roll M
1 index 0 rlineto
0 exch rlineto
neg 0 rlineto
cp } bd
/_ctm matrix def
/_tm matrix def
/BT { _ctm currentmatrix pop matrix _tm copy pop 0 0 moveto } bd
/ET { _ctm setmatrix } bd
/iTm { _ctm setmatrix _tm concat } bd
/Tm { _tm astore pop iTm 0 0 moveto } bd
/ux 0.0 def
/uy 0.0 def
/F {
  /Tp exch def
  /Tf exch def
  Tf findfont Tp scalefont setfont
  /cf Tf def  /cs Tp def
} bd
/ULS {currentpoint /uy exch def /ux exch def} bd
/ULE {
  /Tcx currentpoint pop def
  gsave
  newpath
  cf findfont cs scalefont dup
  /FontMatrix get 0 get /Ts exch def /FontInfo get dup
  /UnderlinePosition get Ts mul /To exch def
  /UnderlineThickness get Ts mul /Tt exch def
  ux uy To add moveto  Tcx uy To add lineto
  Tt setlinewidth stroke
  grestore
} bd
/OLE {
  /Tcx currentpoint pop def
  gsave
  newpath
  cf findfont cs scalefont dup
  /FontMatrix get 0 get /Ts exch def /FontInfo get dup
  /UnderlinePosition get Ts mul /To exch def
  /UnderlineThickness get Ts mul /Tt exch def
  ux uy To add cs add moveto Tcx uy To add cs add lineto
  Tt setlinewidth stroke
  grestore
} bd
/SOE {
  /Tcx currentpoint pop def
  gsave
  newpath
  cf findfont cs scalefont dup
  /FontMatrix get 0 get /Ts exch def /FontInfo get dup
  /UnderlinePosition get Ts mul /To exch def
  /UnderlineThickness get Ts mul /Tt exch def
  ux uy To add cs 10 mul 26 idiv add moveto Tcx uy To add cs 10 mul 26 idiv add lineto
  Tt setlinewidth stroke
  grestore
} bd
/QT {
/Y22 exch store
/X22 exch store
/Y21 exch store
/X21 exch store
currentpoint
/Y21 load 2 mul add 3 div exch
/X21 load 2 mul add 3 div exch
/X21 load 2 mul /X22 load add 3 div
/Y21 load 2 mul /Y22 load add 3 div
/X22 load /Y22 load curveto
} bd
/SSPD {
dup length /d exch dict def
{
/v exch def
/k exch def
currentpagedevice k known {
/cpdv currentpagedevice k get def
v cpdv ne {
/upd false def
/nullv v type /nulltype eq def
/nullcpdv cpdv type /nulltype eq def
nullv nullcpdv or
{
/upd true def
} {
/sametype v type cpdv type eq def
sametype {
v type /arraytype eq {
/vlen v length def
/cpdvlen cpdv length def
vlen cpdvlen eq {
0 1 vlen 1 sub {
/i exch def
/obj v i get def
/cpdobj cpdv i get def
obj cpdobj ne {
/upd true def
exit
} if
} for
} {
/upd true def
} ifelse
} {
v type /dicttype eq {
v {
/dv exch def
/dk exch def
/cpddv cpdv dk get def
dv cpddv ne {
/upd true def
exit
} if
} forall
} {
/upd true def
} ifelse
} ifelse
} if
} ifelse
upd true eq {
d k v put
} if
} if
} if
} forall
d length 0 gt {
d setpagedevice
} if
} bd
%%EndResource
%%BeginResource: procset (Apache XML Graphics EPS ProcSet) 1.0 0
%%Version: 1.0 0
%%Copyright: (Copyright 2002-2003 The Apache Software Foundation. License terms: http://www.apache.org/licenses/LICENSE-2.0)
/BeginEPSF { %def
/b4_Inc_state save def         % Save state for cleanup
/dict_count countdictstack def % Count objects on dict stack
/op_count count 1 sub def      % Count objects on operand stack
userdict begin                 % Push userdict on dict stack
/showpage { } def              % Redefine showpage, { } = null proc
0 setgray 0 setlinecap         % Prepare graphics state
1 setlinewidth 0 setlinejoin
10 setmiterlimit [ ] 0 setdash newpath
/languagelevel where           % If level not equal to 1 then
{pop languagelevel             % set strokeadjust and
1 ne                           % overprint to their defaults.
{false setstrokeadjust false setoverprint
} if
} if
} bd
/EndEPSF { %def
count op_count sub {pop} repeat            % Clean up stacks
countdictstack dict_count sub {end} repeat
b4_Inc_state restore
} bd
%%EndResource
%FOPBeginFontDict
%%IncludeResource: font Courier-Bold
%%IncludeResource: font Helvetica
%%IncludeResource: font Courier-BoldOblique
%%IncludeResource: font Courier-Oblique
%%IncludeResource: font Times-Roman
%%IncludeResource: font Helvetica-BoldOblique
%%IncludeResource: font Helvetica-Bold
%%IncludeResource: font Helvetica-Oblique
%%IncludeResource: font Times-BoldItalic
%%IncludeResource: font Courier
%%IncludeResource: font Times-Italic
%%IncludeResource: font Times-Bold
%%IncludeResource: font Symbol
%%IncludeResource: font ZapfDingbats
%FOPEndFontDict
%%BeginResource: encoding WinAnsiEncoding
/WinAnsiEncoding [
/.notdef /.notdef /.notdef /.notdef /.notdef
/.notdef /.notdef /.notdef /.notdef /.notdef
/.notdef /.notdef /.notdef /.notdef /.notdef
/.notdef /.notdef /.notdef /.notdef /.notdef
/.notdef /.notdef /.notdef /.notdef /.notdef
/.notdef /.notdef /.notdef /.notdef /.notdef
/.notdef /.notdef /space /exclam /quotedbl
/numbersign /dollar /percent /ampersand /quotesingle
/parenleft /parenright /asterisk /plus /comma
/hyphen /period /slash /zero /one
/two /three /four /five /six
/seven /eight /nine /colon /semicolon
/less /equal /greater /question /at
/A /B /C /D /E
/F /G /H /I /J
/K /L /M /N /O
/P /Q /R /S /T
/U /V /W /X /Y
/Z /bracketleft /backslash /bracketright /asciicircum
/underscore /quoteleft /a /b /c
/d /e /f /g /h
/i /j /k /l /m
/n /o /p /q /r
/s /t /u /v /w
/x /y /z /braceleft /bar
/braceright /asciitilde /bullet /Euro /bullet
/quotesinglbase /florin /quotedblbase /ellipsis /dagger
/daggerdbl /circumflex /perthousand /Scaron /guilsinglleft
/OE /bullet /Zcaron /bullet /bullet
/quoteleft /quoteright /quotedblleft /quotedblright /bullet
/endash /emdash /asciitilde /trademark /scaron
/guilsinglright /oe /bullet /zcaron /Ydieresis
/space /exclamdown /cent /sterling /currency
/yen /brokenbar /section /dieresis /copyright
/ordfeminine /guillemotleft /logicalnot /sfthyphen /registered
/macron /degree /plusminus /twosuperior /threesuperior
/acute /mu /paragraph /middot /cedilla
/onesuperior /ordmasculine /guillemotright /onequarter /onehalf
/threequarters /questiondown /Agrave /Aacute /Acircumflex
/Atilde /Adieresis /Aring /AE /Ccedilla
/Egrave /Eacute /Ecircumflex /Edieresis /Igrave
/Iacute /Icircumflex /Idieresis /Eth /Ntilde
/Ograve /Oacute /Ocircumflex /Otilde /Odieresis
/multiply /Oslash /Ugrave /Uacute /Ucircumflex
/Udieresis /Yacute /Thorn /germandbls /agrave
/aacute /acircumflex /atilde /adieresis /aring
/ae /ccedilla /egrave /eacute /ecircumflex
/edieresis /igrave /iacute /icircumflex /idieresis
/eth /ntilde /ograve /oacute /ocircumflex
/otilde /odieresis /divide /oslash /ugrave
/uacute /ucircumflex /udieresis /yacute /thorn
/ydieresis
] def
%%EndResource
%FOPBeginFontReencode
/Courier-Bold findfont
dup length dict begin
  {1 index /FID ne {def} {pop pop} ifelse} forall
  /Encoding WinAnsiEncoding def
  currentdict
end
/Courier-Bold exch definefont pop
/Helvetica findfont
dup length dict begin
  {1 index /FID ne {def} {pop pop} ifelse} forall
  /Encoding WinAnsiEncoding def
  currentdict
end
/Helvetica exch definefont pop
/Courier-BoldOblique findfont
dup length dict begin
  {1 index /FID ne {def} {pop pop} ifelse} forall
  /Encoding WinAnsiEncoding def
  currentdict
end
/Courier-BoldOblique exch definefont pop
/Courier-Oblique findfont
dup length dict begin
  {1 index /FID ne {def} {pop pop} ifelse} forall
  /Encoding WinAnsiEncoding def
  currentdict
end
/Courier-Oblique exch definefont pop
/Times-Roman findfont
dup length dict begin
  {1 index /FID ne {def} {pop pop} ifelse} forall
  /Encoding WinAnsiEncoding def
  currentdict
end
/Times-Roman exch definefont pop
/Helvetica-BoldOblique findfont
dup length dict begin
  {1 index /FID ne {def} {pop pop} ifelse} forall
  /Encoding WinAnsiEncoding def
  currentdict
end
/Helvetica-BoldOblique exch definefont pop
/Helvetica-Bold findfont
dup length dict begin
  {1 index /FID ne {def} {pop pop} ifelse} forall
  /Encoding WinAnsiEncoding def
  currentdict
end
/Helvetica-Bold exch definefont pop
/Helvetica-Oblique findfont
dup length dict begin
  {1 index /FID ne {def} {pop pop} ifelse} forall
  /Encoding WinAnsiEncoding def
  currentdict
end
/Helvetica-Oblique exch definefont pop
/Times-BoldItalic findfont
dup length dict begin
  {1 index /FID ne {def} {pop pop} ifelse} forall
  /Encoding WinAnsiEncoding def
  currentdict
end
/Times-BoldItalic exch definefont pop
/Courier findfont
dup length dict begin
  {1 index /FID ne {def} {pop pop} ifelse} forall
  /Encoding WinAnsiEncoding def
  currentdict
end
/Courier exch definefont pop
/Times-Italic findfont
dup length dict begin
  {1 index /FID ne {def} {pop pop} ifelse} forall
  /Encoding WinAnsiEncoding def
  currentdict
end
/Times-Italic exch definefont pop
/Times-Bold findfont
dup length dict begin
  {1 index /FID ne {def} {pop pop} ifelse} forall
  /Encoding WinAnsiEncoding def
  currentdict
end
/Times-Bold exch definefont pop
%FOPEndFontReencode
%%EndProlog
%%Page: 1 1
%%PageBoundingBox: 0 0 576 432
%%BeginPageSetup
[1 0 0 -1 0 432] CT
%%EndPageSetup
GS
1 GC
N
0 0 576 432 re
f
GR
GS
1 GC
N
0 0 576 432 re
f
GR
GS
1 GC
N
75 384 M
521.5 384 L
521.5 32.5 L
75 32.5 L
cp
f
GR
GS
0.149 GC
2 setlinecap
1 LJ
0.5 LW
N
75 384 M
521.5 384 L
S
GR
GS
0.149 GC
2 setlinecap
1 LJ
0.5 LW
N
75 384 M
75 379.535 L
S
GR
GS
0.149 GC
2 setlinecap
1 LJ
0.5 LW
N
186.625 384 M
186.625 379.535 L
S
GR
GS
0.149 GC
2 setlinecap
1 LJ
0.5 LW
N
298.25 384 M
298.25 379.535 L
S
GR
GS
0.149 GC
2 setlinecap
1 LJ
0.5 LW
N
409.875 384 M
409.875 379.535 L
S
GR
GS
0.149 GC
2 setlinecap
1 LJ
0.5 LW
N
521.5 384 M
521.5 379.535 L
S
GR
GS
[1 0 0 1 75 390] CT
0.149 GC
/Helvetica 20 F
GS
[1 0 0 1 0 0] CT
-6 16 moveto 
1 -1 scale
(0) t 
GR
GR
GS
[1 0 0 1 186.625 390] CT
0.149 GC
/Helvetica 20 F
GS
[1 0 0 1 0 0] CT
-6 16 moveto 
1 -1 scale
(5) t 
GR
GR
GS
[1 0 0 1 298.25 390] CT
0.149 GC
/Helvetica 20 F
GS
[1 0 0 1 0 0] CT
-11.5 16 moveto 
1 -1 scale
(10) t 
GR
GR
GS
[1 0 0 1 409.875 390] CT
0.149 GC
/Helvetica 20 F
GS
[1 0 0 1 0 0] CT
-11.5 16 moveto 
1 -1 scale
(15) t 
GR
GR
GS
[1 0 0 1 521.5 390] CT
0.149 GC
/Helvetica 20 F
GS
[1 0 0 1 0 0] CT
-11.5 16 moveto 
1 -1 scale
(20) t 
GR
GR
GS
[1 0 0 1 298.25021 411.5] CT
0.149 GC
/Helvetica 20 F
GS
[1 0 0 1 0 0] CT
-41.5 16 moveto 
1 -1 scale
(Iterations) t 
GR
GR
GS
0.149 GC
2 setlinecap
1 LJ
0.5 LW
N
75 384 M
75 32.5 L
S
GR
GS
0.149 GC
2 setlinecap
1 LJ
0.5 LW
N
75 384 M
79.465 384 L
S
GR
GS
0.149 GC
2 setlinecap
1 LJ
0.5 LW
N
75 325.417 M
79.465 325.417 L
S
GR
GS
0.149 GC
2 setlinecap
1 LJ
0.5 LW
N
75 266.833 M
79.465 266.833 L
S
GR
GS
0.149 GC
2 setlinecap
1 LJ
0.5 LW
N
75 208.25 M
79.465 208.25 L
S
GR
GS
0.149 GC
2 setlinecap
1 LJ
0.5 LW
N
75 149.667 M
79.465 149.667 L
S
GR
GS
0.149 GC
2 setlinecap
1 LJ
0.5 LW
N
75 91.083 M
79.465 91.083 L
S
GR
GS
0.149 GC
2 setlinecap
1 LJ
0.5 LW
N
75 32.5 M
79.465 32.5 L
S
GR
GS
0.149 GC
2 setlinecap
1 LJ
0.5 LW
N
75 366.365 M
77.232 366.365 L
S
GR
GS
0.149 GC
2 setlinecap
1 LJ
0.5 LW
N
75 356.049 M
77.232 356.049 L
S
GR
GS
0.149 GC
2 setlinecap
1 LJ
0.5 LW
N
75 348.729 M
77.232 348.729 L
S
GR
GS
0.149 GC
2 setlinecap
1 LJ
0.5 LW
N
75 343.052 M
77.232 343.052 L
S
GR
GS
0.149 GC
2 setlinecap
1 LJ
0.5 LW
N
75 338.413 M
77.232 338.413 L
S
GR
GS
0.149 GC
2 setlinecap
1 LJ
0.5 LW
N
75 334.491 M
77.232 334.491 L
S
GR
GS
0.149 GC
2 setlinecap
1 LJ
0.5 LW
N
75 331.094 M
77.232 331.094 L
S
GR
GS
0.149 GC
2 setlinecap
1 LJ
0.5 LW
N
75 328.097 M
77.232 328.097 L
S
GR
GS
0.149 GC
2 setlinecap
1 LJ
0.5 LW
N
75 307.781 M
77.232 307.781 L
S
GR
GS
0.149 GC
2 setlinecap
1 LJ
0.5 LW
N
75 297.465 M
77.232 297.465 L
S
GR
GS
0.149 GC
2 setlinecap
1 LJ
0.5 LW
N
75 290.146 M
77.232 290.146 L
S
GR
GS
0.149 GC
2 setlinecap
1 LJ
0.5 LW
N
75 284.469 M
77.232 284.469 L
S
GR
GS
0.149 GC
2 setlinecap
1 LJ
0.5 LW
N
75 279.83 M
77.232 279.83 L
S
GR
GS
0.149 GC
2 setlinecap
1 LJ
0.5 LW
N
75 275.908 M
77.232 275.908 L
S
GR
GS
0.149 GC
2 setlinecap
1 LJ
0.5 LW
N
75 272.511 M
77.232 272.511 L
S
GR
GS
0.149 GC
2 setlinecap
1 LJ
0.5 LW
N
75 269.514 M
77.232 269.514 L
S
GR
GS
0.149 GC
2 setlinecap
1 LJ
0.5 LW
N
75 249.198 M
77.232 249.198 L
S
GR
GS
0.149 GC
2 setlinecap
1 LJ
0.5 LW
N
75 238.882 M
77.232 238.882 L
S
GR
GS
0.149 GC
2 setlinecap
1 LJ
0.5 LW
N
75 231.563 M
77.232 231.563 L
S
GR
GS
0.149 GC
2 setlinecap
1 LJ
0.5 LW
N
75 225.885 M
77.232 225.885 L
S
GR
GS
0.149 GC
2 setlinecap
1 LJ
0.5 LW
N
75 221.247 M
77.232 221.247 L
S
GR
GS
0.149 GC
2 setlinecap
1 LJ
0.5 LW
N
75 217.325 M
77.232 217.325 L
S
GR
GS
0.149 GC
2 setlinecap
1 LJ
0.5 LW
N
75 213.927 M
77.232 213.927 L
S
GR
GS
0.149 GC
2 setlinecap
1 LJ
0.5 LW
N
75 210.931 M
77.232 210.931 L
S
GR
GS
0.149 GC
2 setlinecap
1 LJ
0.5 LW
N
75 190.615 M
77.232 190.615 L
S
GR
GS
0.149 GC
2 setlinecap
1 LJ
0.5 LW
N
75 180.299 M
77.232 180.299 L
S
GR
GS
0.149 GC
2 setlinecap
1 LJ
0.5 LW
N
75 172.979 M
77.232 172.979 L
S
GR
GS
0.149 GC
2 setlinecap
1 LJ
0.5 LW
N
75 167.302 M
77.232 167.302 L
S
GR
GS
0.149 GC
2 setlinecap
1 LJ
0.5 LW
N
75 162.663 M
77.232 162.663 L
S
GR
GS
0.149 GC
2 setlinecap
1 LJ
0.5 LW
N
75 158.741 M
77.232 158.741 L
S
GR
GS
0.149 GC
2 setlinecap
1 LJ
0.5 LW
N
75 155.344 M
77.232 155.344 L
S
GR
GS
0.149 GC
2 setlinecap
1 LJ
0.5 LW
N
75 152.347 M
77.232 152.347 L
S
GR
GS
0.149 GC
2 setlinecap
1 LJ
0.5 LW
N
75 132.031 M
77.232 132.031 L
S
GR
GS
0.149 GC
2 setlinecap
1 LJ
0.5 LW
N
75 121.715 M
77.232 121.715 L
S
GR
GS
0.149 GC
2 setlinecap
1 LJ
0.5 LW
N
75 114.396 M
77.232 114.396 L
S
GR
GS
0.149 GC
2 setlinecap
1 LJ
0.5 LW
N
75 108.719 M
77.232 108.719 L
S
GR
GS
0.149 GC
2 setlinecap
1 LJ
0.5 LW
N
75 104.08 M
77.232 104.08 L
S
GR
GS
0.149 GC
2 setlinecap
1 LJ
0.5 LW
N
75 100.158 M
77.232 100.158 L
S
GR
GS
0.149 GC
2 setlinecap
1 LJ
0.5 LW
N
75 96.761 M
77.232 96.761 L
S
GR
GS
0.149 GC
2 setlinecap
1 LJ
0.5 LW
N
75 93.764 M
77.232 93.764 L
S
GR
GS
0.149 GC
2 setlinecap
1 LJ
0.5 LW
N
75 73.448 M
77.232 73.448 L
S
GR
GS
0.149 GC
2 setlinecap
1 LJ
0.5 LW
N
75 63.132 M
77.232 63.132 L
S
GR
GS
0.149 GC
2 setlinecap
1 LJ
0.5 LW
N
75 55.813 M
77.232 55.813 L
S
GR
GS
0.149 GC
2 setlinecap
1 LJ
0.5 LW
N
75 50.135 M
77.232 50.135 L
S
GR
GS
0.149 GC
2 setlinecap
1 LJ
0.5 LW
N
75 45.497 M
77.232 45.497 L
S
GR
GS
0.149 GC
2 setlinecap
1 LJ
0.5 LW
N
75 41.575 M
77.232 41.575 L
S
GR
GS
0.149 GC
2 setlinecap
1 LJ
0.5 LW
N
75 38.177 M
77.232 38.177 L
S
GR
GS
0.149 GC
2 setlinecap
1 LJ
0.5 LW
N
75 35.181 M
77.232 35.181 L
S
GR
GS
[1 0 0 1 31 393] CT
0.149 GC
/Helvetica 20 F
GS
[1 0 0 1 0 0] CT
0 0 moveto 
1 -1 scale
(10) t 
GR
GR
GS
[1 0 0 1 54 383] CT
0.149 GC
/Helvetica 16 F
GS
[1 0 0 1 0 0] CT
0 0 moveto 
1 -1 scale
(-5) t 
GR
GR
GS
[1 0 0 1 31 334] CT
0.149 GC
/Helvetica 20 F
GS
[1 0 0 1 0 0] CT
0 0 moveto 
1 -1 scale
(10) t 
GR
GR
GS
[1 0 0 1 54 324] CT
0.149 GC
/Helvetica 16 F
GS
[1 0 0 1 0 0] CT
0 0 moveto 
1 -1 scale
(-4) t 
GR
GR
GS
[1 0 0 1 31 276] CT
0.149 GC
/Helvetica 20 F
GS
[1 0 0 1 0 0] CT
0 0 moveto 
1 -1 scale
(10) t 
GR
GR
GS
[1 0 0 1 54 266] CT
0.149 GC
/Helvetica 16 F
GS
[1 0 0 1 0 0] CT
0 0 moveto 
1 -1 scale
(-3) t 
GR
GR
GS
[1 0 0 1 31 217] CT
0.149 GC
/Helvetica 20 F
GS
[1 0 0 1 0 0] CT
0 0 moveto 
1 -1 scale
(10) t 
GR
GR
GS
[1 0 0 1 54 207] CT
0.149 GC
/Helvetica 16 F
GS
[1 0 0 1 0 0] CT
0 0 moveto 
1 -1 scale
(-2) t 
GR
GR
GS
[1 0 0 1 31 159] CT
0.149 GC
/Helvetica 20 F
GS
[1 0 0 1 0 0] CT
0 0 moveto 
1 -1 scale
(10) t 
GR
GR
GS
[1 0 0 1 54 149] CT
0.149 GC
/Helvetica 16 F
GS
[1 0 0 1 0 0] CT
0 0 moveto 
1 -1 scale
(-1) t 
GR
GR
GS
[1 0 0 1 37 100] CT
0.149 GC
/Helvetica 20 F
GS
[1 0 0 1 0 0] CT
0 0 moveto 
1 -1 scale
(10) t 
GR
GR
GS
[1 0 0 1 60 90] CT
0.149 GC
/Helvetica 16 F
GS
[1 0 0 1 0 0] CT
0 0 moveto 
1 -1 scale
(0) t 
GR
GR
GS
[1 0 0 1 37 42] CT
0.149 GC
/Helvetica 20 F
GS
[1 0 0 1 0 0] CT
0 0 moveto 
1 -1 scale
(10) t 
GR
GR
GS
[1 0 0 1 60 32] CT
0.149 GC
/Helvetica 16 F
GS
[1 0 0 1 0 0] CT
0 0 moveto 
1 -1 scale
(1) t 
GR
GR
GS
[0 -1 1 0 29 208.24983] CT
0.149 GC
/Helvetica 20 F
GS
[1 0 0 1 0 0] CT
-51.5 -5 moveto 
1 -1 scale
(Test RMSE) t 
GR
GR
GS
0 0.447 0.741 RC
1 LJ
N
97.325 63.933 M
119.65 79.792 L
141.975 95.174 L
164.3 107.847 L
186.625 119.263 L
208.95 130.577 L
231.275 142.21 L
253.6 154.386 L
275.925 167.277 L
298.25 181.045 L
320.575 195.851 L
342.9 211.863 L
365.225 229.255 L
387.55 248.211 L
409.875 268.922 L
432.2 291.575 L
454.525 316.277 L
476.85 325.417 L
499.175 325.417 L
521.5 325.417 L
S
GR
GS
0 0.447 0.741 RC
1 LJ
N
100.5 63.5 M
99.621 61.379 L
97.5 60.5 L
95.379 61.379 L
94.5 63.5 L
95.379 65.621 L
97.5 66.5 L
99.621 65.621 L
cp
S
GR
GS
0 0.447 0.741 RC
1 LJ
N
122.5 79.5 M
121.621 77.379 L
119.5 76.5 L
117.379 77.379 L
116.5 79.5 L
117.379 81.621 L
119.5 82.5 L
121.621 81.621 L
cp
S
GR
GS
0 0.447 0.741 RC
1 LJ
N
144.5 95.5 M
143.621 93.379 L
141.5 92.5 L
139.379 93.379 L
138.5 95.5 L
139.379 97.621 L
141.5 98.5 L
143.621 97.621 L
cp
S
GR
GS
0 0.447 0.741 RC
1 LJ
N
167.5 107.5 M
166.621 105.379 L
164.5 104.5 L
162.379 105.379 L
161.5 107.5 L
162.379 109.621 L
164.5 110.5 L
166.621 109.621 L
cp
S
GR
GS
0 0.447 0.741 RC
1 LJ
N
189.5 119.5 M
188.621 117.379 L
186.5 116.5 L
184.379 117.379 L
183.5 119.5 L
184.379 121.621 L
186.5 122.5 L
188.621 121.621 L
cp
S
GR
GS
0 0.447 0.741 RC
1 LJ
N
211.5 130.5 M
210.621 128.379 L
208.5 127.5 L
206.379 128.379 L
205.5 130.5 L
206.379 132.621 L
208.5 133.5 L
210.621 132.621 L
cp
S
GR
GS
0 0.447 0.741 RC
1 LJ
N
234.5 142.5 M
233.621 140.379 L
231.5 139.5 L
229.379 140.379 L
228.5 142.5 L
229.379 144.621 L
231.5 145.5 L
233.621 144.621 L
cp
S
GR
GS
0 0.447 0.741 RC
1 LJ
N
256.5 154.5 M
255.621 152.379 L
253.5 151.5 L
251.379 152.379 L
250.5 154.5 L
251.379 156.621 L
253.5 157.5 L
255.621 156.621 L
cp
S
GR
GS
0 0.447 0.741 RC
1 LJ
N
278.5 167.5 M
277.621 165.379 L
275.5 164.5 L
273.379 165.379 L
272.5 167.5 L
273.379 169.621 L
275.5 170.5 L
277.621 169.621 L
cp
S
GR
GS
0 0.447 0.741 RC
1 LJ
N
301.5 181.5 M
300.621 179.379 L
298.5 178.5 L
296.379 179.379 L
295.5 181.5 L
296.379 183.621 L
298.5 184.5 L
300.621 183.621 L
cp
S
GR
GS
0 0.447 0.741 RC
1 LJ
N
323.5 195.5 M
322.621 193.379 L
320.5 192.5 L
318.379 193.379 L
317.5 195.5 L
318.379 197.621 L
320.5 198.5 L
322.621 197.621 L
cp
S
GR
GS
0 0.447 0.741 RC
1 LJ
N
345.5 211.5 M
344.621 209.379 L
342.5 208.5 L
340.379 209.379 L
339.5 211.5 L
340.379 213.621 L
342.5 214.5 L
344.621 213.621 L
cp
S
GR
GS
0 0.447 0.741 RC
1 LJ
N
368.5 229.5 M
367.621 227.379 L
365.5 226.5 L
363.379 227.379 L
362.5 229.5 L
363.379 231.621 L
365.5 232.5 L
367.621 231.621 L
cp
S
GR
GS
0 0.447 0.741 RC
1 LJ
N
390.5 248.5 M
389.621 246.379 L
387.5 245.5 L
385.379 246.379 L
384.5 248.5 L
385.379 250.621 L
387.5 251.5 L
389.621 250.621 L
cp
S
GR
GS
0 0.447 0.741 RC
1 LJ
N
412.5 268.5 M
411.621 266.379 L
409.5 265.5 L
407.379 266.379 L
406.5 268.5 L
407.379 270.621 L
409.5 271.5 L
411.621 270.621 L
cp
S
GR
GS
0 0.447 0.741 RC
1 LJ
N
435.5 291.5 M
434.621 289.379 L
432.5 288.5 L
430.379 289.379 L
429.5 291.5 L
430.379 293.621 L
432.5 294.5 L
434.621 293.621 L
cp
S
GR
GS
0 0.447 0.741 RC
1 LJ
N
457.5 316.5 M
456.621 314.379 L
454.5 313.5 L
452.379 314.379 L
451.5 316.5 L
452.379 318.621 L
454.5 319.5 L
456.621 318.621 L
cp
S
GR
GS
0 0.447 0.741 RC
1 LJ
N
479.5 325.5 M
478.621 323.379 L
476.5 322.5 L
474.379 323.379 L
473.5 325.5 L
474.379 327.621 L
476.5 328.5 L
478.621 327.621 L
cp
S
GR
GS
0 0.447 0.741 RC
1 LJ
N
502.5 325.5 M
501.621 323.379 L
499.5 322.5 L
497.379 323.379 L
496.5 325.5 L
497.379 327.621 L
499.5 328.5 L
501.621 327.621 L
cp
S
GR
GS
0 0.447 0.741 RC
1 LJ
N
524.5 325.5 M
523.621 323.379 L
521.5 322.5 L
519.379 323.379 L
518.5 325.5 L
519.379 327.621 L
521.5 328.5 L
523.621 327.621 L
cp
S
GR
GS
0.851 0.325 0.098 RC
1 LJ
N
97.325 63.933 M
119.65 85.578 L
141.975 98.576 L
164.3 109.955 L
186.625 120.992 L
208.95 132.092 L
231.275 143.543 L
253.6 155.45 L
275.925 168.031 L
298.25 181.413 L
320.575 195.719 L
342.9 211.092 L
365.225 227.632 L
387.55 245.546 L
409.875 265.032 L
432.2 286.148 L
454.525 308.95 L
476.85 333.267 L
499.175 325.417 L
521.5 325.417 L
S
GR
GS
0.851 0.325 0.098 RC
1 LJ
N
100.5 63.5 M
99.621 61.379 L
97.5 60.5 L
95.379 61.379 L
94.5 63.5 L
95.379 65.621 L
97.5 66.5 L
99.621 65.621 L
cp
S
GR
GS
0.851 0.325 0.098 RC
1 LJ
N
122.5 85.5 M
121.621 83.379 L
119.5 82.5 L
117.379 83.379 L
116.5 85.5 L
117.379 87.621 L
119.5 88.5 L
121.621 87.621 L
cp
S
GR
GS
0.851 0.325 0.098 RC
1 LJ
N
144.5 98.5 M
143.621 96.379 L
141.5 95.5 L
139.379 96.379 L
138.5 98.5 L
139.379 100.621 L
141.5 101.5 L
143.621 100.621 L
cp
S
GR
GS
0.851 0.325 0.098 RC
1 LJ
N
167.5 109.5 M
166.621 107.379 L
164.5 106.5 L
162.379 107.379 L
161.5 109.5 L
162.379 111.621 L
164.5 112.5 L
166.621 111.621 L
cp
S
GR
GS
0.851 0.325 0.098 RC
1 LJ
N
189.5 120.5 M
188.621 118.379 L
186.5 117.5 L
184.379 118.379 L
183.5 120.5 L
184.379 122.621 L
186.5 123.5 L
188.621 122.621 L
cp
S
GR
GS
0.851 0.325 0.098 RC
1 LJ
N
211.5 132.5 M
210.621 130.379 L
208.5 129.5 L
206.379 130.379 L
205.5 132.5 L
206.379 134.621 L
208.5 135.5 L
210.621 134.621 L
cp
S
GR
GS
0.851 0.325 0.098 RC
1 LJ
N
234.5 143.5 M
233.621 141.379 L
231.5 140.5 L
229.379 141.379 L
228.5 143.5 L
229.379 145.621 L
231.5 146.5 L
233.621 145.621 L
cp
S
GR
GS
0.851 0.325 0.098 RC
1 LJ
N
256.5 155.5 M
255.621 153.379 L
253.5 152.5 L
251.379 153.379 L
250.5 155.5 L
251.379 157.621 L
253.5 158.5 L
255.621 157.621 L
cp
S
GR
GS
0.851 0.325 0.098 RC
1 LJ
N
278.5 168.5 M
277.621 166.379 L
275.5 165.5 L
273.379 166.379 L
272.5 168.5 L
273.379 170.621 L
275.5 171.5 L
277.621 170.621 L
cp
S
GR
GS
0.851 0.325 0.098 RC
1 LJ
N
301.5 181.5 M
300.621 179.379 L
298.5 178.5 L
296.379 179.379 L
295.5 181.5 L
296.379 183.621 L
298.5 184.5 L
300.621 183.621 L
cp
S
GR
GS
0.851 0.325 0.098 RC
1 LJ
N
323.5 195.5 M
322.621 193.379 L
320.5 192.5 L
318.379 193.379 L
317.5 195.5 L
318.379 197.621 L
320.5 198.5 L
322.621 197.621 L
cp
S
GR
GS
0.851 0.325 0.098 RC
1 LJ
N
345.5 211.5 M
344.621 209.379 L
342.5 208.5 L
340.379 209.379 L
339.5 211.5 L
340.379 213.621 L
342.5 214.5 L
344.621 213.621 L
cp
S
GR
GS
0.851 0.325 0.098 RC
1 LJ
N
368.5 227.5 M
367.621 225.379 L
365.5 224.5 L
363.379 225.379 L
362.5 227.5 L
363.379 229.621 L
365.5 230.5 L
367.621 229.621 L
cp
S
GR
GS
0.851 0.325 0.098 RC
1 LJ
N
390.5 245.5 M
389.621 243.379 L
387.5 242.5 L
385.379 243.379 L
384.5 245.5 L
385.379 247.621 L
387.5 248.5 L
389.621 247.621 L
cp
S
GR
GS
0.851 0.325 0.098 RC
1 LJ
N
412.5 265.5 M
411.621 263.379 L
409.5 262.5 L
407.379 263.379 L
406.5 265.5 L
407.379 267.621 L
409.5 268.5 L
411.621 267.621 L
cp
S
GR
GS
0.851 0.325 0.098 RC
1 LJ
N
435.5 286.5 M
434.621 284.379 L
432.5 283.5 L
430.379 284.379 L
429.5 286.5 L
430.379 288.621 L
432.5 289.5 L
434.621 288.621 L
cp
S
GR
GS
0.851 0.325 0.098 RC
1 LJ
N
457.5 308.5 M
456.621 306.379 L
454.5 305.5 L
452.379 306.379 L
451.5 308.5 L
452.379 310.621 L
454.5 311.5 L
456.621 310.621 L
cp
S
GR
GS
0.851 0.325 0.098 RC
1 LJ
N
479.5 333.5 M
478.621 331.379 L
476.5 330.5 L
474.379 331.379 L
473.5 333.5 L
474.379 335.621 L
476.5 336.5 L
478.621 335.621 L
cp
S
GR
GS
0.851 0.325 0.098 RC
1 LJ
N
502.5 325.5 M
501.621 323.379 L
499.5 322.5 L
497.379 323.379 L
496.5 325.5 L
497.379 327.621 L
499.5 328.5 L
501.621 327.621 L
cp
S
GR
GS
0.851 0.325 0.098 RC
1 LJ
N
524.5 325.5 M
523.621 323.379 L
521.5 322.5 L
519.379 323.379 L
518.5 325.5 L
519.379 327.621 L
521.5 328.5 L
523.621 327.621 L
cp
S
GR
GS
0.929 0.694 0.125 RC
1 LJ
N
97.325 63.933 M
119.65 81.901 L
141.975 93.79 L
164.3 104.337 L
186.625 114.514 L
208.95 124.725 L
231.275 135.162 L
253.6 145.938 L
275.925 157.203 L
298.25 168.876 L
320.575 181.324 L
342.9 194.551 L
365.225 208.622 L
387.55 223.666 L
409.875 239.736 L
432.2 257.137 L
454.525 275.703 L
476.85 295.995 L
499.175 317.351 L
521.5 325.417 L
S
GR
GS
0.929 0.694 0.125 RC
1 LJ
N
100.5 63.5 M
99.621 61.379 L
97.5 60.5 L
95.379 61.379 L
94.5 63.5 L
95.379 65.621 L
97.5 66.5 L
99.621 65.621 L
cp
S
GR
GS
0.929 0.694 0.125 RC
1 LJ
N
122.5 81.5 M
121.621 79.379 L
119.5 78.5 L
117.379 79.379 L
116.5 81.5 L
117.379 83.621 L
119.5 84.5 L
121.621 83.621 L
cp
S
GR
GS
0.929 0.694 0.125 RC
1 LJ
N
144.5 93.5 M
143.621 91.379 L
141.5 90.5 L
139.379 91.379 L
138.5 93.5 L
139.379 95.621 L
141.5 96.5 L
143.621 95.621 L
cp
S
GR
GS
0.929 0.694 0.125 RC
1 LJ
N
167.5 104.5 M
166.621 102.379 L
164.5 101.5 L
162.379 102.379 L
161.5 104.5 L
162.379 106.621 L
164.5 107.5 L
166.621 106.621 L
cp
S
GR
GS
0.929 0.694 0.125 RC
1 LJ
N
189.5 114.5 M
188.621 112.379 L
186.5 111.5 L
184.379 112.379 L
183.5 114.5 L
184.379 116.621 L
186.5 117.5 L
188.621 116.621 L
cp
S
GR
GS
0.929 0.694 0.125 RC
1 LJ
N
211.5 124.5 M
210.621 122.379 L
208.5 121.5 L
206.379 122.379 L
205.5 124.5 L
206.379 126.621 L
208.5 127.5 L
210.621 126.621 L
cp
S
GR
GS
0.929 0.694 0.125 RC
1 LJ
N
234.5 135.5 M
233.621 133.379 L
231.5 132.5 L
229.379 133.379 L
228.5 135.5 L
229.379 137.621 L
231.5 138.5 L
233.621 137.621 L
cp
S
GR
GS
0.929 0.694 0.125 RC
1 LJ
N
256.5 145.5 M
255.621 143.379 L
253.5 142.5 L
251.379 143.379 L
250.5 145.5 L
251.379 147.621 L
253.5 148.5 L
255.621 147.621 L
cp
S
GR
GS
0.929 0.694 0.125 RC
1 LJ
N
278.5 157.5 M
277.621 155.379 L
275.5 154.5 L
273.379 155.379 L
272.5 157.5 L
273.379 159.621 L
275.5 160.5 L
277.621 159.621 L
cp
S
GR
GS
0.929 0.694 0.125 RC
1 LJ
N
301.5 168.5 M
300.621 166.379 L
298.5 165.5 L
296.379 166.379 L
295.5 168.5 L
296.379 170.621 L
298.5 171.5 L
300.621 170.621 L
cp
S
GR
GS
0.929 0.694 0.125 RC
1 LJ
N
323.5 181.5 M
322.621 179.379 L
320.5 178.5 L
318.379 179.379 L
317.5 181.5 L
318.379 183.621 L
320.5 184.5 L
322.621 183.621 L
cp
S
GR
GS
0.929 0.694 0.125 RC
1 LJ
N
345.5 194.5 M
344.621 192.379 L
342.5 191.5 L
340.379 192.379 L
339.5 194.5 L
340.379 196.621 L
342.5 197.5 L
344.621 196.621 L
cp
S
GR
GS
0.929 0.694 0.125 RC
1 LJ
N
368.5 208.5 M
367.621 206.379 L
365.5 205.5 L
363.379 206.379 L
362.5 208.5 L
363.379 210.621 L
365.5 211.5 L
367.621 210.621 L
cp
S
GR
GS
0.929 0.694 0.125 RC
1 LJ
N
390.5 223.5 M
389.621 221.379 L
387.5 220.5 L
385.379 221.379 L
384.5 223.5 L
385.379 225.621 L
387.5 226.5 L
389.621 225.621 L
cp
S
GR
GS
0.929 0.694 0.125 RC
1 LJ
N
412.5 239.5 M
411.621 237.379 L
409.5 236.5 L
407.379 237.379 L
406.5 239.5 L
407.379 241.621 L
409.5 242.5 L
411.621 241.621 L
cp
S
GR
GS
0.929 0.694 0.125 RC
1 LJ
N
435.5 257.5 M
434.621 255.379 L
432.5 254.5 L
430.379 255.379 L
429.5 257.5 L
430.379 259.621 L
432.5 260.5 L
434.621 259.621 L
cp
S
GR
GS
0.929 0.694 0.125 RC
1 LJ
N
457.5 275.5 M
456.621 273.379 L
454.5 272.5 L
452.379 273.379 L
451.5 275.5 L
452.379 277.621 L
454.5 278.5 L
456.621 277.621 L
cp
S
GR
GS
0.929 0.694 0.125 RC
1 LJ
N
479.5 295.5 M
478.621 293.379 L
476.5 292.5 L
474.379 293.379 L
473.5 295.5 L
474.379 297.621 L
476.5 298.5 L
478.621 297.621 L
cp
S
GR
GS
0.929 0.694 0.125 RC
1 LJ
N
502.5 317.5 M
501.621 315.379 L
499.5 314.5 L
497.379 315.379 L
496.5 317.5 L
497.379 319.621 L
499.5 320.5 L
501.621 319.621 L
cp
S
GR
GS
0.929 0.694 0.125 RC
1 LJ
N
524.5 325.5 M
523.621 323.379 L
521.5 322.5 L
519.379 323.379 L
518.5 325.5 L
519.379 327.621 L
521.5 328.5 L
523.621 327.621 L
cp
S
GR
GS
0.494 0.184 0.557 RC
1 LJ
N
97.325 63.933 M
119.65 79.792 L
141.975 93.715 L
164.3 106.325 L
186.625 116.605 L
208.95 128.663 L
231.275 139.102 L
253.6 151.594 L
275.925 162.912 L
298.25 176.421 L
320.575 188.781 L
342.9 203.654 L
365.225 216.968 L
387.55 233.3 L
409.875 247.082 L
432.2 264.797 L
454.525 278.343 L
476.85 297.935 L
499.175 311.678 L
521.5 334.526 L
S
GR
GS
0.494 0.184 0.557 RC
1 LJ
N
100.5 63.5 M
99.621 61.379 L
97.5 60.5 L
95.379 61.379 L
94.5 63.5 L
95.379 65.621 L
97.5 66.5 L
99.621 65.621 L
cp
S
GR
GS
0.494 0.184 0.557 RC
1 LJ
N
122.5 79.5 M
121.621 77.379 L
119.5 76.5 L
117.379 77.379 L
116.5 79.5 L
117.379 81.621 L
119.5 82.5 L
121.621 81.621 L
cp
S
GR
GS
0.494 0.184 0.557 RC
1 LJ
N
144.5 93.5 M
143.621 91.379 L
141.5 90.5 L
139.379 91.379 L
138.5 93.5 L
139.379 95.621 L
141.5 96.5 L
143.621 95.621 L
cp
S
GR
GS
0.494 0.184 0.557 RC
1 LJ
N
167.5 106.5 M
166.621 104.379 L
164.5 103.5 L
162.379 104.379 L
161.5 106.5 L
162.379 108.621 L
164.5 109.5 L
166.621 108.621 L
cp
S
GR
GS
0.494 0.184 0.557 RC
1 LJ
N
189.5 116.5 M
188.621 114.379 L
186.5 113.5 L
184.379 114.379 L
183.5 116.5 L
184.379 118.621 L
186.5 119.5 L
188.621 118.621 L
cp
S
GR
GS
0.494 0.184 0.557 RC
1 LJ
N
211.5 128.5 M
210.621 126.379 L
208.5 125.5 L
206.379 126.379 L
205.5 128.5 L
206.379 130.621 L
208.5 131.5 L
210.621 130.621 L
cp
S
GR
GS
0.494 0.184 0.557 RC
1 LJ
N
234.5 139.5 M
233.621 137.379 L
231.5 136.5 L
229.379 137.379 L
228.5 139.5 L
229.379 141.621 L
231.5 142.5 L
233.621 141.621 L
cp
S
GR
GS
0.494 0.184 0.557 RC
1 LJ
N
256.5 151.5 M
255.621 149.379 L
253.5 148.5 L
251.379 149.379 L
250.5 151.5 L
251.379 153.621 L
253.5 154.5 L
255.621 153.621 L
cp
S
GR
GS
0.494 0.184 0.557 RC
1 LJ
N
278.5 162.5 M
277.621 160.379 L
275.5 159.5 L
273.379 160.379 L
272.5 162.5 L
273.379 164.621 L
275.5 165.5 L
277.621 164.621 L
cp
S
GR
GS
0.494 0.184 0.557 RC
1 LJ
N
301.5 176.5 M
300.621 174.379 L
298.5 173.5 L
296.379 174.379 L
295.5 176.5 L
296.379 178.621 L
298.5 179.5 L
300.621 178.621 L
cp
S
GR
GS
0.494 0.184 0.557 RC
1 LJ
N
323.5 188.5 M
322.621 186.379 L
320.5 185.5 L
318.379 186.379 L
317.5 188.5 L
318.379 190.621 L
320.5 191.5 L
322.621 190.621 L
cp
S
GR
GS
0.494 0.184 0.557 RC
1 LJ
N
345.5 203.5 M
344.621 201.379 L
342.5 200.5 L
340.379 201.379 L
339.5 203.5 L
340.379 205.621 L
342.5 206.5 L
344.621 205.621 L
cp
S
GR
GS
0.494 0.184 0.557 RC
1 LJ
N
368.5 216.5 M
367.621 214.379 L
365.5 213.5 L
363.379 214.379 L
362.5 216.5 L
363.379 218.621 L
365.5 219.5 L
367.621 218.621 L
cp
S
GR
GS
0.494 0.184 0.557 RC
1 LJ
N
390.5 233.5 M
389.621 231.379 L
387.5 230.5 L
385.379 231.379 L
384.5 233.5 L
385.379 235.621 L
387.5 236.5 L
389.621 235.621 L
cp
S
GR
GS
0.494 0.184 0.557 RC
1 LJ
N
412.5 247.5 M
411.621 245.379 L
409.5 244.5 L
407.379 245.379 L
406.5 247.5 L
407.379 249.621 L
409.5 250.5 L
411.621 249.621 L
cp
S
GR
GS
0.494 0.184 0.557 RC
1 LJ
N
435.5 264.5 M
434.621 262.379 L
432.5 261.5 L
430.379 262.379 L
429.5 264.5 L
430.379 266.621 L
432.5 267.5 L
434.621 266.621 L
cp
S
GR
GS
0.494 0.184 0.557 RC
1 LJ
N
457.5 278.5 M
456.621 276.379 L
454.5 275.5 L
452.379 276.379 L
451.5 278.5 L
452.379 280.621 L
454.5 281.5 L
456.621 280.621 L
cp
S
GR
GS
0.494 0.184 0.557 RC
1 LJ
N
479.5 297.5 M
478.621 295.379 L
476.5 294.5 L
474.379 295.379 L
473.5 297.5 L
474.379 299.621 L
476.5 300.5 L
478.621 299.621 L
cp
S
GR
GS
0.494 0.184 0.557 RC
1 LJ
N
502.5 311.5 M
501.621 309.379 L
499.5 308.5 L
497.379 309.379 L
496.5 311.5 L
497.379 313.621 L
499.5 314.5 L
501.621 313.621 L
cp
S
GR
GS
0.494 0.184 0.557 RC
1 LJ
N
524.5 334.5 M
523.621 332.379 L
521.5 331.5 L
519.379 332.379 L
518.5 334.5 L
519.379 336.621 L
521.5 337.5 L
523.621 336.621 L
cp
S
GR
GS
[1 0 0 1 338 53.75] CT
/Helvetica 18 F
GS
[1 0 0 1 0 0] CT
0 4.5 moveto 
1 -1 scale
(No shuffling) t 
GR
GR
GS
0 0.447 0.741 RC
1 LJ
N
305 53.75 M
335 53.75 L
S
GR
GS
0 0.447 0.741 RC
1 LJ
N
323.5 53.5 M
322.621 51.379 L
320.5 50.5 L
318.379 51.379 L
317.5 53.5 L
318.379 55.621 L
320.5 56.5 L
322.621 55.621 L
cp
S
GR
GS
[1 0 0 1 338 72.75] CT
/Helvetica 18 F
GS
[1 0 0 1 0 0] CT
0 4.5 moveto 
1 -1 scale
(Random without repl.) t 
GR
GR
GS
0.851 0.325 0.098 RC
1 LJ
N
305 72.75 M
335 72.75 L
S
GR
GS
0.851 0.325 0.098 RC
1 LJ
N
323.5 72.5 M
322.621 70.379 L
320.5 69.5 L
318.379 70.379 L
317.5 72.5 L
318.379 74.621 L
320.5 75.5 L
322.621 74.621 L
cp
S
GR
GS
[1 0 0 1 338 91.75] CT
/Helvetica 18 F
GS
[1 0 0 1 0 0] CT
0 4.5 moveto 
1 -1 scale
(Random with repl.) t 
GR
GR
GS
0.929 0.694 0.125 RC
1 LJ
N
305 91.75 M
335 91.75 L
S
GR
GS
0.929 0.694 0.125 RC
1 LJ
N
323.5 91.5 M
322.621 89.379 L
320.5 88.5 L
318.379 89.379 L
317.5 91.5 L
318.379 93.621 L
320.5 94.5 L
322.621 93.621 L
cp
S
GR
GS
[1 0 0 1 338 110.75] CT
/Helvetica 18 F
GS
[1 0 0 1 0 0] CT
0 4.5 moveto 
1 -1 scale
(Smart shuffling) t 
GR
GR
GS
0.494 0.184 0.557 RC
1 LJ
N
305 110.75 M
335 110.75 L
S
GR
GS
0.494 0.184 0.557 RC
1 LJ
N
323.5 110.5 M
322.621 108.379 L
320.5 107.5 L
318.379 108.379 L
317.5 110.5 L
318.379 112.621 L
320.5 113.5 L
322.621 112.621 L
cp
S
GR
%%Trailer
%%Pages: 1
%%EOF
