%!PS-Adobe-3.0 EPSF-3.0
%%Creator: (MATLAB, The Mathworks, Inc. Version 8.6.0.267246 \(R2015b\). Operating System: Mac OS X)
%%Title: /Users/gauthiermuguerza/Desktop/rsgd/report/images/syntheticWeightsTrain.eps
%%CreationDate: 2018-06-01T11:14:14
%%Pages: (atend)
%%BoundingBox:     8     0   570   426
%%LanguageLevel: 3
%%EndComments
%%BeginProlog
%%BeginResource: procset (Apache XML Graphics Std ProcSet) 1.2 0
%%Version: 1.2 0
%%Copyright: (Copyright 2001-2003,2010 The Apache Software Foundation. License terms: http://www.apache.org/licenses/LICENSE-2.0)
/bd{bind def}bind def
/ld{load def}bd
/GR/grestore ld
/M/moveto ld
/LJ/setlinejoin ld
/C/curveto ld
/f/fill ld
/LW/setlinewidth ld
/GC/setgray ld
/t/show ld
/N/newpath ld
/CT/concat ld
/cp/closepath ld
/S/stroke ld
/L/lineto ld
/CC/setcmykcolor ld
/A/ashow ld
/GS/gsave ld
/RC/setrgbcolor ld
/RM/rmoveto ld
/ML/setmiterlimit ld
/re {4 2 roll M
1 index 0 rlineto
0 exch rlineto
neg 0 rlineto
cp } bd
/_ctm matrix def
/_tm matrix def
/BT { _ctm currentmatrix pop matrix _tm copy pop 0 0 moveto } bd
/ET { _ctm setmatrix } bd
/iTm { _ctm setmatrix _tm concat } bd
/Tm { _tm astore pop iTm 0 0 moveto } bd
/ux 0.0 def
/uy 0.0 def
/F {
  /Tp exch def
  /Tf exch def
  Tf findfont Tp scalefont setfont
  /cf Tf def  /cs Tp def
} bd
/ULS {currentpoint /uy exch def /ux exch def} bd
/ULE {
  /Tcx currentpoint pop def
  gsave
  newpath
  cf findfont cs scalefont dup
  /FontMatrix get 0 get /Ts exch def /FontInfo get dup
  /UnderlinePosition get Ts mul /To exch def
  /UnderlineThickness get Ts mul /Tt exch def
  ux uy To add moveto  Tcx uy To add lineto
  Tt setlinewidth stroke
  grestore
} bd
/OLE {
  /Tcx currentpoint pop def
  gsave
  newpath
  cf findfont cs scalefont dup
  /FontMatrix get 0 get /Ts exch def /FontInfo get dup
  /UnderlinePosition get Ts mul /To exch def
  /UnderlineThickness get Ts mul /Tt exch def
  ux uy To add cs add moveto Tcx uy To add cs add lineto
  Tt setlinewidth stroke
  grestore
} bd
/SOE {
  /Tcx currentpoint pop def
  gsave
  newpath
  cf findfont cs scalefont dup
  /FontMatrix get 0 get /Ts exch def /FontInfo get dup
  /UnderlinePosition get Ts mul /To exch def
  /UnderlineThickness get Ts mul /Tt exch def
  ux uy To add cs 10 mul 26 idiv add moveto Tcx uy To add cs 10 mul 26 idiv add lineto
  Tt setlinewidth stroke
  grestore
} bd
/QT {
/Y22 exch store
/X22 exch store
/Y21 exch store
/X21 exch store
currentpoint
/Y21 load 2 mul add 3 div exch
/X21 load 2 mul add 3 div exch
/X21 load 2 mul /X22 load add 3 div
/Y21 load 2 mul /Y22 load add 3 div
/X22 load /Y22 load curveto
} bd
/SSPD {
dup length /d exch dict def
{
/v exch def
/k exch def
currentpagedevice k known {
/cpdv currentpagedevice k get def
v cpdv ne {
/upd false def
/nullv v type /nulltype eq def
/nullcpdv cpdv type /nulltype eq def
nullv nullcpdv or
{
/upd true def
} {
/sametype v type cpdv type eq def
sametype {
v type /arraytype eq {
/vlen v length def
/cpdvlen cpdv length def
vlen cpdvlen eq {
0 1 vlen 1 sub {
/i exch def
/obj v i get def
/cpdobj cpdv i get def
obj cpdobj ne {
/upd true def
exit
} if
} for
} {
/upd true def
} ifelse
} {
v type /dicttype eq {
v {
/dv exch def
/dk exch def
/cpddv cpdv dk get def
dv cpddv ne {
/upd true def
exit
} if
} forall
} {
/upd true def
} ifelse
} ifelse
} if
} ifelse
upd true eq {
d k v put
} if
} if
} if
} forall
d length 0 gt {
d setpagedevice
} if
} bd
%%EndResource
%%BeginResource: procset (Apache XML Graphics EPS ProcSet) 1.0 0
%%Version: 1.0 0
%%Copyright: (Copyright 2002-2003 The Apache Software Foundation. License terms: http://www.apache.org/licenses/LICENSE-2.0)
/BeginEPSF { %def
/b4_Inc_state save def         % Save state for cleanup
/dict_count countdictstack def % Count objects on dict stack
/op_count count 1 sub def      % Count objects on operand stack
userdict begin                 % Push userdict on dict stack
/showpage { } def              % Redefine showpage, { } = null proc
0 setgray 0 setlinecap         % Prepare graphics state
1 setlinewidth 0 setlinejoin
10 setmiterlimit [ ] 0 setdash newpath
/languagelevel where           % If level not equal to 1 then
{pop languagelevel             % set strokeadjust and
1 ne                           % overprint to their defaults.
{false setstrokeadjust false setoverprint
} if
} if
} bd
/EndEPSF { %def
count op_count sub {pop} repeat            % Clean up stacks
countdictstack dict_count sub {end} repeat
b4_Inc_state restore
} bd
%%EndResource
%FOPBeginFontDict
%%IncludeResource: font Courier-Bold
%%IncludeResource: font Helvetica
%%IncludeResource: font Courier-BoldOblique
%%IncludeResource: font Courier-Oblique
%%IncludeResource: font Times-Roman
%%IncludeResource: font Helvetica-BoldOblique
%%IncludeResource: font Helvetica-Bold
%%IncludeResource: font Helvetica-Oblique
%%IncludeResource: font Times-BoldItalic
%%IncludeResource: font Courier
%%IncludeResource: font Times-Italic
%%IncludeResource: font Times-Bold
%%IncludeResource: font Symbol
%%IncludeResource: font ZapfDingbats
%FOPEndFontDict
%%BeginResource: encoding WinAnsiEncoding
/WinAnsiEncoding [
/.notdef /.notdef /.notdef /.notdef /.notdef
/.notdef /.notdef /.notdef /.notdef /.notdef
/.notdef /.notdef /.notdef /.notdef /.notdef
/.notdef /.notdef /.notdef /.notdef /.notdef
/.notdef /.notdef /.notdef /.notdef /.notdef
/.notdef /.notdef /.notdef /.notdef /.notdef
/.notdef /.notdef /space /exclam /quotedbl
/numbersign /dollar /percent /ampersand /quotesingle
/parenleft /parenright /asterisk /plus /comma
/hyphen /period /slash /zero /one
/two /three /four /five /six
/seven /eight /nine /colon /semicolon
/less /equal /greater /question /at
/A /B /C /D /E
/F /G /H /I /J
/K /L /M /N /O
/P /Q /R /S /T
/U /V /W /X /Y
/Z /bracketleft /backslash /bracketright /asciicircum
/underscore /quoteleft /a /b /c
/d /e /f /g /h
/i /j /k /l /m
/n /o /p /q /r
/s /t /u /v /w
/x /y /z /braceleft /bar
/braceright /asciitilde /bullet /Euro /bullet
/quotesinglbase /florin /quotedblbase /ellipsis /dagger
/daggerdbl /circumflex /perthousand /Scaron /guilsinglleft
/OE /bullet /Zcaron /bullet /bullet
/quoteleft /quoteright /quotedblleft /quotedblright /bullet
/endash /emdash /asciitilde /trademark /scaron
/guilsinglright /oe /bullet /zcaron /Ydieresis
/space /exclamdown /cent /sterling /currency
/yen /brokenbar /section /dieresis /copyright
/ordfeminine /guillemotleft /logicalnot /sfthyphen /registered
/macron /degree /plusminus /twosuperior /threesuperior
/acute /mu /paragraph /middot /cedilla
/onesuperior /ordmasculine /guillemotright /onequarter /onehalf
/threequarters /questiondown /Agrave /Aacute /Acircumflex
/Atilde /Adieresis /Aring /AE /Ccedilla
/Egrave /Eacute /Ecircumflex /Edieresis /Igrave
/Iacute /Icircumflex /Idieresis /Eth /Ntilde
/Ograve /Oacute /Ocircumflex /Otilde /Odieresis
/multiply /Oslash /Ugrave /Uacute /Ucircumflex
/Udieresis /Yacute /Thorn /germandbls /agrave
/aacute /acircumflex /atilde /adieresis /aring
/ae /ccedilla /egrave /eacute /ecircumflex
/edieresis /igrave /iacute /icircumflex /idieresis
/eth /ntilde /ograve /oacute /ocircumflex
/otilde /odieresis /divide /oslash /ugrave
/uacute /ucircumflex /udieresis /yacute /thorn
/ydieresis
] def
%%EndResource
%FOPBeginFontReencode
/Courier-Bold findfont
dup length dict begin
  {1 index /FID ne {def} {pop pop} ifelse} forall
  /Encoding WinAnsiEncoding def
  currentdict
end
/Courier-Bold exch definefont pop
/Helvetica findfont
dup length dict begin
  {1 index /FID ne {def} {pop pop} ifelse} forall
  /Encoding WinAnsiEncoding def
  currentdict
end
/Helvetica exch definefont pop
/Courier-BoldOblique findfont
dup length dict begin
  {1 index /FID ne {def} {pop pop} ifelse} forall
  /Encoding WinAnsiEncoding def
  currentdict
end
/Courier-BoldOblique exch definefont pop
/Courier-Oblique findfont
dup length dict begin
  {1 index /FID ne {def} {pop pop} ifelse} forall
  /Encoding WinAnsiEncoding def
  currentdict
end
/Courier-Oblique exch definefont pop
/Times-Roman findfont
dup length dict begin
  {1 index /FID ne {def} {pop pop} ifelse} forall
  /Encoding WinAnsiEncoding def
  currentdict
end
/Times-Roman exch definefont pop
/Helvetica-BoldOblique findfont
dup length dict begin
  {1 index /FID ne {def} {pop pop} ifelse} forall
  /Encoding WinAnsiEncoding def
  currentdict
end
/Helvetica-BoldOblique exch definefont pop
/Helvetica-Bold findfont
dup length dict begin
  {1 index /FID ne {def} {pop pop} ifelse} forall
  /Encoding WinAnsiEncoding def
  currentdict
end
/Helvetica-Bold exch definefont pop
/Helvetica-Oblique findfont
dup length dict begin
  {1 index /FID ne {def} {pop pop} ifelse} forall
  /Encoding WinAnsiEncoding def
  currentdict
end
/Helvetica-Oblique exch definefont pop
/Times-BoldItalic findfont
dup length dict begin
  {1 index /FID ne {def} {pop pop} ifelse} forall
  /Encoding WinAnsiEncoding def
  currentdict
end
/Times-BoldItalic exch definefont pop
/Courier findfont
dup length dict begin
  {1 index /FID ne {def} {pop pop} ifelse} forall
  /Encoding WinAnsiEncoding def
  currentdict
end
/Courier exch definefont pop
/Times-Italic findfont
dup length dict begin
  {1 index /FID ne {def} {pop pop} ifelse} forall
  /Encoding WinAnsiEncoding def
  currentdict
end
/Times-Italic exch definefont pop
/Times-Bold findfont
dup length dict begin
  {1 index /FID ne {def} {pop pop} ifelse} forall
  /Encoding WinAnsiEncoding def
  currentdict
end
/Times-Bold exch definefont pop
%FOPEndFontReencode
%%EndProlog
%%Page: 1 1
%%PageBoundingBox: 0 0 576 432
%%BeginPageSetup
[1 0 0 -1 0 432] CT
%%EndPageSetup
GS
1 GC
N
0 0 576 432 re
f
GR
GS
1 GC
N
0 0 576 432 re
f
GR
GS
1 GC
N
75 384 M
521.5 384 L
521.5 32.5 L
75 32.5 L
cp
f
GR
GS
0.149 GC
2 setlinecap
1 LJ
0.5 LW
N
75 384 M
521.5 384 L
S
GR
GS
0.149 GC
2 setlinecap
1 LJ
0.5 LW
N
75 384 M
75 379.535 L
S
GR
GS
0.149 GC
2 setlinecap
1 LJ
0.5 LW
N
186.625 384 M
186.625 379.535 L
S
GR
GS
0.149 GC
2 setlinecap
1 LJ
0.5 LW
N
298.25 384 M
298.25 379.535 L
S
GR
GS
0.149 GC
2 setlinecap
1 LJ
0.5 LW
N
409.875 384 M
409.875 379.535 L
S
GR
GS
0.149 GC
2 setlinecap
1 LJ
0.5 LW
N
521.5 384 M
521.5 379.535 L
S
GR
GS
[1 0 0 1 75 390] CT
0.149 GC
/Helvetica 20 F
GS
[1 0 0 1 0 0] CT
-6 16 moveto 
1 -1 scale
(0) t 
GR
GR
GS
[1 0 0 1 186.625 390] CT
0.149 GC
/Helvetica 20 F
GS
[1 0 0 1 0 0] CT
-6 16 moveto 
1 -1 scale
(2) t 
GR
GR
GS
[1 0 0 1 298.25 390] CT
0.149 GC
/Helvetica 20 F
GS
[1 0 0 1 0 0] CT
-6 16 moveto 
1 -1 scale
(4) t 
GR
GR
GS
[1 0 0 1 409.875 390] CT
0.149 GC
/Helvetica 20 F
GS
[1 0 0 1 0 0] CT
-6 16 moveto 
1 -1 scale
(6) t 
GR
GR
GS
[1 0 0 1 521.5 390] CT
0.149 GC
/Helvetica 20 F
GS
[1 0 0 1 0 0] CT
-6 16 moveto 
1 -1 scale
(8) t 
GR
GR
GS
[1 0 0 1 298.25021 411.5] CT
0.149 GC
/Helvetica 20 F
GS
[1 0 0 1 0 0] CT
-37 16 moveto 
1 -1 scale
(Time \(s\)) t 
GR
GR
GS
0.149 GC
2 setlinecap
1 LJ
0.5 LW
N
75 384 M
75 32.5 L
S
GR
GS
0.149 GC
2 setlinecap
1 LJ
0.5 LW
N
75 384 M
79.465 384 L
S
GR
GS
0.149 GC
2 setlinecap
1 LJ
0.5 LW
N
75 313.7 M
79.465 313.7 L
S
GR
GS
0.149 GC
2 setlinecap
1 LJ
0.5 LW
N
75 243.4 M
79.465 243.4 L
S
GR
GS
0.149 GC
2 setlinecap
1 LJ
0.5 LW
N
75 173.1 M
79.465 173.1 L
S
GR
GS
0.149 GC
2 setlinecap
1 LJ
0.5 LW
N
75 102.8 M
79.465 102.8 L
S
GR
GS
0.149 GC
2 setlinecap
1 LJ
0.5 LW
N
75 32.5 M
79.465 32.5 L
S
GR
GS
0.149 GC
2 setlinecap
1 LJ
0.5 LW
N
75 362.838 M
77.232 362.838 L
S
GR
GS
0.149 GC
2 setlinecap
1 LJ
0.5 LW
N
75 350.458 M
77.232 350.458 L
S
GR
GS
0.149 GC
2 setlinecap
1 LJ
0.5 LW
N
75 341.675 M
77.232 341.675 L
S
GR
GS
0.149 GC
2 setlinecap
1 LJ
0.5 LW
N
75 334.862 M
77.232 334.862 L
S
GR
GS
0.149 GC
2 setlinecap
1 LJ
0.5 LW
N
75 329.296 M
77.232 329.296 L
S
GR
GS
0.149 GC
2 setlinecap
1 LJ
0.5 LW
N
75 324.59 M
77.232 324.59 L
S
GR
GS
0.149 GC
2 setlinecap
1 LJ
0.5 LW
N
75 320.513 M
77.232 320.513 L
S
GR
GS
0.149 GC
2 setlinecap
1 LJ
0.5 LW
N
75 316.917 M
77.232 316.917 L
S
GR
GS
0.149 GC
2 setlinecap
1 LJ
0.5 LW
N
75 292.538 M
77.232 292.538 L
S
GR
GS
0.149 GC
2 setlinecap
1 LJ
0.5 LW
N
75 280.158 M
77.232 280.158 L
S
GR
GS
0.149 GC
2 setlinecap
1 LJ
0.5 LW
N
75 271.375 M
77.232 271.375 L
S
GR
GS
0.149 GC
2 setlinecap
1 LJ
0.5 LW
N
75 264.562 M
77.232 264.562 L
S
GR
GS
0.149 GC
2 setlinecap
1 LJ
0.5 LW
N
75 258.996 M
77.232 258.996 L
S
GR
GS
0.149 GC
2 setlinecap
1 LJ
0.5 LW
N
75 254.29 M
77.232 254.29 L
S
GR
GS
0.149 GC
2 setlinecap
1 LJ
0.5 LW
N
75 250.213 M
77.232 250.213 L
S
GR
GS
0.149 GC
2 setlinecap
1 LJ
0.5 LW
N
75 246.617 M
77.232 246.617 L
S
GR
GS
0.149 GC
2 setlinecap
1 LJ
0.5 LW
N
75 222.238 M
77.232 222.238 L
S
GR
GS
0.149 GC
2 setlinecap
1 LJ
0.5 LW
N
75 209.858 M
77.232 209.858 L
S
GR
GS
0.149 GC
2 setlinecap
1 LJ
0.5 LW
N
75 201.075 M
77.232 201.075 L
S
GR
GS
0.149 GC
2 setlinecap
1 LJ
0.5 LW
N
75 194.262 M
77.232 194.262 L
S
GR
GS
0.149 GC
2 setlinecap
1 LJ
0.5 LW
N
75 188.696 M
77.232 188.696 L
S
GR
GS
0.149 GC
2 setlinecap
1 LJ
0.5 LW
N
75 183.99 M
77.232 183.99 L
S
GR
GS
0.149 GC
2 setlinecap
1 LJ
0.5 LW
N
75 179.913 M
77.232 179.913 L
S
GR
GS
0.149 GC
2 setlinecap
1 LJ
0.5 LW
N
75 176.317 M
77.232 176.317 L
S
GR
GS
0.149 GC
2 setlinecap
1 LJ
0.5 LW
N
75 151.938 M
77.232 151.938 L
S
GR
GS
0.149 GC
2 setlinecap
1 LJ
0.5 LW
N
75 139.558 M
77.232 139.558 L
S
GR
GS
0.149 GC
2 setlinecap
1 LJ
0.5 LW
N
75 130.775 M
77.232 130.775 L
S
GR
GS
0.149 GC
2 setlinecap
1 LJ
0.5 LW
N
75 123.962 M
77.232 123.962 L
S
GR
GS
0.149 GC
2 setlinecap
1 LJ
0.5 LW
N
75 118.396 M
77.232 118.396 L
S
GR
GS
0.149 GC
2 setlinecap
1 LJ
0.5 LW
N
75 113.69 M
77.232 113.69 L
S
GR
GS
0.149 GC
2 setlinecap
1 LJ
0.5 LW
N
75 109.613 M
77.232 109.613 L
S
GR
GS
0.149 GC
2 setlinecap
1 LJ
0.5 LW
N
75 106.017 M
77.232 106.017 L
S
GR
GS
0.149 GC
2 setlinecap
1 LJ
0.5 LW
N
75 81.638 M
77.232 81.638 L
S
GR
GS
0.149 GC
2 setlinecap
1 LJ
0.5 LW
N
75 69.258 M
77.232 69.258 L
S
GR
GS
0.149 GC
2 setlinecap
1 LJ
0.5 LW
N
75 60.475 M
77.232 60.475 L
S
GR
GS
0.149 GC
2 setlinecap
1 LJ
0.5 LW
N
75 53.662 M
77.232 53.662 L
S
GR
GS
0.149 GC
2 setlinecap
1 LJ
0.5 LW
N
75 48.096 M
77.232 48.096 L
S
GR
GS
0.149 GC
2 setlinecap
1 LJ
0.5 LW
N
75 43.39 M
77.232 43.39 L
S
GR
GS
0.149 GC
2 setlinecap
1 LJ
0.5 LW
N
75 39.313 M
77.232 39.313 L
S
GR
GS
0.149 GC
2 setlinecap
1 LJ
0.5 LW
N
75 35.717 M
77.232 35.717 L
S
GR
GS
[1 0 0 1 31 393] CT
0.149 GC
/Helvetica 20 F
GS
[1 0 0 1 0 0] CT
0 0 moveto 
1 -1 scale
(10) t 
GR
GR
GS
[1 0 0 1 54 383] CT
0.149 GC
/Helvetica 16 F
GS
[1 0 0 1 0 0] CT
0 0 moveto 
1 -1 scale
(-4) t 
GR
GR
GS
[1 0 0 1 31 323] CT
0.149 GC
/Helvetica 20 F
GS
[1 0 0 1 0 0] CT
0 0 moveto 
1 -1 scale
(10) t 
GR
GR
GS
[1 0 0 1 54 313] CT
0.149 GC
/Helvetica 16 F
GS
[1 0 0 1 0 0] CT
0 0 moveto 
1 -1 scale
(-3) t 
GR
GR
GS
[1 0 0 1 31 252] CT
0.149 GC
/Helvetica 20 F
GS
[1 0 0 1 0 0] CT
0 0 moveto 
1 -1 scale
(10) t 
GR
GR
GS
[1 0 0 1 54 242] CT
0.149 GC
/Helvetica 16 F
GS
[1 0 0 1 0 0] CT
0 0 moveto 
1 -1 scale
(-2) t 
GR
GR
GS
[1 0 0 1 31 182] CT
0.149 GC
/Helvetica 20 F
GS
[1 0 0 1 0 0] CT
0 0 moveto 
1 -1 scale
(10) t 
GR
GR
GS
[1 0 0 1 54 172] CT
0.149 GC
/Helvetica 16 F
GS
[1 0 0 1 0 0] CT
0 0 moveto 
1 -1 scale
(-1) t 
GR
GR
GS
[1 0 0 1 37 112] CT
0.149 GC
/Helvetica 20 F
GS
[1 0 0 1 0 0] CT
0 0 moveto 
1 -1 scale
(10) t 
GR
GR
GS
[1 0 0 1 60 102] CT
0.149 GC
/Helvetica 16 F
GS
[1 0 0 1 0 0] CT
0 0 moveto 
1 -1 scale
(0) t 
GR
GR
GS
[1 0 0 1 37 42] CT
0.149 GC
/Helvetica 20 F
GS
[1 0 0 1 0 0] CT
0 0 moveto 
1 -1 scale
(10) t 
GR
GR
GS
[1 0 0 1 60 32] CT
0.149 GC
/Helvetica 16 F
GS
[1 0 0 1 0 0] CT
0 0 moveto 
1 -1 scale
(1) t 
GR
GR
GS
[0 -1 1 0 29 208.24983] CT
0.149 GC
/Helvetica 20 F
GS
[1 0 0 1 0 0] CT
-54.5 -5 moveto 
1 -1 scale
(Train RMSE) t 
GR
GR
GS
[1 0 0 1 298.25031 29.75001] CT
/Helvetica-Bold 22 F
GS
[1 0 0 1 0 0] CT
-272.5 -6 moveto 
1 -1 scale
(200 by 200, rank 4, over-sampling 4, Condition No. 0) t 
GR
GR
GS
0 0 1 RC
1 LJ
N
75 71.077 M
93.635 86.519 L
111.883 100.917 L
130.15 120.387 L
148.374 148.11 L
166.602 173.438 L
184.84 196.45 L
203.06 218.961 L
221.495 240.592 L
239.714 262.399 L
257.896 284.038 L
276.16 307.144 L
294.658 328.659 L
313.018 352.237 L
331.471 375.269 L
S
GR
GS
0 0 1 RC
1 LJ
N
78.5 71.5 M
77.621 69.379 L
75.5 68.5 L
73.379 69.379 L
72.5 71.5 L
73.379 73.621 L
75.5 74.5 L
77.621 73.621 L
cp
S
GR
GS
0 0 1 RC
1 LJ
N
96.5 86.5 M
95.621 84.379 L
93.5 83.5 L
91.379 84.379 L
90.5 86.5 L
91.379 88.621 L
93.5 89.5 L
95.621 88.621 L
cp
S
GR
GS
0 0 1 RC
1 LJ
N
114.5 100.5 M
113.621 98.379 L
111.5 97.5 L
109.379 98.379 L
108.5 100.5 L
109.379 102.621 L
111.5 103.5 L
113.621 102.621 L
cp
S
GR
GS
0 0 1 RC
1 LJ
N
133.5 120.5 M
132.621 118.379 L
130.5 117.5 L
128.379 118.379 L
127.5 120.5 L
128.379 122.621 L
130.5 123.5 L
132.621 122.621 L
cp
S
GR
GS
0 0 1 RC
1 LJ
N
151.5 148.5 M
150.621 146.379 L
148.5 145.5 L
146.379 146.379 L
145.5 148.5 L
146.379 150.621 L
148.5 151.5 L
150.621 150.621 L
cp
S
GR
GS
0 0 1 RC
1 LJ
N
169.5 173.5 M
168.621 171.379 L
166.5 170.5 L
164.379 171.379 L
163.5 173.5 L
164.379 175.621 L
166.5 176.5 L
168.621 175.621 L
cp
S
GR
GS
0 0 1 RC
1 LJ
N
187.5 196.5 M
186.621 194.379 L
184.5 193.5 L
182.379 194.379 L
181.5 196.5 L
182.379 198.621 L
184.5 199.5 L
186.621 198.621 L
cp
S
GR
GS
0 0 1 RC
1 LJ
N
206.5 218.5 M
205.621 216.379 L
203.5 215.5 L
201.379 216.379 L
200.5 218.5 L
201.379 220.621 L
203.5 221.5 L
205.621 220.621 L
cp
S
GR
GS
0 0 1 RC
1 LJ
N
224.5 240.5 M
223.621 238.379 L
221.5 237.5 L
219.379 238.379 L
218.5 240.5 L
219.379 242.621 L
221.5 243.5 L
223.621 242.621 L
cp
S
GR
GS
0 0 1 RC
1 LJ
N
242.5 262.5 M
241.621 260.379 L
239.5 259.5 L
237.379 260.379 L
236.5 262.5 L
237.379 264.621 L
239.5 265.5 L
241.621 264.621 L
cp
S
GR
GS
0 0 1 RC
1 LJ
N
260.5 284.5 M
259.621 282.379 L
257.5 281.5 L
255.379 282.379 L
254.5 284.5 L
255.379 286.621 L
257.5 287.5 L
259.621 286.621 L
cp
S
GR
GS
0 0 1 RC
1 LJ
N
279.5 307.5 M
278.621 305.379 L
276.5 304.5 L
274.379 305.379 L
273.5 307.5 L
274.379 309.621 L
276.5 310.5 L
278.621 309.621 L
cp
S
GR
GS
0 0 1 RC
1 LJ
N
297.5 328.5 M
296.621 326.379 L
294.5 325.5 L
292.379 326.379 L
291.5 328.5 L
292.379 330.621 L
294.5 331.5 L
296.621 330.621 L
cp
S
GR
GS
0 0 1 RC
1 LJ
N
316.5 352.5 M
315.621 350.379 L
313.5 349.5 L
311.379 350.379 L
310.5 352.5 L
311.379 354.621 L
313.5 355.5 L
315.621 354.621 L
cp
S
GR
GS
0 0 1 RC
1 LJ
N
334.5 375.5 M
333.621 373.379 L
331.5 372.5 L
329.379 373.379 L
328.5 375.5 L
329.379 377.621 L
331.5 378.5 L
333.621 377.621 L
cp
S
GR
GS
0 0 1 RC
[10 6] 0 setdash
2 LJ
N
75 71.039 M
93.635 82.896 L
111.883 93.543 L
130.15 109.975 L
148.374 133.621 L
166.602 155.929 L
184.84 177.103 L
203.06 198.148 L
221.495 219.44 L
239.714 241.127 L
257.896 262.154 L
276.16 285.331 L
294.658 308.676 L
313.018 332.359 L
331.471 357.547 L
S
GR
GS
0 0 1 RC
1 LJ
N
78.5 71.5 M
77.621 69.379 L
75.5 68.5 L
73.379 69.379 L
72.5 71.5 L
73.379 73.621 L
75.5 74.5 L
77.621 73.621 L
cp
S
GR
GS
0 0 1 RC
1 LJ
N
96.5 82.5 M
95.621 80.379 L
93.5 79.5 L
91.379 80.379 L
90.5 82.5 L
91.379 84.621 L
93.5 85.5 L
95.621 84.621 L
cp
S
GR
GS
0 0 1 RC
1 LJ
N
114.5 93.5 M
113.621 91.379 L
111.5 90.5 L
109.379 91.379 L
108.5 93.5 L
109.379 95.621 L
111.5 96.5 L
113.621 95.621 L
cp
S
GR
GS
0 0 1 RC
1 LJ
N
133.5 109.5 M
132.621 107.379 L
130.5 106.5 L
128.379 107.379 L
127.5 109.5 L
128.379 111.621 L
130.5 112.5 L
132.621 111.621 L
cp
S
GR
GS
0 0 1 RC
1 LJ
N
151.5 133.5 M
150.621 131.379 L
148.5 130.5 L
146.379 131.379 L
145.5 133.5 L
146.379 135.621 L
148.5 136.5 L
150.621 135.621 L
cp
S
GR
GS
0 0 1 RC
1 LJ
N
169.5 155.5 M
168.621 153.379 L
166.5 152.5 L
164.379 153.379 L
163.5 155.5 L
164.379 157.621 L
166.5 158.5 L
168.621 157.621 L
cp
S
GR
GS
0 0 1 RC
1 LJ
N
187.5 177.5 M
186.621 175.379 L
184.5 174.5 L
182.379 175.379 L
181.5 177.5 L
182.379 179.621 L
184.5 180.5 L
186.621 179.621 L
cp
S
GR
GS
0 0 1 RC
1 LJ
N
206.5 198.5 M
205.621 196.379 L
203.5 195.5 L
201.379 196.379 L
200.5 198.5 L
201.379 200.621 L
203.5 201.5 L
205.621 200.621 L
cp
S
GR
GS
0 0 1 RC
1 LJ
N
224.5 219.5 M
223.621 217.379 L
221.5 216.5 L
219.379 217.379 L
218.5 219.5 L
219.379 221.621 L
221.5 222.5 L
223.621 221.621 L
cp
S
GR
GS
0 0 1 RC
1 LJ
N
242.5 241.5 M
241.621 239.379 L
239.5 238.5 L
237.379 239.379 L
236.5 241.5 L
237.379 243.621 L
239.5 244.5 L
241.621 243.621 L
cp
S
GR
GS
0 0 1 RC
1 LJ
N
260.5 262.5 M
259.621 260.379 L
257.5 259.5 L
255.379 260.379 L
254.5 262.5 L
255.379 264.621 L
257.5 265.5 L
259.621 264.621 L
cp
S
GR
GS
0 0 1 RC
1 LJ
N
279.5 285.5 M
278.621 283.379 L
276.5 282.5 L
274.379 283.379 L
273.5 285.5 L
274.379 287.621 L
276.5 288.5 L
278.621 287.621 L
cp
S
GR
GS
0 0 1 RC
1 LJ
N
297.5 308.5 M
296.621 306.379 L
294.5 305.5 L
292.379 306.379 L
291.5 308.5 L
292.379 310.621 L
294.5 311.5 L
296.621 310.621 L
cp
S
GR
GS
0 0 1 RC
1 LJ
N
316.5 332.5 M
315.621 330.379 L
313.5 329.5 L
311.379 330.379 L
310.5 332.5 L
311.379 334.621 L
313.5 335.5 L
315.621 334.621 L
cp
S
GR
GS
0 0 1 RC
1 LJ
N
334.5 357.5 M
333.621 355.379 L
331.5 354.5 L
329.379 355.379 L
328.5 357.5 L
329.379 359.621 L
331.5 360.5 L
333.621 359.621 L
cp
S
GR
GS
1 0 0 RC
1 LJ
N
75 71.077 M
190.495 85.398 L
208.213 92.828 L
225.93 102.716 L
243.611 120.601 L
261.301 140.153 L
279.033 160.18 L
296.97 179.415 L
314.64 199.172 L
332.395 217.321 L
350.184 232.982 L
367.797 250.447 L
385.558 267.423 L
403.503 283.2 L
421.273 304.635 L
S
GR
GS
1 0 0 RC
1 LJ
N
78.5 71.5 M
77.621 69.379 L
75.5 68.5 L
73.379 69.379 L
72.5 71.5 L
73.379 73.621 L
75.5 74.5 L
77.621 73.621 L
cp
S
GR
GS
1 0 0 RC
1 LJ
N
193.5 85.5 M
192.621 83.379 L
190.5 82.5 L
188.379 83.379 L
187.5 85.5 L
188.379 87.621 L
190.5 88.5 L
192.621 87.621 L
cp
S
GR
GS
1 0 0 RC
1 LJ
N
211.5 92.5 M
210.621 90.379 L
208.5 89.5 L
206.379 90.379 L
205.5 92.5 L
206.379 94.621 L
208.5 95.5 L
210.621 94.621 L
cp
S
GR
GS
1 0 0 RC
1 LJ
N
228.5 102.5 M
227.621 100.379 L
225.5 99.5 L
223.379 100.379 L
222.5 102.5 L
223.379 104.621 L
225.5 105.5 L
227.621 104.621 L
cp
S
GR
GS
1 0 0 RC
1 LJ
N
246.5 120.5 M
245.621 118.379 L
243.5 117.5 L
241.379 118.379 L
240.5 120.5 L
241.379 122.621 L
243.5 123.5 L
245.621 122.621 L
cp
S
GR
GS
1 0 0 RC
1 LJ
N
264.5 140.5 M
263.621 138.379 L
261.5 137.5 L
259.379 138.379 L
258.5 140.5 L
259.379 142.621 L
261.5 143.5 L
263.621 142.621 L
cp
S
GR
GS
1 0 0 RC
1 LJ
N
282.5 160.5 M
281.621 158.379 L
279.5 157.5 L
277.379 158.379 L
276.5 160.5 L
277.379 162.621 L
279.5 163.5 L
281.621 162.621 L
cp
S
GR
GS
1 0 0 RC
1 LJ
N
299.5 179.5 M
298.621 177.379 L
296.5 176.5 L
294.379 177.379 L
293.5 179.5 L
294.379 181.621 L
296.5 182.5 L
298.621 181.621 L
cp
S
GR
GS
1 0 0 RC
1 LJ
N
317.5 199.5 M
316.621 197.379 L
314.5 196.5 L
312.379 197.379 L
311.5 199.5 L
312.379 201.621 L
314.5 202.5 L
316.621 201.621 L
cp
S
GR
GS
1 0 0 RC
1 LJ
N
335.5 217.5 M
334.621 215.379 L
332.5 214.5 L
330.379 215.379 L
329.5 217.5 L
330.379 219.621 L
332.5 220.5 L
334.621 219.621 L
cp
S
GR
GS
1 0 0 RC
1 LJ
N
353.5 232.5 M
352.621 230.379 L
350.5 229.5 L
348.379 230.379 L
347.5 232.5 L
348.379 234.621 L
350.5 235.5 L
352.621 234.621 L
cp
S
GR
GS
1 0 0 RC
1 LJ
N
370.5 250.5 M
369.621 248.379 L
367.5 247.5 L
365.379 248.379 L
364.5 250.5 L
365.379 252.621 L
367.5 253.5 L
369.621 252.621 L
cp
S
GR
GS
1 0 0 RC
1 LJ
N
388.5 267.5 M
387.621 265.379 L
385.5 264.5 L
383.379 265.379 L
382.5 267.5 L
383.379 269.621 L
385.5 270.5 L
387.621 269.621 L
cp
S
GR
GS
1 0 0 RC
1 LJ
N
406.5 283.5 M
405.621 281.379 L
403.5 280.5 L
401.379 281.379 L
400.5 283.5 L
401.379 285.621 L
403.5 286.5 L
405.621 285.621 L
cp
S
GR
GS
1 0 0 RC
1 LJ
N
424.5 304.5 M
423.621 302.379 L
421.5 301.5 L
419.379 302.379 L
418.5 304.5 L
419.379 306.621 L
421.5 307.5 L
423.621 306.621 L
cp
S
GR
GS
1 0 0 RC
[10 6] 0 setdash
2 LJ
N
75 71.039 M
190.495 80.843 L
208.213 85.874 L
225.93 95.036 L
243.611 110.677 L
261.301 127.861 L
279.033 146.172 L
296.97 163.203 L
314.64 181.454 L
332.395 198.677 L
350.184 212.99 L
367.797 229.266 L
385.558 245.119 L
403.503 262.198 L
421.273 285.627 L
S
GR
GS
1 0 0 RC
1 LJ
N
78.5 71.5 M
77.621 69.379 L
75.5 68.5 L
73.379 69.379 L
72.5 71.5 L
73.379 73.621 L
75.5 74.5 L
77.621 73.621 L
cp
S
GR
GS
1 0 0 RC
1 LJ
N
193.5 80.5 M
192.621 78.379 L
190.5 77.5 L
188.379 78.379 L
187.5 80.5 L
188.379 82.621 L
190.5 83.5 L
192.621 82.621 L
cp
S
GR
GS
1 0 0 RC
1 LJ
N
211.5 85.5 M
210.621 83.379 L
208.5 82.5 L
206.379 83.379 L
205.5 85.5 L
206.379 87.621 L
208.5 88.5 L
210.621 87.621 L
cp
S
GR
GS
1 0 0 RC
1 LJ
N
228.5 95.5 M
227.621 93.379 L
225.5 92.5 L
223.379 93.379 L
222.5 95.5 L
223.379 97.621 L
225.5 98.5 L
227.621 97.621 L
cp
S
GR
GS
1 0 0 RC
1 LJ
N
246.5 110.5 M
245.621 108.379 L
243.5 107.5 L
241.379 108.379 L
240.5 110.5 L
241.379 112.621 L
243.5 113.5 L
245.621 112.621 L
cp
S
GR
GS
1 0 0 RC
1 LJ
N
264.5 127.5 M
263.621 125.379 L
261.5 124.5 L
259.379 125.379 L
258.5 127.5 L
259.379 129.621 L
261.5 130.5 L
263.621 129.621 L
cp
S
GR
GS
1 0 0 RC
1 LJ
N
282.5 146.5 M
281.621 144.379 L
279.5 143.5 L
277.379 144.379 L
276.5 146.5 L
277.379 148.621 L
279.5 149.5 L
281.621 148.621 L
cp
S
GR
GS
1 0 0 RC
1 LJ
N
299.5 163.5 M
298.621 161.379 L
296.5 160.5 L
294.379 161.379 L
293.5 163.5 L
294.379 165.621 L
296.5 166.5 L
298.621 165.621 L
cp
S
GR
GS
1 0 0 RC
1 LJ
N
317.5 181.5 M
316.621 179.379 L
314.5 178.5 L
312.379 179.379 L
311.5 181.5 L
312.379 183.621 L
314.5 184.5 L
316.621 183.621 L
cp
S
GR
GS
1 0 0 RC
1 LJ
N
335.5 198.5 M
334.621 196.379 L
332.5 195.5 L
330.379 196.379 L
329.5 198.5 L
330.379 200.621 L
332.5 201.5 L
334.621 200.621 L
cp
S
GR
GS
1 0 0 RC
1 LJ
N
353.5 212.5 M
352.621 210.379 L
350.5 209.5 L
348.379 210.379 L
347.5 212.5 L
348.379 214.621 L
350.5 215.5 L
352.621 214.621 L
cp
S
GR
GS
1 0 0 RC
1 LJ
N
370.5 229.5 M
369.621 227.379 L
367.5 226.5 L
365.379 227.379 L
364.5 229.5 L
365.379 231.621 L
367.5 232.5 L
369.621 231.621 L
cp
S
GR
GS
1 0 0 RC
1 LJ
N
388.5 245.5 M
387.621 243.379 L
385.5 242.5 L
383.379 243.379 L
382.5 245.5 L
383.379 247.621 L
385.5 248.5 L
387.621 247.621 L
cp
S
GR
GS
1 0 0 RC
1 LJ
N
406.5 262.5 M
405.621 260.379 L
403.5 259.5 L
401.379 260.379 L
400.5 262.5 L
401.379 264.621 L
403.5 265.5 L
405.621 264.621 L
cp
S
GR
GS
1 0 0 RC
1 LJ
N
424.5 285.5 M
423.621 283.379 L
421.5 282.5 L
419.379 283.379 L
418.5 285.5 L
419.379 287.621 L
421.5 288.5 L
423.621 287.621 L
cp
S
GR
GS
[1 0 0 1 302 53.75] CT
/Helvetica 18 F
GS
[1 0 0 1 0 0] CT
0 4.5 moveto 
1 -1 scale
(Random shuffling \(Train\)) t 
GR
GR
GS
0 0 1 RC
1 LJ
N
269 53.75 M
299 53.75 L
S
GR
GS
0 0 1 RC
1 LJ
N
286.5 53.5 M
285.621 51.379 L
283.5 50.5 L
281.379 51.379 L
280.5 53.5 L
281.379 55.621 L
283.5 56.5 L
285.621 55.621 L
cp
S
GR
GS
[1 0 0 1 302 72.75] CT
/Helvetica 18 F
GS
[1 0 0 1 0 0] CT
0 4.5 moveto 
1 -1 scale
(Random shuffling \(Test\)) t 
GR
GR
GS
0 0 1 RC
[10 6] 0 setdash
2 LJ
N
269 72.75 M
299 72.75 L
S
GR
GS
0 0 1 RC
1 LJ
N
286.5 72.5 M
285.621 70.379 L
283.5 69.5 L
281.379 70.379 L
280.5 72.5 L
281.379 74.621 L
283.5 75.5 L
285.621 74.621 L
cp
S
GR
GS
[1 0 0 1 302 91.75] CT
/Helvetica 18 F
GS
[1 0 0 1 0 0] CT
0 4.5 moveto 
1 -1 scale
(Weighted shuffling \(Train\)) t 
GR
GR
GS
1 0 0 RC
1 LJ
N
269 91.75 M
299 91.75 L
S
GR
GS
1 0 0 RC
1 LJ
N
286.5 91.5 M
285.621 89.379 L
283.5 88.5 L
281.379 89.379 L
280.5 91.5 L
281.379 93.621 L
283.5 94.5 L
285.621 93.621 L
cp
S
GR
GS
[1 0 0 1 302 110.75] CT
/Helvetica 18 F
GS
[1 0 0 1 0 0] CT
0 4.5 moveto 
1 -1 scale
(Weighted shuffling \(Test\)) t 
GR
GR
GS
1 0 0 RC
[10 6] 0 setdash
2 LJ
N
269 110.75 M
299 110.75 L
S
GR
GS
1 0 0 RC
1 LJ
N
286.5 110.5 M
285.621 108.379 L
283.5 107.5 L
281.379 108.379 L
280.5 110.5 L
281.379 112.621 L
283.5 113.5 L
285.621 112.621 L
cp
S
GR
%%Trailer
%%Pages: 1
%%EOF
