%!PS-Adobe-3.0 EPSF-3.0
%%Creator: (MATLAB, The Mathworks, Inc. Version 8.6.0.267246 \(R2015b\). Operating System: Mac OS X)
%%Title: /Users/gauthiermuguerza/Desktop/rsgd/report/images/syntheticFourTrain.eps
%%CreationDate: 2018-06-07T12:04:29
%%Pages: (atend)
%%BoundingBox:     8     0   533   413
%%LanguageLevel: 3
%%EndComments
%%BeginProlog
%%BeginResource: procset (Apache XML Graphics Std ProcSet) 1.2 0
%%Version: 1.2 0
%%Copyright: (Copyright 2001-2003,2010 The Apache Software Foundation. License terms: http://www.apache.org/licenses/LICENSE-2.0)
/bd{bind def}bind def
/ld{load def}bd
/GR/grestore ld
/M/moveto ld
/LJ/setlinejoin ld
/C/curveto ld
/f/fill ld
/LW/setlinewidth ld
/GC/setgray ld
/t/show ld
/N/newpath ld
/CT/concat ld
/cp/closepath ld
/S/stroke ld
/L/lineto ld
/CC/setcmykcolor ld
/A/ashow ld
/GS/gsave ld
/RC/setrgbcolor ld
/RM/rmoveto ld
/ML/setmiterlimit ld
/re {4 2 roll M
1 index 0 rlineto
0 exch rlineto
neg 0 rlineto
cp } bd
/_ctm matrix def
/_tm matrix def
/BT { _ctm currentmatrix pop matrix _tm copy pop 0 0 moveto } bd
/ET { _ctm setmatrix } bd
/iTm { _ctm setmatrix _tm concat } bd
/Tm { _tm astore pop iTm 0 0 moveto } bd
/ux 0.0 def
/uy 0.0 def
/F {
  /Tp exch def
  /Tf exch def
  Tf findfont Tp scalefont setfont
  /cf Tf def  /cs Tp def
} bd
/ULS {currentpoint /uy exch def /ux exch def} bd
/ULE {
  /Tcx currentpoint pop def
  gsave
  newpath
  cf findfont cs scalefont dup
  /FontMatrix get 0 get /Ts exch def /FontInfo get dup
  /UnderlinePosition get Ts mul /To exch def
  /UnderlineThickness get Ts mul /Tt exch def
  ux uy To add moveto  Tcx uy To add lineto
  Tt setlinewidth stroke
  grestore
} bd
/OLE {
  /Tcx currentpoint pop def
  gsave
  newpath
  cf findfont cs scalefont dup
  /FontMatrix get 0 get /Ts exch def /FontInfo get dup
  /UnderlinePosition get Ts mul /To exch def
  /UnderlineThickness get Ts mul /Tt exch def
  ux uy To add cs add moveto Tcx uy To add cs add lineto
  Tt setlinewidth stroke
  grestore
} bd
/SOE {
  /Tcx currentpoint pop def
  gsave
  newpath
  cf findfont cs scalefont dup
  /FontMatrix get 0 get /Ts exch def /FontInfo get dup
  /UnderlinePosition get Ts mul /To exch def
  /UnderlineThickness get Ts mul /Tt exch def
  ux uy To add cs 10 mul 26 idiv add moveto Tcx uy To add cs 10 mul 26 idiv add lineto
  Tt setlinewidth stroke
  grestore
} bd
/QT {
/Y22 exch store
/X22 exch store
/Y21 exch store
/X21 exch store
currentpoint
/Y21 load 2 mul add 3 div exch
/X21 load 2 mul add 3 div exch
/X21 load 2 mul /X22 load add 3 div
/Y21 load 2 mul /Y22 load add 3 div
/X22 load /Y22 load curveto
} bd
/SSPD {
dup length /d exch dict def
{
/v exch def
/k exch def
currentpagedevice k known {
/cpdv currentpagedevice k get def
v cpdv ne {
/upd false def
/nullv v type /nulltype eq def
/nullcpdv cpdv type /nulltype eq def
nullv nullcpdv or
{
/upd true def
} {
/sametype v type cpdv type eq def
sametype {
v type /arraytype eq {
/vlen v length def
/cpdvlen cpdv length def
vlen cpdvlen eq {
0 1 vlen 1 sub {
/i exch def
/obj v i get def
/cpdobj cpdv i get def
obj cpdobj ne {
/upd true def
exit
} if
} for
} {
/upd true def
} ifelse
} {
v type /dicttype eq {
v {
/dv exch def
/dk exch def
/cpddv cpdv dk get def
dv cpddv ne {
/upd true def
exit
} if
} forall
} {
/upd true def
} ifelse
} ifelse
} if
} ifelse
upd true eq {
d k v put
} if
} if
} if
} forall
d length 0 gt {
d setpagedevice
} if
} bd
%%EndResource
%%BeginResource: procset (Apache XML Graphics EPS ProcSet) 1.0 0
%%Version: 1.0 0
%%Copyright: (Copyright 2002-2003 The Apache Software Foundation. License terms: http://www.apache.org/licenses/LICENSE-2.0)
/BeginEPSF { %def
/b4_Inc_state save def         % Save state for cleanup
/dict_count countdictstack def % Count objects on dict stack
/op_count count 1 sub def      % Count objects on operand stack
userdict begin                 % Push userdict on dict stack
/showpage { } def              % Redefine showpage, { } = null proc
0 setgray 0 setlinecap         % Prepare graphics state
1 setlinewidth 0 setlinejoin
10 setmiterlimit [ ] 0 setdash newpath
/languagelevel where           % If level not equal to 1 then
{pop languagelevel             % set strokeadjust and
1 ne                           % overprint to their defaults.
{false setstrokeadjust false setoverprint
} if
} if
} bd
/EndEPSF { %def
count op_count sub {pop} repeat            % Clean up stacks
countdictstack dict_count sub {end} repeat
b4_Inc_state restore
} bd
%%EndResource
%FOPBeginFontDict
%%IncludeResource: font Courier-Bold
%%IncludeResource: font Helvetica
%%IncludeResource: font Courier-BoldOblique
%%IncludeResource: font Courier-Oblique
%%IncludeResource: font Times-Roman
%%IncludeResource: font Helvetica-BoldOblique
%%IncludeResource: font Helvetica-Bold
%%IncludeResource: font Helvetica-Oblique
%%IncludeResource: font Times-BoldItalic
%%IncludeResource: font Courier
%%IncludeResource: font Times-Italic
%%IncludeResource: font Times-Bold
%%IncludeResource: font Symbol
%%IncludeResource: font ZapfDingbats
%FOPEndFontDict
%%BeginResource: encoding WinAnsiEncoding
/WinAnsiEncoding [
/.notdef /.notdef /.notdef /.notdef /.notdef
/.notdef /.notdef /.notdef /.notdef /.notdef
/.notdef /.notdef /.notdef /.notdef /.notdef
/.notdef /.notdef /.notdef /.notdef /.notdef
/.notdef /.notdef /.notdef /.notdef /.notdef
/.notdef /.notdef /.notdef /.notdef /.notdef
/.notdef /.notdef /space /exclam /quotedbl
/numbersign /dollar /percent /ampersand /quotesingle
/parenleft /parenright /asterisk /plus /comma
/hyphen /period /slash /zero /one
/two /three /four /five /six
/seven /eight /nine /colon /semicolon
/less /equal /greater /question /at
/A /B /C /D /E
/F /G /H /I /J
/K /L /M /N /O
/P /Q /R /S /T
/U /V /W /X /Y
/Z /bracketleft /backslash /bracketright /asciicircum
/underscore /quoteleft /a /b /c
/d /e /f /g /h
/i /j /k /l /m
/n /o /p /q /r
/s /t /u /v /w
/x /y /z /braceleft /bar
/braceright /asciitilde /bullet /Euro /bullet
/quotesinglbase /florin /quotedblbase /ellipsis /dagger
/daggerdbl /circumflex /perthousand /Scaron /guilsinglleft
/OE /bullet /Zcaron /bullet /bullet
/quoteleft /quoteright /quotedblleft /quotedblright /bullet
/endash /emdash /asciitilde /trademark /scaron
/guilsinglright /oe /bullet /zcaron /Ydieresis
/space /exclamdown /cent /sterling /currency
/yen /brokenbar /section /dieresis /copyright
/ordfeminine /guillemotleft /logicalnot /sfthyphen /registered
/macron /degree /plusminus /twosuperior /threesuperior
/acute /mu /paragraph /middot /cedilla
/onesuperior /ordmasculine /guillemotright /onequarter /onehalf
/threequarters /questiondown /Agrave /Aacute /Acircumflex
/Atilde /Adieresis /Aring /AE /Ccedilla
/Egrave /Eacute /Ecircumflex /Edieresis /Igrave
/Iacute /Icircumflex /Idieresis /Eth /Ntilde
/Ograve /Oacute /Ocircumflex /Otilde /Odieresis
/multiply /Oslash /Ugrave /Uacute /Ucircumflex
/Udieresis /Yacute /Thorn /germandbls /agrave
/aacute /acircumflex /atilde /adieresis /aring
/ae /ccedilla /egrave /eacute /ecircumflex
/edieresis /igrave /iacute /icircumflex /idieresis
/eth /ntilde /ograve /oacute /ocircumflex
/otilde /odieresis /divide /oslash /ugrave
/uacute /ucircumflex /udieresis /yacute /thorn
/ydieresis
] def
%%EndResource
%FOPBeginFontReencode
/Courier-Bold findfont
dup length dict begin
  {1 index /FID ne {def} {pop pop} ifelse} forall
  /Encoding WinAnsiEncoding def
  currentdict
end
/Courier-Bold exch definefont pop
/Helvetica findfont
dup length dict begin
  {1 index /FID ne {def} {pop pop} ifelse} forall
  /Encoding WinAnsiEncoding def
  currentdict
end
/Helvetica exch definefont pop
/Courier-BoldOblique findfont
dup length dict begin
  {1 index /FID ne {def} {pop pop} ifelse} forall
  /Encoding WinAnsiEncoding def
  currentdict
end
/Courier-BoldOblique exch definefont pop
/Courier-Oblique findfont
dup length dict begin
  {1 index /FID ne {def} {pop pop} ifelse} forall
  /Encoding WinAnsiEncoding def
  currentdict
end
/Courier-Oblique exch definefont pop
/Times-Roman findfont
dup length dict begin
  {1 index /FID ne {def} {pop pop} ifelse} forall
  /Encoding WinAnsiEncoding def
  currentdict
end
/Times-Roman exch definefont pop
/Helvetica-BoldOblique findfont
dup length dict begin
  {1 index /FID ne {def} {pop pop} ifelse} forall
  /Encoding WinAnsiEncoding def
  currentdict
end
/Helvetica-BoldOblique exch definefont pop
/Helvetica-Bold findfont
dup length dict begin
  {1 index /FID ne {def} {pop pop} ifelse} forall
  /Encoding WinAnsiEncoding def
  currentdict
end
/Helvetica-Bold exch definefont pop
/Helvetica-Oblique findfont
dup length dict begin
  {1 index /FID ne {def} {pop pop} ifelse} forall
  /Encoding WinAnsiEncoding def
  currentdict
end
/Helvetica-Oblique exch definefont pop
/Times-BoldItalic findfont
dup length dict begin
  {1 index /FID ne {def} {pop pop} ifelse} forall
  /Encoding WinAnsiEncoding def
  currentdict
end
/Times-BoldItalic exch definefont pop
/Courier findfont
dup length dict begin
  {1 index /FID ne {def} {pop pop} ifelse} forall
  /Encoding WinAnsiEncoding def
  currentdict
end
/Courier exch definefont pop
/Times-Italic findfont
dup length dict begin
  {1 index /FID ne {def} {pop pop} ifelse} forall
  /Encoding WinAnsiEncoding def
  currentdict
end
/Times-Italic exch definefont pop
/Times-Bold findfont
dup length dict begin
  {1 index /FID ne {def} {pop pop} ifelse} forall
  /Encoding WinAnsiEncoding def
  currentdict
end
/Times-Bold exch definefont pop
%FOPEndFontReencode
%%EndProlog
%%Page: 1 1
%%PageBoundingBox: 0 0 576 432
%%BeginPageSetup
[1 0 0 -1 0 432] CT
%%EndPageSetup
GS
1 GC
N
0 0 576 432 re
f
GR
GS
1 GC
N
0 0 576 432 re
f
GR
GS
1 GC
N
75 384 M
521.5 384 L
521.5 32.5 L
75 32.5 L
cp
f
GR
GS
0.149 GC
2 setlinecap
1 LJ
0.5 LW
N
75 384 M
521.5 384 L
S
GR
GS
0.149 GC
2 setlinecap
1 LJ
0.5 LW
N
75 384 M
75 379.535 L
S
GR
GS
0.149 GC
2 setlinecap
1 LJ
0.5 LW
N
186.625 384 M
186.625 379.535 L
S
GR
GS
0.149 GC
2 setlinecap
1 LJ
0.5 LW
N
298.25 384 M
298.25 379.535 L
S
GR
GS
0.149 GC
2 setlinecap
1 LJ
0.5 LW
N
409.875 384 M
409.875 379.535 L
S
GR
GS
0.149 GC
2 setlinecap
1 LJ
0.5 LW
N
521.5 384 M
521.5 379.535 L
S
GR
GS
[1 0 0 1 75 390] CT
0.149 GC
/Helvetica 20 F
GS
[1 0 0 1 0 0] CT
-6 16 moveto 
1 -1 scale
(0) t 
GR
GR
GS
[1 0 0 1 186.625 390] CT
0.149 GC
/Helvetica 20 F
GS
[1 0 0 1 0 0] CT
-6 16 moveto 
1 -1 scale
(5) t 
GR
GR
GS
[1 0 0 1 298.25 390] CT
0.149 GC
/Helvetica 20 F
GS
[1 0 0 1 0 0] CT
-11.5 16 moveto 
1 -1 scale
(10) t 
GR
GR
GS
[1 0 0 1 409.875 390] CT
0.149 GC
/Helvetica 20 F
GS
[1 0 0 1 0 0] CT
-11.5 16 moveto 
1 -1 scale
(15) t 
GR
GR
GS
[1 0 0 1 521.5 390] CT
0.149 GC
/Helvetica 20 F
GS
[1 0 0 1 0 0] CT
-11.5 16 moveto 
1 -1 scale
(20) t 
GR
GR
GS
[1 0 0 1 298.25021 411.5] CT
0.149 GC
/Helvetica 17 F
GS
[1 0 0 1 0 0] CT
-41.5 16 moveto 
1 -1 scale
(Iterations) t 
GR
GR
GS
0.149 GC
2 setlinecap
1 LJ
0.5 LW
N
75 384 M
75 32.5 L
S
GR
GS
0.149 GC
2 setlinecap
1 LJ
0.5 LW
N
75 384 M
79.465 384 L
S
GR
GS
0.149 GC
2 setlinecap
1 LJ
0.5 LW
N
75 325.417 M
79.465 325.417 L
S
GR
GS
0.149 GC
2 setlinecap
1 LJ
0.5 LW
N
75 266.833 M
79.465 266.833 L
S
GR
GS
0.149 GC
2 setlinecap
1 LJ
0.5 LW
N
75 208.25 M
79.465 208.25 L
S
GR
GS
0.149 GC
2 setlinecap
1 LJ
0.5 LW
N
75 149.667 M
79.465 149.667 L
S
GR
GS
0.149 GC
2 setlinecap
1 LJ
0.5 LW
N
75 91.083 M
79.465 91.083 L
S
GR
GS
0.149 GC
2 setlinecap
1 LJ
0.5 LW
N
75 32.5 M
79.465 32.5 L
S
GR
GS
0.149 GC
2 setlinecap
1 LJ
0.5 LW
N
75 366.365 M
77.232 366.365 L
S
GR
GS
0.149 GC
2 setlinecap
1 LJ
0.5 LW
N
75 356.049 M
77.232 356.049 L
S
GR
GS
0.149 GC
2 setlinecap
1 LJ
0.5 LW
N
75 348.729 M
77.232 348.729 L
S
GR
GS
0.149 GC
2 setlinecap
1 LJ
0.5 LW
N
75 343.052 M
77.232 343.052 L
S
GR
GS
0.149 GC
2 setlinecap
1 LJ
0.5 LW
N
75 338.413 M
77.232 338.413 L
S
GR
GS
0.149 GC
2 setlinecap
1 LJ
0.5 LW
N
75 334.491 M
77.232 334.491 L
S
GR
GS
0.149 GC
2 setlinecap
1 LJ
0.5 LW
N
75 331.094 M
77.232 331.094 L
S
GR
GS
0.149 GC
2 setlinecap
1 LJ
0.5 LW
N
75 328.097 M
77.232 328.097 L
S
GR
GS
0.149 GC
2 setlinecap
1 LJ
0.5 LW
N
75 307.781 M
77.232 307.781 L
S
GR
GS
0.149 GC
2 setlinecap
1 LJ
0.5 LW
N
75 297.465 M
77.232 297.465 L
S
GR
GS
0.149 GC
2 setlinecap
1 LJ
0.5 LW
N
75 290.146 M
77.232 290.146 L
S
GR
GS
0.149 GC
2 setlinecap
1 LJ
0.5 LW
N
75 284.469 M
77.232 284.469 L
S
GR
GS
0.149 GC
2 setlinecap
1 LJ
0.5 LW
N
75 279.83 M
77.232 279.83 L
S
GR
GS
0.149 GC
2 setlinecap
1 LJ
0.5 LW
N
75 275.908 M
77.232 275.908 L
S
GR
GS
0.149 GC
2 setlinecap
1 LJ
0.5 LW
N
75 272.511 M
77.232 272.511 L
S
GR
GS
0.149 GC
2 setlinecap
1 LJ
0.5 LW
N
75 269.514 M
77.232 269.514 L
S
GR
GS
0.149 GC
2 setlinecap
1 LJ
0.5 LW
N
75 249.198 M
77.232 249.198 L
S
GR
GS
0.149 GC
2 setlinecap
1 LJ
0.5 LW
N
75 238.882 M
77.232 238.882 L
S
GR
GS
0.149 GC
2 setlinecap
1 LJ
0.5 LW
N
75 231.563 M
77.232 231.563 L
S
GR
GS
0.149 GC
2 setlinecap
1 LJ
0.5 LW
N
75 225.885 M
77.232 225.885 L
S
GR
GS
0.149 GC
2 setlinecap
1 LJ
0.5 LW
N
75 221.247 M
77.232 221.247 L
S
GR
GS
0.149 GC
2 setlinecap
1 LJ
0.5 LW
N
75 217.325 M
77.232 217.325 L
S
GR
GS
0.149 GC
2 setlinecap
1 LJ
0.5 LW
N
75 213.927 M
77.232 213.927 L
S
GR
GS
0.149 GC
2 setlinecap
1 LJ
0.5 LW
N
75 210.931 M
77.232 210.931 L
S
GR
GS
0.149 GC
2 setlinecap
1 LJ
0.5 LW
N
75 190.615 M
77.232 190.615 L
S
GR
GS
0.149 GC
2 setlinecap
1 LJ
0.5 LW
N
75 180.299 M
77.232 180.299 L
S
GR
GS
0.149 GC
2 setlinecap
1 LJ
0.5 LW
N
75 172.979 M
77.232 172.979 L
S
GR
GS
0.149 GC
2 setlinecap
1 LJ
0.5 LW
N
75 167.302 M
77.232 167.302 L
S
GR
GS
0.149 GC
2 setlinecap
1 LJ
0.5 LW
N
75 162.663 M
77.232 162.663 L
S
GR
GS
0.149 GC
2 setlinecap
1 LJ
0.5 LW
N
75 158.741 M
77.232 158.741 L
S
GR
GS
0.149 GC
2 setlinecap
1 LJ
0.5 LW
N
75 155.344 M
77.232 155.344 L
S
GR
GS
0.149 GC
2 setlinecap
1 LJ
0.5 LW
N
75 152.347 M
77.232 152.347 L
S
GR
GS
0.149 GC
2 setlinecap
1 LJ
0.5 LW
N
75 132.031 M
77.232 132.031 L
S
GR
GS
0.149 GC
2 setlinecap
1 LJ
0.5 LW
N
75 121.715 M
77.232 121.715 L
S
GR
GS
0.149 GC
2 setlinecap
1 LJ
0.5 LW
N
75 114.396 M
77.232 114.396 L
S
GR
GS
0.149 GC
2 setlinecap
1 LJ
0.5 LW
N
75 108.719 M
77.232 108.719 L
S
GR
GS
0.149 GC
2 setlinecap
1 LJ
0.5 LW
N
75 104.08 M
77.232 104.08 L
S
GR
GS
0.149 GC
2 setlinecap
1 LJ
0.5 LW
N
75 100.158 M
77.232 100.158 L
S
GR
GS
0.149 GC
2 setlinecap
1 LJ
0.5 LW
N
75 96.761 M
77.232 96.761 L
S
GR
GS
0.149 GC
2 setlinecap
1 LJ
0.5 LW
N
75 93.764 M
77.232 93.764 L
S
GR
GS
0.149 GC
2 setlinecap
1 LJ
0.5 LW
N
75 73.448 M
77.232 73.448 L
S
GR
GS
0.149 GC
2 setlinecap
1 LJ
0.5 LW
N
75 63.132 M
77.232 63.132 L
S
GR
GS
0.149 GC
2 setlinecap
1 LJ
0.5 LW
N
75 55.813 M
77.232 55.813 L
S
GR
GS
0.149 GC
2 setlinecap
1 LJ
0.5 LW
N
75 50.135 M
77.232 50.135 L
S
GR
GS
0.149 GC
2 setlinecap
1 LJ
0.5 LW
N
75 45.497 M
77.232 45.497 L
S
GR
GS
0.149 GC
2 setlinecap
1 LJ
0.5 LW
N
75 41.575 M
77.232 41.575 L
S
GR
GS
0.149 GC
2 setlinecap
1 LJ
0.5 LW
N
75 38.177 M
77.232 38.177 L
S
GR
GS
0.149 GC
2 setlinecap
1 LJ
0.5 LW
N
75 35.181 M
77.232 35.181 L
S
GR
GS
[1 0 0 1 31 393] CT
0.149 GC
/Helvetica 20 F
GS
[1 0 0 1 0 0] CT
0 0 moveto 
1 -1 scale
(10) t 
GR
GR
GS
[1 0 0 1 54 383] CT
0.149 GC
/Helvetica 16 F
GS
[1 0 0 1 0 0] CT
0 0 moveto 
1 -1 scale
(-5) t 
GR
GR
GS
[1 0 0 1 31 334] CT
0.149 GC
/Helvetica 20 F
GS
[1 0 0 1 0 0] CT
0 0 moveto 
1 -1 scale
(10) t 
GR
GR
GS
[1 0 0 1 54 324] CT
0.149 GC
/Helvetica 16 F
GS
[1 0 0 1 0 0] CT
0 0 moveto 
1 -1 scale
(-4) t 
GR
GR
GS
[1 0 0 1 31 276] CT
0.149 GC
/Helvetica 20 F
GS
[1 0 0 1 0 0] CT
0 0 moveto 
1 -1 scale
(10) t 
GR
GR
GS
[1 0 0 1 54 266] CT
0.149 GC
/Helvetica 16 F
GS
[1 0 0 1 0 0] CT
0 0 moveto 
1 -1 scale
(-3) t 
GR
GR
GS
[1 0 0 1 31 217] CT
0.149 GC
/Helvetica 20 F
GS
[1 0 0 1 0 0] CT
0 0 moveto 
1 -1 scale
(10) t 
GR
GR
GS
[1 0 0 1 54 207] CT
0.149 GC
/Helvetica 16 F
GS
[1 0 0 1 0 0] CT
0 0 moveto 
1 -1 scale
(-2) t 
GR
GR
GS
[1 0 0 1 31 159] CT
0.149 GC
/Helvetica 20 F
GS
[1 0 0 1 0 0] CT
0 0 moveto 
1 -1 scale
(10) t 
GR
GR
GS
[1 0 0 1 54 149] CT
0.149 GC
/Helvetica 16 F
GS
[1 0 0 1 0 0] CT
0 0 moveto 
1 -1 scale
(-1) t 
GR
GR
GS
[1 0 0 1 37 100] CT
0.149 GC
/Helvetica 20 F
GS
[1 0 0 1 0 0] CT
0 0 moveto 
1 -1 scale
(10) t 
GR
GR
GS
[1 0 0 1 60 90] CT
0.149 GC
/Helvetica 16 F
GS
[1 0 0 1 0 0] CT
0 0 moveto 
1 -1 scale
(0) t 
GR
GR
GS
[1 0 0 1 37 42] CT
0.149 GC
/Helvetica 20 F
GS
[1 0 0 1 0 0] CT
0 0 moveto 
1 -1 scale
(10) t 
GR
GR
GS
[1 0 0 1 60 32] CT
0.149 GC
/Helvetica 16 F
GS
[1 0 0 1 0 0] CT
0 0 moveto 
1 -1 scale
(1) t 
GR
GR
GS
[0 -1 1 0 29 208.24983] CT
0.149 GC
/Helvetica 17 F
GS
[1 0 0 1 0 0] CT
-54.5 -5 moveto 
1 -1 scale
(Train RMSE) t 
GR
GR
GS
0 0.447 0.741 RC
1 LJ
N
97.325 64.746 M
119.65 79.267 L
141.975 99.754 L
164.3 116.505 L
186.625 130.167 L
208.95 142.791 L
231.275 155.284 L
253.6 168.049 L
275.925 181.337 L
298.25 195.339 L
320.575 210.23 L
342.9 226.176 L
365.225 243.345 L
387.55 261.903 L
409.875 282.017 L
432.2 303.82 L
454.525 327.162 L
S
GR
GS
0 0.447 0.741 RC
1 LJ
N
100.5 64.5 M
99.621 62.379 L
97.5 61.5 L
95.379 62.379 L
94.5 64.5 L
95.379 66.621 L
97.5 67.5 L
99.621 66.621 L
cp
S
GR
GS
0 0.447 0.741 RC
1 LJ
N
122.5 79.5 M
121.621 77.379 L
119.5 76.5 L
117.379 77.379 L
116.5 79.5 L
117.379 81.621 L
119.5 82.5 L
121.621 81.621 L
cp
S
GR
GS
0 0.447 0.741 RC
1 LJ
N
144.5 99.5 M
143.621 97.379 L
141.5 96.5 L
139.379 97.379 L
138.5 99.5 L
139.379 101.621 L
141.5 102.5 L
143.621 101.621 L
cp
S
GR
GS
0 0.447 0.741 RC
1 LJ
N
167.5 116.5 M
166.621 114.379 L
164.5 113.5 L
162.379 114.379 L
161.5 116.5 L
162.379 118.621 L
164.5 119.5 L
166.621 118.621 L
cp
S
GR
GS
0 0.447 0.741 RC
1 LJ
N
189.5 130.5 M
188.621 128.379 L
186.5 127.5 L
184.379 128.379 L
183.5 130.5 L
184.379 132.621 L
186.5 133.5 L
188.621 132.621 L
cp
S
GR
GS
0 0.447 0.741 RC
1 LJ
N
211.5 142.5 M
210.621 140.379 L
208.5 139.5 L
206.379 140.379 L
205.5 142.5 L
206.379 144.621 L
208.5 145.5 L
210.621 144.621 L
cp
S
GR
GS
0 0.447 0.741 RC
1 LJ
N
234.5 155.5 M
233.621 153.379 L
231.5 152.5 L
229.379 153.379 L
228.5 155.5 L
229.379 157.621 L
231.5 158.5 L
233.621 157.621 L
cp
S
GR
GS
0 0.447 0.741 RC
1 LJ
N
256.5 168.5 M
255.621 166.379 L
253.5 165.5 L
251.379 166.379 L
250.5 168.5 L
251.379 170.621 L
253.5 171.5 L
255.621 170.621 L
cp
S
GR
GS
0 0.447 0.741 RC
1 LJ
N
278.5 181.5 M
277.621 179.379 L
275.5 178.5 L
273.379 179.379 L
272.5 181.5 L
273.379 183.621 L
275.5 184.5 L
277.621 183.621 L
cp
S
GR
GS
0 0.447 0.741 RC
1 LJ
N
301.5 195.5 M
300.621 193.379 L
298.5 192.5 L
296.379 193.379 L
295.5 195.5 L
296.379 197.621 L
298.5 198.5 L
300.621 197.621 L
cp
S
GR
GS
0 0.447 0.741 RC
1 LJ
N
323.5 210.5 M
322.621 208.379 L
320.5 207.5 L
318.379 208.379 L
317.5 210.5 L
318.379 212.621 L
320.5 213.5 L
322.621 212.621 L
cp
S
GR
GS
0 0.447 0.741 RC
1 LJ
N
345.5 226.5 M
344.621 224.379 L
342.5 223.5 L
340.379 224.379 L
339.5 226.5 L
340.379 228.621 L
342.5 229.5 L
344.621 228.621 L
cp
S
GR
GS
0 0.447 0.741 RC
1 LJ
N
368.5 243.5 M
367.621 241.379 L
365.5 240.5 L
363.379 241.379 L
362.5 243.5 L
363.379 245.621 L
365.5 246.5 L
367.621 245.621 L
cp
S
GR
GS
0 0.447 0.741 RC
1 LJ
N
390.5 261.5 M
389.621 259.379 L
387.5 258.5 L
385.379 259.379 L
384.5 261.5 L
385.379 263.621 L
387.5 264.5 L
389.621 263.621 L
cp
S
GR
GS
0 0.447 0.741 RC
1 LJ
N
412.5 282.5 M
411.621 280.379 L
409.5 279.5 L
407.379 280.379 L
406.5 282.5 L
407.379 284.621 L
409.5 285.5 L
411.621 284.621 L
cp
S
GR
GS
0 0.447 0.741 RC
1 LJ
N
435.5 303.5 M
434.621 301.379 L
432.5 300.5 L
430.379 301.379 L
429.5 303.5 L
430.379 305.621 L
432.5 306.5 L
434.621 305.621 L
cp
S
GR
GS
0 0.447 0.741 RC
1 LJ
N
457.5 327.5 M
456.621 325.379 L
454.5 324.5 L
452.379 325.379 L
451.5 327.5 L
452.379 329.621 L
454.5 330.5 L
456.621 329.621 L
cp
S
GR
GS
0.851 0.325 0.098 RC
1 LJ
N
97.325 64.746 M
119.65 93.282 L
141.975 108.675 L
164.3 121.631 L
186.625 133.817 L
208.95 145.795 L
231.275 157.879 L
253.6 170.277 L
275.925 183.205 L
298.25 196.82 L
320.575 211.246 L
342.9 226.567 L
365.225 242.928 L
387.55 260.606 L
409.875 279.532 L
432.2 299.9 L
454.525 321.697 L
476.85 343.657 L
S
GR
GS
0.851 0.325 0.098 RC
1 LJ
N
100.5 64.5 M
99.621 62.379 L
97.5 61.5 L
95.379 62.379 L
94.5 64.5 L
95.379 66.621 L
97.5 67.5 L
99.621 66.621 L
cp
S
GR
GS
0.851 0.325 0.098 RC
1 LJ
N
122.5 93.5 M
121.621 91.379 L
119.5 90.5 L
117.379 91.379 L
116.5 93.5 L
117.379 95.621 L
119.5 96.5 L
121.621 95.621 L
cp
S
GR
GS
0.851 0.325 0.098 RC
1 LJ
N
144.5 108.5 M
143.621 106.379 L
141.5 105.5 L
139.379 106.379 L
138.5 108.5 L
139.379 110.621 L
141.5 111.5 L
143.621 110.621 L
cp
S
GR
GS
0.851 0.325 0.098 RC
1 LJ
N
167.5 121.5 M
166.621 119.379 L
164.5 118.5 L
162.379 119.379 L
161.5 121.5 L
162.379 123.621 L
164.5 124.5 L
166.621 123.621 L
cp
S
GR
GS
0.851 0.325 0.098 RC
1 LJ
N
189.5 133.5 M
188.621 131.379 L
186.5 130.5 L
184.379 131.379 L
183.5 133.5 L
184.379 135.621 L
186.5 136.5 L
188.621 135.621 L
cp
S
GR
GS
0.851 0.325 0.098 RC
1 LJ
N
211.5 145.5 M
210.621 143.379 L
208.5 142.5 L
206.379 143.379 L
205.5 145.5 L
206.379 147.621 L
208.5 148.5 L
210.621 147.621 L
cp
S
GR
GS
0.851 0.325 0.098 RC
1 LJ
N
234.5 157.5 M
233.621 155.379 L
231.5 154.5 L
229.379 155.379 L
228.5 157.5 L
229.379 159.621 L
231.5 160.5 L
233.621 159.621 L
cp
S
GR
GS
0.851 0.325 0.098 RC
1 LJ
N
256.5 170.5 M
255.621 168.379 L
253.5 167.5 L
251.379 168.379 L
250.5 170.5 L
251.379 172.621 L
253.5 173.5 L
255.621 172.621 L
cp
S
GR
GS
0.851 0.325 0.098 RC
1 LJ
N
278.5 183.5 M
277.621 181.379 L
275.5 180.5 L
273.379 181.379 L
272.5 183.5 L
273.379 185.621 L
275.5 186.5 L
277.621 185.621 L
cp
S
GR
GS
0.851 0.325 0.098 RC
1 LJ
N
301.5 196.5 M
300.621 194.379 L
298.5 193.5 L
296.379 194.379 L
295.5 196.5 L
296.379 198.621 L
298.5 199.5 L
300.621 198.621 L
cp
S
GR
GS
0.851 0.325 0.098 RC
1 LJ
N
323.5 211.5 M
322.621 209.379 L
320.5 208.5 L
318.379 209.379 L
317.5 211.5 L
318.379 213.621 L
320.5 214.5 L
322.621 213.621 L
cp
S
GR
GS
0.851 0.325 0.098 RC
1 LJ
N
345.5 226.5 M
344.621 224.379 L
342.5 223.5 L
340.379 224.379 L
339.5 226.5 L
340.379 228.621 L
342.5 229.5 L
344.621 228.621 L
cp
S
GR
GS
0.851 0.325 0.098 RC
1 LJ
N
368.5 242.5 M
367.621 240.379 L
365.5 239.5 L
363.379 240.379 L
362.5 242.5 L
363.379 244.621 L
365.5 245.5 L
367.621 244.621 L
cp
S
GR
GS
0.851 0.325 0.098 RC
1 LJ
N
390.5 260.5 M
389.621 258.379 L
387.5 257.5 L
385.379 258.379 L
384.5 260.5 L
385.379 262.621 L
387.5 263.5 L
389.621 262.621 L
cp
S
GR
GS
0.851 0.325 0.098 RC
1 LJ
N
412.5 279.5 M
411.621 277.379 L
409.5 276.5 L
407.379 277.379 L
406.5 279.5 L
407.379 281.621 L
409.5 282.5 L
411.621 281.621 L
cp
S
GR
GS
0.851 0.325 0.098 RC
1 LJ
N
435.5 299.5 M
434.621 297.379 L
432.5 296.5 L
430.379 297.379 L
429.5 299.5 L
430.379 301.621 L
432.5 302.5 L
434.621 301.621 L
cp
S
GR
GS
0.851 0.325 0.098 RC
1 LJ
N
457.5 321.5 M
456.621 319.379 L
454.5 318.5 L
452.379 319.379 L
451.5 321.5 L
452.379 323.621 L
454.5 324.5 L
456.621 323.621 L
cp
S
GR
GS
0.851 0.325 0.098 RC
1 LJ
N
479.5 343.5 M
478.621 341.379 L
476.5 340.5 L
474.379 341.379 L
473.5 343.5 L
474.379 345.621 L
476.5 346.5 L
478.621 345.621 L
cp
S
GR
GS
0.929 0.694 0.125 RC
1 LJ
N
97.325 64.746 M
119.65 87.929 L
141.975 101.923 L
164.3 113.902 L
186.625 125.172 L
208.95 136.226 L
231.275 147.289 L
253.6 158.517 L
275.925 170.09 L
298.25 181.989 L
320.575 194.553 L
342.9 207.798 L
365.225 221.785 L
387.55 236.762 L
409.875 252.627 L
432.2 269.606 L
454.525 287.678 L
476.85 306.957 L
499.175 327.458 L
S
GR
GS
0.929 0.694 0.125 RC
1 LJ
N
100.5 64.5 M
99.621 62.379 L
97.5 61.5 L
95.379 62.379 L
94.5 64.5 L
95.379 66.621 L
97.5 67.5 L
99.621 66.621 L
cp
S
GR
GS
0.929 0.694 0.125 RC
1 LJ
N
122.5 87.5 M
121.621 85.379 L
119.5 84.5 L
117.379 85.379 L
116.5 87.5 L
117.379 89.621 L
119.5 90.5 L
121.621 89.621 L
cp
S
GR
GS
0.929 0.694 0.125 RC
1 LJ
N
144.5 101.5 M
143.621 99.379 L
141.5 98.5 L
139.379 99.379 L
138.5 101.5 L
139.379 103.621 L
141.5 104.5 L
143.621 103.621 L
cp
S
GR
GS
0.929 0.694 0.125 RC
1 LJ
N
167.5 113.5 M
166.621 111.379 L
164.5 110.5 L
162.379 111.379 L
161.5 113.5 L
162.379 115.621 L
164.5 116.5 L
166.621 115.621 L
cp
S
GR
GS
0.929 0.694 0.125 RC
1 LJ
N
189.5 125.5 M
188.621 123.379 L
186.5 122.5 L
184.379 123.379 L
183.5 125.5 L
184.379 127.621 L
186.5 128.5 L
188.621 127.621 L
cp
S
GR
GS
0.929 0.694 0.125 RC
1 LJ
N
211.5 136.5 M
210.621 134.379 L
208.5 133.5 L
206.379 134.379 L
205.5 136.5 L
206.379 138.621 L
208.5 139.5 L
210.621 138.621 L
cp
S
GR
GS
0.929 0.694 0.125 RC
1 LJ
N
234.5 147.5 M
233.621 145.379 L
231.5 144.5 L
229.379 145.379 L
228.5 147.5 L
229.379 149.621 L
231.5 150.5 L
233.621 149.621 L
cp
S
GR
GS
0.929 0.694 0.125 RC
1 LJ
N
256.5 158.5 M
255.621 156.379 L
253.5 155.5 L
251.379 156.379 L
250.5 158.5 L
251.379 160.621 L
253.5 161.5 L
255.621 160.621 L
cp
S
GR
GS
0.929 0.694 0.125 RC
1 LJ
N
278.5 170.5 M
277.621 168.379 L
275.5 167.5 L
273.379 168.379 L
272.5 170.5 L
273.379 172.621 L
275.5 173.5 L
277.621 172.621 L
cp
S
GR
GS
0.929 0.694 0.125 RC
1 LJ
N
301.5 181.5 M
300.621 179.379 L
298.5 178.5 L
296.379 179.379 L
295.5 181.5 L
296.379 183.621 L
298.5 184.5 L
300.621 183.621 L
cp
S
GR
GS
0.929 0.694 0.125 RC
1 LJ
N
323.5 194.5 M
322.621 192.379 L
320.5 191.5 L
318.379 192.379 L
317.5 194.5 L
318.379 196.621 L
320.5 197.5 L
322.621 196.621 L
cp
S
GR
GS
0.929 0.694 0.125 RC
1 LJ
N
345.5 207.5 M
344.621 205.379 L
342.5 204.5 L
340.379 205.379 L
339.5 207.5 L
340.379 209.621 L
342.5 210.5 L
344.621 209.621 L
cp
S
GR
GS
0.929 0.694 0.125 RC
1 LJ
N
368.5 221.5 M
367.621 219.379 L
365.5 218.5 L
363.379 219.379 L
362.5 221.5 L
363.379 223.621 L
365.5 224.5 L
367.621 223.621 L
cp
S
GR
GS
0.929 0.694 0.125 RC
1 LJ
N
390.5 236.5 M
389.621 234.379 L
387.5 233.5 L
385.379 234.379 L
384.5 236.5 L
385.379 238.621 L
387.5 239.5 L
389.621 238.621 L
cp
S
GR
GS
0.929 0.694 0.125 RC
1 LJ
N
412.5 252.5 M
411.621 250.379 L
409.5 249.5 L
407.379 250.379 L
406.5 252.5 L
407.379 254.621 L
409.5 255.5 L
411.621 254.621 L
cp
S
GR
GS
0.929 0.694 0.125 RC
1 LJ
N
435.5 269.5 M
434.621 267.379 L
432.5 266.5 L
430.379 267.379 L
429.5 269.5 L
430.379 271.621 L
432.5 272.5 L
434.621 271.621 L
cp
S
GR
GS
0.929 0.694 0.125 RC
1 LJ
N
457.5 287.5 M
456.621 285.379 L
454.5 284.5 L
452.379 285.379 L
451.5 287.5 L
452.379 289.621 L
454.5 290.5 L
456.621 289.621 L
cp
S
GR
GS
0.929 0.694 0.125 RC
1 LJ
N
479.5 306.5 M
478.621 304.379 L
476.5 303.5 L
474.379 304.379 L
473.5 306.5 L
474.379 308.621 L
476.5 309.5 L
478.621 308.621 L
cp
S
GR
GS
0.929 0.694 0.125 RC
1 LJ
N
502.5 327.5 M
501.621 325.379 L
499.5 324.5 L
497.379 325.379 L
496.5 327.5 L
497.379 329.621 L
499.5 330.5 L
501.621 329.621 L
cp
S
GR
GS
0.494 0.184 0.557 RC
1 LJ
N
97.325 64.746 M
119.65 79.267 L
141.975 100.894 L
164.3 114.305 L
186.625 127.994 L
208.95 140.152 L
231.275 152.35 L
253.6 164.506 L
275.925 176.85 L
298.25 189.551 L
320.575 202.392 L
342.9 215.706 L
365.225 229.005 L
387.55 242.966 L
409.875 256.194 L
432.2 271.167 L
454.525 284.278 L
476.85 301.78 L
499.175 315.489 L
521.5 336.808 L
S
GR
GS
0.494 0.184 0.557 RC
1 LJ
N
100.5 64.5 M
99.621 62.379 L
97.5 61.5 L
95.379 62.379 L
94.5 64.5 L
95.379 66.621 L
97.5 67.5 L
99.621 66.621 L
cp
S
GR
GS
0.494 0.184 0.557 RC
1 LJ
N
122.5 79.5 M
121.621 77.379 L
119.5 76.5 L
117.379 77.379 L
116.5 79.5 L
117.379 81.621 L
119.5 82.5 L
121.621 81.621 L
cp
S
GR
GS
0.494 0.184 0.557 RC
1 LJ
N
144.5 100.5 M
143.621 98.379 L
141.5 97.5 L
139.379 98.379 L
138.5 100.5 L
139.379 102.621 L
141.5 103.5 L
143.621 102.621 L
cp
S
GR
GS
0.494 0.184 0.557 RC
1 LJ
N
167.5 114.5 M
166.621 112.379 L
164.5 111.5 L
162.379 112.379 L
161.5 114.5 L
162.379 116.621 L
164.5 117.5 L
166.621 116.621 L
cp
S
GR
GS
0.494 0.184 0.557 RC
1 LJ
N
189.5 127.5 M
188.621 125.379 L
186.5 124.5 L
184.379 125.379 L
183.5 127.5 L
184.379 129.621 L
186.5 130.5 L
188.621 129.621 L
cp
S
GR
GS
0.494 0.184 0.557 RC
1 LJ
N
211.5 140.5 M
210.621 138.379 L
208.5 137.5 L
206.379 138.379 L
205.5 140.5 L
206.379 142.621 L
208.5 143.5 L
210.621 142.621 L
cp
S
GR
GS
0.494 0.184 0.557 RC
1 LJ
N
234.5 152.5 M
233.621 150.379 L
231.5 149.5 L
229.379 150.379 L
228.5 152.5 L
229.379 154.621 L
231.5 155.5 L
233.621 154.621 L
cp
S
GR
GS
0.494 0.184 0.557 RC
1 LJ
N
256.5 164.5 M
255.621 162.379 L
253.5 161.5 L
251.379 162.379 L
250.5 164.5 L
251.379 166.621 L
253.5 167.5 L
255.621 166.621 L
cp
S
GR
GS
0.494 0.184 0.557 RC
1 LJ
N
278.5 176.5 M
277.621 174.379 L
275.5 173.5 L
273.379 174.379 L
272.5 176.5 L
273.379 178.621 L
275.5 179.5 L
277.621 178.621 L
cp
S
GR
GS
0.494 0.184 0.557 RC
1 LJ
N
301.5 189.5 M
300.621 187.379 L
298.5 186.5 L
296.379 187.379 L
295.5 189.5 L
296.379 191.621 L
298.5 192.5 L
300.621 191.621 L
cp
S
GR
GS
0.494 0.184 0.557 RC
1 LJ
N
323.5 202.5 M
322.621 200.379 L
320.5 199.5 L
318.379 200.379 L
317.5 202.5 L
318.379 204.621 L
320.5 205.5 L
322.621 204.621 L
cp
S
GR
GS
0.494 0.184 0.557 RC
1 LJ
N
345.5 215.5 M
344.621 213.379 L
342.5 212.5 L
340.379 213.379 L
339.5 215.5 L
340.379 217.621 L
342.5 218.5 L
344.621 217.621 L
cp
S
GR
GS
0.494 0.184 0.557 RC
1 LJ
N
368.5 229.5 M
367.621 227.379 L
365.5 226.5 L
363.379 227.379 L
362.5 229.5 L
363.379 231.621 L
365.5 232.5 L
367.621 231.621 L
cp
S
GR
GS
0.494 0.184 0.557 RC
1 LJ
N
390.5 242.5 M
389.621 240.379 L
387.5 239.5 L
385.379 240.379 L
384.5 242.5 L
385.379 244.621 L
387.5 245.5 L
389.621 244.621 L
cp
S
GR
GS
0.494 0.184 0.557 RC
1 LJ
N
412.5 256.5 M
411.621 254.379 L
409.5 253.5 L
407.379 254.379 L
406.5 256.5 L
407.379 258.621 L
409.5 259.5 L
411.621 258.621 L
cp
S
GR
GS
0.494 0.184 0.557 RC
1 LJ
N
435.5 271.5 M
434.621 269.379 L
432.5 268.5 L
430.379 269.379 L
429.5 271.5 L
430.379 273.621 L
432.5 274.5 L
434.621 273.621 L
cp
S
GR
GS
0.494 0.184 0.557 RC
1 LJ
N
457.5 284.5 M
456.621 282.379 L
454.5 281.5 L
452.379 282.379 L
451.5 284.5 L
452.379 286.621 L
454.5 287.5 L
456.621 286.621 L
cp
S
GR
GS
0.494 0.184 0.557 RC
1 LJ
N
479.5 301.5 M
478.621 299.379 L
476.5 298.5 L
474.379 299.379 L
473.5 301.5 L
474.379 303.621 L
476.5 304.5 L
478.621 303.621 L
cp
S
GR
GS
0.494 0.184 0.557 RC
1 LJ
N
502.5 315.5 M
501.621 313.379 L
499.5 312.5 L
497.379 313.379 L
496.5 315.5 L
497.379 317.621 L
499.5 318.5 L
501.621 317.621 L
cp
S
GR
GS
0.494 0.184 0.557 RC
1 LJ
N
524.5 336.5 M
523.621 334.379 L
521.5 333.5 L
519.379 334.379 L
518.5 336.5 L
519.379 338.621 L
521.5 339.5 L
523.621 338.621 L
cp
S
GR
GS
[1 0 0 1 338 53.75] CT
/Helvetica 17 F
GS
[1 0 0 1 0 0] CT
0 4.5 moveto 
1 -1 scale
(No shuffling) t 
GR
GR
GS
0 0.447 0.741 RC
1 LJ
N
305 53.75 M
335 53.75 L
S
GR
GS
0 0.447 0.741 RC
1 LJ
N
323.5 53.5 M
322.621 51.379 L
320.5 50.5 L
318.379 51.379 L
317.5 53.5 L
318.379 55.621 L
320.5 56.5 L
322.621 55.621 L
cp
S
GR
GS
[1 0 0 1 338 72.75] CT
/Helvetica 17 F
GS
[1 0 0 1 0 0] CT
0 4.5 moveto 
1 -1 scale
(Random without repl.) t 
GR
GR
GS
0.851 0.325 0.098 RC
1 LJ
N
305 72.75 M
335 72.75 L
S
GR
GS
0.851 0.325 0.098 RC
1 LJ
N
323.5 72.5 M
322.621 70.379 L
320.5 69.5 L
318.379 70.379 L
317.5 72.5 L
318.379 74.621 L
320.5 75.5 L
322.621 74.621 L
cp
S
GR
GS
[1 0 0 1 338 91.75] CT
/Helvetica 17 F
GS
[1 0 0 1 0 0] CT
0 4.5 moveto 
1 -1 scale
(Random with repl.) t 
GR
GR
GS
0.929 0.694 0.125 RC
1 LJ
N
305 91.75 M
335 91.75 L
S
GR
GS
0.929 0.694 0.125 RC
1 LJ
N
323.5 91.5 M
322.621 89.379 L
320.5 88.5 L
318.379 89.379 L
317.5 91.5 L
318.379 93.621 L
320.5 94.5 L
322.621 93.621 L
cp
S
GR
GS
[1 0 0 1 338 110.75] CT
/Helvetica 17 F
GS
[1 0 0 1 0 0] CT
0 4.5 moveto 
1 -1 scale
(Smart shuffling) t 
GR
GR
GS
0.494 0.184 0.557 RC
1 LJ
N
305 110.75 M
335 110.75 L
S
GR
GS
0.494 0.184 0.557 RC
1 LJ
N
323.5 110.5 M
322.621 108.379 L
320.5 107.5 L
318.379 108.379 L
317.5 110.5 L
318.379 112.621 L
320.5 113.5 L
322.621 112.621 L
cp
S
GR
%%Trailer
%%Pages: 1
%%EOF
