%!PS-Adobe-3.0 EPSF-3.0
%%Creator: (MATLAB, The Mathworks, Inc. Version 8.6.0.267246 \(R2015b\). Operating System: Mac OS X)
%%Title: /Users/gauthiermuguerza/Desktop/rsgd/report/images/syntheticExpensiveWeights.eps
%%CreationDate: 2018-06-09T22:03:27
%%Pages: (atend)
%%BoundingBox:     8     0   533   413
%%LanguageLevel: 3
%%EndComments
%%BeginProlog
%%BeginResource: procset (Apache XML Graphics Std ProcSet) 1.2 0
%%Version: 1.2 0
%%Copyright: (Copyright 2001-2003,2010 The Apache Software Foundation. License terms: http://www.apache.org/licenses/LICENSE-2.0)
/bd{bind def}bind def
/ld{load def}bd
/GR/grestore ld
/M/moveto ld
/LJ/setlinejoin ld
/C/curveto ld
/f/fill ld
/LW/setlinewidth ld
/GC/setgray ld
/t/show ld
/N/newpath ld
/CT/concat ld
/cp/closepath ld
/S/stroke ld
/L/lineto ld
/CC/setcmykcolor ld
/A/ashow ld
/GS/gsave ld
/RC/setrgbcolor ld
/RM/rmoveto ld
/ML/setmiterlimit ld
/re {4 2 roll M
1 index 0 rlineto
0 exch rlineto
neg 0 rlineto
cp } bd
/_ctm matrix def
/_tm matrix def
/BT { _ctm currentmatrix pop matrix _tm copy pop 0 0 moveto } bd
/ET { _ctm setmatrix } bd
/iTm { _ctm setmatrix _tm concat } bd
/Tm { _tm astore pop iTm 0 0 moveto } bd
/ux 0.0 def
/uy 0.0 def
/F {
  /Tp exch def
  /Tf exch def
  Tf findfont Tp scalefont setfont
  /cf Tf def  /cs Tp def
} bd
/ULS {currentpoint /uy exch def /ux exch def} bd
/ULE {
  /Tcx currentpoint pop def
  gsave
  newpath
  cf findfont cs scalefont dup
  /FontMatrix get 0 get /Ts exch def /FontInfo get dup
  /UnderlinePosition get Ts mul /To exch def
  /UnderlineThickness get Ts mul /Tt exch def
  ux uy To add moveto  Tcx uy To add lineto
  Tt setlinewidth stroke
  grestore
} bd
/OLE {
  /Tcx currentpoint pop def
  gsave
  newpath
  cf findfont cs scalefont dup
  /FontMatrix get 0 get /Ts exch def /FontInfo get dup
  /UnderlinePosition get Ts mul /To exch def
  /UnderlineThickness get Ts mul /Tt exch def
  ux uy To add cs add moveto Tcx uy To add cs add lineto
  Tt setlinewidth stroke
  grestore
} bd
/SOE {
  /Tcx currentpoint pop def
  gsave
  newpath
  cf findfont cs scalefont dup
  /FontMatrix get 0 get /Ts exch def /FontInfo get dup
  /UnderlinePosition get Ts mul /To exch def
  /UnderlineThickness get Ts mul /Tt exch def
  ux uy To add cs 10 mul 26 idiv add moveto Tcx uy To add cs 10 mul 26 idiv add lineto
  Tt setlinewidth stroke
  grestore
} bd
/QT {
/Y22 exch store
/X22 exch store
/Y21 exch store
/X21 exch store
currentpoint
/Y21 load 2 mul add 3 div exch
/X21 load 2 mul add 3 div exch
/X21 load 2 mul /X22 load add 3 div
/Y21 load 2 mul /Y22 load add 3 div
/X22 load /Y22 load curveto
} bd
/SSPD {
dup length /d exch dict def
{
/v exch def
/k exch def
currentpagedevice k known {
/cpdv currentpagedevice k get def
v cpdv ne {
/upd false def
/nullv v type /nulltype eq def
/nullcpdv cpdv type /nulltype eq def
nullv nullcpdv or
{
/upd true def
} {
/sametype v type cpdv type eq def
sametype {
v type /arraytype eq {
/vlen v length def
/cpdvlen cpdv length def
vlen cpdvlen eq {
0 1 vlen 1 sub {
/i exch def
/obj v i get def
/cpdobj cpdv i get def
obj cpdobj ne {
/upd true def
exit
} if
} for
} {
/upd true def
} ifelse
} {
v type /dicttype eq {
v {
/dv exch def
/dk exch def
/cpddv cpdv dk get def
dv cpddv ne {
/upd true def
exit
} if
} forall
} {
/upd true def
} ifelse
} ifelse
} if
} ifelse
upd true eq {
d k v put
} if
} if
} if
} forall
d length 0 gt {
d setpagedevice
} if
} bd
%%EndResource
%%BeginResource: procset (Apache XML Graphics EPS ProcSet) 1.0 0
%%Version: 1.0 0
%%Copyright: (Copyright 2002-2003 The Apache Software Foundation. License terms: http://www.apache.org/licenses/LICENSE-2.0)
/BeginEPSF { %def
/b4_Inc_state save def         % Save state for cleanup
/dict_count countdictstack def % Count objects on dict stack
/op_count count 1 sub def      % Count objects on operand stack
userdict begin                 % Push userdict on dict stack
/showpage { } def              % Redefine showpage, { } = null proc
0 setgray 0 setlinecap         % Prepare graphics state
1 setlinewidth 0 setlinejoin
10 setmiterlimit [ ] 0 setdash newpath
/languagelevel where           % If level not equal to 1 then
{pop languagelevel             % set strokeadjust and
1 ne                           % overprint to their defaults.
{false setstrokeadjust false setoverprint
} if
} if
} bd
/EndEPSF { %def
count op_count sub {pop} repeat            % Clean up stacks
countdictstack dict_count sub {end} repeat
b4_Inc_state restore
} bd
%%EndResource
%FOPBeginFontDict
%%IncludeResource: font Courier-Bold
%%IncludeResource: font Helvetica
%%IncludeResource: font Courier-BoldOblique
%%IncludeResource: font Courier-Oblique
%%IncludeResource: font Times-Roman
%%IncludeResource: font Helvetica-BoldOblique
%%IncludeResource: font Helvetica-Bold
%%IncludeResource: font Helvetica-Oblique
%%IncludeResource: font Times-BoldItalic
%%IncludeResource: font Courier
%%IncludeResource: font Times-Italic
%%IncludeResource: font Times-Bold
%%IncludeResource: font Symbol
%%IncludeResource: font ZapfDingbats
%FOPEndFontDict
%%BeginResource: encoding WinAnsiEncoding
/WinAnsiEncoding [
/.notdef /.notdef /.notdef /.notdef /.notdef
/.notdef /.notdef /.notdef /.notdef /.notdef
/.notdef /.notdef /.notdef /.notdef /.notdef
/.notdef /.notdef /.notdef /.notdef /.notdef
/.notdef /.notdef /.notdef /.notdef /.notdef
/.notdef /.notdef /.notdef /.notdef /.notdef
/.notdef /.notdef /space /exclam /quotedbl
/numbersign /dollar /percent /ampersand /quotesingle
/parenleft /parenright /asterisk /plus /comma
/hyphen /period /slash /zero /one
/two /three /four /five /six
/seven /eight /nine /colon /semicolon
/less /equal /greater /question /at
/A /B /C /D /E
/F /G /H /I /J
/K /L /M /N /O
/P /Q /R /S /T
/U /V /W /X /Y
/Z /bracketleft /backslash /bracketright /asciicircum
/underscore /quoteleft /a /b /c
/d /e /f /g /h
/i /j /k /l /m
/n /o /p /q /r
/s /t /u /v /w
/x /y /z /braceleft /bar
/braceright /asciitilde /bullet /Euro /bullet
/quotesinglbase /florin /quotedblbase /ellipsis /dagger
/daggerdbl /circumflex /perthousand /Scaron /guilsinglleft
/OE /bullet /Zcaron /bullet /bullet
/quoteleft /quoteright /quotedblleft /quotedblright /bullet
/endash /emdash /asciitilde /trademark /scaron
/guilsinglright /oe /bullet /zcaron /Ydieresis
/space /exclamdown /cent /sterling /currency
/yen /brokenbar /section /dieresis /copyright
/ordfeminine /guillemotleft /logicalnot /sfthyphen /registered
/macron /degree /plusminus /twosuperior /threesuperior
/acute /mu /paragraph /middot /cedilla
/onesuperior /ordmasculine /guillemotright /onequarter /onehalf
/threequarters /questiondown /Agrave /Aacute /Acircumflex
/Atilde /Adieresis /Aring /AE /Ccedilla
/Egrave /Eacute /Ecircumflex /Edieresis /Igrave
/Iacute /Icircumflex /Idieresis /Eth /Ntilde
/Ograve /Oacute /Ocircumflex /Otilde /Odieresis
/multiply /Oslash /Ugrave /Uacute /Ucircumflex
/Udieresis /Yacute /Thorn /germandbls /agrave
/aacute /acircumflex /atilde /adieresis /aring
/ae /ccedilla /egrave /eacute /ecircumflex
/edieresis /igrave /iacute /icircumflex /idieresis
/eth /ntilde /ograve /oacute /ocircumflex
/otilde /odieresis /divide /oslash /ugrave
/uacute /ucircumflex /udieresis /yacute /thorn
/ydieresis
] def
%%EndResource
%FOPBeginFontReencode
/Courier-Bold findfont
dup length dict begin
  {1 index /FID ne {def} {pop pop} ifelse} forall
  /Encoding WinAnsiEncoding def
  currentdict
end
/Courier-Bold exch definefont pop
/Helvetica findfont
dup length dict begin
  {1 index /FID ne {def} {pop pop} ifelse} forall
  /Encoding WinAnsiEncoding def
  currentdict
end
/Helvetica exch definefont pop
/Courier-BoldOblique findfont
dup length dict begin
  {1 index /FID ne {def} {pop pop} ifelse} forall
  /Encoding WinAnsiEncoding def
  currentdict
end
/Courier-BoldOblique exch definefont pop
/Courier-Oblique findfont
dup length dict begin
  {1 index /FID ne {def} {pop pop} ifelse} forall
  /Encoding WinAnsiEncoding def
  currentdict
end
/Courier-Oblique exch definefont pop
/Times-Roman findfont
dup length dict begin
  {1 index /FID ne {def} {pop pop} ifelse} forall
  /Encoding WinAnsiEncoding def
  currentdict
end
/Times-Roman exch definefont pop
/Helvetica-BoldOblique findfont
dup length dict begin
  {1 index /FID ne {def} {pop pop} ifelse} forall
  /Encoding WinAnsiEncoding def
  currentdict
end
/Helvetica-BoldOblique exch definefont pop
/Helvetica-Bold findfont
dup length dict begin
  {1 index /FID ne {def} {pop pop} ifelse} forall
  /Encoding WinAnsiEncoding def
  currentdict
end
/Helvetica-Bold exch definefont pop
/Helvetica-Oblique findfont
dup length dict begin
  {1 index /FID ne {def} {pop pop} ifelse} forall
  /Encoding WinAnsiEncoding def
  currentdict
end
/Helvetica-Oblique exch definefont pop
/Times-BoldItalic findfont
dup length dict begin
  {1 index /FID ne {def} {pop pop} ifelse} forall
  /Encoding WinAnsiEncoding def
  currentdict
end
/Times-BoldItalic exch definefont pop
/Courier findfont
dup length dict begin
  {1 index /FID ne {def} {pop pop} ifelse} forall
  /Encoding WinAnsiEncoding def
  currentdict
end
/Courier exch definefont pop
/Times-Italic findfont
dup length dict begin
  {1 index /FID ne {def} {pop pop} ifelse} forall
  /Encoding WinAnsiEncoding def
  currentdict
end
/Times-Italic exch definefont pop
/Times-Bold findfont
dup length dict begin
  {1 index /FID ne {def} {pop pop} ifelse} forall
  /Encoding WinAnsiEncoding def
  currentdict
end
/Times-Bold exch definefont pop
%FOPEndFontReencode
%%EndProlog
%%Page: 1 1
%%PageBoundingBox: 0 0 576 432
%%BeginPageSetup
[1 0 0 -1 0 432] CT
%%EndPageSetup
GS
1 GC
N
0 0 576 432 re
f
GR
GS
1 GC
N
0 0 576 432 re
f
GR
GS
1 GC
N
75 384 M
521.5 384 L
521.5 32.5 L
75 32.5 L
cp
f
GR
GS
0.149 GC
2 setlinecap
1 LJ
0.5 LW
N
75 384 M
521.5 384 L
S
GR
GS
0.149 GC
2 setlinecap
1 LJ
0.5 LW
N
75 384 M
75 379.535 L
S
GR
GS
0.149 GC
2 setlinecap
1 LJ
0.5 LW
N
186.625 384 M
186.625 379.535 L
S
GR
GS
0.149 GC
2 setlinecap
1 LJ
0.5 LW
N
298.25 384 M
298.25 379.535 L
S
GR
GS
0.149 GC
2 setlinecap
1 LJ
0.5 LW
N
409.875 384 M
409.875 379.535 L
S
GR
GS
0.149 GC
2 setlinecap
1 LJ
0.5 LW
N
521.5 384 M
521.5 379.535 L
S
GR
GS
[1 0 0 1 75 390] CT
0.149 GC
/Helvetica 20 F
GS
[1 0 0 1 0 0] CT
-6 16 moveto 
1 -1 scale
(0) t 
GR
GR
GS
[1 0 0 1 186.625 390] CT
0.149 GC
/Helvetica 20 F
GS
[1 0 0 1 0 0] CT
-11.5 16 moveto 
1 -1 scale
(10) t 
GR
GR
GS
[1 0 0 1 298.25 390] CT
0.149 GC
/Helvetica 20 F
GS
[1 0 0 1 0 0] CT
-11.5 16 moveto 
1 -1 scale
(20) t 
GR
GR
GS
[1 0 0 1 409.875 390] CT
0.149 GC
/Helvetica 20 F
GS
[1 0 0 1 0 0] CT
-11.5 16 moveto 
1 -1 scale
(30) t 
GR
GR
GS
[1 0 0 1 521.5 390] CT
0.149 GC
/Helvetica 20 F
GS
[1 0 0 1 0 0] CT
-11.5 16 moveto 
1 -1 scale
(40) t 
GR
GR
GS
[1 0 0 1 298.25021 411.5] CT
0.149 GC
/Helvetica 20 F
GS
[1 0 0 1 0 0] CT
-37 16 moveto 
1 -1 scale
(Time \(s\)) t 
GR
GR
GS
0.149 GC
2 setlinecap
1 LJ
0.5 LW
N
75 384 M
75 32.5 L
S
GR
GS
0.149 GC
2 setlinecap
1 LJ
0.5 LW
N
75 384 M
79.465 384 L
S
GR
GS
0.149 GC
2 setlinecap
1 LJ
0.5 LW
N
75 325.417 M
79.465 325.417 L
S
GR
GS
0.149 GC
2 setlinecap
1 LJ
0.5 LW
N
75 266.833 M
79.465 266.833 L
S
GR
GS
0.149 GC
2 setlinecap
1 LJ
0.5 LW
N
75 208.25 M
79.465 208.25 L
S
GR
GS
0.149 GC
2 setlinecap
1 LJ
0.5 LW
N
75 149.667 M
79.465 149.667 L
S
GR
GS
0.149 GC
2 setlinecap
1 LJ
0.5 LW
N
75 91.083 M
79.465 91.083 L
S
GR
GS
0.149 GC
2 setlinecap
1 LJ
0.5 LW
N
75 32.5 M
79.465 32.5 L
S
GR
GS
0.149 GC
2 setlinecap
1 LJ
0.5 LW
N
75 366.365 M
77.232 366.365 L
S
GR
GS
0.149 GC
2 setlinecap
1 LJ
0.5 LW
N
75 356.049 M
77.232 356.049 L
S
GR
GS
0.149 GC
2 setlinecap
1 LJ
0.5 LW
N
75 348.729 M
77.232 348.729 L
S
GR
GS
0.149 GC
2 setlinecap
1 LJ
0.5 LW
N
75 343.052 M
77.232 343.052 L
S
GR
GS
0.149 GC
2 setlinecap
1 LJ
0.5 LW
N
75 338.413 M
77.232 338.413 L
S
GR
GS
0.149 GC
2 setlinecap
1 LJ
0.5 LW
N
75 334.491 M
77.232 334.491 L
S
GR
GS
0.149 GC
2 setlinecap
1 LJ
0.5 LW
N
75 331.094 M
77.232 331.094 L
S
GR
GS
0.149 GC
2 setlinecap
1 LJ
0.5 LW
N
75 328.097 M
77.232 328.097 L
S
GR
GS
0.149 GC
2 setlinecap
1 LJ
0.5 LW
N
75 307.781 M
77.232 307.781 L
S
GR
GS
0.149 GC
2 setlinecap
1 LJ
0.5 LW
N
75 297.465 M
77.232 297.465 L
S
GR
GS
0.149 GC
2 setlinecap
1 LJ
0.5 LW
N
75 290.146 M
77.232 290.146 L
S
GR
GS
0.149 GC
2 setlinecap
1 LJ
0.5 LW
N
75 284.469 M
77.232 284.469 L
S
GR
GS
0.149 GC
2 setlinecap
1 LJ
0.5 LW
N
75 279.83 M
77.232 279.83 L
S
GR
GS
0.149 GC
2 setlinecap
1 LJ
0.5 LW
N
75 275.908 M
77.232 275.908 L
S
GR
GS
0.149 GC
2 setlinecap
1 LJ
0.5 LW
N
75 272.511 M
77.232 272.511 L
S
GR
GS
0.149 GC
2 setlinecap
1 LJ
0.5 LW
N
75 269.514 M
77.232 269.514 L
S
GR
GS
0.149 GC
2 setlinecap
1 LJ
0.5 LW
N
75 249.198 M
77.232 249.198 L
S
GR
GS
0.149 GC
2 setlinecap
1 LJ
0.5 LW
N
75 238.882 M
77.232 238.882 L
S
GR
GS
0.149 GC
2 setlinecap
1 LJ
0.5 LW
N
75 231.563 M
77.232 231.563 L
S
GR
GS
0.149 GC
2 setlinecap
1 LJ
0.5 LW
N
75 225.885 M
77.232 225.885 L
S
GR
GS
0.149 GC
2 setlinecap
1 LJ
0.5 LW
N
75 221.247 M
77.232 221.247 L
S
GR
GS
0.149 GC
2 setlinecap
1 LJ
0.5 LW
N
75 217.325 M
77.232 217.325 L
S
GR
GS
0.149 GC
2 setlinecap
1 LJ
0.5 LW
N
75 213.927 M
77.232 213.927 L
S
GR
GS
0.149 GC
2 setlinecap
1 LJ
0.5 LW
N
75 210.931 M
77.232 210.931 L
S
GR
GS
0.149 GC
2 setlinecap
1 LJ
0.5 LW
N
75 190.615 M
77.232 190.615 L
S
GR
GS
0.149 GC
2 setlinecap
1 LJ
0.5 LW
N
75 180.299 M
77.232 180.299 L
S
GR
GS
0.149 GC
2 setlinecap
1 LJ
0.5 LW
N
75 172.979 M
77.232 172.979 L
S
GR
GS
0.149 GC
2 setlinecap
1 LJ
0.5 LW
N
75 167.302 M
77.232 167.302 L
S
GR
GS
0.149 GC
2 setlinecap
1 LJ
0.5 LW
N
75 162.663 M
77.232 162.663 L
S
GR
GS
0.149 GC
2 setlinecap
1 LJ
0.5 LW
N
75 158.741 M
77.232 158.741 L
S
GR
GS
0.149 GC
2 setlinecap
1 LJ
0.5 LW
N
75 155.344 M
77.232 155.344 L
S
GR
GS
0.149 GC
2 setlinecap
1 LJ
0.5 LW
N
75 152.347 M
77.232 152.347 L
S
GR
GS
0.149 GC
2 setlinecap
1 LJ
0.5 LW
N
75 132.031 M
77.232 132.031 L
S
GR
GS
0.149 GC
2 setlinecap
1 LJ
0.5 LW
N
75 121.715 M
77.232 121.715 L
S
GR
GS
0.149 GC
2 setlinecap
1 LJ
0.5 LW
N
75 114.396 M
77.232 114.396 L
S
GR
GS
0.149 GC
2 setlinecap
1 LJ
0.5 LW
N
75 108.719 M
77.232 108.719 L
S
GR
GS
0.149 GC
2 setlinecap
1 LJ
0.5 LW
N
75 104.08 M
77.232 104.08 L
S
GR
GS
0.149 GC
2 setlinecap
1 LJ
0.5 LW
N
75 100.158 M
77.232 100.158 L
S
GR
GS
0.149 GC
2 setlinecap
1 LJ
0.5 LW
N
75 96.761 M
77.232 96.761 L
S
GR
GS
0.149 GC
2 setlinecap
1 LJ
0.5 LW
N
75 93.764 M
77.232 93.764 L
S
GR
GS
0.149 GC
2 setlinecap
1 LJ
0.5 LW
N
75 73.448 M
77.232 73.448 L
S
GR
GS
0.149 GC
2 setlinecap
1 LJ
0.5 LW
N
75 63.132 M
77.232 63.132 L
S
GR
GS
0.149 GC
2 setlinecap
1 LJ
0.5 LW
N
75 55.813 M
77.232 55.813 L
S
GR
GS
0.149 GC
2 setlinecap
1 LJ
0.5 LW
N
75 50.135 M
77.232 50.135 L
S
GR
GS
0.149 GC
2 setlinecap
1 LJ
0.5 LW
N
75 45.497 M
77.232 45.497 L
S
GR
GS
0.149 GC
2 setlinecap
1 LJ
0.5 LW
N
75 41.575 M
77.232 41.575 L
S
GR
GS
0.149 GC
2 setlinecap
1 LJ
0.5 LW
N
75 38.177 M
77.232 38.177 L
S
GR
GS
0.149 GC
2 setlinecap
1 LJ
0.5 LW
N
75 35.181 M
77.232 35.181 L
S
GR
GS
[1 0 0 1 31 393] CT
0.149 GC
/Helvetica 20 F
GS
[1 0 0 1 0 0] CT
0 0 moveto 
1 -1 scale
(10) t 
GR
GR
GS
[1 0 0 1 54 383] CT
0.149 GC
/Helvetica 16 F
GS
[1 0 0 1 0 0] CT
0 0 moveto 
1 -1 scale
(-5) t 
GR
GR
GS
[1 0 0 1 31 334] CT
0.149 GC
/Helvetica 20 F
GS
[1 0 0 1 0 0] CT
0 0 moveto 
1 -1 scale
(10) t 
GR
GR
GS
[1 0 0 1 54 324] CT
0.149 GC
/Helvetica 16 F
GS
[1 0 0 1 0 0] CT
0 0 moveto 
1 -1 scale
(-4) t 
GR
GR
GS
[1 0 0 1 31 276] CT
0.149 GC
/Helvetica 20 F
GS
[1 0 0 1 0 0] CT
0 0 moveto 
1 -1 scale
(10) t 
GR
GR
GS
[1 0 0 1 54 266] CT
0.149 GC
/Helvetica 16 F
GS
[1 0 0 1 0 0] CT
0 0 moveto 
1 -1 scale
(-3) t 
GR
GR
GS
[1 0 0 1 31 217] CT
0.149 GC
/Helvetica 20 F
GS
[1 0 0 1 0 0] CT
0 0 moveto 
1 -1 scale
(10) t 
GR
GR
GS
[1 0 0 1 54 207] CT
0.149 GC
/Helvetica 16 F
GS
[1 0 0 1 0 0] CT
0 0 moveto 
1 -1 scale
(-2) t 
GR
GR
GS
[1 0 0 1 31 159] CT
0.149 GC
/Helvetica 20 F
GS
[1 0 0 1 0 0] CT
0 0 moveto 
1 -1 scale
(10) t 
GR
GR
GS
[1 0 0 1 54 149] CT
0.149 GC
/Helvetica 16 F
GS
[1 0 0 1 0 0] CT
0 0 moveto 
1 -1 scale
(-1) t 
GR
GR
GS
[1 0 0 1 37 100] CT
0.149 GC
/Helvetica 20 F
GS
[1 0 0 1 0 0] CT
0 0 moveto 
1 -1 scale
(10) t 
GR
GR
GS
[1 0 0 1 60 90] CT
0.149 GC
/Helvetica 16 F
GS
[1 0 0 1 0 0] CT
0 0 moveto 
1 -1 scale
(0) t 
GR
GR
GS
[1 0 0 1 37 42] CT
0.149 GC
/Helvetica 20 F
GS
[1 0 0 1 0 0] CT
0 0 moveto 
1 -1 scale
(10) t 
GR
GR
GS
[1 0 0 1 60 32] CT
0.149 GC
/Helvetica 16 F
GS
[1 0 0 1 0 0] CT
0 0 moveto 
1 -1 scale
(1) t 
GR
GR
GS
[0 -1 1 0 29 208.24983] CT
0.149 GC
/Helvetica 20 F
GS
[1 0 0 1 0 0] CT
-54.5 -5 moveto 
1 -1 scale
(Train RMSE) t 
GR
GR
GS
0 0.447 0.741 RC
1 LJ
N
75 64.597 M
78.426 76.98 L
81.7 90.162 L
84.94 107.403 L
88.176 129.925 L
91.393 151.456 L
94.627 170.483 L
97.878 188.918 L
101.151 206.033 L
104.394 222.499 L
107.629 239.522 L
110.91 255.223 L
114.166 267.091 L
117.401 284.017 L
120.651 298.419 L
S
GR
GS
0 0.447 0.741 RC
1 LJ
N
78.5 64.5 M
77.621 62.379 L
75.5 61.5 L
73.379 62.379 L
72.5 64.5 L
73.379 66.621 L
75.5 67.5 L
77.621 66.621 L
cp
S
GR
GS
0 0.447 0.741 RC
1 LJ
N
81.5 76.5 M
80.621 74.379 L
78.5 73.5 L
76.379 74.379 L
75.5 76.5 L
76.379 78.621 L
78.5 79.5 L
80.621 78.621 L
cp
S
GR
GS
0 0.447 0.741 RC
1 LJ
N
84.5 90.5 M
83.621 88.379 L
81.5 87.5 L
79.379 88.379 L
78.5 90.5 L
79.379 92.621 L
81.5 93.5 L
83.621 92.621 L
cp
S
GR
GS
0 0.447 0.741 RC
1 LJ
N
87.5 107.5 M
86.621 105.379 L
84.5 104.5 L
82.379 105.379 L
81.5 107.5 L
82.379 109.621 L
84.5 110.5 L
86.621 109.621 L
cp
S
GR
GS
0 0.447 0.741 RC
1 LJ
N
91.5 129.5 M
90.621 127.379 L
88.5 126.5 L
86.379 127.379 L
85.5 129.5 L
86.379 131.621 L
88.5 132.5 L
90.621 131.621 L
cp
S
GR
GS
0 0.447 0.741 RC
1 LJ
N
94.5 151.5 M
93.621 149.379 L
91.5 148.5 L
89.379 149.379 L
88.5 151.5 L
89.379 153.621 L
91.5 154.5 L
93.621 153.621 L
cp
S
GR
GS
0 0.447 0.741 RC
1 LJ
N
97.5 170.5 M
96.621 168.379 L
94.5 167.5 L
92.379 168.379 L
91.5 170.5 L
92.379 172.621 L
94.5 173.5 L
96.621 172.621 L
cp
S
GR
GS
0 0.447 0.741 RC
1 LJ
N
100.5 188.5 M
99.621 186.379 L
97.5 185.5 L
95.379 186.379 L
94.5 188.5 L
95.379 190.621 L
97.5 191.5 L
99.621 190.621 L
cp
S
GR
GS
0 0.447 0.741 RC
1 LJ
N
104.5 206.5 M
103.621 204.379 L
101.5 203.5 L
99.379 204.379 L
98.5 206.5 L
99.379 208.621 L
101.5 209.5 L
103.621 208.621 L
cp
S
GR
GS
0 0.447 0.741 RC
1 LJ
N
107.5 222.5 M
106.621 220.379 L
104.5 219.5 L
102.379 220.379 L
101.5 222.5 L
102.379 224.621 L
104.5 225.5 L
106.621 224.621 L
cp
S
GR
GS
0 0.447 0.741 RC
1 LJ
N
110.5 239.5 M
109.621 237.379 L
107.5 236.5 L
105.379 237.379 L
104.5 239.5 L
105.379 241.621 L
107.5 242.5 L
109.621 241.621 L
cp
S
GR
GS
0 0.447 0.741 RC
1 LJ
N
113.5 255.5 M
112.621 253.379 L
110.5 252.5 L
108.379 253.379 L
107.5 255.5 L
108.379 257.621 L
110.5 258.5 L
112.621 257.621 L
cp
S
GR
GS
0 0.447 0.741 RC
1 LJ
N
117.5 267.5 M
116.621 265.379 L
114.5 264.5 L
112.379 265.379 L
111.5 267.5 L
112.379 269.621 L
114.5 270.5 L
116.621 269.621 L
cp
S
GR
GS
0 0.447 0.741 RC
1 LJ
N
120.5 284.5 M
119.621 282.379 L
117.5 281.5 L
115.379 282.379 L
114.5 284.5 L
115.379 286.621 L
117.5 287.5 L
119.621 286.621 L
cp
S
GR
GS
0 0.447 0.741 RC
1 LJ
N
123.5 298.5 M
122.621 296.379 L
120.5 295.5 L
118.379 296.379 L
117.5 298.5 L
118.379 300.621 L
120.5 301.5 L
122.621 300.621 L
cp
S
GR
GS
0 0.447 0.741 RC
1 LJ
N
75 64.674 M
78.426 74.263 L
81.7 83.965 L
84.94 98.766 L
88.176 118.442 L
91.393 137.178 L
94.627 154.682 L
97.878 171.497 L
101.151 187.961 L
104.394 203.941 L
107.629 219.644 L
110.91 236.242 L
114.166 251.855 L
117.401 268.473 L
120.651 284.673 L
S
GR
GS
0 0.447 0.741 RC
1 LJ
N
72 64.5 M
79 64.5 L
S
GR
GS
0 0.447 0.741 RC
1 LJ
N
75.5 68 M
75.5 61 L
S
GR
GS
0 0.447 0.741 RC
1 LJ
N
73 67 M
78 62 L
S
GR
GS
0 0.447 0.741 RC
1 LJ
N
73 62 M
78 67 L
S
GR
GS
0 0.447 0.741 RC
1 LJ
N
75 74.5 M
82 74.5 L
S
GR
GS
0 0.447 0.741 RC
1 LJ
N
78.5 78 M
78.5 71 L
S
GR
GS
0 0.447 0.741 RC
1 LJ
N
76 77 M
81 72 L
S
GR
GS
0 0.447 0.741 RC
1 LJ
N
76 72 M
81 77 L
S
GR
GS
0 0.447 0.741 RC
1 LJ
N
78 83.5 M
85 83.5 L
S
GR
GS
0 0.447 0.741 RC
1 LJ
N
81.5 87 M
81.5 80 L
S
GR
GS
0 0.447 0.741 RC
1 LJ
N
79 86 M
84 81 L
S
GR
GS
0 0.447 0.741 RC
1 LJ
N
79 81 M
84 86 L
S
GR
GS
0 0.447 0.741 RC
1 LJ
N
81 98.5 M
88 98.5 L
S
GR
GS
0 0.447 0.741 RC
1 LJ
N
84.5 102 M
84.5 95 L
S
GR
GS
0 0.447 0.741 RC
1 LJ
N
82 101 M
87 96 L
S
GR
GS
0 0.447 0.741 RC
1 LJ
N
82 96 M
87 101 L
S
GR
GS
0 0.447 0.741 RC
1 LJ
N
85 118.5 M
92 118.5 L
S
GR
GS
0 0.447 0.741 RC
1 LJ
N
88.5 122 M
88.5 115 L
S
GR
GS
0 0.447 0.741 RC
1 LJ
N
86 121 M
91 116 L
S
GR
GS
0 0.447 0.741 RC
1 LJ
N
86 116 M
91 121 L
S
GR
GS
0 0.447 0.741 RC
1 LJ
N
88 137.5 M
95 137.5 L
S
GR
GS
0 0.447 0.741 RC
1 LJ
N
91.5 141 M
91.5 134 L
S
GR
GS
0 0.447 0.741 RC
1 LJ
N
89 140 M
94 135 L
S
GR
GS
0 0.447 0.741 RC
1 LJ
N
89 135 M
94 140 L
S
GR
GS
0 0.447 0.741 RC
1 LJ
N
91 154.5 M
98 154.5 L
S
GR
GS
0 0.447 0.741 RC
1 LJ
N
94.5 158 M
94.5 151 L
S
GR
GS
0 0.447 0.741 RC
1 LJ
N
92 157 M
97 152 L
S
GR
GS
0 0.447 0.741 RC
1 LJ
N
92 152 M
97 157 L
S
GR
GS
0 0.447 0.741 RC
1 LJ
N
94 171.5 M
101 171.5 L
S
GR
GS
0 0.447 0.741 RC
1 LJ
N
97.5 175 M
97.5 168 L
S
GR
GS
0 0.447 0.741 RC
1 LJ
N
95 174 M
100 169 L
S
GR
GS
0 0.447 0.741 RC
1 LJ
N
95 169 M
100 174 L
S
GR
GS
0 0.447 0.741 RC
1 LJ
N
98 187.5 M
105 187.5 L
S
GR
GS
0 0.447 0.741 RC
1 LJ
N
101.5 191 M
101.5 184 L
S
GR
GS
0 0.447 0.741 RC
1 LJ
N
99 190 M
104 185 L
S
GR
GS
0 0.447 0.741 RC
1 LJ
N
99 185 M
104 190 L
S
GR
GS
0 0.447 0.741 RC
1 LJ
N
101 203.5 M
108 203.5 L
S
GR
GS
0 0.447 0.741 RC
1 LJ
N
104.5 207 M
104.5 200 L
S
GR
GS
0 0.447 0.741 RC
1 LJ
N
102 206 M
107 201 L
S
GR
GS
0 0.447 0.741 RC
1 LJ
N
102 201 M
107 206 L
S
GR
GS
0 0.447 0.741 RC
1 LJ
N
104 219.5 M
111 219.5 L
S
GR
GS
0 0.447 0.741 RC
1 LJ
N
107.5 223 M
107.5 216 L
S
GR
GS
0 0.447 0.741 RC
1 LJ
N
105 222 M
110 217 L
S
GR
GS
0 0.447 0.741 RC
1 LJ
N
105 217 M
110 222 L
S
GR
GS
0 0.447 0.741 RC
1 LJ
N
107 236.5 M
114 236.5 L
S
GR
GS
0 0.447 0.741 RC
1 LJ
N
110.5 240 M
110.5 233 L
S
GR
GS
0 0.447 0.741 RC
1 LJ
N
108 239 M
113 234 L
S
GR
GS
0 0.447 0.741 RC
1 LJ
N
108 234 M
113 239 L
S
GR
GS
0 0.447 0.741 RC
1 LJ
N
111 251.5 M
118 251.5 L
S
GR
GS
0 0.447 0.741 RC
1 LJ
N
114.5 255 M
114.5 248 L
S
GR
GS
0 0.447 0.741 RC
1 LJ
N
112 254 M
117 249 L
S
GR
GS
0 0.447 0.741 RC
1 LJ
N
112 249 M
117 254 L
S
GR
GS
0 0.447 0.741 RC
1 LJ
N
114 268.5 M
121 268.5 L
S
GR
GS
0 0.447 0.741 RC
1 LJ
N
117.5 272 M
117.5 265 L
S
GR
GS
0 0.447 0.741 RC
1 LJ
N
115 271 M
120 266 L
S
GR
GS
0 0.447 0.741 RC
1 LJ
N
115 266 M
120 271 L
S
GR
GS
0 0.447 0.741 RC
1 LJ
N
117 284.5 M
124 284.5 L
S
GR
GS
0 0.447 0.741 RC
1 LJ
N
120.5 288 M
120.5 281 L
S
GR
GS
0 0.447 0.741 RC
1 LJ
N
118 287 M
123 282 L
S
GR
GS
0 0.447 0.741 RC
1 LJ
N
118 282 M
123 287 L
S
GR
GS
0.851 0.325 0.098 RC
1 LJ
N
75 64.597 M
118.058 75.893 L
141.135 84.845 L
164.609 98.764 L
187.452 118.864 L
210.643 141.188 L
233.578 161.561 L
256.879 181.195 L
279.673 201.826 L
302.448 221.852 L
325.283 243.147 L
348.017 264.751 L
370.751 287.833 L
393.765 311.839 L
417.616 335.851 L
S
GR
GS
0.851 0.325 0.098 RC
1 LJ
N
78.5 64.5 M
77.621 62.379 L
75.5 61.5 L
73.379 62.379 L
72.5 64.5 L
73.379 66.621 L
75.5 67.5 L
77.621 66.621 L
cp
S
GR
GS
0.851 0.325 0.098 RC
1 LJ
N
121.5 75.5 M
120.621 73.379 L
118.5 72.5 L
116.379 73.379 L
115.5 75.5 L
116.379 77.621 L
118.5 78.5 L
120.621 77.621 L
cp
S
GR
GS
0.851 0.325 0.098 RC
1 LJ
N
144.5 84.5 M
143.621 82.379 L
141.5 81.5 L
139.379 82.379 L
138.5 84.5 L
139.379 86.621 L
141.5 87.5 L
143.621 86.621 L
cp
S
GR
GS
0.851 0.325 0.098 RC
1 LJ
N
167.5 98.5 M
166.621 96.379 L
164.5 95.5 L
162.379 96.379 L
161.5 98.5 L
162.379 100.621 L
164.5 101.5 L
166.621 100.621 L
cp
S
GR
GS
0.851 0.325 0.098 RC
1 LJ
N
190.5 118.5 M
189.621 116.379 L
187.5 115.5 L
185.379 116.379 L
184.5 118.5 L
185.379 120.621 L
187.5 121.5 L
189.621 120.621 L
cp
S
GR
GS
0.851 0.325 0.098 RC
1 LJ
N
213.5 141.5 M
212.621 139.379 L
210.5 138.5 L
208.379 139.379 L
207.5 141.5 L
208.379 143.621 L
210.5 144.5 L
212.621 143.621 L
cp
S
GR
GS
0.851 0.325 0.098 RC
1 LJ
N
236.5 161.5 M
235.621 159.379 L
233.5 158.5 L
231.379 159.379 L
230.5 161.5 L
231.379 163.621 L
233.5 164.5 L
235.621 163.621 L
cp
S
GR
GS
0.851 0.325 0.098 RC
1 LJ
N
259.5 181.5 M
258.621 179.379 L
256.5 178.5 L
254.379 179.379 L
253.5 181.5 L
254.379 183.621 L
256.5 184.5 L
258.621 183.621 L
cp
S
GR
GS
0.851 0.325 0.098 RC
1 LJ
N
282.5 201.5 M
281.621 199.379 L
279.5 198.5 L
277.379 199.379 L
276.5 201.5 L
277.379 203.621 L
279.5 204.5 L
281.621 203.621 L
cp
S
GR
GS
0.851 0.325 0.098 RC
1 LJ
N
305.5 221.5 M
304.621 219.379 L
302.5 218.5 L
300.379 219.379 L
299.5 221.5 L
300.379 223.621 L
302.5 224.5 L
304.621 223.621 L
cp
S
GR
GS
0.851 0.325 0.098 RC
1 LJ
N
328.5 243.5 M
327.621 241.379 L
325.5 240.5 L
323.379 241.379 L
322.5 243.5 L
323.379 245.621 L
325.5 246.5 L
327.621 245.621 L
cp
S
GR
GS
0.851 0.325 0.098 RC
1 LJ
N
351.5 264.5 M
350.621 262.379 L
348.5 261.5 L
346.379 262.379 L
345.5 264.5 L
346.379 266.621 L
348.5 267.5 L
350.621 266.621 L
cp
S
GR
GS
0.851 0.325 0.098 RC
1 LJ
N
373.5 287.5 M
372.621 285.379 L
370.5 284.5 L
368.379 285.379 L
367.5 287.5 L
368.379 289.621 L
370.5 290.5 L
372.621 289.621 L
cp
S
GR
GS
0.851 0.325 0.098 RC
1 LJ
N
396.5 311.5 M
395.621 309.379 L
393.5 308.5 L
391.379 309.379 L
390.5 311.5 L
391.379 313.621 L
393.5 314.5 L
395.621 313.621 L
cp
S
GR
GS
0.851 0.325 0.098 RC
1 LJ
N
420.5 335.5 M
419.621 333.379 L
417.5 332.5 L
415.379 333.379 L
414.5 335.5 L
415.379 337.621 L
417.5 338.5 L
419.621 337.621 L
cp
S
GR
GS
0.851 0.325 0.098 RC
1 LJ
N
75 64.674 M
118.058 72.226 L
141.135 79.162 L
164.609 91.615 L
187.452 109.325 L
210.643 129.747 L
233.578 148.769 L
256.879 168.143 L
279.673 188.506 L
302.448 208.49 L
325.283 229.794 L
348.017 252.128 L
370.751 275.875 L
393.765 300.142 L
417.616 326.132 L
S
GR
GS
0.851 0.325 0.098 RC
1 LJ
N
72 64.5 M
79 64.5 L
S
GR
GS
0.851 0.325 0.098 RC
1 LJ
N
75.5 68 M
75.5 61 L
S
GR
GS
0.851 0.325 0.098 RC
1 LJ
N
73 67 M
78 62 L
S
GR
GS
0.851 0.325 0.098 RC
1 LJ
N
73 62 M
78 67 L
S
GR
GS
0.851 0.325 0.098 RC
1 LJ
N
115 72.5 M
122 72.5 L
S
GR
GS
0.851 0.325 0.098 RC
1 LJ
N
118.5 76 M
118.5 69 L
S
GR
GS
0.851 0.325 0.098 RC
1 LJ
N
116 75 M
121 70 L
S
GR
GS
0.851 0.325 0.098 RC
1 LJ
N
116 70 M
121 75 L
S
GR
GS
0.851 0.325 0.098 RC
1 LJ
N
138 79.5 M
145 79.5 L
S
GR
GS
0.851 0.325 0.098 RC
1 LJ
N
141.5 83 M
141.5 76 L
S
GR
GS
0.851 0.325 0.098 RC
1 LJ
N
139 82 M
144 77 L
S
GR
GS
0.851 0.325 0.098 RC
1 LJ
N
139 77 M
144 82 L
S
GR
GS
0.851 0.325 0.098 RC
1 LJ
N
161 91.5 M
168 91.5 L
S
GR
GS
0.851 0.325 0.098 RC
1 LJ
N
164.5 95 M
164.5 88 L
S
GR
GS
0.851 0.325 0.098 RC
1 LJ
N
162 94 M
167 89 L
S
GR
GS
0.851 0.325 0.098 RC
1 LJ
N
162 89 M
167 94 L
S
GR
GS
0.851 0.325 0.098 RC
1 LJ
N
184 109.5 M
191 109.5 L
S
GR
GS
0.851 0.325 0.098 RC
1 LJ
N
187.5 113 M
187.5 106 L
S
GR
GS
0.851 0.325 0.098 RC
1 LJ
N
185 112 M
190 107 L
S
GR
GS
0.851 0.325 0.098 RC
1 LJ
N
185 107 M
190 112 L
S
GR
GS
0.851 0.325 0.098 RC
1 LJ
N
207 129.5 M
214 129.5 L
S
GR
GS
0.851 0.325 0.098 RC
1 LJ
N
210.5 133 M
210.5 126 L
S
GR
GS
0.851 0.325 0.098 RC
1 LJ
N
208 132 M
213 127 L
S
GR
GS
0.851 0.325 0.098 RC
1 LJ
N
208 127 M
213 132 L
S
GR
GS
0.851 0.325 0.098 RC
1 LJ
N
230 148.5 M
237 148.5 L
S
GR
GS
0.851 0.325 0.098 RC
1 LJ
N
233.5 152 M
233.5 145 L
S
GR
GS
0.851 0.325 0.098 RC
1 LJ
N
231 151 M
236 146 L
S
GR
GS
0.851 0.325 0.098 RC
1 LJ
N
231 146 M
236 151 L
S
GR
GS
0.851 0.325 0.098 RC
1 LJ
N
253 168.5 M
260 168.5 L
S
GR
GS
0.851 0.325 0.098 RC
1 LJ
N
256.5 172 M
256.5 165 L
S
GR
GS
0.851 0.325 0.098 RC
1 LJ
N
254 171 M
259 166 L
S
GR
GS
0.851 0.325 0.098 RC
1 LJ
N
254 166 M
259 171 L
S
GR
GS
0.851 0.325 0.098 RC
1 LJ
N
276 188.5 M
283 188.5 L
S
GR
GS
0.851 0.325 0.098 RC
1 LJ
N
279.5 192 M
279.5 185 L
S
GR
GS
0.851 0.325 0.098 RC
1 LJ
N
277 191 M
282 186 L
S
GR
GS
0.851 0.325 0.098 RC
1 LJ
N
277 186 M
282 191 L
S
GR
GS
0.851 0.325 0.098 RC
1 LJ
N
299 208.5 M
306 208.5 L
S
GR
GS
0.851 0.325 0.098 RC
1 LJ
N
302.5 212 M
302.5 205 L
S
GR
GS
0.851 0.325 0.098 RC
1 LJ
N
300 211 M
305 206 L
S
GR
GS
0.851 0.325 0.098 RC
1 LJ
N
300 206 M
305 211 L
S
GR
GS
0.851 0.325 0.098 RC
1 LJ
N
322 229.5 M
329 229.5 L
S
GR
GS
0.851 0.325 0.098 RC
1 LJ
N
325.5 233 M
325.5 226 L
S
GR
GS
0.851 0.325 0.098 RC
1 LJ
N
323 232 M
328 227 L
S
GR
GS
0.851 0.325 0.098 RC
1 LJ
N
323 227 M
328 232 L
S
GR
GS
0.851 0.325 0.098 RC
1 LJ
N
345 252.5 M
352 252.5 L
S
GR
GS
0.851 0.325 0.098 RC
1 LJ
N
348.5 256 M
348.5 249 L
S
GR
GS
0.851 0.325 0.098 RC
1 LJ
N
346 255 M
351 250 L
S
GR
GS
0.851 0.325 0.098 RC
1 LJ
N
346 250 M
351 255 L
S
GR
GS
0.851 0.325 0.098 RC
1 LJ
N
367 275.5 M
374 275.5 L
S
GR
GS
0.851 0.325 0.098 RC
1 LJ
N
370.5 279 M
370.5 272 L
S
GR
GS
0.851 0.325 0.098 RC
1 LJ
N
368 278 M
373 273 L
S
GR
GS
0.851 0.325 0.098 RC
1 LJ
N
368 273 M
373 278 L
S
GR
GS
0.851 0.325 0.098 RC
1 LJ
N
390 300.5 M
397 300.5 L
S
GR
GS
0.851 0.325 0.098 RC
1 LJ
N
393.5 304 M
393.5 297 L
S
GR
GS
0.851 0.325 0.098 RC
1 LJ
N
391 303 M
396 298 L
S
GR
GS
0.851 0.325 0.098 RC
1 LJ
N
391 298 M
396 303 L
S
GR
GS
0.851 0.325 0.098 RC
1 LJ
N
414 326.5 M
421 326.5 L
S
GR
GS
0.851 0.325 0.098 RC
1 LJ
N
417.5 330 M
417.5 323 L
S
GR
GS
0.851 0.325 0.098 RC
1 LJ
N
415 329 M
420 324 L
S
GR
GS
0.851 0.325 0.098 RC
1 LJ
N
415 324 M
420 329 L
S
GR
GS
[1 0 0 1 302 53.75] CT
/Helvetica 18 F
GS
[1 0 0 1 0 0] CT
0 4.5 moveto 
1 -1 scale
(Random shuffling \(Train\)) t 
GR
GR
GS
0 0.447 0.741 RC
1 LJ
N
269 53.75 M
299 53.75 L
S
GR
GS
0 0.447 0.741 RC
1 LJ
N
286.5 53.5 M
285.621 51.379 L
283.5 50.5 L
281.379 51.379 L
280.5 53.5 L
281.379 55.621 L
283.5 56.5 L
285.621 55.621 L
cp
S
GR
GS
[1 0 0 1 302 72.75] CT
/Helvetica 18 F
GS
[1 0 0 1 0 0] CT
0 4.5 moveto 
1 -1 scale
(Random shuffling \(Test\)) t 
GR
GR
GS
0 0.447 0.741 RC
1 LJ
N
269 72.75 M
299 72.75 L
S
GR
GS
0 0.447 0.741 RC
1 LJ
N
280 72.5 M
287 72.5 L
S
GR
GS
0 0.447 0.741 RC
1 LJ
N
283.5 76 M
283.5 69 L
S
GR
GS
0 0.447 0.741 RC
1 LJ
N
281 75 M
286 70 L
S
GR
GS
0 0.447 0.741 RC
1 LJ
N
281 70 M
286 75 L
S
GR
GS
[1 0 0 1 302 91.75] CT
/Helvetica 18 F
GS
[1 0 0 1 0 0] CT
0 4.5 moveto 
1 -1 scale
(Weighted shuffling \(Train\)) t 
GR
GR
GS
0.851 0.325 0.098 RC
1 LJ
N
269 91.75 M
299 91.75 L
S
GR
GS
0.851 0.325 0.098 RC
1 LJ
N
286.5 91.5 M
285.621 89.379 L
283.5 88.5 L
281.379 89.379 L
280.5 91.5 L
281.379 93.621 L
283.5 94.5 L
285.621 93.621 L
cp
S
GR
GS
[1 0 0 1 302 110.75] CT
/Helvetica 18 F
GS
[1 0 0 1 0 0] CT
0 4.5 moveto 
1 -1 scale
(Weighted shuffling \(Test\)) t 
GR
GR
GS
0.851 0.325 0.098 RC
1 LJ
N
269 110.75 M
299 110.75 L
S
GR
GS
0.851 0.325 0.098 RC
1 LJ
N
280 110.5 M
287 110.5 L
S
GR
GS
0.851 0.325 0.098 RC
1 LJ
N
283.5 114 M
283.5 107 L
S
GR
GS
0.851 0.325 0.098 RC
1 LJ
N
281 113 M
286 108 L
S
GR
GS
0.851 0.325 0.098 RC
1 LJ
N
281 108 M
286 113 L
S
GR
%%Trailer
%%Pages: 1
%%EOF
