%!PS-Adobe-3.0 EPSF-3.0
%%Creator: (MATLAB, The Mathworks, Inc. Version 8.6.0.267246 \(R2015b\). Operating System: Mac OS X)
%%Title: /Users/gauthiermuguerza/Desktop/rsgd/report/images/syntheticWeights.eps
%%CreationDate: 2018-06-01T10:58:18
%%Pages: (atend)
%%BoundingBox:     8     0   570   426
%%LanguageLevel: 3
%%EndComments
%%BeginProlog
%%BeginResource: procset (Apache XML Graphics Std ProcSet) 1.2 0
%%Version: 1.2 0
%%Copyright: (Copyright 2001-2003,2010 The Apache Software Foundation. License terms: http://www.apache.org/licenses/LICENSE-2.0)
/bd{bind def}bind def
/ld{load def}bd
/GR/grestore ld
/M/moveto ld
/LJ/setlinejoin ld
/C/curveto ld
/f/fill ld
/LW/setlinewidth ld
/GC/setgray ld
/t/show ld
/N/newpath ld
/CT/concat ld
/cp/closepath ld
/S/stroke ld
/L/lineto ld
/CC/setcmykcolor ld
/A/ashow ld
/GS/gsave ld
/RC/setrgbcolor ld
/RM/rmoveto ld
/ML/setmiterlimit ld
/re {4 2 roll M
1 index 0 rlineto
0 exch rlineto
neg 0 rlineto
cp } bd
/_ctm matrix def
/_tm matrix def
/BT { _ctm currentmatrix pop matrix _tm copy pop 0 0 moveto } bd
/ET { _ctm setmatrix } bd
/iTm { _ctm setmatrix _tm concat } bd
/Tm { _tm astore pop iTm 0 0 moveto } bd
/ux 0.0 def
/uy 0.0 def
/F {
  /Tp exch def
  /Tf exch def
  Tf findfont Tp scalefont setfont
  /cf Tf def  /cs Tp def
} bd
/ULS {currentpoint /uy exch def /ux exch def} bd
/ULE {
  /Tcx currentpoint pop def
  gsave
  newpath
  cf findfont cs scalefont dup
  /FontMatrix get 0 get /Ts exch def /FontInfo get dup
  /UnderlinePosition get Ts mul /To exch def
  /UnderlineThickness get Ts mul /Tt exch def
  ux uy To add moveto  Tcx uy To add lineto
  Tt setlinewidth stroke
  grestore
} bd
/OLE {
  /Tcx currentpoint pop def
  gsave
  newpath
  cf findfont cs scalefont dup
  /FontMatrix get 0 get /Ts exch def /FontInfo get dup
  /UnderlinePosition get Ts mul /To exch def
  /UnderlineThickness get Ts mul /Tt exch def
  ux uy To add cs add moveto Tcx uy To add cs add lineto
  Tt setlinewidth stroke
  grestore
} bd
/SOE {
  /Tcx currentpoint pop def
  gsave
  newpath
  cf findfont cs scalefont dup
  /FontMatrix get 0 get /Ts exch def /FontInfo get dup
  /UnderlinePosition get Ts mul /To exch def
  /UnderlineThickness get Ts mul /Tt exch def
  ux uy To add cs 10 mul 26 idiv add moveto Tcx uy To add cs 10 mul 26 idiv add lineto
  Tt setlinewidth stroke
  grestore
} bd
/QT {
/Y22 exch store
/X22 exch store
/Y21 exch store
/X21 exch store
currentpoint
/Y21 load 2 mul add 3 div exch
/X21 load 2 mul add 3 div exch
/X21 load 2 mul /X22 load add 3 div
/Y21 load 2 mul /Y22 load add 3 div
/X22 load /Y22 load curveto
} bd
/SSPD {
dup length /d exch dict def
{
/v exch def
/k exch def
currentpagedevice k known {
/cpdv currentpagedevice k get def
v cpdv ne {
/upd false def
/nullv v type /nulltype eq def
/nullcpdv cpdv type /nulltype eq def
nullv nullcpdv or
{
/upd true def
} {
/sametype v type cpdv type eq def
sametype {
v type /arraytype eq {
/vlen v length def
/cpdvlen cpdv length def
vlen cpdvlen eq {
0 1 vlen 1 sub {
/i exch def
/obj v i get def
/cpdobj cpdv i get def
obj cpdobj ne {
/upd true def
exit
} if
} for
} {
/upd true def
} ifelse
} {
v type /dicttype eq {
v {
/dv exch def
/dk exch def
/cpddv cpdv dk get def
dv cpddv ne {
/upd true def
exit
} if
} forall
} {
/upd true def
} ifelse
} ifelse
} if
} ifelse
upd true eq {
d k v put
} if
} if
} if
} forall
d length 0 gt {
d setpagedevice
} if
} bd
%%EndResource
%%BeginResource: procset (Apache XML Graphics EPS ProcSet) 1.0 0
%%Version: 1.0 0
%%Copyright: (Copyright 2002-2003 The Apache Software Foundation. License terms: http://www.apache.org/licenses/LICENSE-2.0)
/BeginEPSF { %def
/b4_Inc_state save def         % Save state for cleanup
/dict_count countdictstack def % Count objects on dict stack
/op_count count 1 sub def      % Count objects on operand stack
userdict begin                 % Push userdict on dict stack
/showpage { } def              % Redefine showpage, { } = null proc
0 setgray 0 setlinecap         % Prepare graphics state
1 setlinewidth 0 setlinejoin
10 setmiterlimit [ ] 0 setdash newpath
/languagelevel where           % If level not equal to 1 then
{pop languagelevel             % set strokeadjust and
1 ne                           % overprint to their defaults.
{false setstrokeadjust false setoverprint
} if
} if
} bd
/EndEPSF { %def
count op_count sub {pop} repeat            % Clean up stacks
countdictstack dict_count sub {end} repeat
b4_Inc_state restore
} bd
%%EndResource
%FOPBeginFontDict
%%IncludeResource: font Courier-Bold
%%IncludeResource: font Helvetica
%%IncludeResource: font Courier-BoldOblique
%%IncludeResource: font Courier-Oblique
%%IncludeResource: font Times-Roman
%%IncludeResource: font Helvetica-BoldOblique
%%IncludeResource: font Helvetica-Bold
%%IncludeResource: font Helvetica-Oblique
%%IncludeResource: font Times-BoldItalic
%%IncludeResource: font Courier
%%IncludeResource: font Times-Italic
%%IncludeResource: font Times-Bold
%%IncludeResource: font Symbol
%%IncludeResource: font ZapfDingbats
%FOPEndFontDict
%%BeginResource: encoding WinAnsiEncoding
/WinAnsiEncoding [
/.notdef /.notdef /.notdef /.notdef /.notdef
/.notdef /.notdef /.notdef /.notdef /.notdef
/.notdef /.notdef /.notdef /.notdef /.notdef
/.notdef /.notdef /.notdef /.notdef /.notdef
/.notdef /.notdef /.notdef /.notdef /.notdef
/.notdef /.notdef /.notdef /.notdef /.notdef
/.notdef /.notdef /space /exclam /quotedbl
/numbersign /dollar /percent /ampersand /quotesingle
/parenleft /parenright /asterisk /plus /comma
/hyphen /period /slash /zero /one
/two /three /four /five /six
/seven /eight /nine /colon /semicolon
/less /equal /greater /question /at
/A /B /C /D /E
/F /G /H /I /J
/K /L /M /N /O
/P /Q /R /S /T
/U /V /W /X /Y
/Z /bracketleft /backslash /bracketright /asciicircum
/underscore /quoteleft /a /b /c
/d /e /f /g /h
/i /j /k /l /m
/n /o /p /q /r
/s /t /u /v /w
/x /y /z /braceleft /bar
/braceright /asciitilde /bullet /Euro /bullet
/quotesinglbase /florin /quotedblbase /ellipsis /dagger
/daggerdbl /circumflex /perthousand /Scaron /guilsinglleft
/OE /bullet /Zcaron /bullet /bullet
/quoteleft /quoteright /quotedblleft /quotedblright /bullet
/endash /emdash /asciitilde /trademark /scaron
/guilsinglright /oe /bullet /zcaron /Ydieresis
/space /exclamdown /cent /sterling /currency
/yen /brokenbar /section /dieresis /copyright
/ordfeminine /guillemotleft /logicalnot /sfthyphen /registered
/macron /degree /plusminus /twosuperior /threesuperior
/acute /mu /paragraph /middot /cedilla
/onesuperior /ordmasculine /guillemotright /onequarter /onehalf
/threequarters /questiondown /Agrave /Aacute /Acircumflex
/Atilde /Adieresis /Aring /AE /Ccedilla
/Egrave /Eacute /Ecircumflex /Edieresis /Igrave
/Iacute /Icircumflex /Idieresis /Eth /Ntilde
/Ograve /Oacute /Ocircumflex /Otilde /Odieresis
/multiply /Oslash /Ugrave /Uacute /Ucircumflex
/Udieresis /Yacute /Thorn /germandbls /agrave
/aacute /acircumflex /atilde /adieresis /aring
/ae /ccedilla /egrave /eacute /ecircumflex
/edieresis /igrave /iacute /icircumflex /idieresis
/eth /ntilde /ograve /oacute /ocircumflex
/otilde /odieresis /divide /oslash /ugrave
/uacute /ucircumflex /udieresis /yacute /thorn
/ydieresis
] def
%%EndResource
%FOPBeginFontReencode
/Courier-Bold findfont
dup length dict begin
  {1 index /FID ne {def} {pop pop} ifelse} forall
  /Encoding WinAnsiEncoding def
  currentdict
end
/Courier-Bold exch definefont pop
/Helvetica findfont
dup length dict begin
  {1 index /FID ne {def} {pop pop} ifelse} forall
  /Encoding WinAnsiEncoding def
  currentdict
end
/Helvetica exch definefont pop
/Courier-BoldOblique findfont
dup length dict begin
  {1 index /FID ne {def} {pop pop} ifelse} forall
  /Encoding WinAnsiEncoding def
  currentdict
end
/Courier-BoldOblique exch definefont pop
/Courier-Oblique findfont
dup length dict begin
  {1 index /FID ne {def} {pop pop} ifelse} forall
  /Encoding WinAnsiEncoding def
  currentdict
end
/Courier-Oblique exch definefont pop
/Times-Roman findfont
dup length dict begin
  {1 index /FID ne {def} {pop pop} ifelse} forall
  /Encoding WinAnsiEncoding def
  currentdict
end
/Times-Roman exch definefont pop
/Helvetica-BoldOblique findfont
dup length dict begin
  {1 index /FID ne {def} {pop pop} ifelse} forall
  /Encoding WinAnsiEncoding def
  currentdict
end
/Helvetica-BoldOblique exch definefont pop
/Helvetica-Bold findfont
dup length dict begin
  {1 index /FID ne {def} {pop pop} ifelse} forall
  /Encoding WinAnsiEncoding def
  currentdict
end
/Helvetica-Bold exch definefont pop
/Helvetica-Oblique findfont
dup length dict begin
  {1 index /FID ne {def} {pop pop} ifelse} forall
  /Encoding WinAnsiEncoding def
  currentdict
end
/Helvetica-Oblique exch definefont pop
/Times-BoldItalic findfont
dup length dict begin
  {1 index /FID ne {def} {pop pop} ifelse} forall
  /Encoding WinAnsiEncoding def
  currentdict
end
/Times-BoldItalic exch definefont pop
/Courier findfont
dup length dict begin
  {1 index /FID ne {def} {pop pop} ifelse} forall
  /Encoding WinAnsiEncoding def
  currentdict
end
/Courier exch definefont pop
/Times-Italic findfont
dup length dict begin
  {1 index /FID ne {def} {pop pop} ifelse} forall
  /Encoding WinAnsiEncoding def
  currentdict
end
/Times-Italic exch definefont pop
/Times-Bold findfont
dup length dict begin
  {1 index /FID ne {def} {pop pop} ifelse} forall
  /Encoding WinAnsiEncoding def
  currentdict
end
/Times-Bold exch definefont pop
%FOPEndFontReencode
%%EndProlog
%%Page: 1 1
%%PageBoundingBox: 0 0 576 432
%%BeginPageSetup
[1 0 0 -1 0 432] CT
%%EndPageSetup
GS
1 GC
N
0 0 576 432 re
f
GR
GS
1 GC
N
0 0 576 432 re
f
GR
GS
1 GC
N
75 384 M
521.5 384 L
521.5 32.5 L
75 32.5 L
cp
f
GR
GS
0.149 GC
2 setlinecap
1 LJ
0.5 LW
N
75 384 M
521.5 384 L
S
GR
GS
0.149 GC
2 setlinecap
1 LJ
0.5 LW
N
75 384 M
75 379.535 L
S
GR
GS
0.149 GC
2 setlinecap
1 LJ
0.5 LW
N
149.417 384 M
149.417 379.535 L
S
GR
GS
0.149 GC
2 setlinecap
1 LJ
0.5 LW
N
223.833 384 M
223.833 379.535 L
S
GR
GS
0.149 GC
2 setlinecap
1 LJ
0.5 LW
N
298.25 384 M
298.25 379.535 L
S
GR
GS
0.149 GC
2 setlinecap
1 LJ
0.5 LW
N
372.667 384 M
372.667 379.535 L
S
GR
GS
0.149 GC
2 setlinecap
1 LJ
0.5 LW
N
447.083 384 M
447.083 379.535 L
S
GR
GS
0.149 GC
2 setlinecap
1 LJ
0.5 LW
N
521.5 384 M
521.5 379.535 L
S
GR
GS
[1 0 0 1 75 390] CT
0.149 GC
/Helvetica 20 F
GS
[1 0 0 1 0 0] CT
-6 16 moveto 
1 -1 scale
(0) t 
GR
GR
GS
[1 0 0 1 149.41667 390] CT
0.149 GC
/Helvetica 20 F
GS
[1 0 0 1 0 0] CT
-11.5 16 moveto 
1 -1 scale
(10) t 
GR
GR
GS
[1 0 0 1 223.83334 390] CT
0.149 GC
/Helvetica 20 F
GS
[1 0 0 1 0 0] CT
-11.5 16 moveto 
1 -1 scale
(20) t 
GR
GR
GS
[1 0 0 1 298.25 390] CT
0.149 GC
/Helvetica 20 F
GS
[1 0 0 1 0 0] CT
-11.5 16 moveto 
1 -1 scale
(30) t 
GR
GR
GS
[1 0 0 1 372.66669 390] CT
0.149 GC
/Helvetica 20 F
GS
[1 0 0 1 0 0] CT
-11.5 16 moveto 
1 -1 scale
(40) t 
GR
GR
GS
[1 0 0 1 447.08331 390] CT
0.149 GC
/Helvetica 20 F
GS
[1 0 0 1 0 0] CT
-11.5 16 moveto 
1 -1 scale
(50) t 
GR
GR
GS
[1 0 0 1 521.5 390] CT
0.149 GC
/Helvetica 20 F
GS
[1 0 0 1 0 0] CT
-11.5 16 moveto 
1 -1 scale
(60) t 
GR
GR
GS
[1 0 0 1 298.25021 411.5] CT
0.149 GC
/Helvetica 20 F
GS
[1 0 0 1 0 0] CT
-41.5 16 moveto 
1 -1 scale
(Iterations) t 
GR
GR
GS
0.149 GC
2 setlinecap
1 LJ
0.5 LW
N
75 384 M
75 32.5 L
S
GR
GS
0.149 GC
2 setlinecap
1 LJ
0.5 LW
N
75 384 M
79.465 384 L
S
GR
GS
0.149 GC
2 setlinecap
1 LJ
0.5 LW
N
75 325.417 M
79.465 325.417 L
S
GR
GS
0.149 GC
2 setlinecap
1 LJ
0.5 LW
N
75 266.833 M
79.465 266.833 L
S
GR
GS
0.149 GC
2 setlinecap
1 LJ
0.5 LW
N
75 208.25 M
79.465 208.25 L
S
GR
GS
0.149 GC
2 setlinecap
1 LJ
0.5 LW
N
75 149.667 M
79.465 149.667 L
S
GR
GS
0.149 GC
2 setlinecap
1 LJ
0.5 LW
N
75 91.083 M
79.465 91.083 L
S
GR
GS
0.149 GC
2 setlinecap
1 LJ
0.5 LW
N
75 32.5 M
79.465 32.5 L
S
GR
GS
0.149 GC
2 setlinecap
1 LJ
0.5 LW
N
75 366.365 M
77.232 366.365 L
S
GR
GS
0.149 GC
2 setlinecap
1 LJ
0.5 LW
N
75 356.049 M
77.232 356.049 L
S
GR
GS
0.149 GC
2 setlinecap
1 LJ
0.5 LW
N
75 348.729 M
77.232 348.729 L
S
GR
GS
0.149 GC
2 setlinecap
1 LJ
0.5 LW
N
75 343.052 M
77.232 343.052 L
S
GR
GS
0.149 GC
2 setlinecap
1 LJ
0.5 LW
N
75 338.413 M
77.232 338.413 L
S
GR
GS
0.149 GC
2 setlinecap
1 LJ
0.5 LW
N
75 334.491 M
77.232 334.491 L
S
GR
GS
0.149 GC
2 setlinecap
1 LJ
0.5 LW
N
75 331.094 M
77.232 331.094 L
S
GR
GS
0.149 GC
2 setlinecap
1 LJ
0.5 LW
N
75 328.097 M
77.232 328.097 L
S
GR
GS
0.149 GC
2 setlinecap
1 LJ
0.5 LW
N
75 307.781 M
77.232 307.781 L
S
GR
GS
0.149 GC
2 setlinecap
1 LJ
0.5 LW
N
75 297.465 M
77.232 297.465 L
S
GR
GS
0.149 GC
2 setlinecap
1 LJ
0.5 LW
N
75 290.146 M
77.232 290.146 L
S
GR
GS
0.149 GC
2 setlinecap
1 LJ
0.5 LW
N
75 284.469 M
77.232 284.469 L
S
GR
GS
0.149 GC
2 setlinecap
1 LJ
0.5 LW
N
75 279.83 M
77.232 279.83 L
S
GR
GS
0.149 GC
2 setlinecap
1 LJ
0.5 LW
N
75 275.908 M
77.232 275.908 L
S
GR
GS
0.149 GC
2 setlinecap
1 LJ
0.5 LW
N
75 272.511 M
77.232 272.511 L
S
GR
GS
0.149 GC
2 setlinecap
1 LJ
0.5 LW
N
75 269.514 M
77.232 269.514 L
S
GR
GS
0.149 GC
2 setlinecap
1 LJ
0.5 LW
N
75 249.198 M
77.232 249.198 L
S
GR
GS
0.149 GC
2 setlinecap
1 LJ
0.5 LW
N
75 238.882 M
77.232 238.882 L
S
GR
GS
0.149 GC
2 setlinecap
1 LJ
0.5 LW
N
75 231.563 M
77.232 231.563 L
S
GR
GS
0.149 GC
2 setlinecap
1 LJ
0.5 LW
N
75 225.885 M
77.232 225.885 L
S
GR
GS
0.149 GC
2 setlinecap
1 LJ
0.5 LW
N
75 221.247 M
77.232 221.247 L
S
GR
GS
0.149 GC
2 setlinecap
1 LJ
0.5 LW
N
75 217.325 M
77.232 217.325 L
S
GR
GS
0.149 GC
2 setlinecap
1 LJ
0.5 LW
N
75 213.927 M
77.232 213.927 L
S
GR
GS
0.149 GC
2 setlinecap
1 LJ
0.5 LW
N
75 210.931 M
77.232 210.931 L
S
GR
GS
0.149 GC
2 setlinecap
1 LJ
0.5 LW
N
75 190.615 M
77.232 190.615 L
S
GR
GS
0.149 GC
2 setlinecap
1 LJ
0.5 LW
N
75 180.299 M
77.232 180.299 L
S
GR
GS
0.149 GC
2 setlinecap
1 LJ
0.5 LW
N
75 172.979 M
77.232 172.979 L
S
GR
GS
0.149 GC
2 setlinecap
1 LJ
0.5 LW
N
75 167.302 M
77.232 167.302 L
S
GR
GS
0.149 GC
2 setlinecap
1 LJ
0.5 LW
N
75 162.663 M
77.232 162.663 L
S
GR
GS
0.149 GC
2 setlinecap
1 LJ
0.5 LW
N
75 158.741 M
77.232 158.741 L
S
GR
GS
0.149 GC
2 setlinecap
1 LJ
0.5 LW
N
75 155.344 M
77.232 155.344 L
S
GR
GS
0.149 GC
2 setlinecap
1 LJ
0.5 LW
N
75 152.347 M
77.232 152.347 L
S
GR
GS
0.149 GC
2 setlinecap
1 LJ
0.5 LW
N
75 132.031 M
77.232 132.031 L
S
GR
GS
0.149 GC
2 setlinecap
1 LJ
0.5 LW
N
75 121.715 M
77.232 121.715 L
S
GR
GS
0.149 GC
2 setlinecap
1 LJ
0.5 LW
N
75 114.396 M
77.232 114.396 L
S
GR
GS
0.149 GC
2 setlinecap
1 LJ
0.5 LW
N
75 108.719 M
77.232 108.719 L
S
GR
GS
0.149 GC
2 setlinecap
1 LJ
0.5 LW
N
75 104.08 M
77.232 104.08 L
S
GR
GS
0.149 GC
2 setlinecap
1 LJ
0.5 LW
N
75 100.158 M
77.232 100.158 L
S
GR
GS
0.149 GC
2 setlinecap
1 LJ
0.5 LW
N
75 96.761 M
77.232 96.761 L
S
GR
GS
0.149 GC
2 setlinecap
1 LJ
0.5 LW
N
75 93.764 M
77.232 93.764 L
S
GR
GS
0.149 GC
2 setlinecap
1 LJ
0.5 LW
N
75 73.448 M
77.232 73.448 L
S
GR
GS
0.149 GC
2 setlinecap
1 LJ
0.5 LW
N
75 63.132 M
77.232 63.132 L
S
GR
GS
0.149 GC
2 setlinecap
1 LJ
0.5 LW
N
75 55.813 M
77.232 55.813 L
S
GR
GS
0.149 GC
2 setlinecap
1 LJ
0.5 LW
N
75 50.135 M
77.232 50.135 L
S
GR
GS
0.149 GC
2 setlinecap
1 LJ
0.5 LW
N
75 45.497 M
77.232 45.497 L
S
GR
GS
0.149 GC
2 setlinecap
1 LJ
0.5 LW
N
75 41.575 M
77.232 41.575 L
S
GR
GS
0.149 GC
2 setlinecap
1 LJ
0.5 LW
N
75 38.177 M
77.232 38.177 L
S
GR
GS
0.149 GC
2 setlinecap
1 LJ
0.5 LW
N
75 35.181 M
77.232 35.181 L
S
GR
GS
[1 0 0 1 31 393] CT
0.149 GC
/Helvetica 20 F
GS
[1 0 0 1 0 0] CT
0 0 moveto 
1 -1 scale
(10) t 
GR
GR
GS
[1 0 0 1 54 383] CT
0.149 GC
/Helvetica 16 F
GS
[1 0 0 1 0 0] CT
0 0 moveto 
1 -1 scale
(-5) t 
GR
GR
GS
[1 0 0 1 31 334] CT
0.149 GC
/Helvetica 20 F
GS
[1 0 0 1 0 0] CT
0 0 moveto 
1 -1 scale
(10) t 
GR
GR
GS
[1 0 0 1 54 324] CT
0.149 GC
/Helvetica 16 F
GS
[1 0 0 1 0 0] CT
0 0 moveto 
1 -1 scale
(-4) t 
GR
GR
GS
[1 0 0 1 31 276] CT
0.149 GC
/Helvetica 20 F
GS
[1 0 0 1 0 0] CT
0 0 moveto 
1 -1 scale
(10) t 
GR
GR
GS
[1 0 0 1 54 266] CT
0.149 GC
/Helvetica 16 F
GS
[1 0 0 1 0 0] CT
0 0 moveto 
1 -1 scale
(-3) t 
GR
GR
GS
[1 0 0 1 31 217] CT
0.149 GC
/Helvetica 20 F
GS
[1 0 0 1 0 0] CT
0 0 moveto 
1 -1 scale
(10) t 
GR
GR
GS
[1 0 0 1 54 207] CT
0.149 GC
/Helvetica 16 F
GS
[1 0 0 1 0 0] CT
0 0 moveto 
1 -1 scale
(-2) t 
GR
GR
GS
[1 0 0 1 31 159] CT
0.149 GC
/Helvetica 20 F
GS
[1 0 0 1 0 0] CT
0 0 moveto 
1 -1 scale
(10) t 
GR
GR
GS
[1 0 0 1 54 149] CT
0.149 GC
/Helvetica 16 F
GS
[1 0 0 1 0 0] CT
0 0 moveto 
1 -1 scale
(-1) t 
GR
GR
GS
[1 0 0 1 37 100] CT
0.149 GC
/Helvetica 20 F
GS
[1 0 0 1 0 0] CT
0 0 moveto 
1 -1 scale
(10) t 
GR
GR
GS
[1 0 0 1 60 90] CT
0.149 GC
/Helvetica 16 F
GS
[1 0 0 1 0 0] CT
0 0 moveto 
1 -1 scale
(0) t 
GR
GR
GS
[1 0 0 1 37 42] CT
0.149 GC
/Helvetica 20 F
GS
[1 0 0 1 0 0] CT
0 0 moveto 
1 -1 scale
(10) t 
GR
GR
GS
[1 0 0 1 60 32] CT
0.149 GC
/Helvetica 16 F
GS
[1 0 0 1 0 0] CT
0 0 moveto 
1 -1 scale
(1) t 
GR
GR
GS
[0 -1 1 0 29 208.24983] CT
0.149 GC
/Helvetica 20 F
GS
[1 0 0 1 0 0] CT
-54.5 -5 moveto 
1 -1 scale
(Train RMSE) t 
GR
GR
GS
[1 0 0 1 298.25031 29.75001] CT
/Helvetica-Bold 22 F
GS
[1 0 0 1 0 0] CT
-272.5 -6 moveto 
1 -1 scale
(100 by 100, rank 4, over-sampling 4, Condition No. 0) t 
GR
GR
GS
0 0.447 0.741 RC
1 LJ
N
82.442 63.478 M
89.883 77.642 L
97.325 97.859 L
104.767 117.734 L
112.208 140.25 L
119.65 161.029 L
127.092 180.319 L
134.533 199.46 L
141.975 219.094 L
149.417 237.85 L
156.858 257.248 L
164.3 277.013 L
171.742 298.585 L
179.183 322.698 L
186.625 334.522 L
194.067 325.417 L
201.508 325.417 L
208.95 325.417 L
216.392 325.417 L
223.833 325.417 L
231.275 325.417 L
238.717 325.417 L
246.158 325.417 L
253.6 325.417 L
261.042 325.417 L
268.483 325.417 L
275.925 325.417 L
283.367 325.417 L
290.808 325.417 L
298.25 325.417 L
305.692 325.417 L
313.133 325.417 L
320.575 325.417 L
328.017 325.417 L
335.458 325.417 L
342.9 325.417 L
350.342 325.417 L
357.783 325.417 L
365.225 325.417 L
372.667 325.417 L
380.108 325.417 L
387.55 325.417 L
394.992 325.417 L
402.433 325.417 L
409.875 325.417 L
417.317 325.417 L
424.758 325.417 L
432.2 325.417 L
439.642 325.417 L
447.083 325.417 L
S
GR
GS
0 0.447 0.741 RC
1 LJ
N
439.642 325.417 M
447.083 325.417 L
454.525 325.417 L
S
GR
GS
0 0.447 0.741 RC
1 LJ
N
85.5 63.5 M
84.621 61.379 L
82.5 60.5 L
80.379 61.379 L
79.5 63.5 L
80.379 65.621 L
82.5 66.5 L
84.621 65.621 L
cp
S
GR
GS
0 0.447 0.741 RC
1 LJ
N
92.5 77.5 M
91.621 75.379 L
89.5 74.5 L
87.379 75.379 L
86.5 77.5 L
87.379 79.621 L
89.5 80.5 L
91.621 79.621 L
cp
S
GR
GS
0 0.447 0.741 RC
1 LJ
N
100.5 97.5 M
99.621 95.379 L
97.5 94.5 L
95.379 95.379 L
94.5 97.5 L
95.379 99.621 L
97.5 100.5 L
99.621 99.621 L
cp
S
GR
GS
0 0.447 0.741 RC
1 LJ
N
107.5 117.5 M
106.621 115.379 L
104.5 114.5 L
102.379 115.379 L
101.5 117.5 L
102.379 119.621 L
104.5 120.5 L
106.621 119.621 L
cp
S
GR
GS
0 0.447 0.741 RC
1 LJ
N
115.5 140.5 M
114.621 138.379 L
112.5 137.5 L
110.379 138.379 L
109.5 140.5 L
110.379 142.621 L
112.5 143.5 L
114.621 142.621 L
cp
S
GR
GS
0 0.447 0.741 RC
1 LJ
N
122.5 161.5 M
121.621 159.379 L
119.5 158.5 L
117.379 159.379 L
116.5 161.5 L
117.379 163.621 L
119.5 164.5 L
121.621 163.621 L
cp
S
GR
GS
0 0.447 0.741 RC
1 LJ
N
130.5 180.5 M
129.621 178.379 L
127.5 177.5 L
125.379 178.379 L
124.5 180.5 L
125.379 182.621 L
127.5 183.5 L
129.621 182.621 L
cp
S
GR
GS
0 0.447 0.741 RC
1 LJ
N
137.5 199.5 M
136.621 197.379 L
134.5 196.5 L
132.379 197.379 L
131.5 199.5 L
132.379 201.621 L
134.5 202.5 L
136.621 201.621 L
cp
S
GR
GS
0 0.447 0.741 RC
1 LJ
N
144.5 219.5 M
143.621 217.379 L
141.5 216.5 L
139.379 217.379 L
138.5 219.5 L
139.379 221.621 L
141.5 222.5 L
143.621 221.621 L
cp
S
GR
GS
0 0.447 0.741 RC
1 LJ
N
152.5 237.5 M
151.621 235.379 L
149.5 234.5 L
147.379 235.379 L
146.5 237.5 L
147.379 239.621 L
149.5 240.5 L
151.621 239.621 L
cp
S
GR
GS
0 0.447 0.741 RC
1 LJ
N
159.5 257.5 M
158.621 255.379 L
156.5 254.5 L
154.379 255.379 L
153.5 257.5 L
154.379 259.621 L
156.5 260.5 L
158.621 259.621 L
cp
S
GR
GS
0 0.447 0.741 RC
1 LJ
N
167.5 277.5 M
166.621 275.379 L
164.5 274.5 L
162.379 275.379 L
161.5 277.5 L
162.379 279.621 L
164.5 280.5 L
166.621 279.621 L
cp
S
GR
GS
0 0.447 0.741 RC
1 LJ
N
174.5 298.5 M
173.621 296.379 L
171.5 295.5 L
169.379 296.379 L
168.5 298.5 L
169.379 300.621 L
171.5 301.5 L
173.621 300.621 L
cp
S
GR
GS
0 0.447 0.741 RC
1 LJ
N
182.5 322.5 M
181.621 320.379 L
179.5 319.5 L
177.379 320.379 L
176.5 322.5 L
177.379 324.621 L
179.5 325.5 L
181.621 324.621 L
cp
S
GR
GS
0 0.447 0.741 RC
1 LJ
N
189.5 334.5 M
188.621 332.379 L
186.5 331.5 L
184.379 332.379 L
183.5 334.5 L
184.379 336.621 L
186.5 337.5 L
188.621 336.621 L
cp
S
GR
GS
0 0.447 0.741 RC
1 LJ
N
197.5 325.5 M
196.621 323.379 L
194.5 322.5 L
192.379 323.379 L
191.5 325.5 L
192.379 327.621 L
194.5 328.5 L
196.621 327.621 L
cp
S
GR
GS
0 0.447 0.741 RC
1 LJ
N
204.5 325.5 M
203.621 323.379 L
201.5 322.5 L
199.379 323.379 L
198.5 325.5 L
199.379 327.621 L
201.5 328.5 L
203.621 327.621 L
cp
S
GR
GS
0 0.447 0.741 RC
1 LJ
N
211.5 325.5 M
210.621 323.379 L
208.5 322.5 L
206.379 323.379 L
205.5 325.5 L
206.379 327.621 L
208.5 328.5 L
210.621 327.621 L
cp
S
GR
GS
0 0.447 0.741 RC
1 LJ
N
219.5 325.5 M
218.621 323.379 L
216.5 322.5 L
214.379 323.379 L
213.5 325.5 L
214.379 327.621 L
216.5 328.5 L
218.621 327.621 L
cp
S
GR
GS
0 0.447 0.741 RC
1 LJ
N
226.5 325.5 M
225.621 323.379 L
223.5 322.5 L
221.379 323.379 L
220.5 325.5 L
221.379 327.621 L
223.5 328.5 L
225.621 327.621 L
cp
S
GR
GS
0 0.447 0.741 RC
1 LJ
N
234.5 325.5 M
233.621 323.379 L
231.5 322.5 L
229.379 323.379 L
228.5 325.5 L
229.379 327.621 L
231.5 328.5 L
233.621 327.621 L
cp
S
GR
GS
0 0.447 0.741 RC
1 LJ
N
241.5 325.5 M
240.621 323.379 L
238.5 322.5 L
236.379 323.379 L
235.5 325.5 L
236.379 327.621 L
238.5 328.5 L
240.621 327.621 L
cp
S
GR
GS
0 0.447 0.741 RC
1 LJ
N
249.5 325.5 M
248.621 323.379 L
246.5 322.5 L
244.379 323.379 L
243.5 325.5 L
244.379 327.621 L
246.5 328.5 L
248.621 327.621 L
cp
S
GR
GS
0 0.447 0.741 RC
1 LJ
N
256.5 325.5 M
255.621 323.379 L
253.5 322.5 L
251.379 323.379 L
250.5 325.5 L
251.379 327.621 L
253.5 328.5 L
255.621 327.621 L
cp
S
GR
GS
0 0.447 0.741 RC
1 LJ
N
264.5 325.5 M
263.621 323.379 L
261.5 322.5 L
259.379 323.379 L
258.5 325.5 L
259.379 327.621 L
261.5 328.5 L
263.621 327.621 L
cp
S
GR
GS
0 0.447 0.741 RC
1 LJ
N
271.5 325.5 M
270.621 323.379 L
268.5 322.5 L
266.379 323.379 L
265.5 325.5 L
266.379 327.621 L
268.5 328.5 L
270.621 327.621 L
cp
S
GR
GS
0 0.447 0.741 RC
1 LJ
N
278.5 325.5 M
277.621 323.379 L
275.5 322.5 L
273.379 323.379 L
272.5 325.5 L
273.379 327.621 L
275.5 328.5 L
277.621 327.621 L
cp
S
GR
GS
0 0.447 0.741 RC
1 LJ
N
286.5 325.5 M
285.621 323.379 L
283.5 322.5 L
281.379 323.379 L
280.5 325.5 L
281.379 327.621 L
283.5 328.5 L
285.621 327.621 L
cp
S
GR
GS
0 0.447 0.741 RC
1 LJ
N
293.5 325.5 M
292.621 323.379 L
290.5 322.5 L
288.379 323.379 L
287.5 325.5 L
288.379 327.621 L
290.5 328.5 L
292.621 327.621 L
cp
S
GR
GS
0 0.447 0.741 RC
1 LJ
N
301.5 325.5 M
300.621 323.379 L
298.5 322.5 L
296.379 323.379 L
295.5 325.5 L
296.379 327.621 L
298.5 328.5 L
300.621 327.621 L
cp
S
GR
GS
0 0.447 0.741 RC
1 LJ
N
308.5 325.5 M
307.621 323.379 L
305.5 322.5 L
303.379 323.379 L
302.5 325.5 L
303.379 327.621 L
305.5 328.5 L
307.621 327.621 L
cp
S
GR
GS
0 0.447 0.741 RC
1 LJ
N
316.5 325.5 M
315.621 323.379 L
313.5 322.5 L
311.379 323.379 L
310.5 325.5 L
311.379 327.621 L
313.5 328.5 L
315.621 327.621 L
cp
S
GR
GS
0 0.447 0.741 RC
1 LJ
N
323.5 325.5 M
322.621 323.379 L
320.5 322.5 L
318.379 323.379 L
317.5 325.5 L
318.379 327.621 L
320.5 328.5 L
322.621 327.621 L
cp
S
GR
GS
0 0.447 0.741 RC
1 LJ
N
331.5 325.5 M
330.621 323.379 L
328.5 322.5 L
326.379 323.379 L
325.5 325.5 L
326.379 327.621 L
328.5 328.5 L
330.621 327.621 L
cp
S
GR
GS
0 0.447 0.741 RC
1 LJ
N
338.5 325.5 M
337.621 323.379 L
335.5 322.5 L
333.379 323.379 L
332.5 325.5 L
333.379 327.621 L
335.5 328.5 L
337.621 327.621 L
cp
S
GR
GS
0 0.447 0.741 RC
1 LJ
N
345.5 325.5 M
344.621 323.379 L
342.5 322.5 L
340.379 323.379 L
339.5 325.5 L
340.379 327.621 L
342.5 328.5 L
344.621 327.621 L
cp
S
GR
GS
0 0.447 0.741 RC
1 LJ
N
353.5 325.5 M
352.621 323.379 L
350.5 322.5 L
348.379 323.379 L
347.5 325.5 L
348.379 327.621 L
350.5 328.5 L
352.621 327.621 L
cp
S
GR
GS
0 0.447 0.741 RC
1 LJ
N
360.5 325.5 M
359.621 323.379 L
357.5 322.5 L
355.379 323.379 L
354.5 325.5 L
355.379 327.621 L
357.5 328.5 L
359.621 327.621 L
cp
S
GR
GS
0 0.447 0.741 RC
1 LJ
N
368.5 325.5 M
367.621 323.379 L
365.5 322.5 L
363.379 323.379 L
362.5 325.5 L
363.379 327.621 L
365.5 328.5 L
367.621 327.621 L
cp
S
GR
GS
0 0.447 0.741 RC
1 LJ
N
375.5 325.5 M
374.621 323.379 L
372.5 322.5 L
370.379 323.379 L
369.5 325.5 L
370.379 327.621 L
372.5 328.5 L
374.621 327.621 L
cp
S
GR
GS
0 0.447 0.741 RC
1 LJ
N
383.5 325.5 M
382.621 323.379 L
380.5 322.5 L
378.379 323.379 L
377.5 325.5 L
378.379 327.621 L
380.5 328.5 L
382.621 327.621 L
cp
S
GR
GS
0 0.447 0.741 RC
1 LJ
N
390.5 325.5 M
389.621 323.379 L
387.5 322.5 L
385.379 323.379 L
384.5 325.5 L
385.379 327.621 L
387.5 328.5 L
389.621 327.621 L
cp
S
GR
GS
0 0.447 0.741 RC
1 LJ
N
397.5 325.5 M
396.621 323.379 L
394.5 322.5 L
392.379 323.379 L
391.5 325.5 L
392.379 327.621 L
394.5 328.5 L
396.621 327.621 L
cp
S
GR
GS
0 0.447 0.741 RC
1 LJ
N
405.5 325.5 M
404.621 323.379 L
402.5 322.5 L
400.379 323.379 L
399.5 325.5 L
400.379 327.621 L
402.5 328.5 L
404.621 327.621 L
cp
S
GR
GS
0 0.447 0.741 RC
1 LJ
N
412.5 325.5 M
411.621 323.379 L
409.5 322.5 L
407.379 323.379 L
406.5 325.5 L
407.379 327.621 L
409.5 328.5 L
411.621 327.621 L
cp
S
GR
GS
0 0.447 0.741 RC
1 LJ
N
420.5 325.5 M
419.621 323.379 L
417.5 322.5 L
415.379 323.379 L
414.5 325.5 L
415.379 327.621 L
417.5 328.5 L
419.621 327.621 L
cp
S
GR
GS
0 0.447 0.741 RC
1 LJ
N
427.5 325.5 M
426.621 323.379 L
424.5 322.5 L
422.379 323.379 L
421.5 325.5 L
422.379 327.621 L
424.5 328.5 L
426.621 327.621 L
cp
S
GR
GS
0 0.447 0.741 RC
1 LJ
N
435.5 325.5 M
434.621 323.379 L
432.5 322.5 L
430.379 323.379 L
429.5 325.5 L
430.379 327.621 L
432.5 328.5 L
434.621 327.621 L
cp
S
GR
GS
0 0.447 0.741 RC
1 LJ
N
442.5 325.5 M
441.621 323.379 L
439.5 322.5 L
437.379 323.379 L
436.5 325.5 L
437.379 327.621 L
439.5 328.5 L
441.621 327.621 L
cp
S
GR
GS
0 0.447 0.741 RC
1 LJ
N
450.5 325.5 M
449.621 323.379 L
447.5 322.5 L
445.379 323.379 L
444.5 325.5 L
445.379 327.621 L
447.5 328.5 L
449.621 327.621 L
cp
S
GR
GS
0 0.447 0.741 RC
1 LJ
N
457.5 325.5 M
456.621 323.379 L
454.5 322.5 L
452.379 323.379 L
451.5 325.5 L
452.379 327.621 L
454.5 328.5 L
456.621 327.621 L
cp
S
GR
GS
0.851 0.325 0.098 RC
1 LJ
N
82.442 63.478 M
89.883 76.176 L
97.325 83.12 L
104.767 92.499 L
112.208 104.825 L
119.65 132.684 L
127.092 152.226 L
134.533 170.691 L
141.975 188.482 L
149.417 205.627 L
156.858 230.302 L
164.3 253.007 L
171.742 275.752 L
179.183 300.451 L
186.625 326.235 L
194.067 330.777 L
201.508 325.417 L
208.95 325.417 L
216.392 325.417 L
223.833 325.417 L
231.275 325.417 L
238.717 325.417 L
246.158 325.417 L
253.6 325.417 L
261.042 325.417 L
268.483 325.417 L
275.925 325.417 L
283.367 325.417 L
290.808 325.417 L
298.25 325.417 L
305.692 325.417 L
313.133 325.417 L
320.575 325.417 L
328.017 325.417 L
335.458 325.417 L
342.9 325.417 L
350.342 325.417 L
357.783 325.417 L
365.225 325.417 L
372.667 325.417 L
380.108 325.417 L
387.55 325.417 L
394.992 325.417 L
402.433 325.417 L
409.875 325.417 L
417.317 325.417 L
424.758 325.417 L
432.2 325.417 L
439.642 325.417 L
447.083 325.417 L
S
GR
GS
0.851 0.325 0.098 RC
1 LJ
N
439.642 325.417 M
447.083 325.417 L
454.525 325.417 L
S
GR
GS
0.851 0.325 0.098 RC
1 LJ
N
85.5 63.5 M
84.621 61.379 L
82.5 60.5 L
80.379 61.379 L
79.5 63.5 L
80.379 65.621 L
82.5 66.5 L
84.621 65.621 L
cp
S
GR
GS
0.851 0.325 0.098 RC
1 LJ
N
92.5 76.5 M
91.621 74.379 L
89.5 73.5 L
87.379 74.379 L
86.5 76.5 L
87.379 78.621 L
89.5 79.5 L
91.621 78.621 L
cp
S
GR
GS
0.851 0.325 0.098 RC
1 LJ
N
100.5 83.5 M
99.621 81.379 L
97.5 80.5 L
95.379 81.379 L
94.5 83.5 L
95.379 85.621 L
97.5 86.5 L
99.621 85.621 L
cp
S
GR
GS
0.851 0.325 0.098 RC
1 LJ
N
107.5 92.5 M
106.621 90.379 L
104.5 89.5 L
102.379 90.379 L
101.5 92.5 L
102.379 94.621 L
104.5 95.5 L
106.621 94.621 L
cp
S
GR
GS
0.851 0.325 0.098 RC
1 LJ
N
115.5 104.5 M
114.621 102.379 L
112.5 101.5 L
110.379 102.379 L
109.5 104.5 L
110.379 106.621 L
112.5 107.5 L
114.621 106.621 L
cp
S
GR
GS
0.851 0.325 0.098 RC
1 LJ
N
122.5 132.5 M
121.621 130.379 L
119.5 129.5 L
117.379 130.379 L
116.5 132.5 L
117.379 134.621 L
119.5 135.5 L
121.621 134.621 L
cp
S
GR
GS
0.851 0.325 0.098 RC
1 LJ
N
130.5 152.5 M
129.621 150.379 L
127.5 149.5 L
125.379 150.379 L
124.5 152.5 L
125.379 154.621 L
127.5 155.5 L
129.621 154.621 L
cp
S
GR
GS
0.851 0.325 0.098 RC
1 LJ
N
137.5 170.5 M
136.621 168.379 L
134.5 167.5 L
132.379 168.379 L
131.5 170.5 L
132.379 172.621 L
134.5 173.5 L
136.621 172.621 L
cp
S
GR
GS
0.851 0.325 0.098 RC
1 LJ
N
144.5 188.5 M
143.621 186.379 L
141.5 185.5 L
139.379 186.379 L
138.5 188.5 L
139.379 190.621 L
141.5 191.5 L
143.621 190.621 L
cp
S
GR
GS
0.851 0.325 0.098 RC
1 LJ
N
152.5 205.5 M
151.621 203.379 L
149.5 202.5 L
147.379 203.379 L
146.5 205.5 L
147.379 207.621 L
149.5 208.5 L
151.621 207.621 L
cp
S
GR
GS
0.851 0.325 0.098 RC
1 LJ
N
159.5 230.5 M
158.621 228.379 L
156.5 227.5 L
154.379 228.379 L
153.5 230.5 L
154.379 232.621 L
156.5 233.5 L
158.621 232.621 L
cp
S
GR
GS
0.851 0.325 0.098 RC
1 LJ
N
167.5 253.5 M
166.621 251.379 L
164.5 250.5 L
162.379 251.379 L
161.5 253.5 L
162.379 255.621 L
164.5 256.5 L
166.621 255.621 L
cp
S
GR
GS
0.851 0.325 0.098 RC
1 LJ
N
174.5 275.5 M
173.621 273.379 L
171.5 272.5 L
169.379 273.379 L
168.5 275.5 L
169.379 277.621 L
171.5 278.5 L
173.621 277.621 L
cp
S
GR
GS
0.851 0.325 0.098 RC
1 LJ
N
182.5 300.5 M
181.621 298.379 L
179.5 297.5 L
177.379 298.379 L
176.5 300.5 L
177.379 302.621 L
179.5 303.5 L
181.621 302.621 L
cp
S
GR
GS
0.851 0.325 0.098 RC
1 LJ
N
189.5 326.5 M
188.621 324.379 L
186.5 323.5 L
184.379 324.379 L
183.5 326.5 L
184.379 328.621 L
186.5 329.5 L
188.621 328.621 L
cp
S
GR
GS
0.851 0.325 0.098 RC
1 LJ
N
197.5 330.5 M
196.621 328.379 L
194.5 327.5 L
192.379 328.379 L
191.5 330.5 L
192.379 332.621 L
194.5 333.5 L
196.621 332.621 L
cp
S
GR
GS
0.851 0.325 0.098 RC
1 LJ
N
204.5 325.5 M
203.621 323.379 L
201.5 322.5 L
199.379 323.379 L
198.5 325.5 L
199.379 327.621 L
201.5 328.5 L
203.621 327.621 L
cp
S
GR
GS
0.851 0.325 0.098 RC
1 LJ
N
211.5 325.5 M
210.621 323.379 L
208.5 322.5 L
206.379 323.379 L
205.5 325.5 L
206.379 327.621 L
208.5 328.5 L
210.621 327.621 L
cp
S
GR
GS
0.851 0.325 0.098 RC
1 LJ
N
219.5 325.5 M
218.621 323.379 L
216.5 322.5 L
214.379 323.379 L
213.5 325.5 L
214.379 327.621 L
216.5 328.5 L
218.621 327.621 L
cp
S
GR
GS
0.851 0.325 0.098 RC
1 LJ
N
226.5 325.5 M
225.621 323.379 L
223.5 322.5 L
221.379 323.379 L
220.5 325.5 L
221.379 327.621 L
223.5 328.5 L
225.621 327.621 L
cp
S
GR
GS
0.851 0.325 0.098 RC
1 LJ
N
234.5 325.5 M
233.621 323.379 L
231.5 322.5 L
229.379 323.379 L
228.5 325.5 L
229.379 327.621 L
231.5 328.5 L
233.621 327.621 L
cp
S
GR
GS
0.851 0.325 0.098 RC
1 LJ
N
241.5 325.5 M
240.621 323.379 L
238.5 322.5 L
236.379 323.379 L
235.5 325.5 L
236.379 327.621 L
238.5 328.5 L
240.621 327.621 L
cp
S
GR
GS
0.851 0.325 0.098 RC
1 LJ
N
249.5 325.5 M
248.621 323.379 L
246.5 322.5 L
244.379 323.379 L
243.5 325.5 L
244.379 327.621 L
246.5 328.5 L
248.621 327.621 L
cp
S
GR
GS
0.851 0.325 0.098 RC
1 LJ
N
256.5 325.5 M
255.621 323.379 L
253.5 322.5 L
251.379 323.379 L
250.5 325.5 L
251.379 327.621 L
253.5 328.5 L
255.621 327.621 L
cp
S
GR
GS
0.851 0.325 0.098 RC
1 LJ
N
264.5 325.5 M
263.621 323.379 L
261.5 322.5 L
259.379 323.379 L
258.5 325.5 L
259.379 327.621 L
261.5 328.5 L
263.621 327.621 L
cp
S
GR
GS
0.851 0.325 0.098 RC
1 LJ
N
271.5 325.5 M
270.621 323.379 L
268.5 322.5 L
266.379 323.379 L
265.5 325.5 L
266.379 327.621 L
268.5 328.5 L
270.621 327.621 L
cp
S
GR
GS
0.851 0.325 0.098 RC
1 LJ
N
278.5 325.5 M
277.621 323.379 L
275.5 322.5 L
273.379 323.379 L
272.5 325.5 L
273.379 327.621 L
275.5 328.5 L
277.621 327.621 L
cp
S
GR
GS
0.851 0.325 0.098 RC
1 LJ
N
286.5 325.5 M
285.621 323.379 L
283.5 322.5 L
281.379 323.379 L
280.5 325.5 L
281.379 327.621 L
283.5 328.5 L
285.621 327.621 L
cp
S
GR
GS
0.851 0.325 0.098 RC
1 LJ
N
293.5 325.5 M
292.621 323.379 L
290.5 322.5 L
288.379 323.379 L
287.5 325.5 L
288.379 327.621 L
290.5 328.5 L
292.621 327.621 L
cp
S
GR
GS
0.851 0.325 0.098 RC
1 LJ
N
301.5 325.5 M
300.621 323.379 L
298.5 322.5 L
296.379 323.379 L
295.5 325.5 L
296.379 327.621 L
298.5 328.5 L
300.621 327.621 L
cp
S
GR
GS
0.851 0.325 0.098 RC
1 LJ
N
308.5 325.5 M
307.621 323.379 L
305.5 322.5 L
303.379 323.379 L
302.5 325.5 L
303.379 327.621 L
305.5 328.5 L
307.621 327.621 L
cp
S
GR
GS
0.851 0.325 0.098 RC
1 LJ
N
316.5 325.5 M
315.621 323.379 L
313.5 322.5 L
311.379 323.379 L
310.5 325.5 L
311.379 327.621 L
313.5 328.5 L
315.621 327.621 L
cp
S
GR
GS
0.851 0.325 0.098 RC
1 LJ
N
323.5 325.5 M
322.621 323.379 L
320.5 322.5 L
318.379 323.379 L
317.5 325.5 L
318.379 327.621 L
320.5 328.5 L
322.621 327.621 L
cp
S
GR
GS
0.851 0.325 0.098 RC
1 LJ
N
331.5 325.5 M
330.621 323.379 L
328.5 322.5 L
326.379 323.379 L
325.5 325.5 L
326.379 327.621 L
328.5 328.5 L
330.621 327.621 L
cp
S
GR
GS
0.851 0.325 0.098 RC
1 LJ
N
338.5 325.5 M
337.621 323.379 L
335.5 322.5 L
333.379 323.379 L
332.5 325.5 L
333.379 327.621 L
335.5 328.5 L
337.621 327.621 L
cp
S
GR
GS
0.851 0.325 0.098 RC
1 LJ
N
345.5 325.5 M
344.621 323.379 L
342.5 322.5 L
340.379 323.379 L
339.5 325.5 L
340.379 327.621 L
342.5 328.5 L
344.621 327.621 L
cp
S
GR
GS
0.851 0.325 0.098 RC
1 LJ
N
353.5 325.5 M
352.621 323.379 L
350.5 322.5 L
348.379 323.379 L
347.5 325.5 L
348.379 327.621 L
350.5 328.5 L
352.621 327.621 L
cp
S
GR
GS
0.851 0.325 0.098 RC
1 LJ
N
360.5 325.5 M
359.621 323.379 L
357.5 322.5 L
355.379 323.379 L
354.5 325.5 L
355.379 327.621 L
357.5 328.5 L
359.621 327.621 L
cp
S
GR
GS
0.851 0.325 0.098 RC
1 LJ
N
368.5 325.5 M
367.621 323.379 L
365.5 322.5 L
363.379 323.379 L
362.5 325.5 L
363.379 327.621 L
365.5 328.5 L
367.621 327.621 L
cp
S
GR
GS
0.851 0.325 0.098 RC
1 LJ
N
375.5 325.5 M
374.621 323.379 L
372.5 322.5 L
370.379 323.379 L
369.5 325.5 L
370.379 327.621 L
372.5 328.5 L
374.621 327.621 L
cp
S
GR
GS
0.851 0.325 0.098 RC
1 LJ
N
383.5 325.5 M
382.621 323.379 L
380.5 322.5 L
378.379 323.379 L
377.5 325.5 L
378.379 327.621 L
380.5 328.5 L
382.621 327.621 L
cp
S
GR
GS
0.851 0.325 0.098 RC
1 LJ
N
390.5 325.5 M
389.621 323.379 L
387.5 322.5 L
385.379 323.379 L
384.5 325.5 L
385.379 327.621 L
387.5 328.5 L
389.621 327.621 L
cp
S
GR
GS
0.851 0.325 0.098 RC
1 LJ
N
397.5 325.5 M
396.621 323.379 L
394.5 322.5 L
392.379 323.379 L
391.5 325.5 L
392.379 327.621 L
394.5 328.5 L
396.621 327.621 L
cp
S
GR
GS
0.851 0.325 0.098 RC
1 LJ
N
405.5 325.5 M
404.621 323.379 L
402.5 322.5 L
400.379 323.379 L
399.5 325.5 L
400.379 327.621 L
402.5 328.5 L
404.621 327.621 L
cp
S
GR
GS
0.851 0.325 0.098 RC
1 LJ
N
412.5 325.5 M
411.621 323.379 L
409.5 322.5 L
407.379 323.379 L
406.5 325.5 L
407.379 327.621 L
409.5 328.5 L
411.621 327.621 L
cp
S
GR
GS
0.851 0.325 0.098 RC
1 LJ
N
420.5 325.5 M
419.621 323.379 L
417.5 322.5 L
415.379 323.379 L
414.5 325.5 L
415.379 327.621 L
417.5 328.5 L
419.621 327.621 L
cp
S
GR
GS
0.851 0.325 0.098 RC
1 LJ
N
427.5 325.5 M
426.621 323.379 L
424.5 322.5 L
422.379 323.379 L
421.5 325.5 L
422.379 327.621 L
424.5 328.5 L
426.621 327.621 L
cp
S
GR
GS
0.851 0.325 0.098 RC
1 LJ
N
435.5 325.5 M
434.621 323.379 L
432.5 322.5 L
430.379 323.379 L
429.5 325.5 L
430.379 327.621 L
432.5 328.5 L
434.621 327.621 L
cp
S
GR
GS
0.851 0.325 0.098 RC
1 LJ
N
442.5 325.5 M
441.621 323.379 L
439.5 322.5 L
437.379 323.379 L
436.5 325.5 L
437.379 327.621 L
439.5 328.5 L
441.621 327.621 L
cp
S
GR
GS
0.851 0.325 0.098 RC
1 LJ
N
450.5 325.5 M
449.621 323.379 L
447.5 322.5 L
445.379 323.379 L
444.5 325.5 L
445.379 327.621 L
447.5 328.5 L
449.621 327.621 L
cp
S
GR
GS
0.851 0.325 0.098 RC
1 LJ
N
457.5 325.5 M
456.621 323.379 L
454.5 322.5 L
452.379 323.379 L
451.5 325.5 L
452.379 327.621 L
454.5 328.5 L
456.621 327.621 L
cp
S
GR
GS
[1 0 0 1 360 53.75] CT
/Helvetica 18 F
GS
[1 0 0 1 0 0] CT
0 4.5 moveto 
1 -1 scale
(Random shuffling) t 
GR
GR
GS
0 0.447 0.741 RC
1 LJ
N
327 53.75 M
357 53.75 L
S
GR
GS
0 0.447 0.741 RC
1 LJ
N
344.5 53.5 M
343.621 51.379 L
341.5 50.5 L
339.379 51.379 L
338.5 53.5 L
339.379 55.621 L
341.5 56.5 L
343.621 55.621 L
cp
S
GR
GS
[1 0 0 1 360 72.75] CT
/Helvetica 18 F
GS
[1 0 0 1 0 0] CT
0 4.5 moveto 
1 -1 scale
(Weighted shuffling) t 
GR
GR
GS
0.851 0.325 0.098 RC
1 LJ
N
327 72.75 M
357 72.75 L
S
GR
GS
0.851 0.325 0.098 RC
1 LJ
N
344.5 72.5 M
343.621 70.379 L
341.5 69.5 L
339.379 70.379 L
338.5 72.5 L
339.379 74.621 L
341.5 75.5 L
343.621 74.621 L
cp
S
GR
%%Trailer
%%Pages: 1
%%EOF
