%!PS-Adobe-3.0 EPSF-3.0
%%Creator: (MATLAB, The Mathworks, Inc. Version 8.6.0.267246 \(R2015b\). Operating System: Mac OS X)
%%Title: /Users/gauthiermuguerza/Desktop/rsgd/report/images/syntheticWeightsTest.eps
%%CreationDate: 2018-06-01T11:11:34
%%Pages: (atend)
%%BoundingBox:     8     0   570   426
%%LanguageLevel: 3
%%EndComments
%%BeginProlog
%%BeginResource: procset (Apache XML Graphics Std ProcSet) 1.2 0
%%Version: 1.2 0
%%Copyright: (Copyright 2001-2003,2010 The Apache Software Foundation. License terms: http://www.apache.org/licenses/LICENSE-2.0)
/bd{bind def}bind def
/ld{load def}bd
/GR/grestore ld
/M/moveto ld
/LJ/setlinejoin ld
/C/curveto ld
/f/fill ld
/LW/setlinewidth ld
/GC/setgray ld
/t/show ld
/N/newpath ld
/CT/concat ld
/cp/closepath ld
/S/stroke ld
/L/lineto ld
/CC/setcmykcolor ld
/A/ashow ld
/GS/gsave ld
/RC/setrgbcolor ld
/RM/rmoveto ld
/ML/setmiterlimit ld
/re {4 2 roll M
1 index 0 rlineto
0 exch rlineto
neg 0 rlineto
cp } bd
/_ctm matrix def
/_tm matrix def
/BT { _ctm currentmatrix pop matrix _tm copy pop 0 0 moveto } bd
/ET { _ctm setmatrix } bd
/iTm { _ctm setmatrix _tm concat } bd
/Tm { _tm astore pop iTm 0 0 moveto } bd
/ux 0.0 def
/uy 0.0 def
/F {
  /Tp exch def
  /Tf exch def
  Tf findfont Tp scalefont setfont
  /cf Tf def  /cs Tp def
} bd
/ULS {currentpoint /uy exch def /ux exch def} bd
/ULE {
  /Tcx currentpoint pop def
  gsave
  newpath
  cf findfont cs scalefont dup
  /FontMatrix get 0 get /Ts exch def /FontInfo get dup
  /UnderlinePosition get Ts mul /To exch def
  /UnderlineThickness get Ts mul /Tt exch def
  ux uy To add moveto  Tcx uy To add lineto
  Tt setlinewidth stroke
  grestore
} bd
/OLE {
  /Tcx currentpoint pop def
  gsave
  newpath
  cf findfont cs scalefont dup
  /FontMatrix get 0 get /Ts exch def /FontInfo get dup
  /UnderlinePosition get Ts mul /To exch def
  /UnderlineThickness get Ts mul /Tt exch def
  ux uy To add cs add moveto Tcx uy To add cs add lineto
  Tt setlinewidth stroke
  grestore
} bd
/SOE {
  /Tcx currentpoint pop def
  gsave
  newpath
  cf findfont cs scalefont dup
  /FontMatrix get 0 get /Ts exch def /FontInfo get dup
  /UnderlinePosition get Ts mul /To exch def
  /UnderlineThickness get Ts mul /Tt exch def
  ux uy To add cs 10 mul 26 idiv add moveto Tcx uy To add cs 10 mul 26 idiv add lineto
  Tt setlinewidth stroke
  grestore
} bd
/QT {
/Y22 exch store
/X22 exch store
/Y21 exch store
/X21 exch store
currentpoint
/Y21 load 2 mul add 3 div exch
/X21 load 2 mul add 3 div exch
/X21 load 2 mul /X22 load add 3 div
/Y21 load 2 mul /Y22 load add 3 div
/X22 load /Y22 load curveto
} bd
/SSPD {
dup length /d exch dict def
{
/v exch def
/k exch def
currentpagedevice k known {
/cpdv currentpagedevice k get def
v cpdv ne {
/upd false def
/nullv v type /nulltype eq def
/nullcpdv cpdv type /nulltype eq def
nullv nullcpdv or
{
/upd true def
} {
/sametype v type cpdv type eq def
sametype {
v type /arraytype eq {
/vlen v length def
/cpdvlen cpdv length def
vlen cpdvlen eq {
0 1 vlen 1 sub {
/i exch def
/obj v i get def
/cpdobj cpdv i get def
obj cpdobj ne {
/upd true def
exit
} if
} for
} {
/upd true def
} ifelse
} {
v type /dicttype eq {
v {
/dv exch def
/dk exch def
/cpddv cpdv dk get def
dv cpddv ne {
/upd true def
exit
} if
} forall
} {
/upd true def
} ifelse
} ifelse
} if
} ifelse
upd true eq {
d k v put
} if
} if
} if
} forall
d length 0 gt {
d setpagedevice
} if
} bd
%%EndResource
%%BeginResource: procset (Apache XML Graphics EPS ProcSet) 1.0 0
%%Version: 1.0 0
%%Copyright: (Copyright 2002-2003 The Apache Software Foundation. License terms: http://www.apache.org/licenses/LICENSE-2.0)
/BeginEPSF { %def
/b4_Inc_state save def         % Save state for cleanup
/dict_count countdictstack def % Count objects on dict stack
/op_count count 1 sub def      % Count objects on operand stack
userdict begin                 % Push userdict on dict stack
/showpage { } def              % Redefine showpage, { } = null proc
0 setgray 0 setlinecap         % Prepare graphics state
1 setlinewidth 0 setlinejoin
10 setmiterlimit [ ] 0 setdash newpath
/languagelevel where           % If level not equal to 1 then
{pop languagelevel             % set strokeadjust and
1 ne                           % overprint to their defaults.
{false setstrokeadjust false setoverprint
} if
} if
} bd
/EndEPSF { %def
count op_count sub {pop} repeat            % Clean up stacks
countdictstack dict_count sub {end} repeat
b4_Inc_state restore
} bd
%%EndResource
%FOPBeginFontDict
%%IncludeResource: font Courier-Bold
%%IncludeResource: font Helvetica
%%IncludeResource: font Courier-BoldOblique
%%IncludeResource: font Courier-Oblique
%%IncludeResource: font Times-Roman
%%IncludeResource: font Helvetica-BoldOblique
%%IncludeResource: font Helvetica-Bold
%%IncludeResource: font Helvetica-Oblique
%%IncludeResource: font Times-BoldItalic
%%IncludeResource: font Courier
%%IncludeResource: font Times-Italic
%%IncludeResource: font Times-Bold
%%IncludeResource: font Symbol
%%IncludeResource: font ZapfDingbats
%FOPEndFontDict
%%BeginResource: encoding WinAnsiEncoding
/WinAnsiEncoding [
/.notdef /.notdef /.notdef /.notdef /.notdef
/.notdef /.notdef /.notdef /.notdef /.notdef
/.notdef /.notdef /.notdef /.notdef /.notdef
/.notdef /.notdef /.notdef /.notdef /.notdef
/.notdef /.notdef /.notdef /.notdef /.notdef
/.notdef /.notdef /.notdef /.notdef /.notdef
/.notdef /.notdef /space /exclam /quotedbl
/numbersign /dollar /percent /ampersand /quotesingle
/parenleft /parenright /asterisk /plus /comma
/hyphen /period /slash /zero /one
/two /three /four /five /six
/seven /eight /nine /colon /semicolon
/less /equal /greater /question /at
/A /B /C /D /E
/F /G /H /I /J
/K /L /M /N /O
/P /Q /R /S /T
/U /V /W /X /Y
/Z /bracketleft /backslash /bracketright /asciicircum
/underscore /quoteleft /a /b /c
/d /e /f /g /h
/i /j /k /l /m
/n /o /p /q /r
/s /t /u /v /w
/x /y /z /braceleft /bar
/braceright /asciitilde /bullet /Euro /bullet
/quotesinglbase /florin /quotedblbase /ellipsis /dagger
/daggerdbl /circumflex /perthousand /Scaron /guilsinglleft
/OE /bullet /Zcaron /bullet /bullet
/quoteleft /quoteright /quotedblleft /quotedblright /bullet
/endash /emdash /asciitilde /trademark /scaron
/guilsinglright /oe /bullet /zcaron /Ydieresis
/space /exclamdown /cent /sterling /currency
/yen /brokenbar /section /dieresis /copyright
/ordfeminine /guillemotleft /logicalnot /sfthyphen /registered
/macron /degree /plusminus /twosuperior /threesuperior
/acute /mu /paragraph /middot /cedilla
/onesuperior /ordmasculine /guillemotright /onequarter /onehalf
/threequarters /questiondown /Agrave /Aacute /Acircumflex
/Atilde /Adieresis /Aring /AE /Ccedilla
/Egrave /Eacute /Ecircumflex /Edieresis /Igrave
/Iacute /Icircumflex /Idieresis /Eth /Ntilde
/Ograve /Oacute /Ocircumflex /Otilde /Odieresis
/multiply /Oslash /Ugrave /Uacute /Ucircumflex
/Udieresis /Yacute /Thorn /germandbls /agrave
/aacute /acircumflex /atilde /adieresis /aring
/ae /ccedilla /egrave /eacute /ecircumflex
/edieresis /igrave /iacute /icircumflex /idieresis
/eth /ntilde /ograve /oacute /ocircumflex
/otilde /odieresis /divide /oslash /ugrave
/uacute /ucircumflex /udieresis /yacute /thorn
/ydieresis
] def
%%EndResource
%FOPBeginFontReencode
/Courier-Bold findfont
dup length dict begin
  {1 index /FID ne {def} {pop pop} ifelse} forall
  /Encoding WinAnsiEncoding def
  currentdict
end
/Courier-Bold exch definefont pop
/Helvetica findfont
dup length dict begin
  {1 index /FID ne {def} {pop pop} ifelse} forall
  /Encoding WinAnsiEncoding def
  currentdict
end
/Helvetica exch definefont pop
/Courier-BoldOblique findfont
dup length dict begin
  {1 index /FID ne {def} {pop pop} ifelse} forall
  /Encoding WinAnsiEncoding def
  currentdict
end
/Courier-BoldOblique exch definefont pop
/Courier-Oblique findfont
dup length dict begin
  {1 index /FID ne {def} {pop pop} ifelse} forall
  /Encoding WinAnsiEncoding def
  currentdict
end
/Courier-Oblique exch definefont pop
/Times-Roman findfont
dup length dict begin
  {1 index /FID ne {def} {pop pop} ifelse} forall
  /Encoding WinAnsiEncoding def
  currentdict
end
/Times-Roman exch definefont pop
/Helvetica-BoldOblique findfont
dup length dict begin
  {1 index /FID ne {def} {pop pop} ifelse} forall
  /Encoding WinAnsiEncoding def
  currentdict
end
/Helvetica-BoldOblique exch definefont pop
/Helvetica-Bold findfont
dup length dict begin
  {1 index /FID ne {def} {pop pop} ifelse} forall
  /Encoding WinAnsiEncoding def
  currentdict
end
/Helvetica-Bold exch definefont pop
/Helvetica-Oblique findfont
dup length dict begin
  {1 index /FID ne {def} {pop pop} ifelse} forall
  /Encoding WinAnsiEncoding def
  currentdict
end
/Helvetica-Oblique exch definefont pop
/Times-BoldItalic findfont
dup length dict begin
  {1 index /FID ne {def} {pop pop} ifelse} forall
  /Encoding WinAnsiEncoding def
  currentdict
end
/Times-BoldItalic exch definefont pop
/Courier findfont
dup length dict begin
  {1 index /FID ne {def} {pop pop} ifelse} forall
  /Encoding WinAnsiEncoding def
  currentdict
end
/Courier exch definefont pop
/Times-Italic findfont
dup length dict begin
  {1 index /FID ne {def} {pop pop} ifelse} forall
  /Encoding WinAnsiEncoding def
  currentdict
end
/Times-Italic exch definefont pop
/Times-Bold findfont
dup length dict begin
  {1 index /FID ne {def} {pop pop} ifelse} forall
  /Encoding WinAnsiEncoding def
  currentdict
end
/Times-Bold exch definefont pop
%FOPEndFontReencode
%%EndProlog
%%Page: 1 1
%%PageBoundingBox: 0 0 576 432
%%BeginPageSetup
[1 0 0 -1 0 432] CT
%%EndPageSetup
GS
1 GC
N
0 0 576 432 re
f
GR
GS
1 GC
N
0 0 576 432 re
f
GR
GS
1 GC
N
75 384 M
521.5 384 L
521.5 32.5 L
75 32.5 L
cp
f
GR
GS
0.149 GC
2 setlinecap
1 LJ
0.5 LW
N
75 384 M
521.5 384 L
S
GR
GS
0.149 GC
2 setlinecap
1 LJ
0.5 LW
N
75 384 M
75 379.535 L
S
GR
GS
0.149 GC
2 setlinecap
1 LJ
0.5 LW
N
186.625 384 M
186.625 379.535 L
S
GR
GS
0.149 GC
2 setlinecap
1 LJ
0.5 LW
N
298.25 384 M
298.25 379.535 L
S
GR
GS
0.149 GC
2 setlinecap
1 LJ
0.5 LW
N
409.875 384 M
409.875 379.535 L
S
GR
GS
0.149 GC
2 setlinecap
1 LJ
0.5 LW
N
521.5 384 M
521.5 379.535 L
S
GR
GS
[1 0 0 1 75 390] CT
0.149 GC
/Helvetica 20 F
GS
[1 0 0 1 0 0] CT
-6 16 moveto 
1 -1 scale
(0) t 
GR
GR
GS
[1 0 0 1 186.625 390] CT
0.149 GC
/Helvetica 20 F
GS
[1 0 0 1 0 0] CT
-6 16 moveto 
1 -1 scale
(2) t 
GR
GR
GS
[1 0 0 1 298.25 390] CT
0.149 GC
/Helvetica 20 F
GS
[1 0 0 1 0 0] CT
-6 16 moveto 
1 -1 scale
(4) t 
GR
GR
GS
[1 0 0 1 409.875 390] CT
0.149 GC
/Helvetica 20 F
GS
[1 0 0 1 0 0] CT
-6 16 moveto 
1 -1 scale
(6) t 
GR
GR
GS
[1 0 0 1 521.5 390] CT
0.149 GC
/Helvetica 20 F
GS
[1 0 0 1 0 0] CT
-6 16 moveto 
1 -1 scale
(8) t 
GR
GR
GS
[1 0 0 1 298.25021 411.5] CT
0.149 GC
/Helvetica 20 F
GS
[1 0 0 1 0 0] CT
-37 16 moveto 
1 -1 scale
(Time \(s\)) t 
GR
GR
GS
0.149 GC
2 setlinecap
1 LJ
0.5 LW
N
75 384 M
75 32.5 L
S
GR
GS
0.149 GC
2 setlinecap
1 LJ
0.5 LW
N
75 384 M
79.465 384 L
S
GR
GS
0.149 GC
2 setlinecap
1 LJ
0.5 LW
N
75 313.7 M
79.465 313.7 L
S
GR
GS
0.149 GC
2 setlinecap
1 LJ
0.5 LW
N
75 243.4 M
79.465 243.4 L
S
GR
GS
0.149 GC
2 setlinecap
1 LJ
0.5 LW
N
75 173.1 M
79.465 173.1 L
S
GR
GS
0.149 GC
2 setlinecap
1 LJ
0.5 LW
N
75 102.8 M
79.465 102.8 L
S
GR
GS
0.149 GC
2 setlinecap
1 LJ
0.5 LW
N
75 32.5 M
79.465 32.5 L
S
GR
GS
0.149 GC
2 setlinecap
1 LJ
0.5 LW
N
75 362.838 M
77.232 362.838 L
S
GR
GS
0.149 GC
2 setlinecap
1 LJ
0.5 LW
N
75 350.458 M
77.232 350.458 L
S
GR
GS
0.149 GC
2 setlinecap
1 LJ
0.5 LW
N
75 341.675 M
77.232 341.675 L
S
GR
GS
0.149 GC
2 setlinecap
1 LJ
0.5 LW
N
75 334.862 M
77.232 334.862 L
S
GR
GS
0.149 GC
2 setlinecap
1 LJ
0.5 LW
N
75 329.296 M
77.232 329.296 L
S
GR
GS
0.149 GC
2 setlinecap
1 LJ
0.5 LW
N
75 324.59 M
77.232 324.59 L
S
GR
GS
0.149 GC
2 setlinecap
1 LJ
0.5 LW
N
75 320.513 M
77.232 320.513 L
S
GR
GS
0.149 GC
2 setlinecap
1 LJ
0.5 LW
N
75 316.917 M
77.232 316.917 L
S
GR
GS
0.149 GC
2 setlinecap
1 LJ
0.5 LW
N
75 292.538 M
77.232 292.538 L
S
GR
GS
0.149 GC
2 setlinecap
1 LJ
0.5 LW
N
75 280.158 M
77.232 280.158 L
S
GR
GS
0.149 GC
2 setlinecap
1 LJ
0.5 LW
N
75 271.375 M
77.232 271.375 L
S
GR
GS
0.149 GC
2 setlinecap
1 LJ
0.5 LW
N
75 264.562 M
77.232 264.562 L
S
GR
GS
0.149 GC
2 setlinecap
1 LJ
0.5 LW
N
75 258.996 M
77.232 258.996 L
S
GR
GS
0.149 GC
2 setlinecap
1 LJ
0.5 LW
N
75 254.29 M
77.232 254.29 L
S
GR
GS
0.149 GC
2 setlinecap
1 LJ
0.5 LW
N
75 250.213 M
77.232 250.213 L
S
GR
GS
0.149 GC
2 setlinecap
1 LJ
0.5 LW
N
75 246.617 M
77.232 246.617 L
S
GR
GS
0.149 GC
2 setlinecap
1 LJ
0.5 LW
N
75 222.238 M
77.232 222.238 L
S
GR
GS
0.149 GC
2 setlinecap
1 LJ
0.5 LW
N
75 209.858 M
77.232 209.858 L
S
GR
GS
0.149 GC
2 setlinecap
1 LJ
0.5 LW
N
75 201.075 M
77.232 201.075 L
S
GR
GS
0.149 GC
2 setlinecap
1 LJ
0.5 LW
N
75 194.262 M
77.232 194.262 L
S
GR
GS
0.149 GC
2 setlinecap
1 LJ
0.5 LW
N
75 188.696 M
77.232 188.696 L
S
GR
GS
0.149 GC
2 setlinecap
1 LJ
0.5 LW
N
75 183.99 M
77.232 183.99 L
S
GR
GS
0.149 GC
2 setlinecap
1 LJ
0.5 LW
N
75 179.913 M
77.232 179.913 L
S
GR
GS
0.149 GC
2 setlinecap
1 LJ
0.5 LW
N
75 176.317 M
77.232 176.317 L
S
GR
GS
0.149 GC
2 setlinecap
1 LJ
0.5 LW
N
75 151.938 M
77.232 151.938 L
S
GR
GS
0.149 GC
2 setlinecap
1 LJ
0.5 LW
N
75 139.558 M
77.232 139.558 L
S
GR
GS
0.149 GC
2 setlinecap
1 LJ
0.5 LW
N
75 130.775 M
77.232 130.775 L
S
GR
GS
0.149 GC
2 setlinecap
1 LJ
0.5 LW
N
75 123.962 M
77.232 123.962 L
S
GR
GS
0.149 GC
2 setlinecap
1 LJ
0.5 LW
N
75 118.396 M
77.232 118.396 L
S
GR
GS
0.149 GC
2 setlinecap
1 LJ
0.5 LW
N
75 113.69 M
77.232 113.69 L
S
GR
GS
0.149 GC
2 setlinecap
1 LJ
0.5 LW
N
75 109.613 M
77.232 109.613 L
S
GR
GS
0.149 GC
2 setlinecap
1 LJ
0.5 LW
N
75 106.017 M
77.232 106.017 L
S
GR
GS
0.149 GC
2 setlinecap
1 LJ
0.5 LW
N
75 81.638 M
77.232 81.638 L
S
GR
GS
0.149 GC
2 setlinecap
1 LJ
0.5 LW
N
75 69.258 M
77.232 69.258 L
S
GR
GS
0.149 GC
2 setlinecap
1 LJ
0.5 LW
N
75 60.475 M
77.232 60.475 L
S
GR
GS
0.149 GC
2 setlinecap
1 LJ
0.5 LW
N
75 53.662 M
77.232 53.662 L
S
GR
GS
0.149 GC
2 setlinecap
1 LJ
0.5 LW
N
75 48.096 M
77.232 48.096 L
S
GR
GS
0.149 GC
2 setlinecap
1 LJ
0.5 LW
N
75 43.39 M
77.232 43.39 L
S
GR
GS
0.149 GC
2 setlinecap
1 LJ
0.5 LW
N
75 39.313 M
77.232 39.313 L
S
GR
GS
0.149 GC
2 setlinecap
1 LJ
0.5 LW
N
75 35.717 M
77.232 35.717 L
S
GR
GS
[1 0 0 1 31 393] CT
0.149 GC
/Helvetica 20 F
GS
[1 0 0 1 0 0] CT
0 0 moveto 
1 -1 scale
(10) t 
GR
GR
GS
[1 0 0 1 54 383] CT
0.149 GC
/Helvetica 16 F
GS
[1 0 0 1 0 0] CT
0 0 moveto 
1 -1 scale
(-4) t 
GR
GR
GS
[1 0 0 1 31 323] CT
0.149 GC
/Helvetica 20 F
GS
[1 0 0 1 0 0] CT
0 0 moveto 
1 -1 scale
(10) t 
GR
GR
GS
[1 0 0 1 54 313] CT
0.149 GC
/Helvetica 16 F
GS
[1 0 0 1 0 0] CT
0 0 moveto 
1 -1 scale
(-3) t 
GR
GR
GS
[1 0 0 1 31 252] CT
0.149 GC
/Helvetica 20 F
GS
[1 0 0 1 0 0] CT
0 0 moveto 
1 -1 scale
(10) t 
GR
GR
GS
[1 0 0 1 54 242] CT
0.149 GC
/Helvetica 16 F
GS
[1 0 0 1 0 0] CT
0 0 moveto 
1 -1 scale
(-2) t 
GR
GR
GS
[1 0 0 1 31 182] CT
0.149 GC
/Helvetica 20 F
GS
[1 0 0 1 0 0] CT
0 0 moveto 
1 -1 scale
(10) t 
GR
GR
GS
[1 0 0 1 54 172] CT
0.149 GC
/Helvetica 16 F
GS
[1 0 0 1 0 0] CT
0 0 moveto 
1 -1 scale
(-1) t 
GR
GR
GS
[1 0 0 1 37 112] CT
0.149 GC
/Helvetica 20 F
GS
[1 0 0 1 0 0] CT
0 0 moveto 
1 -1 scale
(10) t 
GR
GR
GS
[1 0 0 1 60 102] CT
0.149 GC
/Helvetica 16 F
GS
[1 0 0 1 0 0] CT
0 0 moveto 
1 -1 scale
(0) t 
GR
GR
GS
[1 0 0 1 37 42] CT
0.149 GC
/Helvetica 20 F
GS
[1 0 0 1 0 0] CT
0 0 moveto 
1 -1 scale
(10) t 
GR
GR
GS
[1 0 0 1 60 32] CT
0.149 GC
/Helvetica 16 F
GS
[1 0 0 1 0 0] CT
0 0 moveto 
1 -1 scale
(1) t 
GR
GR
GS
[0 -1 1 0 29 208.24983] CT
0.149 GC
/Helvetica 20 F
GS
[1 0 0 1 0 0] CT
-51.5 -5 moveto 
1 -1 scale
(Test RMSE) t 
GR
GR
GS
[1 0 0 1 298.25031 29.75001] CT
/Helvetica-Bold 22 F
GS
[1 0 0 1 0 0] CT
-272.5 -6 moveto 
1 -1 scale
(200 by 200, rank 4, over-sampling 4, Condition No. 0) t 
GR
GR
GS
0 0.447 0.741 RC
[10 6] 0 setdash
2 LJ
N
75 71.039 M
94.178 82.896 L
112.828 93.543 L
131.269 109.975 L
149.966 133.621 L
169.874 155.929 L
189.711 177.103 L
208.22 198.148 L
226.874 219.44 L
245.358 241.127 L
263.702 262.154 L
282.198 285.331 L
300.814 308.676 L
319.192 332.359 L
337.836 357.547 L
S
GR
GS
0 0.447 0.741 RC
1 LJ
N
78.5 71.5 M
77.621 69.379 L
75.5 68.5 L
73.379 69.379 L
72.5 71.5 L
73.379 73.621 L
75.5 74.5 L
77.621 73.621 L
cp
S
GR
GS
0 0.447 0.741 RC
1 LJ
N
97.5 82.5 M
96.621 80.379 L
94.5 79.5 L
92.379 80.379 L
91.5 82.5 L
92.379 84.621 L
94.5 85.5 L
96.621 84.621 L
cp
S
GR
GS
0 0.447 0.741 RC
1 LJ
N
115.5 93.5 M
114.621 91.379 L
112.5 90.5 L
110.379 91.379 L
109.5 93.5 L
110.379 95.621 L
112.5 96.5 L
114.621 95.621 L
cp
S
GR
GS
0 0.447 0.741 RC
1 LJ
N
134.5 109.5 M
133.621 107.379 L
131.5 106.5 L
129.379 107.379 L
128.5 109.5 L
129.379 111.621 L
131.5 112.5 L
133.621 111.621 L
cp
S
GR
GS
0 0.447 0.741 RC
1 LJ
N
152.5 133.5 M
151.621 131.379 L
149.5 130.5 L
147.379 131.379 L
146.5 133.5 L
147.379 135.621 L
149.5 136.5 L
151.621 135.621 L
cp
S
GR
GS
0 0.447 0.741 RC
1 LJ
N
172.5 155.5 M
171.621 153.379 L
169.5 152.5 L
167.379 153.379 L
166.5 155.5 L
167.379 157.621 L
169.5 158.5 L
171.621 157.621 L
cp
S
GR
GS
0 0.447 0.741 RC
1 LJ
N
192.5 177.5 M
191.621 175.379 L
189.5 174.5 L
187.379 175.379 L
186.5 177.5 L
187.379 179.621 L
189.5 180.5 L
191.621 179.621 L
cp
S
GR
GS
0 0.447 0.741 RC
1 LJ
N
211.5 198.5 M
210.621 196.379 L
208.5 195.5 L
206.379 196.379 L
205.5 198.5 L
206.379 200.621 L
208.5 201.5 L
210.621 200.621 L
cp
S
GR
GS
0 0.447 0.741 RC
1 LJ
N
229.5 219.5 M
228.621 217.379 L
226.5 216.5 L
224.379 217.379 L
223.5 219.5 L
224.379 221.621 L
226.5 222.5 L
228.621 221.621 L
cp
S
GR
GS
0 0.447 0.741 RC
1 LJ
N
248.5 241.5 M
247.621 239.379 L
245.5 238.5 L
243.379 239.379 L
242.5 241.5 L
243.379 243.621 L
245.5 244.5 L
247.621 243.621 L
cp
S
GR
GS
0 0.447 0.741 RC
1 LJ
N
266.5 262.5 M
265.621 260.379 L
263.5 259.5 L
261.379 260.379 L
260.5 262.5 L
261.379 264.621 L
263.5 265.5 L
265.621 264.621 L
cp
S
GR
GS
0 0.447 0.741 RC
1 LJ
N
285.5 285.5 M
284.621 283.379 L
282.5 282.5 L
280.379 283.379 L
279.5 285.5 L
280.379 287.621 L
282.5 288.5 L
284.621 287.621 L
cp
S
GR
GS
0 0.447 0.741 RC
1 LJ
N
303.5 308.5 M
302.621 306.379 L
300.5 305.5 L
298.379 306.379 L
297.5 308.5 L
298.379 310.621 L
300.5 311.5 L
302.621 310.621 L
cp
S
GR
GS
0 0.447 0.741 RC
1 LJ
N
322.5 332.5 M
321.621 330.379 L
319.5 329.5 L
317.379 330.379 L
316.5 332.5 L
317.379 334.621 L
319.5 335.5 L
321.621 334.621 L
cp
S
GR
GS
0 0.447 0.741 RC
1 LJ
N
340.5 357.5 M
339.621 355.379 L
337.5 354.5 L
335.379 355.379 L
334.5 357.5 L
335.379 359.621 L
337.5 360.5 L
339.621 359.621 L
cp
S
GR
GS
0.851 0.325 0.098 RC
[10 6] 0 setdash
2 LJ
N
75 71.039 M
191.448 80.843 L
209.446 85.874 L
227.564 95.036 L
245.46 110.677 L
263.359 127.861 L
281.241 146.172 L
299.107 163.203 L
316.832 181.454 L
334.711 198.677 L
352.573 212.99 L
370.545 229.266 L
388.665 245.119 L
406.591 262.198 L
424.361 285.627 L
S
GR
GS
0.851 0.325 0.098 RC
1 LJ
N
78.5 71.5 M
77.621 69.379 L
75.5 68.5 L
73.379 69.379 L
72.5 71.5 L
73.379 73.621 L
75.5 74.5 L
77.621 73.621 L
cp
S
GR
GS
0.851 0.325 0.098 RC
1 LJ
N
194.5 80.5 M
193.621 78.379 L
191.5 77.5 L
189.379 78.379 L
188.5 80.5 L
189.379 82.621 L
191.5 83.5 L
193.621 82.621 L
cp
S
GR
GS
0.851 0.325 0.098 RC
1 LJ
N
212.5 85.5 M
211.621 83.379 L
209.5 82.5 L
207.379 83.379 L
206.5 85.5 L
207.379 87.621 L
209.5 88.5 L
211.621 87.621 L
cp
S
GR
GS
0.851 0.325 0.098 RC
1 LJ
N
230.5 95.5 M
229.621 93.379 L
227.5 92.5 L
225.379 93.379 L
224.5 95.5 L
225.379 97.621 L
227.5 98.5 L
229.621 97.621 L
cp
S
GR
GS
0.851 0.325 0.098 RC
1 LJ
N
248.5 110.5 M
247.621 108.379 L
245.5 107.5 L
243.379 108.379 L
242.5 110.5 L
243.379 112.621 L
245.5 113.5 L
247.621 112.621 L
cp
S
GR
GS
0.851 0.325 0.098 RC
1 LJ
N
266.5 127.5 M
265.621 125.379 L
263.5 124.5 L
261.379 125.379 L
260.5 127.5 L
261.379 129.621 L
263.5 130.5 L
265.621 129.621 L
cp
S
GR
GS
0.851 0.325 0.098 RC
1 LJ
N
284.5 146.5 M
283.621 144.379 L
281.5 143.5 L
279.379 144.379 L
278.5 146.5 L
279.379 148.621 L
281.5 149.5 L
283.621 148.621 L
cp
S
GR
GS
0.851 0.325 0.098 RC
1 LJ
N
302.5 163.5 M
301.621 161.379 L
299.5 160.5 L
297.379 161.379 L
296.5 163.5 L
297.379 165.621 L
299.5 166.5 L
301.621 165.621 L
cp
S
GR
GS
0.851 0.325 0.098 RC
1 LJ
N
319.5 181.5 M
318.621 179.379 L
316.5 178.5 L
314.379 179.379 L
313.5 181.5 L
314.379 183.621 L
316.5 184.5 L
318.621 183.621 L
cp
S
GR
GS
0.851 0.325 0.098 RC
1 LJ
N
337.5 198.5 M
336.621 196.379 L
334.5 195.5 L
332.379 196.379 L
331.5 198.5 L
332.379 200.621 L
334.5 201.5 L
336.621 200.621 L
cp
S
GR
GS
0.851 0.325 0.098 RC
1 LJ
N
355.5 212.5 M
354.621 210.379 L
352.5 209.5 L
350.379 210.379 L
349.5 212.5 L
350.379 214.621 L
352.5 215.5 L
354.621 214.621 L
cp
S
GR
GS
0.851 0.325 0.098 RC
1 LJ
N
373.5 229.5 M
372.621 227.379 L
370.5 226.5 L
368.379 227.379 L
367.5 229.5 L
368.379 231.621 L
370.5 232.5 L
372.621 231.621 L
cp
S
GR
GS
0.851 0.325 0.098 RC
1 LJ
N
391.5 245.5 M
390.621 243.379 L
388.5 242.5 L
386.379 243.379 L
385.5 245.5 L
386.379 247.621 L
388.5 248.5 L
390.621 247.621 L
cp
S
GR
GS
0.851 0.325 0.098 RC
1 LJ
N
409.5 262.5 M
408.621 260.379 L
406.5 259.5 L
404.379 260.379 L
403.5 262.5 L
404.379 264.621 L
406.5 265.5 L
408.621 264.621 L
cp
S
GR
GS
0.851 0.325 0.098 RC
1 LJ
N
427.5 285.5 M
426.621 283.379 L
424.5 282.5 L
422.379 283.379 L
421.5 285.5 L
422.379 287.621 L
424.5 288.5 L
426.621 287.621 L
cp
S
GR
GS
[1 0 0 1 360 53.75] CT
/Helvetica 18 F
GS
[1 0 0 1 0 0] CT
0 4.5 moveto 
1 -1 scale
(Random shuffling) t 
GR
GR
GS
0 0.447 0.741 RC
[10 6] 0 setdash
2 LJ
N
327 53.75 M
357 53.75 L
S
GR
GS
0 0.447 0.741 RC
1 LJ
N
344.5 53.5 M
343.621 51.379 L
341.5 50.5 L
339.379 51.379 L
338.5 53.5 L
339.379 55.621 L
341.5 56.5 L
343.621 55.621 L
cp
S
GR
GS
[1 0 0 1 360 72.75] CT
/Helvetica 18 F
GS
[1 0 0 1 0 0] CT
0 4.5 moveto 
1 -1 scale
(Weighted shuffling) t 
GR
GR
GS
0.851 0.325 0.098 RC
[10 6] 0 setdash
2 LJ
N
327 72.75 M
357 72.75 L
S
GR
GS
0.851 0.325 0.098 RC
1 LJ
N
344.5 72.5 M
343.621 70.379 L
341.5 69.5 L
339.379 70.379 L
338.5 72.5 L
339.379 74.621 L
341.5 75.5 L
343.621 74.621 L
cp
S
GR
%%Trailer
%%Pages: 1
%%EOF
