%!PS-Adobe-3.0 EPSF-3.0
%%Creator: (MATLAB, The Mathworks, Inc. Version 8.6.0.267246 \(R2015b\). Operating System: Mac OS X)
%%Title: /Users/gauthiermuguerza/Desktop/rsgd/report/images/trafficStep.eps
%%CreationDate: 2018-06-06T00:39:17
%%Pages: (atend)
%%BoundingBox:     0     0   533   404
%%LanguageLevel: 3
%%EndComments
%%BeginProlog
%%BeginResource: procset (Apache XML Graphics Std ProcSet) 1.2 0
%%Version: 1.2 0
%%Copyright: (Copyright 2001-2003,2010 The Apache Software Foundation. License terms: http://www.apache.org/licenses/LICENSE-2.0)
/bd{bind def}bind def
/ld{load def}bd
/GR/grestore ld
/M/moveto ld
/LJ/setlinejoin ld
/C/curveto ld
/f/fill ld
/LW/setlinewidth ld
/GC/setgray ld
/t/show ld
/N/newpath ld
/CT/concat ld
/cp/closepath ld
/S/stroke ld
/L/lineto ld
/CC/setcmykcolor ld
/A/ashow ld
/GS/gsave ld
/RC/setrgbcolor ld
/RM/rmoveto ld
/ML/setmiterlimit ld
/re {4 2 roll M
1 index 0 rlineto
0 exch rlineto
neg 0 rlineto
cp } bd
/_ctm matrix def
/_tm matrix def
/BT { _ctm currentmatrix pop matrix _tm copy pop 0 0 moveto } bd
/ET { _ctm setmatrix } bd
/iTm { _ctm setmatrix _tm concat } bd
/Tm { _tm astore pop iTm 0 0 moveto } bd
/ux 0.0 def
/uy 0.0 def
/F {
  /Tp exch def
  /Tf exch def
  Tf findfont Tp scalefont setfont
  /cf Tf def  /cs Tp def
} bd
/ULS {currentpoint /uy exch def /ux exch def} bd
/ULE {
  /Tcx currentpoint pop def
  gsave
  newpath
  cf findfont cs scalefont dup
  /FontMatrix get 0 get /Ts exch def /FontInfo get dup
  /UnderlinePosition get Ts mul /To exch def
  /UnderlineThickness get Ts mul /Tt exch def
  ux uy To add moveto  Tcx uy To add lineto
  Tt setlinewidth stroke
  grestore
} bd
/OLE {
  /Tcx currentpoint pop def
  gsave
  newpath
  cf findfont cs scalefont dup
  /FontMatrix get 0 get /Ts exch def /FontInfo get dup
  /UnderlinePosition get Ts mul /To exch def
  /UnderlineThickness get Ts mul /Tt exch def
  ux uy To add cs add moveto Tcx uy To add cs add lineto
  Tt setlinewidth stroke
  grestore
} bd
/SOE {
  /Tcx currentpoint pop def
  gsave
  newpath
  cf findfont cs scalefont dup
  /FontMatrix get 0 get /Ts exch def /FontInfo get dup
  /UnderlinePosition get Ts mul /To exch def
  /UnderlineThickness get Ts mul /Tt exch def
  ux uy To add cs 10 mul 26 idiv add moveto Tcx uy To add cs 10 mul 26 idiv add lineto
  Tt setlinewidth stroke
  grestore
} bd
/QT {
/Y22 exch store
/X22 exch store
/Y21 exch store
/X21 exch store
currentpoint
/Y21 load 2 mul add 3 div exch
/X21 load 2 mul add 3 div exch
/X21 load 2 mul /X22 load add 3 div
/Y21 load 2 mul /Y22 load add 3 div
/X22 load /Y22 load curveto
} bd
/SSPD {
dup length /d exch dict def
{
/v exch def
/k exch def
currentpagedevice k known {
/cpdv currentpagedevice k get def
v cpdv ne {
/upd false def
/nullv v type /nulltype eq def
/nullcpdv cpdv type /nulltype eq def
nullv nullcpdv or
{
/upd true def
} {
/sametype v type cpdv type eq def
sametype {
v type /arraytype eq {
/vlen v length def
/cpdvlen cpdv length def
vlen cpdvlen eq {
0 1 vlen 1 sub {
/i exch def
/obj v i get def
/cpdobj cpdv i get def
obj cpdobj ne {
/upd true def
exit
} if
} for
} {
/upd true def
} ifelse
} {
v type /dicttype eq {
v {
/dv exch def
/dk exch def
/cpddv cpdv dk get def
dv cpddv ne {
/upd true def
exit
} if
} forall
} {
/upd true def
} ifelse
} ifelse
} if
} ifelse
upd true eq {
d k v put
} if
} if
} if
} forall
d length 0 gt {
d setpagedevice
} if
} bd
%%EndResource
%%BeginResource: procset (Apache XML Graphics EPS ProcSet) 1.0 0
%%Version: 1.0 0
%%Copyright: (Copyright 2002-2003 The Apache Software Foundation. License terms: http://www.apache.org/licenses/LICENSE-2.0)
/BeginEPSF { %def
/b4_Inc_state save def         % Save state for cleanup
/dict_count countdictstack def % Count objects on dict stack
/op_count count 1 sub def      % Count objects on operand stack
userdict begin                 % Push userdict on dict stack
/showpage { } def              % Redefine showpage, { } = null proc
0 setgray 0 setlinecap         % Prepare graphics state
1 setlinewidth 0 setlinejoin
10 setmiterlimit [ ] 0 setdash newpath
/languagelevel where           % If level not equal to 1 then
{pop languagelevel             % set strokeadjust and
1 ne                           % overprint to their defaults.
{false setstrokeadjust false setoverprint
} if
} if
} bd
/EndEPSF { %def
count op_count sub {pop} repeat            % Clean up stacks
countdictstack dict_count sub {end} repeat
b4_Inc_state restore
} bd
%%EndResource
%FOPBeginFontDict
%%IncludeResource: font Courier-Bold
%%IncludeResource: font Helvetica
%%IncludeResource: font Courier-BoldOblique
%%IncludeResource: font Courier-Oblique
%%IncludeResource: font Times-Roman
%%IncludeResource: font Helvetica-BoldOblique
%%IncludeResource: font Helvetica-Bold
%%IncludeResource: font Helvetica-Oblique
%%IncludeResource: font Times-BoldItalic
%%IncludeResource: font Courier
%%IncludeResource: font Times-Italic
%%IncludeResource: font Times-Bold
%%IncludeResource: font Symbol
%%IncludeResource: font ZapfDingbats
%FOPEndFontDict
%%BeginResource: encoding WinAnsiEncoding
/WinAnsiEncoding [
/.notdef /.notdef /.notdef /.notdef /.notdef
/.notdef /.notdef /.notdef /.notdef /.notdef
/.notdef /.notdef /.notdef /.notdef /.notdef
/.notdef /.notdef /.notdef /.notdef /.notdef
/.notdef /.notdef /.notdef /.notdef /.notdef
/.notdef /.notdef /.notdef /.notdef /.notdef
/.notdef /.notdef /space /exclam /quotedbl
/numbersign /dollar /percent /ampersand /quotesingle
/parenleft /parenright /asterisk /plus /comma
/hyphen /period /slash /zero /one
/two /three /four /five /six
/seven /eight /nine /colon /semicolon
/less /equal /greater /question /at
/A /B /C /D /E
/F /G /H /I /J
/K /L /M /N /O
/P /Q /R /S /T
/U /V /W /X /Y
/Z /bracketleft /backslash /bracketright /asciicircum
/underscore /quoteleft /a /b /c
/d /e /f /g /h
/i /j /k /l /m
/n /o /p /q /r
/s /t /u /v /w
/x /y /z /braceleft /bar
/braceright /asciitilde /bullet /Euro /bullet
/quotesinglbase /florin /quotedblbase /ellipsis /dagger
/daggerdbl /circumflex /perthousand /Scaron /guilsinglleft
/OE /bullet /Zcaron /bullet /bullet
/quoteleft /quoteright /quotedblleft /quotedblright /bullet
/endash /emdash /asciitilde /trademark /scaron
/guilsinglright /oe /bullet /zcaron /Ydieresis
/space /exclamdown /cent /sterling /currency
/yen /brokenbar /section /dieresis /copyright
/ordfeminine /guillemotleft /logicalnot /sfthyphen /registered
/macron /degree /plusminus /twosuperior /threesuperior
/acute /mu /paragraph /middot /cedilla
/onesuperior /ordmasculine /guillemotright /onequarter /onehalf
/threequarters /questiondown /Agrave /Aacute /Acircumflex
/Atilde /Adieresis /Aring /AE /Ccedilla
/Egrave /Eacute /Ecircumflex /Edieresis /Igrave
/Iacute /Icircumflex /Idieresis /Eth /Ntilde
/Ograve /Oacute /Ocircumflex /Otilde /Odieresis
/multiply /Oslash /Ugrave /Uacute /Ucircumflex
/Udieresis /Yacute /Thorn /germandbls /agrave
/aacute /acircumflex /atilde /adieresis /aring
/ae /ccedilla /egrave /eacute /ecircumflex
/edieresis /igrave /iacute /icircumflex /idieresis
/eth /ntilde /ograve /oacute /ocircumflex
/otilde /odieresis /divide /oslash /ugrave
/uacute /ucircumflex /udieresis /yacute /thorn
/ydieresis
] def
%%EndResource
%FOPBeginFontReencode
/Courier-Bold findfont
dup length dict begin
  {1 index /FID ne {def} {pop pop} ifelse} forall
  /Encoding WinAnsiEncoding def
  currentdict
end
/Courier-Bold exch definefont pop
/Helvetica findfont
dup length dict begin
  {1 index /FID ne {def} {pop pop} ifelse} forall
  /Encoding WinAnsiEncoding def
  currentdict
end
/Helvetica exch definefont pop
/Courier-BoldOblique findfont
dup length dict begin
  {1 index /FID ne {def} {pop pop} ifelse} forall
  /Encoding WinAnsiEncoding def
  currentdict
end
/Courier-BoldOblique exch definefont pop
/Courier-Oblique findfont
dup length dict begin
  {1 index /FID ne {def} {pop pop} ifelse} forall
  /Encoding WinAnsiEncoding def
  currentdict
end
/Courier-Oblique exch definefont pop
/Times-Roman findfont
dup length dict begin
  {1 index /FID ne {def} {pop pop} ifelse} forall
  /Encoding WinAnsiEncoding def
  currentdict
end
/Times-Roman exch definefont pop
/Helvetica-BoldOblique findfont
dup length dict begin
  {1 index /FID ne {def} {pop pop} ifelse} forall
  /Encoding WinAnsiEncoding def
  currentdict
end
/Helvetica-BoldOblique exch definefont pop
/Helvetica-Bold findfont
dup length dict begin
  {1 index /FID ne {def} {pop pop} ifelse} forall
  /Encoding WinAnsiEncoding def
  currentdict
end
/Helvetica-Bold exch definefont pop
/Helvetica-Oblique findfont
dup length dict begin
  {1 index /FID ne {def} {pop pop} ifelse} forall
  /Encoding WinAnsiEncoding def
  currentdict
end
/Helvetica-Oblique exch definefont pop
/Times-BoldItalic findfont
dup length dict begin
  {1 index /FID ne {def} {pop pop} ifelse} forall
  /Encoding WinAnsiEncoding def
  currentdict
end
/Times-BoldItalic exch definefont pop
/Courier findfont
dup length dict begin
  {1 index /FID ne {def} {pop pop} ifelse} forall
  /Encoding WinAnsiEncoding def
  currentdict
end
/Courier exch definefont pop
/Times-Italic findfont
dup length dict begin
  {1 index /FID ne {def} {pop pop} ifelse} forall
  /Encoding WinAnsiEncoding def
  currentdict
end
/Times-Italic exch definefont pop
/Times-Bold findfont
dup length dict begin
  {1 index /FID ne {def} {pop pop} ifelse} forall
  /Encoding WinAnsiEncoding def
  currentdict
end
/Times-Bold exch definefont pop
%FOPEndFontReencode
%%EndProlog
%%Page: 1 1
%%PageBoundingBox: 0 0 576 432
%%BeginPageSetup
[1 0 0 -1 0 432] CT
%%EndPageSetup
GS
1 GC
N
0 0 576 432 re
f
GR
GS
1 GC
N
0 0 576 432 re
f
GR
GS
1 GC
N
91 384 M
521.5 384 L
521.5 32.5 L
91 32.5 L
cp
f
GR
GS
0.149 GC
2 setlinecap
1 LJ
0.5 LW
N
91 384 M
521.5 384 L
S
GR
GS
0.149 GC
2 setlinecap
1 LJ
0.5 LW
N
91 384 M
91 379.695 L
S
GR
GS
0.149 GC
2 setlinecap
1 LJ
0.5 LW
N
177.1 384 M
177.1 379.695 L
S
GR
GS
0.149 GC
2 setlinecap
1 LJ
0.5 LW
N
263.2 384 M
263.2 379.695 L
S
GR
GS
0.149 GC
2 setlinecap
1 LJ
0.5 LW
N
349.3 384 M
349.3 379.695 L
S
GR
GS
0.149 GC
2 setlinecap
1 LJ
0.5 LW
N
435.4 384 M
435.4 379.695 L
S
GR
GS
0.149 GC
2 setlinecap
1 LJ
0.5 LW
N
521.5 384 M
521.5 379.695 L
S
GR
GS
[1 0 0 1 91 390] CT
0.149 GC
/Helvetica 20 F
GS
[1 0 0 1 0 0] CT
-6 16 moveto 
1 -1 scale
(0) t 
GR
GR
GS
[1 0 0 1 177.10001 390] CT
0.149 GC
/Helvetica 20 F
GS
[1 0 0 1 0 0] CT
-11.5 16 moveto 
1 -1 scale
(10) t 
GR
GR
GS
[1 0 0 1 263.20001 390] CT
0.149 GC
/Helvetica 20 F
GS
[1 0 0 1 0 0] CT
-11.5 16 moveto 
1 -1 scale
(20) t 
GR
GR
GS
[1 0 0 1 349.30002 390] CT
0.149 GC
/Helvetica 20 F
GS
[1 0 0 1 0 0] CT
-11.5 16 moveto 
1 -1 scale
(30) t 
GR
GR
GS
[1 0 0 1 435.39999 390] CT
0.149 GC
/Helvetica 20 F
GS
[1 0 0 1 0 0] CT
-11.5 16 moveto 
1 -1 scale
(40) t 
GR
GR
GS
[1 0 0 1 521.5 390] CT
0.149 GC
/Helvetica 20 F
GS
[1 0 0 1 0 0] CT
-11.5 16 moveto 
1 -1 scale
(50) t 
GR
GR
GS
[1 0 0 1 306.25021 411.5] CT
0.149 GC
/Helvetica 20 F
GS
[1 0 0 1 0 0] CT
-33.5 16 moveto 
1 -1 scale
(Epochs) t 
GR
GR
GS
0.149 GC
2 setlinecap
1 LJ
0.5 LW
N
91 384 M
91 32.5 L
S
GR
GS
0.149 GC
2 setlinecap
1 LJ
0.5 LW
N
91 320.839 M
95.305 320.839 L
S
GR
GS
0.149 GC
2 setlinecap
1 LJ
0.5 LW
N
91 257.815 M
95.305 257.815 L
S
GR
GS
0.149 GC
2 setlinecap
1 LJ
0.5 LW
N
91 196.31 M
95.305 196.31 L
S
GR
GS
0.149 GC
2 setlinecap
1 LJ
0.5 LW
N
91 136.252 M
95.305 136.252 L
S
GR
GS
0.149 GC
2 setlinecap
1 LJ
0.5 LW
N
91 77.575 M
95.305 77.575 L
S
GR
GS
0.149 GC
2 setlinecap
1 LJ
0.5 LW
N
91 378.922 M
93.152 378.922 L
S
GR
GS
0.149 GC
2 setlinecap
1 LJ
0.5 LW
N
91 372.403 M
93.152 372.403 L
S
GR
GS
0.149 GC
2 setlinecap
1 LJ
0.5 LW
N
91 365.9 M
93.152 365.9 L
S
GR
GS
0.149 GC
2 setlinecap
1 LJ
0.5 LW
N
91 359.414 M
93.152 359.414 L
S
GR
GS
0.149 GC
2 setlinecap
1 LJ
0.5 LW
N
91 352.944 M
93.152 352.944 L
S
GR
GS
0.149 GC
2 setlinecap
1 LJ
0.5 LW
N
91 346.49 M
93.152 346.49 L
S
GR
GS
0.149 GC
2 setlinecap
1 LJ
0.5 LW
N
91 340.053 M
93.152 340.053 L
S
GR
GS
0.149 GC
2 setlinecap
1 LJ
0.5 LW
N
91 333.632 M
93.152 333.632 L
S
GR
GS
0.149 GC
2 setlinecap
1 LJ
0.5 LW
N
91 327.227 M
93.152 327.227 L
S
GR
GS
0.149 GC
2 setlinecap
1 LJ
0.5 LW
N
91 314.466 M
93.152 314.466 L
S
GR
GS
0.149 GC
2 setlinecap
1 LJ
0.5 LW
N
91 308.109 M
93.152 308.109 L
S
GR
GS
0.149 GC
2 setlinecap
1 LJ
0.5 LW
N
91 301.767 M
93.152 301.767 L
S
GR
GS
0.149 GC
2 setlinecap
1 LJ
0.5 LW
N
91 295.442 M
93.152 295.442 L
S
GR
GS
0.149 GC
2 setlinecap
1 LJ
0.5 LW
N
91 289.132 M
93.152 289.132 L
S
GR
GS
0.149 GC
2 setlinecap
1 LJ
0.5 LW
N
91 282.838 M
93.152 282.838 L
S
GR
GS
0.149 GC
2 setlinecap
1 LJ
0.5 LW
N
91 276.559 M
93.152 276.559 L
S
GR
GS
0.149 GC
2 setlinecap
1 LJ
0.5 LW
N
91 270.296 M
93.152 270.296 L
S
GR
GS
0.149 GC
2 setlinecap
1 LJ
0.5 LW
N
91 264.048 M
93.152 264.048 L
S
GR
GS
0.149 GC
2 setlinecap
1 LJ
0.5 LW
N
91 251.597 M
93.152 251.597 L
S
GR
GS
0.149 GC
2 setlinecap
1 LJ
0.5 LW
N
91 245.395 M
93.152 245.395 L
S
GR
GS
0.149 GC
2 setlinecap
1 LJ
0.5 LW
N
91 239.207 M
93.152 239.207 L
S
GR
GS
0.149 GC
2 setlinecap
1 LJ
0.5 LW
N
91 233.035 M
93.152 233.035 L
S
GR
GS
0.149 GC
2 setlinecap
1 LJ
0.5 LW
N
91 226.877 M
93.152 226.877 L
S
GR
GS
0.149 GC
2 setlinecap
1 LJ
0.5 LW
N
91 220.734 M
93.152 220.734 L
S
GR
GS
0.149 GC
2 setlinecap
1 LJ
0.5 LW
N
91 214.606 M
93.152 214.606 L
S
GR
GS
0.149 GC
2 setlinecap
1 LJ
0.5 LW
N
91 208.493 M
93.152 208.493 L
S
GR
GS
0.149 GC
2 setlinecap
1 LJ
0.5 LW
N
91 202.394 M
93.152 202.394 L
S
GR
GS
0.149 GC
2 setlinecap
1 LJ
0.5 LW
N
91 190.24 M
93.152 190.24 L
S
GR
GS
0.149 GC
2 setlinecap
1 LJ
0.5 LW
N
91 184.185 M
93.152 184.185 L
S
GR
GS
0.149 GC
2 setlinecap
1 LJ
0.5 LW
N
91 178.144 M
93.152 178.144 L
S
GR
GS
0.149 GC
2 setlinecap
1 LJ
0.5 LW
N
91 172.117 M
93.152 172.117 L
S
GR
GS
0.149 GC
2 setlinecap
1 LJ
0.5 LW
N
91 166.104 M
93.152 166.104 L
S
GR
GS
0.149 GC
2 setlinecap
1 LJ
0.5 LW
N
91 160.106 M
93.152 160.106 L
S
GR
GS
0.149 GC
2 setlinecap
1 LJ
0.5 LW
N
91 154.122 M
93.152 154.122 L
S
GR
GS
0.149 GC
2 setlinecap
1 LJ
0.5 LW
N
91 148.151 M
93.152 148.151 L
S
GR
GS
0.149 GC
2 setlinecap
1 LJ
0.5 LW
N
91 142.195 M
93.152 142.195 L
S
GR
GS
0.149 GC
2 setlinecap
1 LJ
0.5 LW
N
91 130.323 M
93.152 130.323 L
S
GR
GS
0.149 GC
2 setlinecap
1 LJ
0.5 LW
N
91 124.408 M
93.152 124.408 L
S
GR
GS
0.149 GC
2 setlinecap
1 LJ
0.5 LW
N
91 118.507 M
93.152 118.507 L
S
GR
GS
0.149 GC
2 setlinecap
1 LJ
0.5 LW
N
91 112.619 M
93.152 112.619 L
S
GR
GS
0.149 GC
2 setlinecap
1 LJ
0.5 LW
N
91 106.745 M
93.152 106.745 L
S
GR
GS
0.149 GC
2 setlinecap
1 LJ
0.5 LW
N
91 100.884 M
93.152 100.884 L
S
GR
GS
0.149 GC
2 setlinecap
1 LJ
0.5 LW
N
91 95.037 M
93.152 95.037 L
S
GR
GS
0.149 GC
2 setlinecap
1 LJ
0.5 LW
N
91 89.203 M
93.152 89.203 L
S
GR
GS
0.149 GC
2 setlinecap
1 LJ
0.5 LW
N
91 83.383 M
93.152 83.383 L
S
GR
GS
0.149 GC
2 setlinecap
1 LJ
0.5 LW
N
91 71.781 M
93.152 71.781 L
S
GR
GS
0.149 GC
2 setlinecap
1 LJ
0.5 LW
N
91 66 M
93.152 66 L
S
GR
GS
0.149 GC
2 setlinecap
1 LJ
0.5 LW
N
91 60.232 M
93.152 60.232 L
S
GR
GS
0.149 GC
2 setlinecap
1 LJ
0.5 LW
N
91 54.477 M
93.152 54.477 L
S
GR
GS
0.149 GC
2 setlinecap
1 LJ
0.5 LW
N
91 48.735 M
93.152 48.735 L
S
GR
GS
0.149 GC
2 setlinecap
1 LJ
0.5 LW
N
91 43.006 M
93.152 43.006 L
S
GR
GS
0.149 GC
2 setlinecap
1 LJ
0.5 LW
N
91 37.29 M
93.152 37.29 L
S
GR
GS
[1 0 0 1 85 320.83853] CT
0.149 GC
/Helvetica 20 F
GS
[1 0 0 1 0 0] CT
-39 5.5 moveto 
1 -1 scale
(0.02) t 
GR
GR
GS
[1 0 0 1 85 257.81479] CT
0.149 GC
/Helvetica 20 F
GS
[1 0 0 1 0 0] CT
-62 5.5 moveto 
1 -1 scale
(0.0205) t 
GR
GR
GS
[1 0 0 1 85 196.30986] CT
0.149 GC
/Helvetica 20 F
GS
[1 0 0 1 0 0] CT
-51 5.5 moveto 
1 -1 scale
(0.021) t 
GR
GR
GS
[1 0 0 1 85 136.25224] CT
0.149 GC
/Helvetica 20 F
GS
[1 0 0 1 0 0] CT
-62 5.5 moveto 
1 -1 scale
(0.0215) t 
GR
GR
GS
[1 0 0 1 85 77.57537] CT
0.149 GC
/Helvetica 20 F
GS
[1 0 0 1 0 0] CT
-51 5.5 moveto 
1 -1 scale
(0.022) t 
GR
GR
GS
[0 -1 1 0 20.5 208.24983] CT
0.149 GC
/Helvetica 20 F
GS
[1 0 0 1 0 0] CT
-54.5 -5 moveto 
1 -1 scale
(Train RMSE) t 
GR
GR
GS
0 0.447 0.741 RC
1 LJ
N
99.61 153.019 M
108.22 183.163 L
116.83 203.28 L
125.44 225.684 L
134.05 222.142 L
142.66 246.574 L
151.27 254.243 L
159.88 265.849 L
168.49 266.187 L
177.1 272.549 L
185.71 279.991 L
194.32 282.023 L
202.93 287.583 L
211.54 298.125 L
220.15 301.486 L
228.76 300.579 L
237.37 308.845 L
245.98 307.433 L
254.59 306.733 L
263.2 307.113 L
271.81 309.233 L
280.42 311.583 L
289.03 310.291 L
297.64 312.657 L
306.25 312.657 L
314.86 306.735 L
323.47 311.304 L
332.08 321.625 L
340.69 319.483 L
349.3 316.977 L
357.91 321.152 L
366.52 313.453 L
375.13 314.795 L
383.74 317.025 L
392.35 321.725 L
400.96 331.109 L
409.57 321.8 L
418.18 320.518 L
426.79 312.866 L
435.4 325.416 L
444.01 322.082 L
452.62 320.446 L
S
GR
GS
0 0.447 0.741 RC
1 LJ
N
102.5 153.5 M
101.621 151.379 L
99.5 150.5 L
97.379 151.379 L
96.5 153.5 L
97.379 155.621 L
99.5 156.5 L
101.621 155.621 L
cp
S
GR
GS
0 0.447 0.741 RC
1 LJ
N
111.5 183.5 M
110.621 181.379 L
108.5 180.5 L
106.379 181.379 L
105.5 183.5 L
106.379 185.621 L
108.5 186.5 L
110.621 185.621 L
cp
S
GR
GS
0 0.447 0.741 RC
1 LJ
N
119.5 203.5 M
118.621 201.379 L
116.5 200.5 L
114.379 201.379 L
113.5 203.5 L
114.379 205.621 L
116.5 206.5 L
118.621 205.621 L
cp
S
GR
GS
0 0.447 0.741 RC
1 LJ
N
128.5 225.5 M
127.621 223.379 L
125.5 222.5 L
123.379 223.379 L
122.5 225.5 L
123.379 227.621 L
125.5 228.5 L
127.621 227.621 L
cp
S
GR
GS
0 0.447 0.741 RC
1 LJ
N
137.5 222.5 M
136.621 220.379 L
134.5 219.5 L
132.379 220.379 L
131.5 222.5 L
132.379 224.621 L
134.5 225.5 L
136.621 224.621 L
cp
S
GR
GS
0 0.447 0.741 RC
1 LJ
N
145.5 246.5 M
144.621 244.379 L
142.5 243.5 L
140.379 244.379 L
139.5 246.5 L
140.379 248.621 L
142.5 249.5 L
144.621 248.621 L
cp
S
GR
GS
0 0.447 0.741 RC
1 LJ
N
154.5 254.5 M
153.621 252.379 L
151.5 251.5 L
149.379 252.379 L
148.5 254.5 L
149.379 256.621 L
151.5 257.5 L
153.621 256.621 L
cp
S
GR
GS
0 0.447 0.741 RC
1 LJ
N
162.5 265.5 M
161.621 263.379 L
159.5 262.5 L
157.379 263.379 L
156.5 265.5 L
157.379 267.621 L
159.5 268.5 L
161.621 267.621 L
cp
S
GR
GS
0 0.447 0.741 RC
1 LJ
N
171.5 266.5 M
170.621 264.379 L
168.5 263.5 L
166.379 264.379 L
165.5 266.5 L
166.379 268.621 L
168.5 269.5 L
170.621 268.621 L
cp
S
GR
GS
0 0.447 0.741 RC
1 LJ
N
180.5 272.5 M
179.621 270.379 L
177.5 269.5 L
175.379 270.379 L
174.5 272.5 L
175.379 274.621 L
177.5 275.5 L
179.621 274.621 L
cp
S
GR
GS
0 0.447 0.741 RC
1 LJ
N
188.5 279.5 M
187.621 277.379 L
185.5 276.5 L
183.379 277.379 L
182.5 279.5 L
183.379 281.621 L
185.5 282.5 L
187.621 281.621 L
cp
S
GR
GS
0 0.447 0.741 RC
1 LJ
N
197.5 282.5 M
196.621 280.379 L
194.5 279.5 L
192.379 280.379 L
191.5 282.5 L
192.379 284.621 L
194.5 285.5 L
196.621 284.621 L
cp
S
GR
GS
0 0.447 0.741 RC
1 LJ
N
205.5 287.5 M
204.621 285.379 L
202.5 284.5 L
200.379 285.379 L
199.5 287.5 L
200.379 289.621 L
202.5 290.5 L
204.621 289.621 L
cp
S
GR
GS
0 0.447 0.741 RC
1 LJ
N
214.5 298.5 M
213.621 296.379 L
211.5 295.5 L
209.379 296.379 L
208.5 298.5 L
209.379 300.621 L
211.5 301.5 L
213.621 300.621 L
cp
S
GR
GS
0 0.447 0.741 RC
1 LJ
N
223.5 301.5 M
222.621 299.379 L
220.5 298.5 L
218.379 299.379 L
217.5 301.5 L
218.379 303.621 L
220.5 304.5 L
222.621 303.621 L
cp
S
GR
GS
0 0.447 0.741 RC
1 LJ
N
231.5 300.5 M
230.621 298.379 L
228.5 297.5 L
226.379 298.379 L
225.5 300.5 L
226.379 302.621 L
228.5 303.5 L
230.621 302.621 L
cp
S
GR
GS
0 0.447 0.741 RC
1 LJ
N
240.5 308.5 M
239.621 306.379 L
237.5 305.5 L
235.379 306.379 L
234.5 308.5 L
235.379 310.621 L
237.5 311.5 L
239.621 310.621 L
cp
S
GR
GS
0 0.447 0.741 RC
1 LJ
N
248.5 307.5 M
247.621 305.379 L
245.5 304.5 L
243.379 305.379 L
242.5 307.5 L
243.379 309.621 L
245.5 310.5 L
247.621 309.621 L
cp
S
GR
GS
0 0.447 0.741 RC
1 LJ
N
257.5 306.5 M
256.621 304.379 L
254.5 303.5 L
252.379 304.379 L
251.5 306.5 L
252.379 308.621 L
254.5 309.5 L
256.621 308.621 L
cp
S
GR
GS
0 0.447 0.741 RC
1 LJ
N
266.5 307.5 M
265.621 305.379 L
263.5 304.5 L
261.379 305.379 L
260.5 307.5 L
261.379 309.621 L
263.5 310.5 L
265.621 309.621 L
cp
S
GR
GS
0 0.447 0.741 RC
1 LJ
N
274.5 309.5 M
273.621 307.379 L
271.5 306.5 L
269.379 307.379 L
268.5 309.5 L
269.379 311.621 L
271.5 312.5 L
273.621 311.621 L
cp
S
GR
GS
0 0.447 0.741 RC
1 LJ
N
283.5 311.5 M
282.621 309.379 L
280.5 308.5 L
278.379 309.379 L
277.5 311.5 L
278.379 313.621 L
280.5 314.5 L
282.621 313.621 L
cp
S
GR
GS
0 0.447 0.741 RC
1 LJ
N
292.5 310.5 M
291.621 308.379 L
289.5 307.5 L
287.379 308.379 L
286.5 310.5 L
287.379 312.621 L
289.5 313.5 L
291.621 312.621 L
cp
S
GR
GS
0 0.447 0.741 RC
1 LJ
N
300.5 312.5 M
299.621 310.379 L
297.5 309.5 L
295.379 310.379 L
294.5 312.5 L
295.379 314.621 L
297.5 315.5 L
299.621 314.621 L
cp
S
GR
GS
0 0.447 0.741 RC
1 LJ
N
309.5 312.5 M
308.621 310.379 L
306.5 309.5 L
304.379 310.379 L
303.5 312.5 L
304.379 314.621 L
306.5 315.5 L
308.621 314.621 L
cp
S
GR
GS
0 0.447 0.741 RC
1 LJ
N
317.5 306.5 M
316.621 304.379 L
314.5 303.5 L
312.379 304.379 L
311.5 306.5 L
312.379 308.621 L
314.5 309.5 L
316.621 308.621 L
cp
S
GR
GS
0 0.447 0.741 RC
1 LJ
N
326.5 311.5 M
325.621 309.379 L
323.5 308.5 L
321.379 309.379 L
320.5 311.5 L
321.379 313.621 L
323.5 314.5 L
325.621 313.621 L
cp
S
GR
GS
0 0.447 0.741 RC
1 LJ
N
335.5 321.5 M
334.621 319.379 L
332.5 318.5 L
330.379 319.379 L
329.5 321.5 L
330.379 323.621 L
332.5 324.5 L
334.621 323.621 L
cp
S
GR
GS
0 0.447 0.741 RC
1 LJ
N
343.5 319.5 M
342.621 317.379 L
340.5 316.5 L
338.379 317.379 L
337.5 319.5 L
338.379 321.621 L
340.5 322.5 L
342.621 321.621 L
cp
S
GR
GS
0 0.447 0.741 RC
1 LJ
N
352.5 316.5 M
351.621 314.379 L
349.5 313.5 L
347.379 314.379 L
346.5 316.5 L
347.379 318.621 L
349.5 319.5 L
351.621 318.621 L
cp
S
GR
GS
0 0.447 0.741 RC
1 LJ
N
360.5 321.5 M
359.621 319.379 L
357.5 318.5 L
355.379 319.379 L
354.5 321.5 L
355.379 323.621 L
357.5 324.5 L
359.621 323.621 L
cp
S
GR
GS
0 0.447 0.741 RC
1 LJ
N
369.5 313.5 M
368.621 311.379 L
366.5 310.5 L
364.379 311.379 L
363.5 313.5 L
364.379 315.621 L
366.5 316.5 L
368.621 315.621 L
cp
S
GR
GS
0 0.447 0.741 RC
1 LJ
N
378.5 314.5 M
377.621 312.379 L
375.5 311.5 L
373.379 312.379 L
372.5 314.5 L
373.379 316.621 L
375.5 317.5 L
377.621 316.621 L
cp
S
GR
GS
0 0.447 0.741 RC
1 LJ
N
386.5 317.5 M
385.621 315.379 L
383.5 314.5 L
381.379 315.379 L
380.5 317.5 L
381.379 319.621 L
383.5 320.5 L
385.621 319.621 L
cp
S
GR
GS
0 0.447 0.741 RC
1 LJ
N
395.5 321.5 M
394.621 319.379 L
392.5 318.5 L
390.379 319.379 L
389.5 321.5 L
390.379 323.621 L
392.5 324.5 L
394.621 323.621 L
cp
S
GR
GS
0 0.447 0.741 RC
1 LJ
N
403.5 331.5 M
402.621 329.379 L
400.5 328.5 L
398.379 329.379 L
397.5 331.5 L
398.379 333.621 L
400.5 334.5 L
402.621 333.621 L
cp
S
GR
GS
0 0.447 0.741 RC
1 LJ
N
412.5 321.5 M
411.621 319.379 L
409.5 318.5 L
407.379 319.379 L
406.5 321.5 L
407.379 323.621 L
409.5 324.5 L
411.621 323.621 L
cp
S
GR
GS
0 0.447 0.741 RC
1 LJ
N
421.5 320.5 M
420.621 318.379 L
418.5 317.5 L
416.379 318.379 L
415.5 320.5 L
416.379 322.621 L
418.5 323.5 L
420.621 322.621 L
cp
S
GR
GS
0 0.447 0.741 RC
1 LJ
N
429.5 312.5 M
428.621 310.379 L
426.5 309.5 L
424.379 310.379 L
423.5 312.5 L
424.379 314.621 L
426.5 315.5 L
428.621 314.621 L
cp
S
GR
GS
0 0.447 0.741 RC
1 LJ
N
438.5 325.5 M
437.621 323.379 L
435.5 322.5 L
433.379 323.379 L
432.5 325.5 L
433.379 327.621 L
435.5 328.5 L
437.621 327.621 L
cp
S
GR
GS
0 0.447 0.741 RC
1 LJ
N
447.5 322.5 M
446.621 320.379 L
444.5 319.5 L
442.379 320.379 L
441.5 322.5 L
442.379 324.621 L
444.5 325.5 L
446.621 324.621 L
cp
S
GR
GS
0 0.447 0.741 RC
1 LJ
N
455.5 320.5 M
454.621 318.379 L
452.5 317.5 L
450.379 318.379 L
449.5 320.5 L
450.379 322.621 L
452.5 323.5 L
454.621 322.621 L
cp
S
GR
GS
0.851 0.325 0.098 RC
1 LJ
N
99.61 122.274 M
108.22 162.053 L
116.83 191.246 L
125.44 209.68 L
134.05 224.04 L
142.66 239.754 L
151.27 254.208 L
159.88 262.212 L
168.49 271.786 L
177.1 278.884 L
185.71 284.522 L
194.32 288.821 L
202.93 292.952 L
211.54 295.979 L
220.15 300.196 L
228.76 303.734 L
237.37 306.996 L
245.98 310.058 L
254.59 311.915 L
263.2 312.791 L
271.81 315.202 L
280.42 317.142 L
289.03 318.089 L
297.64 320.214 L
306.25 320.971 L
314.86 321.865 L
323.47 322.451 L
332.08 323.309 L
340.69 323.569 L
349.3 324.076 L
357.91 324.568 L
366.52 325.277 L
375.13 325.902 L
383.74 326.71 L
392.35 327.244 L
400.96 327.788 L
409.57 328.158 L
418.18 328.52 L
426.79 328.951 L
435.4 329.268 L
444.01 329.54 L
452.62 329.796 L
S
GR
GS
0.851 0.325 0.098 RC
1 LJ
N
102.5 122.5 M
101.621 120.379 L
99.5 119.5 L
97.379 120.379 L
96.5 122.5 L
97.379 124.621 L
99.5 125.5 L
101.621 124.621 L
cp
S
GR
GS
0.851 0.325 0.098 RC
1 LJ
N
111.5 162.5 M
110.621 160.379 L
108.5 159.5 L
106.379 160.379 L
105.5 162.5 L
106.379 164.621 L
108.5 165.5 L
110.621 164.621 L
cp
S
GR
GS
0.851 0.325 0.098 RC
1 LJ
N
119.5 191.5 M
118.621 189.379 L
116.5 188.5 L
114.379 189.379 L
113.5 191.5 L
114.379 193.621 L
116.5 194.5 L
118.621 193.621 L
cp
S
GR
GS
0.851 0.325 0.098 RC
1 LJ
N
128.5 209.5 M
127.621 207.379 L
125.5 206.5 L
123.379 207.379 L
122.5 209.5 L
123.379 211.621 L
125.5 212.5 L
127.621 211.621 L
cp
S
GR
GS
0.851 0.325 0.098 RC
1 LJ
N
137.5 224.5 M
136.621 222.379 L
134.5 221.5 L
132.379 222.379 L
131.5 224.5 L
132.379 226.621 L
134.5 227.5 L
136.621 226.621 L
cp
S
GR
GS
0.851 0.325 0.098 RC
1 LJ
N
145.5 239.5 M
144.621 237.379 L
142.5 236.5 L
140.379 237.379 L
139.5 239.5 L
140.379 241.621 L
142.5 242.5 L
144.621 241.621 L
cp
S
GR
GS
0.851 0.325 0.098 RC
1 LJ
N
154.5 254.5 M
153.621 252.379 L
151.5 251.5 L
149.379 252.379 L
148.5 254.5 L
149.379 256.621 L
151.5 257.5 L
153.621 256.621 L
cp
S
GR
GS
0.851 0.325 0.098 RC
1 LJ
N
162.5 262.5 M
161.621 260.379 L
159.5 259.5 L
157.379 260.379 L
156.5 262.5 L
157.379 264.621 L
159.5 265.5 L
161.621 264.621 L
cp
S
GR
GS
0.851 0.325 0.098 RC
1 LJ
N
171.5 271.5 M
170.621 269.379 L
168.5 268.5 L
166.379 269.379 L
165.5 271.5 L
166.379 273.621 L
168.5 274.5 L
170.621 273.621 L
cp
S
GR
GS
0.851 0.325 0.098 RC
1 LJ
N
180.5 278.5 M
179.621 276.379 L
177.5 275.5 L
175.379 276.379 L
174.5 278.5 L
175.379 280.621 L
177.5 281.5 L
179.621 280.621 L
cp
S
GR
GS
0.851 0.325 0.098 RC
1 LJ
N
188.5 284.5 M
187.621 282.379 L
185.5 281.5 L
183.379 282.379 L
182.5 284.5 L
183.379 286.621 L
185.5 287.5 L
187.621 286.621 L
cp
S
GR
GS
0.851 0.325 0.098 RC
1 LJ
N
197.5 288.5 M
196.621 286.379 L
194.5 285.5 L
192.379 286.379 L
191.5 288.5 L
192.379 290.621 L
194.5 291.5 L
196.621 290.621 L
cp
S
GR
GS
0.851 0.325 0.098 RC
1 LJ
N
205.5 292.5 M
204.621 290.379 L
202.5 289.5 L
200.379 290.379 L
199.5 292.5 L
200.379 294.621 L
202.5 295.5 L
204.621 294.621 L
cp
S
GR
GS
0.851 0.325 0.098 RC
1 LJ
N
214.5 295.5 M
213.621 293.379 L
211.5 292.5 L
209.379 293.379 L
208.5 295.5 L
209.379 297.621 L
211.5 298.5 L
213.621 297.621 L
cp
S
GR
GS
0.851 0.325 0.098 RC
1 LJ
N
223.5 300.5 M
222.621 298.379 L
220.5 297.5 L
218.379 298.379 L
217.5 300.5 L
218.379 302.621 L
220.5 303.5 L
222.621 302.621 L
cp
S
GR
GS
0.851 0.325 0.098 RC
1 LJ
N
231.5 303.5 M
230.621 301.379 L
228.5 300.5 L
226.379 301.379 L
225.5 303.5 L
226.379 305.621 L
228.5 306.5 L
230.621 305.621 L
cp
S
GR
GS
0.851 0.325 0.098 RC
1 LJ
N
240.5 306.5 M
239.621 304.379 L
237.5 303.5 L
235.379 304.379 L
234.5 306.5 L
235.379 308.621 L
237.5 309.5 L
239.621 308.621 L
cp
S
GR
GS
0.851 0.325 0.098 RC
1 LJ
N
248.5 310.5 M
247.621 308.379 L
245.5 307.5 L
243.379 308.379 L
242.5 310.5 L
243.379 312.621 L
245.5 313.5 L
247.621 312.621 L
cp
S
GR
GS
0.851 0.325 0.098 RC
1 LJ
N
257.5 311.5 M
256.621 309.379 L
254.5 308.5 L
252.379 309.379 L
251.5 311.5 L
252.379 313.621 L
254.5 314.5 L
256.621 313.621 L
cp
S
GR
GS
0.851 0.325 0.098 RC
1 LJ
N
266.5 312.5 M
265.621 310.379 L
263.5 309.5 L
261.379 310.379 L
260.5 312.5 L
261.379 314.621 L
263.5 315.5 L
265.621 314.621 L
cp
S
GR
GS
0.851 0.325 0.098 RC
1 LJ
N
274.5 315.5 M
273.621 313.379 L
271.5 312.5 L
269.379 313.379 L
268.5 315.5 L
269.379 317.621 L
271.5 318.5 L
273.621 317.621 L
cp
S
GR
GS
0.851 0.325 0.098 RC
1 LJ
N
283.5 317.5 M
282.621 315.379 L
280.5 314.5 L
278.379 315.379 L
277.5 317.5 L
278.379 319.621 L
280.5 320.5 L
282.621 319.621 L
cp
S
GR
GS
0.851 0.325 0.098 RC
1 LJ
N
292.5 318.5 M
291.621 316.379 L
289.5 315.5 L
287.379 316.379 L
286.5 318.5 L
287.379 320.621 L
289.5 321.5 L
291.621 320.621 L
cp
S
GR
GS
0.851 0.325 0.098 RC
1 LJ
N
300.5 320.5 M
299.621 318.379 L
297.5 317.5 L
295.379 318.379 L
294.5 320.5 L
295.379 322.621 L
297.5 323.5 L
299.621 322.621 L
cp
S
GR
GS
0.851 0.325 0.098 RC
1 LJ
N
309.5 320.5 M
308.621 318.379 L
306.5 317.5 L
304.379 318.379 L
303.5 320.5 L
304.379 322.621 L
306.5 323.5 L
308.621 322.621 L
cp
S
GR
GS
0.851 0.325 0.098 RC
1 LJ
N
317.5 321.5 M
316.621 319.379 L
314.5 318.5 L
312.379 319.379 L
311.5 321.5 L
312.379 323.621 L
314.5 324.5 L
316.621 323.621 L
cp
S
GR
GS
0.851 0.325 0.098 RC
1 LJ
N
326.5 322.5 M
325.621 320.379 L
323.5 319.5 L
321.379 320.379 L
320.5 322.5 L
321.379 324.621 L
323.5 325.5 L
325.621 324.621 L
cp
S
GR
GS
0.851 0.325 0.098 RC
1 LJ
N
335.5 323.5 M
334.621 321.379 L
332.5 320.5 L
330.379 321.379 L
329.5 323.5 L
330.379 325.621 L
332.5 326.5 L
334.621 325.621 L
cp
S
GR
GS
0.851 0.325 0.098 RC
1 LJ
N
343.5 323.5 M
342.621 321.379 L
340.5 320.5 L
338.379 321.379 L
337.5 323.5 L
338.379 325.621 L
340.5 326.5 L
342.621 325.621 L
cp
S
GR
GS
0.851 0.325 0.098 RC
1 LJ
N
352.5 324.5 M
351.621 322.379 L
349.5 321.5 L
347.379 322.379 L
346.5 324.5 L
347.379 326.621 L
349.5 327.5 L
351.621 326.621 L
cp
S
GR
GS
0.851 0.325 0.098 RC
1 LJ
N
360.5 324.5 M
359.621 322.379 L
357.5 321.5 L
355.379 322.379 L
354.5 324.5 L
355.379 326.621 L
357.5 327.5 L
359.621 326.621 L
cp
S
GR
GS
0.851 0.325 0.098 RC
1 LJ
N
369.5 325.5 M
368.621 323.379 L
366.5 322.5 L
364.379 323.379 L
363.5 325.5 L
364.379 327.621 L
366.5 328.5 L
368.621 327.621 L
cp
S
GR
GS
0.851 0.325 0.098 RC
1 LJ
N
378.5 325.5 M
377.621 323.379 L
375.5 322.5 L
373.379 323.379 L
372.5 325.5 L
373.379 327.621 L
375.5 328.5 L
377.621 327.621 L
cp
S
GR
GS
0.851 0.325 0.098 RC
1 LJ
N
386.5 326.5 M
385.621 324.379 L
383.5 323.5 L
381.379 324.379 L
380.5 326.5 L
381.379 328.621 L
383.5 329.5 L
385.621 328.621 L
cp
S
GR
GS
0.851 0.325 0.098 RC
1 LJ
N
395.5 327.5 M
394.621 325.379 L
392.5 324.5 L
390.379 325.379 L
389.5 327.5 L
390.379 329.621 L
392.5 330.5 L
394.621 329.621 L
cp
S
GR
GS
0.851 0.325 0.098 RC
1 LJ
N
403.5 327.5 M
402.621 325.379 L
400.5 324.5 L
398.379 325.379 L
397.5 327.5 L
398.379 329.621 L
400.5 330.5 L
402.621 329.621 L
cp
S
GR
GS
0.851 0.325 0.098 RC
1 LJ
N
412.5 328.5 M
411.621 326.379 L
409.5 325.5 L
407.379 326.379 L
406.5 328.5 L
407.379 330.621 L
409.5 331.5 L
411.621 330.621 L
cp
S
GR
GS
0.851 0.325 0.098 RC
1 LJ
N
421.5 328.5 M
420.621 326.379 L
418.5 325.5 L
416.379 326.379 L
415.5 328.5 L
416.379 330.621 L
418.5 331.5 L
420.621 330.621 L
cp
S
GR
GS
0.851 0.325 0.098 RC
1 LJ
N
429.5 328.5 M
428.621 326.379 L
426.5 325.5 L
424.379 326.379 L
423.5 328.5 L
424.379 330.621 L
426.5 331.5 L
428.621 330.621 L
cp
S
GR
GS
0.851 0.325 0.098 RC
1 LJ
N
438.5 329.5 M
437.621 327.379 L
435.5 326.5 L
433.379 327.379 L
432.5 329.5 L
433.379 331.621 L
435.5 332.5 L
437.621 331.621 L
cp
S
GR
GS
0.851 0.325 0.098 RC
1 LJ
N
447.5 329.5 M
446.621 327.379 L
444.5 326.5 L
442.379 327.379 L
441.5 329.5 L
442.379 331.621 L
444.5 332.5 L
446.621 331.621 L
cp
S
GR
GS
0.851 0.325 0.098 RC
1 LJ
N
455.5 329.5 M
454.621 327.379 L
452.5 326.5 L
450.379 327.379 L
449.5 329.5 L
450.379 331.621 L
452.5 332.5 L
454.621 331.621 L
cp
S
GR
GS
0.929 0.694 0.125 RC
1 LJ
N
99.61 226.744 M
108.22 259.199 L
116.83 297.476 L
125.44 318.51 L
134.05 337.174 L
142.66 335.043 L
151.27 347.354 L
159.88 357.688 L
168.49 363.936 L
177.1 365.808 L
185.71 368.54 L
194.32 373.106 L
202.93 374.502 L
211.54 375.459 L
220.15 374.207 L
228.76 376.081 L
237.37 377.305 L
245.98 377.663 L
254.59 378.001 L
263.2 380.152 L
271.81 378.586 L
280.42 379.142 L
289.03 379.134 L
297.64 380.328 L
306.25 379.805 L
314.86 380.942 L
323.47 382.277 L
332.08 381.395 L
340.69 382.803 L
349.3 382.193 L
357.91 382.796 L
366.52 382.113 L
375.13 382.935 L
383.74 382.285 L
392.35 382.197 L
400.96 381.956 L
409.57 382.633 L
418.18 383.286 L
426.79 383.327 L
435.4 383.053 L
444.01 382.812 L
452.62 382.821 L
S
GR
GS
0.929 0.694 0.125 RC
1 LJ
N
102.5 226.5 M
101.621 224.379 L
99.5 223.5 L
97.379 224.379 L
96.5 226.5 L
97.379 228.621 L
99.5 229.5 L
101.621 228.621 L
cp
S
GR
GS
0.929 0.694 0.125 RC
1 LJ
N
111.5 259.5 M
110.621 257.379 L
108.5 256.5 L
106.379 257.379 L
105.5 259.5 L
106.379 261.621 L
108.5 262.5 L
110.621 261.621 L
cp
S
GR
GS
0.929 0.694 0.125 RC
1 LJ
N
119.5 297.5 M
118.621 295.379 L
116.5 294.5 L
114.379 295.379 L
113.5 297.5 L
114.379 299.621 L
116.5 300.5 L
118.621 299.621 L
cp
S
GR
GS
0.929 0.694 0.125 RC
1 LJ
N
128.5 318.5 M
127.621 316.379 L
125.5 315.5 L
123.379 316.379 L
122.5 318.5 L
123.379 320.621 L
125.5 321.5 L
127.621 320.621 L
cp
S
GR
GS
0.929 0.694 0.125 RC
1 LJ
N
137.5 337.5 M
136.621 335.379 L
134.5 334.5 L
132.379 335.379 L
131.5 337.5 L
132.379 339.621 L
134.5 340.5 L
136.621 339.621 L
cp
S
GR
GS
0.929 0.694 0.125 RC
1 LJ
N
145.5 335.5 M
144.621 333.379 L
142.5 332.5 L
140.379 333.379 L
139.5 335.5 L
140.379 337.621 L
142.5 338.5 L
144.621 337.621 L
cp
S
GR
GS
0.929 0.694 0.125 RC
1 LJ
N
154.5 347.5 M
153.621 345.379 L
151.5 344.5 L
149.379 345.379 L
148.5 347.5 L
149.379 349.621 L
151.5 350.5 L
153.621 349.621 L
cp
S
GR
GS
0.929 0.694 0.125 RC
1 LJ
N
162.5 357.5 M
161.621 355.379 L
159.5 354.5 L
157.379 355.379 L
156.5 357.5 L
157.379 359.621 L
159.5 360.5 L
161.621 359.621 L
cp
S
GR
GS
0.929 0.694 0.125 RC
1 LJ
N
171.5 363.5 M
170.621 361.379 L
168.5 360.5 L
166.379 361.379 L
165.5 363.5 L
166.379 365.621 L
168.5 366.5 L
170.621 365.621 L
cp
S
GR
GS
0.929 0.694 0.125 RC
1 LJ
N
180.5 365.5 M
179.621 363.379 L
177.5 362.5 L
175.379 363.379 L
174.5 365.5 L
175.379 367.621 L
177.5 368.5 L
179.621 367.621 L
cp
S
GR
GS
0.929 0.694 0.125 RC
1 LJ
N
188.5 368.5 M
187.621 366.379 L
185.5 365.5 L
183.379 366.379 L
182.5 368.5 L
183.379 370.621 L
185.5 371.5 L
187.621 370.621 L
cp
S
GR
GS
0.929 0.694 0.125 RC
1 LJ
N
197.5 373.5 M
196.621 371.379 L
194.5 370.5 L
192.379 371.379 L
191.5 373.5 L
192.379 375.621 L
194.5 376.5 L
196.621 375.621 L
cp
S
GR
GS
0.929 0.694 0.125 RC
1 LJ
N
205.5 374.5 M
204.621 372.379 L
202.5 371.5 L
200.379 372.379 L
199.5 374.5 L
200.379 376.621 L
202.5 377.5 L
204.621 376.621 L
cp
S
GR
GS
0.929 0.694 0.125 RC
1 LJ
N
214.5 375.5 M
213.621 373.379 L
211.5 372.5 L
209.379 373.379 L
208.5 375.5 L
209.379 377.621 L
211.5 378.5 L
213.621 377.621 L
cp
S
GR
GS
0.929 0.694 0.125 RC
1 LJ
N
223.5 374.5 M
222.621 372.379 L
220.5 371.5 L
218.379 372.379 L
217.5 374.5 L
218.379 376.621 L
220.5 377.5 L
222.621 376.621 L
cp
S
GR
GS
0.929 0.694 0.125 RC
1 LJ
N
231.5 376.5 M
230.621 374.379 L
228.5 373.5 L
226.379 374.379 L
225.5 376.5 L
226.379 378.621 L
228.5 379.5 L
230.621 378.621 L
cp
S
GR
GS
0.929 0.694 0.125 RC
1 LJ
N
240.5 377.5 M
239.621 375.379 L
237.5 374.5 L
235.379 375.379 L
234.5 377.5 L
235.379 379.621 L
237.5 380.5 L
239.621 379.621 L
cp
S
GR
GS
0.929 0.694 0.125 RC
1 LJ
N
248.5 377.5 M
247.621 375.379 L
245.5 374.5 L
243.379 375.379 L
242.5 377.5 L
243.379 379.621 L
245.5 380.5 L
247.621 379.621 L
cp
S
GR
GS
0.929 0.694 0.125 RC
1 LJ
N
257.5 378.5 M
256.621 376.379 L
254.5 375.5 L
252.379 376.379 L
251.5 378.5 L
252.379 380.621 L
254.5 381.5 L
256.621 380.621 L
cp
S
GR
GS
0.929 0.694 0.125 RC
1 LJ
N
266.5 380.5 M
265.621 378.379 L
263.5 377.5 L
261.379 378.379 L
260.5 380.5 L
261.379 382.621 L
263.5 383.5 L
265.621 382.621 L
cp
S
GR
GS
0.929 0.694 0.125 RC
1 LJ
N
274.5 378.5 M
273.621 376.379 L
271.5 375.5 L
269.379 376.379 L
268.5 378.5 L
269.379 380.621 L
271.5 381.5 L
273.621 380.621 L
cp
S
GR
GS
0.929 0.694 0.125 RC
1 LJ
N
283.5 379.5 M
282.621 377.379 L
280.5 376.5 L
278.379 377.379 L
277.5 379.5 L
278.379 381.621 L
280.5 382.5 L
282.621 381.621 L
cp
S
GR
GS
0.929 0.694 0.125 RC
1 LJ
N
292.5 379.5 M
291.621 377.379 L
289.5 376.5 L
287.379 377.379 L
286.5 379.5 L
287.379 381.621 L
289.5 382.5 L
291.621 381.621 L
cp
S
GR
GS
0.929 0.694 0.125 RC
1 LJ
N
300.5 380.5 M
299.621 378.379 L
297.5 377.5 L
295.379 378.379 L
294.5 380.5 L
295.379 382.621 L
297.5 383.5 L
299.621 382.621 L
cp
S
GR
GS
0.929 0.694 0.125 RC
1 LJ
N
309.5 379.5 M
308.621 377.379 L
306.5 376.5 L
304.379 377.379 L
303.5 379.5 L
304.379 381.621 L
306.5 382.5 L
308.621 381.621 L
cp
S
GR
GS
0.929 0.694 0.125 RC
1 LJ
N
317.5 380.5 M
316.621 378.379 L
314.5 377.5 L
312.379 378.379 L
311.5 380.5 L
312.379 382.621 L
314.5 383.5 L
316.621 382.621 L
cp
S
GR
GS
0.929 0.694 0.125 RC
1 LJ
N
326.5 382.5 M
325.621 380.379 L
323.5 379.5 L
321.379 380.379 L
320.5 382.5 L
321.379 384.621 L
323.5 385.5 L
325.621 384.621 L
cp
S
GR
GS
0.929 0.694 0.125 RC
1 LJ
N
335.5 381.5 M
334.621 379.379 L
332.5 378.5 L
330.379 379.379 L
329.5 381.5 L
330.379 383.621 L
332.5 384.5 L
334.621 383.621 L
cp
S
GR
GS
0.929 0.694 0.125 RC
1 LJ
N
343.5 382.5 M
342.621 380.379 L
340.5 379.5 L
338.379 380.379 L
337.5 382.5 L
338.379 384.621 L
340.5 385.5 L
342.621 384.621 L
cp
S
GR
GS
0.929 0.694 0.125 RC
1 LJ
N
352.5 382.5 M
351.621 380.379 L
349.5 379.5 L
347.379 380.379 L
346.5 382.5 L
347.379 384.621 L
349.5 385.5 L
351.621 384.621 L
cp
S
GR
GS
0.929 0.694 0.125 RC
1 LJ
N
360.5 382.5 M
359.621 380.379 L
357.5 379.5 L
355.379 380.379 L
354.5 382.5 L
355.379 384.621 L
357.5 385.5 L
359.621 384.621 L
cp
S
GR
GS
0.929 0.694 0.125 RC
1 LJ
N
369.5 382.5 M
368.621 380.379 L
366.5 379.5 L
364.379 380.379 L
363.5 382.5 L
364.379 384.621 L
366.5 385.5 L
368.621 384.621 L
cp
S
GR
GS
0.929 0.694 0.125 RC
1 LJ
N
378.5 382.5 M
377.621 380.379 L
375.5 379.5 L
373.379 380.379 L
372.5 382.5 L
373.379 384.621 L
375.5 385.5 L
377.621 384.621 L
cp
S
GR
GS
0.929 0.694 0.125 RC
1 LJ
N
386.5 382.5 M
385.621 380.379 L
383.5 379.5 L
381.379 380.379 L
380.5 382.5 L
381.379 384.621 L
383.5 385.5 L
385.621 384.621 L
cp
S
GR
GS
0.929 0.694 0.125 RC
1 LJ
N
395.5 382.5 M
394.621 380.379 L
392.5 379.5 L
390.379 380.379 L
389.5 382.5 L
390.379 384.621 L
392.5 385.5 L
394.621 384.621 L
cp
S
GR
GS
0.929 0.694 0.125 RC
1 LJ
N
403.5 381.5 M
402.621 379.379 L
400.5 378.5 L
398.379 379.379 L
397.5 381.5 L
398.379 383.621 L
400.5 384.5 L
402.621 383.621 L
cp
S
GR
GS
0.929 0.694 0.125 RC
1 LJ
N
412.5 382.5 M
411.621 380.379 L
409.5 379.5 L
407.379 380.379 L
406.5 382.5 L
407.379 384.621 L
409.5 385.5 L
411.621 384.621 L
cp
S
GR
GS
0.929 0.694 0.125 RC
1 LJ
N
421.5 383.5 M
420.621 381.379 L
418.5 380.5 L
416.379 381.379 L
415.5 383.5 L
416.379 385.621 L
418.5 386.5 L
420.621 385.621 L
cp
S
GR
GS
0.929 0.694 0.125 RC
1 LJ
N
429.5 383.5 M
428.621 381.379 L
426.5 380.5 L
424.379 381.379 L
423.5 383.5 L
424.379 385.621 L
426.5 386.5 L
428.621 385.621 L
cp
S
GR
GS
0.929 0.694 0.125 RC
1 LJ
N
438.5 383.5 M
437.621 381.379 L
435.5 380.5 L
433.379 381.379 L
432.5 383.5 L
433.379 385.621 L
435.5 386.5 L
437.621 385.621 L
cp
S
GR
GS
0.929 0.694 0.125 RC
1 LJ
N
447.5 382.5 M
446.621 380.379 L
444.5 379.5 L
442.379 380.379 L
441.5 382.5 L
442.379 384.621 L
444.5 385.5 L
446.621 384.621 L
cp
S
GR
GS
0.929 0.694 0.125 RC
1 LJ
N
455.5 382.5 M
454.621 380.379 L
452.5 379.5 L
450.379 380.379 L
449.5 382.5 L
450.379 384.621 L
452.5 385.5 L
454.621 384.621 L
cp
S
GR
GS
0.494 0.184 0.557 RC
1 LJ
N
99.61 246.016 M
108.22 248.972 L
116.83 267.021 L
125.44 292.907 L
134.05 342.01 L
142.66 342.969 L
151.27 348.426 L
159.88 365.637 L
168.49 369.293 L
177.1 369.576 L
185.71 372.547 L
194.32 376.728 L
202.93 378.337 L
211.54 378.82 L
220.15 379.057 L
228.76 380.056 L
237.37 380.718 L
245.98 379.724 L
254.59 380.558 L
263.2 381.206 L
271.81 381.576 L
280.42 381.414 L
289.03 382.011 L
297.64 382.27 L
306.25 382.268 L
314.86 382.476 L
323.47 382.651 L
332.08 382.898 L
340.69 382.61 L
349.3 382.806 L
357.91 382.996 L
366.52 383.22 L
375.13 383.608 L
383.74 383.639 L
392.35 384 L
400.96 383.787 L
409.57 383.879 L
418.18 383.841 L
426.79 383.838 L
435.4 383.835 L
444.01 383.827 L
452.62 383.824 L
S
GR
GS
0.494 0.184 0.557 RC
1 LJ
N
102.5 246.5 M
101.621 244.379 L
99.5 243.5 L
97.379 244.379 L
96.5 246.5 L
97.379 248.621 L
99.5 249.5 L
101.621 248.621 L
cp
S
GR
GS
0.494 0.184 0.557 RC
1 LJ
N
111.5 248.5 M
110.621 246.379 L
108.5 245.5 L
106.379 246.379 L
105.5 248.5 L
106.379 250.621 L
108.5 251.5 L
110.621 250.621 L
cp
S
GR
GS
0.494 0.184 0.557 RC
1 LJ
N
119.5 267.5 M
118.621 265.379 L
116.5 264.5 L
114.379 265.379 L
113.5 267.5 L
114.379 269.621 L
116.5 270.5 L
118.621 269.621 L
cp
S
GR
GS
0.494 0.184 0.557 RC
1 LJ
N
128.5 292.5 M
127.621 290.379 L
125.5 289.5 L
123.379 290.379 L
122.5 292.5 L
123.379 294.621 L
125.5 295.5 L
127.621 294.621 L
cp
S
GR
GS
0.494 0.184 0.557 RC
1 LJ
N
137.5 342.5 M
136.621 340.379 L
134.5 339.5 L
132.379 340.379 L
131.5 342.5 L
132.379 344.621 L
134.5 345.5 L
136.621 344.621 L
cp
S
GR
GS
0.494 0.184 0.557 RC
1 LJ
N
145.5 342.5 M
144.621 340.379 L
142.5 339.5 L
140.379 340.379 L
139.5 342.5 L
140.379 344.621 L
142.5 345.5 L
144.621 344.621 L
cp
S
GR
GS
0.494 0.184 0.557 RC
1 LJ
N
154.5 348.5 M
153.621 346.379 L
151.5 345.5 L
149.379 346.379 L
148.5 348.5 L
149.379 350.621 L
151.5 351.5 L
153.621 350.621 L
cp
S
GR
GS
0.494 0.184 0.557 RC
1 LJ
N
162.5 365.5 M
161.621 363.379 L
159.5 362.5 L
157.379 363.379 L
156.5 365.5 L
157.379 367.621 L
159.5 368.5 L
161.621 367.621 L
cp
S
GR
GS
0.494 0.184 0.557 RC
1 LJ
N
171.5 369.5 M
170.621 367.379 L
168.5 366.5 L
166.379 367.379 L
165.5 369.5 L
166.379 371.621 L
168.5 372.5 L
170.621 371.621 L
cp
S
GR
GS
0.494 0.184 0.557 RC
1 LJ
N
180.5 369.5 M
179.621 367.379 L
177.5 366.5 L
175.379 367.379 L
174.5 369.5 L
175.379 371.621 L
177.5 372.5 L
179.621 371.621 L
cp
S
GR
GS
0.494 0.184 0.557 RC
1 LJ
N
188.5 372.5 M
187.621 370.379 L
185.5 369.5 L
183.379 370.379 L
182.5 372.5 L
183.379 374.621 L
185.5 375.5 L
187.621 374.621 L
cp
S
GR
GS
0.494 0.184 0.557 RC
1 LJ
N
197.5 376.5 M
196.621 374.379 L
194.5 373.5 L
192.379 374.379 L
191.5 376.5 L
192.379 378.621 L
194.5 379.5 L
196.621 378.621 L
cp
S
GR
GS
0.494 0.184 0.557 RC
1 LJ
N
205.5 378.5 M
204.621 376.379 L
202.5 375.5 L
200.379 376.379 L
199.5 378.5 L
200.379 380.621 L
202.5 381.5 L
204.621 380.621 L
cp
S
GR
GS
0.494 0.184 0.557 RC
1 LJ
N
214.5 378.5 M
213.621 376.379 L
211.5 375.5 L
209.379 376.379 L
208.5 378.5 L
209.379 380.621 L
211.5 381.5 L
213.621 380.621 L
cp
S
GR
GS
0.494 0.184 0.557 RC
1 LJ
N
223.5 379.5 M
222.621 377.379 L
220.5 376.5 L
218.379 377.379 L
217.5 379.5 L
218.379 381.621 L
220.5 382.5 L
222.621 381.621 L
cp
S
GR
GS
0.494 0.184 0.557 RC
1 LJ
N
231.5 380.5 M
230.621 378.379 L
228.5 377.5 L
226.379 378.379 L
225.5 380.5 L
226.379 382.621 L
228.5 383.5 L
230.621 382.621 L
cp
S
GR
GS
0.494 0.184 0.557 RC
1 LJ
N
240.5 380.5 M
239.621 378.379 L
237.5 377.5 L
235.379 378.379 L
234.5 380.5 L
235.379 382.621 L
237.5 383.5 L
239.621 382.621 L
cp
S
GR
GS
0.494 0.184 0.557 RC
1 LJ
N
248.5 379.5 M
247.621 377.379 L
245.5 376.5 L
243.379 377.379 L
242.5 379.5 L
243.379 381.621 L
245.5 382.5 L
247.621 381.621 L
cp
S
GR
GS
0.494 0.184 0.557 RC
1 LJ
N
257.5 380.5 M
256.621 378.379 L
254.5 377.5 L
252.379 378.379 L
251.5 380.5 L
252.379 382.621 L
254.5 383.5 L
256.621 382.621 L
cp
S
GR
GS
0.494 0.184 0.557 RC
1 LJ
N
266.5 381.5 M
265.621 379.379 L
263.5 378.5 L
261.379 379.379 L
260.5 381.5 L
261.379 383.621 L
263.5 384.5 L
265.621 383.621 L
cp
S
GR
GS
0.494 0.184 0.557 RC
1 LJ
N
274.5 381.5 M
273.621 379.379 L
271.5 378.5 L
269.379 379.379 L
268.5 381.5 L
269.379 383.621 L
271.5 384.5 L
273.621 383.621 L
cp
S
GR
GS
0.494 0.184 0.557 RC
1 LJ
N
283.5 381.5 M
282.621 379.379 L
280.5 378.5 L
278.379 379.379 L
277.5 381.5 L
278.379 383.621 L
280.5 384.5 L
282.621 383.621 L
cp
S
GR
GS
0.494 0.184 0.557 RC
1 LJ
N
292.5 382.5 M
291.621 380.379 L
289.5 379.5 L
287.379 380.379 L
286.5 382.5 L
287.379 384.621 L
289.5 385.5 L
291.621 384.621 L
cp
S
GR
GS
0.494 0.184 0.557 RC
1 LJ
N
300.5 382.5 M
299.621 380.379 L
297.5 379.5 L
295.379 380.379 L
294.5 382.5 L
295.379 384.621 L
297.5 385.5 L
299.621 384.621 L
cp
S
GR
GS
0.494 0.184 0.557 RC
1 LJ
N
309.5 382.5 M
308.621 380.379 L
306.5 379.5 L
304.379 380.379 L
303.5 382.5 L
304.379 384.621 L
306.5 385.5 L
308.621 384.621 L
cp
S
GR
GS
0.494 0.184 0.557 RC
1 LJ
N
317.5 382.5 M
316.621 380.379 L
314.5 379.5 L
312.379 380.379 L
311.5 382.5 L
312.379 384.621 L
314.5 385.5 L
316.621 384.621 L
cp
S
GR
GS
0.494 0.184 0.557 RC
1 LJ
N
326.5 382.5 M
325.621 380.379 L
323.5 379.5 L
321.379 380.379 L
320.5 382.5 L
321.379 384.621 L
323.5 385.5 L
325.621 384.621 L
cp
S
GR
GS
0.494 0.184 0.557 RC
1 LJ
N
335.5 382.5 M
334.621 380.379 L
332.5 379.5 L
330.379 380.379 L
329.5 382.5 L
330.379 384.621 L
332.5 385.5 L
334.621 384.621 L
cp
S
GR
GS
0.494 0.184 0.557 RC
1 LJ
N
343.5 382.5 M
342.621 380.379 L
340.5 379.5 L
338.379 380.379 L
337.5 382.5 L
338.379 384.621 L
340.5 385.5 L
342.621 384.621 L
cp
S
GR
GS
0.494 0.184 0.557 RC
1 LJ
N
352.5 382.5 M
351.621 380.379 L
349.5 379.5 L
347.379 380.379 L
346.5 382.5 L
347.379 384.621 L
349.5 385.5 L
351.621 384.621 L
cp
S
GR
GS
0.494 0.184 0.557 RC
1 LJ
N
360.5 382.5 M
359.621 380.379 L
357.5 379.5 L
355.379 380.379 L
354.5 382.5 L
355.379 384.621 L
357.5 385.5 L
359.621 384.621 L
cp
S
GR
GS
0.494 0.184 0.557 RC
1 LJ
N
369.5 383.5 M
368.621 381.379 L
366.5 380.5 L
364.379 381.379 L
363.5 383.5 L
364.379 385.621 L
366.5 386.5 L
368.621 385.621 L
cp
S
GR
GS
0.494 0.184 0.557 RC
1 LJ
N
378.5 383.5 M
377.621 381.379 L
375.5 380.5 L
373.379 381.379 L
372.5 383.5 L
373.379 385.621 L
375.5 386.5 L
377.621 385.621 L
cp
S
GR
GS
0.494 0.184 0.557 RC
1 LJ
N
386.5 383.5 M
385.621 381.379 L
383.5 380.5 L
381.379 381.379 L
380.5 383.5 L
381.379 385.621 L
383.5 386.5 L
385.621 385.621 L
cp
S
GR
GS
0.494 0.184 0.557 RC
1 LJ
N
395.5 383.5 M
394.621 381.379 L
392.5 380.5 L
390.379 381.379 L
389.5 383.5 L
390.379 385.621 L
392.5 386.5 L
394.621 385.621 L
cp
S
GR
GS
0.494 0.184 0.557 RC
1 LJ
N
403.5 383.5 M
402.621 381.379 L
400.5 380.5 L
398.379 381.379 L
397.5 383.5 L
398.379 385.621 L
400.5 386.5 L
402.621 385.621 L
cp
S
GR
GS
0.494 0.184 0.557 RC
1 LJ
N
412.5 383.5 M
411.621 381.379 L
409.5 380.5 L
407.379 381.379 L
406.5 383.5 L
407.379 385.621 L
409.5 386.5 L
411.621 385.621 L
cp
S
GR
GS
0.494 0.184 0.557 RC
1 LJ
N
421.5 383.5 M
420.621 381.379 L
418.5 380.5 L
416.379 381.379 L
415.5 383.5 L
416.379 385.621 L
418.5 386.5 L
420.621 385.621 L
cp
S
GR
GS
0.494 0.184 0.557 RC
1 LJ
N
429.5 383.5 M
428.621 381.379 L
426.5 380.5 L
424.379 381.379 L
423.5 383.5 L
424.379 385.621 L
426.5 386.5 L
428.621 385.621 L
cp
S
GR
GS
0.494 0.184 0.557 RC
1 LJ
N
438.5 383.5 M
437.621 381.379 L
435.5 380.5 L
433.379 381.379 L
432.5 383.5 L
433.379 385.621 L
435.5 386.5 L
437.621 385.621 L
cp
S
GR
GS
0.494 0.184 0.557 RC
1 LJ
N
447.5 383.5 M
446.621 381.379 L
444.5 380.5 L
442.379 381.379 L
441.5 383.5 L
442.379 385.621 L
444.5 386.5 L
446.621 385.621 L
cp
S
GR
GS
0.494 0.184 0.557 RC
1 LJ
N
455.5 383.5 M
454.621 381.379 L
452.5 380.5 L
450.379 381.379 L
449.5 383.5 L
450.379 385.621 L
452.5 386.5 L
454.621 385.621 L
cp
S
GR
GS
0.467 0.675 0.188 RC
1 LJ
N
99.61 32.5 M
108.22 62.949 L
116.83 88.389 L
125.44 106.949 L
134.05 122.23 L
142.66 135.875 L
151.27 147.514 L
159.88 156.051 L
168.49 163.735 L
177.1 170.526 L
185.71 176.121 L
194.32 180.77 L
202.93 184.622 L
211.54 187.943 L
220.15 190.894 L
228.76 193.459 L
237.37 195.75 L
245.98 197.792 L
254.59 199.641 L
263.2 201.216 L
271.81 202.557 L
280.42 203.813 L
289.03 204.971 L
297.64 205.96 L
306.25 206.85 L
314.86 207.635 L
323.47 208.324 L
332.08 208.952 L
340.69 209.532 L
349.3 210.049 L
357.91 210.502 L
366.52 210.923 L
375.13 211.296 L
383.74 211.631 L
392.35 211.932 L
400.96 212.206 L
409.57 212.451 L
418.18 212.67 L
426.79 212.87 L
435.4 213.049 L
444.01 213.21 L
452.62 213.356 L
S
GR
GS
0.467 0.675 0.188 RC
1 LJ
N
102.5 32.5 M
101.621 30.379 L
99.5 29.5 L
97.379 30.379 L
96.5 32.5 L
97.379 34.621 L
99.5 35.5 L
101.621 34.621 L
cp
S
GR
GS
0.467 0.675 0.188 RC
1 LJ
N
111.5 62.5 M
110.621 60.379 L
108.5 59.5 L
106.379 60.379 L
105.5 62.5 L
106.379 64.621 L
108.5 65.5 L
110.621 64.621 L
cp
S
GR
GS
0.467 0.675 0.188 RC
1 LJ
N
119.5 88.5 M
118.621 86.379 L
116.5 85.5 L
114.379 86.379 L
113.5 88.5 L
114.379 90.621 L
116.5 91.5 L
118.621 90.621 L
cp
S
GR
GS
0.467 0.675 0.188 RC
1 LJ
N
128.5 106.5 M
127.621 104.379 L
125.5 103.5 L
123.379 104.379 L
122.5 106.5 L
123.379 108.621 L
125.5 109.5 L
127.621 108.621 L
cp
S
GR
GS
0.467 0.675 0.188 RC
1 LJ
N
137.5 122.5 M
136.621 120.379 L
134.5 119.5 L
132.379 120.379 L
131.5 122.5 L
132.379 124.621 L
134.5 125.5 L
136.621 124.621 L
cp
S
GR
GS
0.467 0.675 0.188 RC
1 LJ
N
145.5 135.5 M
144.621 133.379 L
142.5 132.5 L
140.379 133.379 L
139.5 135.5 L
140.379 137.621 L
142.5 138.5 L
144.621 137.621 L
cp
S
GR
GS
0.467 0.675 0.188 RC
1 LJ
N
154.5 147.5 M
153.621 145.379 L
151.5 144.5 L
149.379 145.379 L
148.5 147.5 L
149.379 149.621 L
151.5 150.5 L
153.621 149.621 L
cp
S
GR
GS
0.467 0.675 0.188 RC
1 LJ
N
162.5 156.5 M
161.621 154.379 L
159.5 153.5 L
157.379 154.379 L
156.5 156.5 L
157.379 158.621 L
159.5 159.5 L
161.621 158.621 L
cp
S
GR
GS
0.467 0.675 0.188 RC
1 LJ
N
171.5 163.5 M
170.621 161.379 L
168.5 160.5 L
166.379 161.379 L
165.5 163.5 L
166.379 165.621 L
168.5 166.5 L
170.621 165.621 L
cp
S
GR
GS
0.467 0.675 0.188 RC
1 LJ
N
180.5 170.5 M
179.621 168.379 L
177.5 167.5 L
175.379 168.379 L
174.5 170.5 L
175.379 172.621 L
177.5 173.5 L
179.621 172.621 L
cp
S
GR
GS
0.467 0.675 0.188 RC
1 LJ
N
188.5 176.5 M
187.621 174.379 L
185.5 173.5 L
183.379 174.379 L
182.5 176.5 L
183.379 178.621 L
185.5 179.5 L
187.621 178.621 L
cp
S
GR
GS
0.467 0.675 0.188 RC
1 LJ
N
197.5 180.5 M
196.621 178.379 L
194.5 177.5 L
192.379 178.379 L
191.5 180.5 L
192.379 182.621 L
194.5 183.5 L
196.621 182.621 L
cp
S
GR
GS
0.467 0.675 0.188 RC
1 LJ
N
205.5 184.5 M
204.621 182.379 L
202.5 181.5 L
200.379 182.379 L
199.5 184.5 L
200.379 186.621 L
202.5 187.5 L
204.621 186.621 L
cp
S
GR
GS
0.467 0.675 0.188 RC
1 LJ
N
214.5 187.5 M
213.621 185.379 L
211.5 184.5 L
209.379 185.379 L
208.5 187.5 L
209.379 189.621 L
211.5 190.5 L
213.621 189.621 L
cp
S
GR
GS
0.467 0.675 0.188 RC
1 LJ
N
223.5 190.5 M
222.621 188.379 L
220.5 187.5 L
218.379 188.379 L
217.5 190.5 L
218.379 192.621 L
220.5 193.5 L
222.621 192.621 L
cp
S
GR
GS
0.467 0.675 0.188 RC
1 LJ
N
231.5 193.5 M
230.621 191.379 L
228.5 190.5 L
226.379 191.379 L
225.5 193.5 L
226.379 195.621 L
228.5 196.5 L
230.621 195.621 L
cp
S
GR
GS
0.467 0.675 0.188 RC
1 LJ
N
240.5 195.5 M
239.621 193.379 L
237.5 192.5 L
235.379 193.379 L
234.5 195.5 L
235.379 197.621 L
237.5 198.5 L
239.621 197.621 L
cp
S
GR
GS
0.467 0.675 0.188 RC
1 LJ
N
248.5 197.5 M
247.621 195.379 L
245.5 194.5 L
243.379 195.379 L
242.5 197.5 L
243.379 199.621 L
245.5 200.5 L
247.621 199.621 L
cp
S
GR
GS
0.467 0.675 0.188 RC
1 LJ
N
257.5 199.5 M
256.621 197.379 L
254.5 196.5 L
252.379 197.379 L
251.5 199.5 L
252.379 201.621 L
254.5 202.5 L
256.621 201.621 L
cp
S
GR
GS
0.467 0.675 0.188 RC
1 LJ
N
266.5 201.5 M
265.621 199.379 L
263.5 198.5 L
261.379 199.379 L
260.5 201.5 L
261.379 203.621 L
263.5 204.5 L
265.621 203.621 L
cp
S
GR
GS
0.467 0.675 0.188 RC
1 LJ
N
274.5 202.5 M
273.621 200.379 L
271.5 199.5 L
269.379 200.379 L
268.5 202.5 L
269.379 204.621 L
271.5 205.5 L
273.621 204.621 L
cp
S
GR
GS
0.467 0.675 0.188 RC
1 LJ
N
283.5 203.5 M
282.621 201.379 L
280.5 200.5 L
278.379 201.379 L
277.5 203.5 L
278.379 205.621 L
280.5 206.5 L
282.621 205.621 L
cp
S
GR
GS
0.467 0.675 0.188 RC
1 LJ
N
292.5 204.5 M
291.621 202.379 L
289.5 201.5 L
287.379 202.379 L
286.5 204.5 L
287.379 206.621 L
289.5 207.5 L
291.621 206.621 L
cp
S
GR
GS
0.467 0.675 0.188 RC
1 LJ
N
300.5 205.5 M
299.621 203.379 L
297.5 202.5 L
295.379 203.379 L
294.5 205.5 L
295.379 207.621 L
297.5 208.5 L
299.621 207.621 L
cp
S
GR
GS
0.467 0.675 0.188 RC
1 LJ
N
309.5 206.5 M
308.621 204.379 L
306.5 203.5 L
304.379 204.379 L
303.5 206.5 L
304.379 208.621 L
306.5 209.5 L
308.621 208.621 L
cp
S
GR
GS
0.467 0.675 0.188 RC
1 LJ
N
317.5 207.5 M
316.621 205.379 L
314.5 204.5 L
312.379 205.379 L
311.5 207.5 L
312.379 209.621 L
314.5 210.5 L
316.621 209.621 L
cp
S
GR
GS
0.467 0.675 0.188 RC
1 LJ
N
326.5 208.5 M
325.621 206.379 L
323.5 205.5 L
321.379 206.379 L
320.5 208.5 L
321.379 210.621 L
323.5 211.5 L
325.621 210.621 L
cp
S
GR
GS
0.467 0.675 0.188 RC
1 LJ
N
335.5 208.5 M
334.621 206.379 L
332.5 205.5 L
330.379 206.379 L
329.5 208.5 L
330.379 210.621 L
332.5 211.5 L
334.621 210.621 L
cp
S
GR
GS
0.467 0.675 0.188 RC
1 LJ
N
343.5 209.5 M
342.621 207.379 L
340.5 206.5 L
338.379 207.379 L
337.5 209.5 L
338.379 211.621 L
340.5 212.5 L
342.621 211.621 L
cp
S
GR
GS
0.467 0.675 0.188 RC
1 LJ
N
352.5 210.5 M
351.621 208.379 L
349.5 207.5 L
347.379 208.379 L
346.5 210.5 L
347.379 212.621 L
349.5 213.5 L
351.621 212.621 L
cp
S
GR
GS
0.467 0.675 0.188 RC
1 LJ
N
360.5 210.5 M
359.621 208.379 L
357.5 207.5 L
355.379 208.379 L
354.5 210.5 L
355.379 212.621 L
357.5 213.5 L
359.621 212.621 L
cp
S
GR
GS
0.467 0.675 0.188 RC
1 LJ
N
369.5 210.5 M
368.621 208.379 L
366.5 207.5 L
364.379 208.379 L
363.5 210.5 L
364.379 212.621 L
366.5 213.5 L
368.621 212.621 L
cp
S
GR
GS
0.467 0.675 0.188 RC
1 LJ
N
378.5 211.5 M
377.621 209.379 L
375.5 208.5 L
373.379 209.379 L
372.5 211.5 L
373.379 213.621 L
375.5 214.5 L
377.621 213.621 L
cp
S
GR
GS
0.467 0.675 0.188 RC
1 LJ
N
386.5 211.5 M
385.621 209.379 L
383.5 208.5 L
381.379 209.379 L
380.5 211.5 L
381.379 213.621 L
383.5 214.5 L
385.621 213.621 L
cp
S
GR
GS
0.467 0.675 0.188 RC
1 LJ
N
395.5 211.5 M
394.621 209.379 L
392.5 208.5 L
390.379 209.379 L
389.5 211.5 L
390.379 213.621 L
392.5 214.5 L
394.621 213.621 L
cp
S
GR
GS
0.467 0.675 0.188 RC
1 LJ
N
403.5 212.5 M
402.621 210.379 L
400.5 209.5 L
398.379 210.379 L
397.5 212.5 L
398.379 214.621 L
400.5 215.5 L
402.621 214.621 L
cp
S
GR
GS
0.467 0.675 0.188 RC
1 LJ
N
412.5 212.5 M
411.621 210.379 L
409.5 209.5 L
407.379 210.379 L
406.5 212.5 L
407.379 214.621 L
409.5 215.5 L
411.621 214.621 L
cp
S
GR
GS
0.467 0.675 0.188 RC
1 LJ
N
421.5 212.5 M
420.621 210.379 L
418.5 209.5 L
416.379 210.379 L
415.5 212.5 L
416.379 214.621 L
418.5 215.5 L
420.621 214.621 L
cp
S
GR
GS
0.467 0.675 0.188 RC
1 LJ
N
429.5 212.5 M
428.621 210.379 L
426.5 209.5 L
424.379 210.379 L
423.5 212.5 L
424.379 214.621 L
426.5 215.5 L
428.621 214.621 L
cp
S
GR
GS
0.467 0.675 0.188 RC
1 LJ
N
438.5 213.5 M
437.621 211.379 L
435.5 210.5 L
433.379 211.379 L
432.5 213.5 L
433.379 215.621 L
435.5 216.5 L
437.621 215.621 L
cp
S
GR
GS
0.467 0.675 0.188 RC
1 LJ
N
447.5 213.5 M
446.621 211.379 L
444.5 210.5 L
442.379 211.379 L
441.5 213.5 L
442.379 215.621 L
444.5 216.5 L
446.621 215.621 L
cp
S
GR
GS
0.467 0.675 0.188 RC
1 LJ
N
455.5 213.5 M
454.621 211.379 L
452.5 210.5 L
450.379 211.379 L
449.5 213.5 L
450.379 215.621 L
452.5 216.5 L
454.621 215.621 L
cp
S
GR
GS
1 GC
N
386 141 M
386 42.5 L
511.5 42.5 L
511.5 141 L
cp
f
GR
GS
[1 0 0 1 425 53.75] CT
/Helvetica 18 F
GS
[1 0 0 1 0 0] CT
0 4.5 moveto 
1 -1 scale
(Constant) t 
GR
GR
GS
0 0.447 0.741 RC
1 LJ
N
392 53.75 M
422 53.75 L
S
GR
GS
0 0.447 0.741 RC
1 LJ
N
410.5 53.5 M
409.621 51.379 L
407.5 50.5 L
405.379 51.379 L
404.5 53.5 L
405.379 55.621 L
407.5 56.5 L
409.621 55.621 L
cp
S
GR
GS
[1 0 0 1 425 72.75] CT
/Helvetica 18 F
GS
[1 0 0 1 0 0] CT
0 4.5 moveto 
1 -1 scale
(Geometric) t 
GR
GR
GS
0.851 0.325 0.098 RC
1 LJ
N
392 72.75 M
422 72.75 L
S
GR
GS
0.851 0.325 0.098 RC
1 LJ
N
410.5 72.5 M
409.621 70.379 L
407.5 69.5 L
405.379 70.379 L
404.5 72.5 L
405.379 74.621 L
407.5 75.5 L
409.621 74.621 L
cp
S
GR
GS
[1 0 0 1 425 91.75] CT
/Helvetica 18 F
GS
[1 0 0 1 0 0] CT
0 4.5 moveto 
1 -1 scale
(Counter) t 
GR
GR
GS
0.929 0.694 0.125 RC
1 LJ
N
392 91.75 M
422 91.75 L
S
GR
GS
0.929 0.694 0.125 RC
1 LJ
N
410.5 91.5 M
409.621 89.379 L
407.5 88.5 L
405.379 89.379 L
404.5 91.5 L
405.379 93.621 L
407.5 94.5 L
409.621 93.621 L
cp
S
GR
GS
[1 0 0 1 425 110.75] CT
/Helvetica 18 F
GS
[1 0 0 1 0 0] CT
0 4.5 moveto 
1 -1 scale
(Bold) t 
GR
GR
GS
0.494 0.184 0.557 RC
1 LJ
N
392 110.75 M
422 110.75 L
S
GR
GS
0.494 0.184 0.557 RC
1 LJ
N
410.5 110.5 M
409.621 108.379 L
407.5 107.5 L
405.379 108.379 L
404.5 110.5 L
405.379 112.621 L
407.5 113.5 L
409.621 112.621 L
cp
S
GR
GS
[1 0 0 1 425 129.75] CT
/Helvetica 18 F
GS
[1 0 0 1 0 0] CT
0 4.5 moveto 
1 -1 scale
(Expon) t 
GR
GR
GS
0.467 0.675 0.188 RC
1 LJ
N
392 129.75 M
422 129.75 L
S
GR
GS
0.467 0.675 0.188 RC
1 LJ
N
410.5 129.5 M
409.621 127.379 L
407.5 126.5 L
405.379 127.379 L
404.5 129.5 L
405.379 131.621 L
407.5 132.5 L
409.621 131.621 L
cp
S
GR
GS
0.149 GC
10.0 ML
0.5 LW
N
386 141 M
386 42.5 L
511.5 42.5 L
511.5 141 L
cp
S
GR
%%Trailer
%%Pages: 1
%%EOF
