%!PS-Adobe-3.0 EPSF-3.0
%%Creator: (MATLAB, The Mathworks, Inc. Version 8.6.0.267246 \(R2015b\). Operating System: Mac OS X)
%%Title: /Users/gauthiermuguerza/Desktop/rsgd/report/images/traffic.eps
%%CreationDate: 2018-05-30T14:50:09
%%Pages: (atend)
%%BoundingBox:     5    10   530   404
%%LanguageLevel: 3
%%EndComments
%%BeginProlog
%%BeginResource: procset (Apache XML Graphics Std ProcSet) 1.2 0
%%Version: 1.2 0
%%Copyright: (Copyright 2001-2003,2010 The Apache Software Foundation. License terms: http://www.apache.org/licenses/LICENSE-2.0)
/bd{bind def}bind def
/ld{load def}bd
/GR/grestore ld
/M/moveto ld
/LJ/setlinejoin ld
/C/curveto ld
/f/fill ld
/LW/setlinewidth ld
/GC/setgray ld
/t/show ld
/N/newpath ld
/CT/concat ld
/cp/closepath ld
/S/stroke ld
/L/lineto ld
/CC/setcmykcolor ld
/A/ashow ld
/GS/gsave ld
/RC/setrgbcolor ld
/RM/rmoveto ld
/ML/setmiterlimit ld
/re {4 2 roll M
1 index 0 rlineto
0 exch rlineto
neg 0 rlineto
cp } bd
/_ctm matrix def
/_tm matrix def
/BT { _ctm currentmatrix pop matrix _tm copy pop 0 0 moveto } bd
/ET { _ctm setmatrix } bd
/iTm { _ctm setmatrix _tm concat } bd
/Tm { _tm astore pop iTm 0 0 moveto } bd
/ux 0.0 def
/uy 0.0 def
/F {
  /Tp exch def
  /Tf exch def
  Tf findfont Tp scalefont setfont
  /cf Tf def  /cs Tp def
} bd
/ULS {currentpoint /uy exch def /ux exch def} bd
/ULE {
  /Tcx currentpoint pop def
  gsave
  newpath
  cf findfont cs scalefont dup
  /FontMatrix get 0 get /Ts exch def /FontInfo get dup
  /UnderlinePosition get Ts mul /To exch def
  /UnderlineThickness get Ts mul /Tt exch def
  ux uy To add moveto  Tcx uy To add lineto
  Tt setlinewidth stroke
  grestore
} bd
/OLE {
  /Tcx currentpoint pop def
  gsave
  newpath
  cf findfont cs scalefont dup
  /FontMatrix get 0 get /Ts exch def /FontInfo get dup
  /UnderlinePosition get Ts mul /To exch def
  /UnderlineThickness get Ts mul /Tt exch def
  ux uy To add cs add moveto Tcx uy To add cs add lineto
  Tt setlinewidth stroke
  grestore
} bd
/SOE {
  /Tcx currentpoint pop def
  gsave
  newpath
  cf findfont cs scalefont dup
  /FontMatrix get 0 get /Ts exch def /FontInfo get dup
  /UnderlinePosition get Ts mul /To exch def
  /UnderlineThickness get Ts mul /Tt exch def
  ux uy To add cs 10 mul 26 idiv add moveto Tcx uy To add cs 10 mul 26 idiv add lineto
  Tt setlinewidth stroke
  grestore
} bd
/QT {
/Y22 exch store
/X22 exch store
/Y21 exch store
/X21 exch store
currentpoint
/Y21 load 2 mul add 3 div exch
/X21 load 2 mul add 3 div exch
/X21 load 2 mul /X22 load add 3 div
/Y21 load 2 mul /Y22 load add 3 div
/X22 load /Y22 load curveto
} bd
/SSPD {
dup length /d exch dict def
{
/v exch def
/k exch def
currentpagedevice k known {
/cpdv currentpagedevice k get def
v cpdv ne {
/upd false def
/nullv v type /nulltype eq def
/nullcpdv cpdv type /nulltype eq def
nullv nullcpdv or
{
/upd true def
} {
/sametype v type cpdv type eq def
sametype {
v type /arraytype eq {
/vlen v length def
/cpdvlen cpdv length def
vlen cpdvlen eq {
0 1 vlen 1 sub {
/i exch def
/obj v i get def
/cpdobj cpdv i get def
obj cpdobj ne {
/upd true def
exit
} if
} for
} {
/upd true def
} ifelse
} {
v type /dicttype eq {
v {
/dv exch def
/dk exch def
/cpddv cpdv dk get def
dv cpddv ne {
/upd true def
exit
} if
} forall
} {
/upd true def
} ifelse
} ifelse
} if
} ifelse
upd true eq {
d k v put
} if
} if
} if
} forall
d length 0 gt {
d setpagedevice
} if
} bd
%%EndResource
%%BeginResource: procset (Apache XML Graphics EPS ProcSet) 1.0 0
%%Version: 1.0 0
%%Copyright: (Copyright 2002-2003 The Apache Software Foundation. License terms: http://www.apache.org/licenses/LICENSE-2.0)
/BeginEPSF { %def
/b4_Inc_state save def         % Save state for cleanup
/dict_count countdictstack def % Count objects on dict stack
/op_count count 1 sub def      % Count objects on operand stack
userdict begin                 % Push userdict on dict stack
/showpage { } def              % Redefine showpage, { } = null proc
0 setgray 0 setlinecap         % Prepare graphics state
1 setlinewidth 0 setlinejoin
10 setmiterlimit [ ] 0 setdash newpath
/languagelevel where           % If level not equal to 1 then
{pop languagelevel             % set strokeadjust and
1 ne                           % overprint to their defaults.
{false setstrokeadjust false setoverprint
} if
} if
} bd
/EndEPSF { %def
count op_count sub {pop} repeat            % Clean up stacks
countdictstack dict_count sub {end} repeat
b4_Inc_state restore
} bd
%%EndResource
%FOPBeginFontDict
%%IncludeResource: font Courier-Bold
%%IncludeResource: font Helvetica
%%IncludeResource: font Courier-BoldOblique
%%IncludeResource: font Courier-Oblique
%%IncludeResource: font Times-Roman
%%IncludeResource: font Helvetica-BoldOblique
%%IncludeResource: font Helvetica-Bold
%%IncludeResource: font Helvetica-Oblique
%%IncludeResource: font Times-BoldItalic
%%IncludeResource: font Courier
%%IncludeResource: font Times-Italic
%%IncludeResource: font Times-Bold
%%IncludeResource: font Symbol
%%IncludeResource: font ZapfDingbats
%FOPEndFontDict
%%BeginResource: encoding WinAnsiEncoding
/WinAnsiEncoding [
/.notdef /.notdef /.notdef /.notdef /.notdef
/.notdef /.notdef /.notdef /.notdef /.notdef
/.notdef /.notdef /.notdef /.notdef /.notdef
/.notdef /.notdef /.notdef /.notdef /.notdef
/.notdef /.notdef /.notdef /.notdef /.notdef
/.notdef /.notdef /.notdef /.notdef /.notdef
/.notdef /.notdef /space /exclam /quotedbl
/numbersign /dollar /percent /ampersand /quotesingle
/parenleft /parenright /asterisk /plus /comma
/hyphen /period /slash /zero /one
/two /three /four /five /six
/seven /eight /nine /colon /semicolon
/less /equal /greater /question /at
/A /B /C /D /E
/F /G /H /I /J
/K /L /M /N /O
/P /Q /R /S /T
/U /V /W /X /Y
/Z /bracketleft /backslash /bracketright /asciicircum
/underscore /quoteleft /a /b /c
/d /e /f /g /h
/i /j /k /l /m
/n /o /p /q /r
/s /t /u /v /w
/x /y /z /braceleft /bar
/braceright /asciitilde /bullet /Euro /bullet
/quotesinglbase /florin /quotedblbase /ellipsis /dagger
/daggerdbl /circumflex /perthousand /Scaron /guilsinglleft
/OE /bullet /Zcaron /bullet /bullet
/quoteleft /quoteright /quotedblleft /quotedblright /bullet
/endash /emdash /asciitilde /trademark /scaron
/guilsinglright /oe /bullet /zcaron /Ydieresis
/space /exclamdown /cent /sterling /currency
/yen /brokenbar /section /dieresis /copyright
/ordfeminine /guillemotleft /logicalnot /sfthyphen /registered
/macron /degree /plusminus /twosuperior /threesuperior
/acute /mu /paragraph /middot /cedilla
/onesuperior /ordmasculine /guillemotright /onequarter /onehalf
/threequarters /questiondown /Agrave /Aacute /Acircumflex
/Atilde /Adieresis /Aring /AE /Ccedilla
/Egrave /Eacute /Ecircumflex /Edieresis /Igrave
/Iacute /Icircumflex /Idieresis /Eth /Ntilde
/Ograve /Oacute /Ocircumflex /Otilde /Odieresis
/multiply /Oslash /Ugrave /Uacute /Ucircumflex
/Udieresis /Yacute /Thorn /germandbls /agrave
/aacute /acircumflex /atilde /adieresis /aring
/ae /ccedilla /egrave /eacute /ecircumflex
/edieresis /igrave /iacute /icircumflex /idieresis
/eth /ntilde /ograve /oacute /ocircumflex
/otilde /odieresis /divide /oslash /ugrave
/uacute /ucircumflex /udieresis /yacute /thorn
/ydieresis
] def
%%EndResource
%FOPBeginFontReencode
/Courier-Bold findfont
dup length dict begin
  {1 index /FID ne {def} {pop pop} ifelse} forall
  /Encoding WinAnsiEncoding def
  currentdict
end
/Courier-Bold exch definefont pop
/Helvetica findfont
dup length dict begin
  {1 index /FID ne {def} {pop pop} ifelse} forall
  /Encoding WinAnsiEncoding def
  currentdict
end
/Helvetica exch definefont pop
/Courier-BoldOblique findfont
dup length dict begin
  {1 index /FID ne {def} {pop pop} ifelse} forall
  /Encoding WinAnsiEncoding def
  currentdict
end
/Courier-BoldOblique exch definefont pop
/Courier-Oblique findfont
dup length dict begin
  {1 index /FID ne {def} {pop pop} ifelse} forall
  /Encoding WinAnsiEncoding def
  currentdict
end
/Courier-Oblique exch definefont pop
/Times-Roman findfont
dup length dict begin
  {1 index /FID ne {def} {pop pop} ifelse} forall
  /Encoding WinAnsiEncoding def
  currentdict
end
/Times-Roman exch definefont pop
/Helvetica-BoldOblique findfont
dup length dict begin
  {1 index /FID ne {def} {pop pop} ifelse} forall
  /Encoding WinAnsiEncoding def
  currentdict
end
/Helvetica-BoldOblique exch definefont pop
/Helvetica-Bold findfont
dup length dict begin
  {1 index /FID ne {def} {pop pop} ifelse} forall
  /Encoding WinAnsiEncoding def
  currentdict
end
/Helvetica-Bold exch definefont pop
/Helvetica-Oblique findfont
dup length dict begin
  {1 index /FID ne {def} {pop pop} ifelse} forall
  /Encoding WinAnsiEncoding def
  currentdict
end
/Helvetica-Oblique exch definefont pop
/Times-BoldItalic findfont
dup length dict begin
  {1 index /FID ne {def} {pop pop} ifelse} forall
  /Encoding WinAnsiEncoding def
  currentdict
end
/Times-BoldItalic exch definefont pop
/Courier findfont
dup length dict begin
  {1 index /FID ne {def} {pop pop} ifelse} forall
  /Encoding WinAnsiEncoding def
  currentdict
end
/Courier exch definefont pop
/Times-Italic findfont
dup length dict begin
  {1 index /FID ne {def} {pop pop} ifelse} forall
  /Encoding WinAnsiEncoding def
  currentdict
end
/Times-Italic exch definefont pop
/Times-Bold findfont
dup length dict begin
  {1 index /FID ne {def} {pop pop} ifelse} forall
  /Encoding WinAnsiEncoding def
  currentdict
end
/Times-Bold exch definefont pop
%FOPEndFontReencode
%%EndProlog
%%Page: 1 1
%%PageBoundingBox: 0 0 576 432
%%BeginPageSetup
[1 0 0 -1 0 432] CT
%%EndPageSetup
GS
1 GC
N
0 0 576 432 re
f
GR
GS
1 GC
N
0 0 576 432 re
f
GR
GS
1 GC
N
75 384.5 M
521.5 384.5 L
521.5 32.5 L
75 32.5 L
cp
f
GR
GS
0.149 GC
2 setlinecap
1 LJ
0.5 LW
N
75 384.5 M
521.5 384.5 L
S
GR
GS
0.149 GC
2 setlinecap
1 LJ
0.5 LW
N
75 384.5 M
75 380.035 L
S
GR
GS
0.149 GC
2 setlinecap
1 LJ
0.5 LW
N
164.3 384.5 M
164.3 380.035 L
S
GR
GS
0.149 GC
2 setlinecap
1 LJ
0.5 LW
N
253.6 384.5 M
253.6 380.035 L
S
GR
GS
0.149 GC
2 setlinecap
1 LJ
0.5 LW
N
342.9 384.5 M
342.9 380.035 L
S
GR
GS
0.149 GC
2 setlinecap
1 LJ
0.5 LW
N
432.2 384.5 M
432.2 380.035 L
S
GR
GS
0.149 GC
2 setlinecap
1 LJ
0.5 LW
N
521.5 384.5 M
521.5 380.035 L
S
GR
GS
[1 0 0 1 75 389.5] CT
0.149 GC
/Helvetica 15 F
GS
[1 0 0 1 0 0] CT
-4.5 12 moveto 
1 -1 scale
(0) t 
GR
GR
GS
[1 0 0 1 164.3 389.5] CT
0.149 GC
/Helvetica 15 F
GS
[1 0 0 1 0 0] CT
-8.5 12 moveto 
1 -1 scale
(10) t 
GR
GR
GS
[1 0 0 1 253.60001 389.5] CT
0.149 GC
/Helvetica 15 F
GS
[1 0 0 1 0 0] CT
-8.5 12 moveto 
1 -1 scale
(20) t 
GR
GR
GS
[1 0 0 1 342.90002 389.5] CT
0.149 GC
/Helvetica 15 F
GS
[1 0 0 1 0 0] CT
-8.5 12 moveto 
1 -1 scale
(30) t 
GR
GR
GS
[1 0 0 1 432.20001 389.5] CT
0.149 GC
/Helvetica 15 F
GS
[1 0 0 1 0 0] CT
-8.5 12 moveto 
1 -1 scale
(40) t 
GR
GR
GS
[1 0 0 1 521.5 389.5] CT
0.149 GC
/Helvetica 15 F
GS
[1 0 0 1 0 0] CT
-8.5 12 moveto 
1 -1 scale
(50) t 
GR
GR
GS
[1 0 0 1 298.25021 406] CT
0.149 GC
/Helvetica 15 F
GS
[1 0 0 1 0 0] CT
-31 12 moveto 
1 -1 scale
(Iterations) t 
GR
GR
GS
0.149 GC
2 setlinecap
1 LJ
0.5 LW
N
75 384.5 M
75 32.5 L
S
GR
GS
0.149 GC
2 setlinecap
1 LJ
0.5 LW
N
75 360.885 M
79.465 360.885 L
S
GR
GS
0.149 GC
2 setlinecap
1 LJ
0.5 LW
N
75 325.02 M
79.465 325.02 L
S
GR
GS
0.149 GC
2 setlinecap
1 LJ
0.5 LW
N
75 290.138 M
79.465 290.138 L
S
GR
GS
0.149 GC
2 setlinecap
1 LJ
0.5 LW
N
75 256.186 M
79.465 256.186 L
S
GR
GS
0.149 GC
2 setlinecap
1 LJ
0.5 LW
N
75 223.116 M
79.465 223.116 L
S
GR
GS
0.149 GC
2 setlinecap
1 LJ
0.5 LW
N
75 190.883 M
79.465 190.883 L
S
GR
GS
0.149 GC
2 setlinecap
1 LJ
0.5 LW
N
75 159.447 M
79.465 159.447 L
S
GR
GS
0.149 GC
2 setlinecap
1 LJ
0.5 LW
N
75 128.768 M
79.465 128.768 L
S
GR
GS
0.149 GC
2 setlinecap
1 LJ
0.5 LW
N
75 98.811 M
79.465 98.811 L
S
GR
GS
0.149 GC
2 setlinecap
1 LJ
0.5 LW
N
75 69.542 M
79.465 69.542 L
S
GR
GS
0.149 GC
2 setlinecap
1 LJ
0.5 LW
N
75 40.932 M
79.465 40.932 L
S
GR
GS
0.149 GC
2 setlinecap
1 LJ
0.5 LW
N
75 379.203 M
77.232 379.203 L
S
GR
GS
0.149 GC
2 setlinecap
1 LJ
0.5 LW
N
75 370.011 M
77.232 370.011 L
S
GR
GS
0.149 GC
2 setlinecap
1 LJ
0.5 LW
N
75 351.823 M
77.232 351.823 L
S
GR
GS
0.149 GC
2 setlinecap
1 LJ
0.5 LW
N
75 342.826 M
77.232 342.826 L
S
GR
GS
0.149 GC
2 setlinecap
1 LJ
0.5 LW
N
75 333.892 M
77.232 333.892 L
S
GR
GS
0.149 GC
2 setlinecap
1 LJ
0.5 LW
N
75 316.209 M
77.232 316.209 L
S
GR
GS
0.149 GC
2 setlinecap
1 LJ
0.5 LW
N
75 307.459 M
77.232 307.459 L
S
GR
GS
0.149 GC
2 setlinecap
1 LJ
0.5 LW
N
75 298.769 M
77.232 298.769 L
S
GR
GS
0.149 GC
2 setlinecap
1 LJ
0.5 LW
N
75 281.564 M
77.232 281.564 L
S
GR
GS
0.149 GC
2 setlinecap
1 LJ
0.5 LW
N
75 273.048 M
77.232 273.048 L
S
GR
GS
0.149 GC
2 setlinecap
1 LJ
0.5 LW
N
75 264.589 M
77.232 264.589 L
S
GR
GS
0.149 GC
2 setlinecap
1 LJ
0.5 LW
N
75 247.837 M
77.232 247.837 L
S
GR
GS
0.149 GC
2 setlinecap
1 LJ
0.5 LW
N
75 239.543 M
77.232 239.543 L
S
GR
GS
0.149 GC
2 setlinecap
1 LJ
0.5 LW
N
75 231.303 M
77.232 231.303 L
S
GR
GS
0.149 GC
2 setlinecap
1 LJ
0.5 LW
N
75 214.981 M
77.232 214.981 L
S
GR
GS
0.149 GC
2 setlinecap
1 LJ
0.5 LW
N
75 206.898 M
77.232 206.898 L
S
GR
GS
0.149 GC
2 setlinecap
1 LJ
0.5 LW
N
75 198.865 M
77.232 198.865 L
S
GR
GS
0.149 GC
2 setlinecap
1 LJ
0.5 LW
N
75 182.951 M
77.232 182.951 L
S
GR
GS
0.149 GC
2 setlinecap
1 LJ
0.5 LW
N
75 175.068 M
77.232 175.068 L
S
GR
GS
0.149 GC
2 setlinecap
1 LJ
0.5 LW
N
75 167.233 M
77.232 167.233 L
S
GR
GS
0.149 GC
2 setlinecap
1 LJ
0.5 LW
N
75 151.707 M
77.232 151.707 L
S
GR
GS
0.149 GC
2 setlinecap
1 LJ
0.5 LW
N
75 144.015 M
77.232 144.015 L
S
GR
GS
0.149 GC
2 setlinecap
1 LJ
0.5 LW
N
75 136.368 M
77.232 136.368 L
S
GR
GS
0.149 GC
2 setlinecap
1 LJ
0.5 LW
N
75 121.212 M
77.232 121.212 L
S
GR
GS
0.149 GC
2 setlinecap
1 LJ
0.5 LW
N
75 113.701 M
77.232 113.701 L
S
GR
GS
0.149 GC
2 setlinecap
1 LJ
0.5 LW
N
75 106.234 M
77.232 106.234 L
S
GR
GS
0.149 GC
2 setlinecap
1 LJ
0.5 LW
N
75 91.43 M
77.232 91.43 L
S
GR
GS
0.149 GC
2 setlinecap
1 LJ
0.5 LW
N
75 84.092 M
77.232 84.092 L
S
GR
GS
0.149 GC
2 setlinecap
1 LJ
0.5 LW
N
75 76.796 M
77.232 76.796 L
S
GR
GS
0.149 GC
2 setlinecap
1 LJ
0.5 LW
N
75 62.329 M
77.232 62.329 L
S
GR
GS
0.149 GC
2 setlinecap
1 LJ
0.5 LW
N
75 55.157 M
77.232 55.157 L
S
GR
GS
0.149 GC
2 setlinecap
1 LJ
0.5 LW
N
75 48.024 M
77.232 48.024 L
S
GR
GS
0.149 GC
2 setlinecap
1 LJ
0.5 LW
N
75 33.878 M
77.232 33.878 L
S
GR
GS
[1 0 0 1 70 360.88455] CT
0.149 GC
/Helvetica 15 F
GS
[1 0 0 1 0 0] CT
-46 4 moveto 
1 -1 scale
(0.0175) t 
GR
GR
GS
[1 0 0 1 70 325.01971] CT
0.149 GC
/Helvetica 15 F
GS
[1 0 0 1 0 0] CT
-38 4 moveto 
1 -1 scale
(0.018) t 
GR
GR
GS
[1 0 0 1 70 290.13757] CT
0.149 GC
/Helvetica 15 F
GS
[1 0 0 1 0 0] CT
-46 4 moveto 
1 -1 scale
(0.0185) t 
GR
GR
GS
[1 0 0 1 70 256.18576] CT
0.149 GC
/Helvetica 15 F
GS
[1 0 0 1 0 0] CT
-38 4 moveto 
1 -1 scale
(0.019) t 
GR
GR
GS
[1 0 0 1 70 223.11591] CT
0.149 GC
/Helvetica 15 F
GS
[1 0 0 1 0 0] CT
-46 4 moveto 
1 -1 scale
(0.0195) t 
GR
GR
GS
[1 0 0 1 70 190.88333] CT
0.149 GC
/Helvetica 15 F
GS
[1 0 0 1 0 0] CT
-30 4 moveto 
1 -1 scale
(0.02) t 
GR
GR
GS
[1 0 0 1 70 159.44672] CT
0.149 GC
/Helvetica 15 F
GS
[1 0 0 1 0 0] CT
-46 4 moveto 
1 -1 scale
(0.0205) t 
GR
GR
GS
[1 0 0 1 70 128.7677] CT
0.149 GC
/Helvetica 15 F
GS
[1 0 0 1 0 0] CT
-38 4 moveto 
1 -1 scale
(0.021) t 
GR
GR
GS
[1 0 0 1 70 98.8106] CT
0.149 GC
/Helvetica 15 F
GS
[1 0 0 1 0 0] CT
-46 4 moveto 
1 -1 scale
(0.0215) t 
GR
GR
GS
[1 0 0 1 70 69.54223] CT
0.149 GC
/Helvetica 15 F
GS
[1 0 0 1 0 0] CT
-38 4 moveto 
1 -1 scale
(0.022) t 
GR
GR
GS
[1 0 0 1 70 40.93163] CT
0.149 GC
/Helvetica 15 F
GS
[1 0 0 1 0 0] CT
-46 4 moveto 
1 -1 scale
(0.0225) t 
GR
GR
GS
[0 -1 1 0 21 208.49983] CT
0.149 GC
/Helvetica 15 F
GS
[1 0 0 1 0 0] CT
-51 -4 moveto 
1 -1 scale
(Training RMSE) t 
GR
GR
GS
0 0.447 0.741 RC
1 LJ
N
83.93 236.148 M
92.86 297.673 L
101.79 300.826 L
110.72 322.186 L
119.65 342.786 L
128.58 346.784 L
137.51 346.752 L
146.44 353.575 L
155.37 361.157 L
164.3 363.676 L
173.23 364.483 L
182.16 365.747 L
191.09 367.59 L
200.02 370.588 L
208.95 371.913 L
217.88 372.528 L
226.81 372.745 L
235.74 373.333 L
244.67 374.289 L
253.6 375.91 L
262.53 376.743 L
271.46 377.195 L
280.39 377.424 L
289.32 377.486 L
298.25 377.834 L
307.18 379.095 L
316.11 379.811 L
325.04 380.245 L
333.97 380.512 L
342.9 380.663 L
351.83 380.716 L
360.76 380.959 L
369.69 381.444 L
378.62 382.2 L
387.55 382.653 L
396.48 382.935 L
405.41 383.108 L
414.34 383.195 L
423.27 383.2 L
432.2 383.668 L
441.13 383.91 L
450.06 384.5 L
S
GR
GS
0 0.447 0.741 RC
1 LJ
N
86.5 236.5 M
85.621 234.379 L
83.5 233.5 L
81.379 234.379 L
80.5 236.5 L
81.379 238.621 L
83.5 239.5 L
85.621 238.621 L
cp
S
GR
GS
0 0.447 0.741 RC
1 LJ
N
95.5 297.5 M
94.621 295.379 L
92.5 294.5 L
90.379 295.379 L
89.5 297.5 L
90.379 299.621 L
92.5 300.5 L
94.621 299.621 L
cp
S
GR
GS
0 0.447 0.741 RC
1 LJ
N
104.5 300.5 M
103.621 298.379 L
101.5 297.5 L
99.379 298.379 L
98.5 300.5 L
99.379 302.621 L
101.5 303.5 L
103.621 302.621 L
cp
S
GR
GS
0 0.447 0.741 RC
1 LJ
N
113.5 322.5 M
112.621 320.379 L
110.5 319.5 L
108.379 320.379 L
107.5 322.5 L
108.379 324.621 L
110.5 325.5 L
112.621 324.621 L
cp
S
GR
GS
0 0.447 0.741 RC
1 LJ
N
122.5 342.5 M
121.621 340.379 L
119.5 339.5 L
117.379 340.379 L
116.5 342.5 L
117.379 344.621 L
119.5 345.5 L
121.621 344.621 L
cp
S
GR
GS
0 0.447 0.741 RC
1 LJ
N
131.5 346.5 M
130.621 344.379 L
128.5 343.5 L
126.379 344.379 L
125.5 346.5 L
126.379 348.621 L
128.5 349.5 L
130.621 348.621 L
cp
S
GR
GS
0 0.447 0.741 RC
1 LJ
N
140.5 346.5 M
139.621 344.379 L
137.5 343.5 L
135.379 344.379 L
134.5 346.5 L
135.379 348.621 L
137.5 349.5 L
139.621 348.621 L
cp
S
GR
GS
0 0.447 0.741 RC
1 LJ
N
149.5 353.5 M
148.621 351.379 L
146.5 350.5 L
144.379 351.379 L
143.5 353.5 L
144.379 355.621 L
146.5 356.5 L
148.621 355.621 L
cp
S
GR
GS
0 0.447 0.741 RC
1 LJ
N
158.5 361.5 M
157.621 359.379 L
155.5 358.5 L
153.379 359.379 L
152.5 361.5 L
153.379 363.621 L
155.5 364.5 L
157.621 363.621 L
cp
S
GR
GS
0 0.447 0.741 RC
1 LJ
N
167.5 363.5 M
166.621 361.379 L
164.5 360.5 L
162.379 361.379 L
161.5 363.5 L
162.379 365.621 L
164.5 366.5 L
166.621 365.621 L
cp
S
GR
GS
0 0.447 0.741 RC
1 LJ
N
176.5 364.5 M
175.621 362.379 L
173.5 361.5 L
171.379 362.379 L
170.5 364.5 L
171.379 366.621 L
173.5 367.5 L
175.621 366.621 L
cp
S
GR
GS
0 0.447 0.741 RC
1 LJ
N
185.5 365.5 M
184.621 363.379 L
182.5 362.5 L
180.379 363.379 L
179.5 365.5 L
180.379 367.621 L
182.5 368.5 L
184.621 367.621 L
cp
S
GR
GS
0 0.447 0.741 RC
1 LJ
N
194.5 367.5 M
193.621 365.379 L
191.5 364.5 L
189.379 365.379 L
188.5 367.5 L
189.379 369.621 L
191.5 370.5 L
193.621 369.621 L
cp
S
GR
GS
0 0.447 0.741 RC
1 LJ
N
203.5 370.5 M
202.621 368.379 L
200.5 367.5 L
198.379 368.379 L
197.5 370.5 L
198.379 372.621 L
200.5 373.5 L
202.621 372.621 L
cp
S
GR
GS
0 0.447 0.741 RC
1 LJ
N
211.5 371.5 M
210.621 369.379 L
208.5 368.5 L
206.379 369.379 L
205.5 371.5 L
206.379 373.621 L
208.5 374.5 L
210.621 373.621 L
cp
S
GR
GS
0 0.447 0.741 RC
1 LJ
N
220.5 372.5 M
219.621 370.379 L
217.5 369.5 L
215.379 370.379 L
214.5 372.5 L
215.379 374.621 L
217.5 375.5 L
219.621 374.621 L
cp
S
GR
GS
0 0.447 0.741 RC
1 LJ
N
229.5 372.5 M
228.621 370.379 L
226.5 369.5 L
224.379 370.379 L
223.5 372.5 L
224.379 374.621 L
226.5 375.5 L
228.621 374.621 L
cp
S
GR
GS
0 0.447 0.741 RC
1 LJ
N
238.5 373.5 M
237.621 371.379 L
235.5 370.5 L
233.379 371.379 L
232.5 373.5 L
233.379 375.621 L
235.5 376.5 L
237.621 375.621 L
cp
S
GR
GS
0 0.447 0.741 RC
1 LJ
N
247.5 374.5 M
246.621 372.379 L
244.5 371.5 L
242.379 372.379 L
241.5 374.5 L
242.379 376.621 L
244.5 377.5 L
246.621 376.621 L
cp
S
GR
GS
0 0.447 0.741 RC
1 LJ
N
256.5 375.5 M
255.621 373.379 L
253.5 372.5 L
251.379 373.379 L
250.5 375.5 L
251.379 377.621 L
253.5 378.5 L
255.621 377.621 L
cp
S
GR
GS
0 0.447 0.741 RC
1 LJ
N
265.5 376.5 M
264.621 374.379 L
262.5 373.5 L
260.379 374.379 L
259.5 376.5 L
260.379 378.621 L
262.5 379.5 L
264.621 378.621 L
cp
S
GR
GS
0 0.447 0.741 RC
1 LJ
N
274.5 377.5 M
273.621 375.379 L
271.5 374.5 L
269.379 375.379 L
268.5 377.5 L
269.379 379.621 L
271.5 380.5 L
273.621 379.621 L
cp
S
GR
GS
0 0.447 0.741 RC
1 LJ
N
283.5 377.5 M
282.621 375.379 L
280.5 374.5 L
278.379 375.379 L
277.5 377.5 L
278.379 379.621 L
280.5 380.5 L
282.621 379.621 L
cp
S
GR
GS
0 0.447 0.741 RC
1 LJ
N
292.5 377.5 M
291.621 375.379 L
289.5 374.5 L
287.379 375.379 L
286.5 377.5 L
287.379 379.621 L
289.5 380.5 L
291.621 379.621 L
cp
S
GR
GS
0 0.447 0.741 RC
1 LJ
N
301.5 377.5 M
300.621 375.379 L
298.5 374.5 L
296.379 375.379 L
295.5 377.5 L
296.379 379.621 L
298.5 380.5 L
300.621 379.621 L
cp
S
GR
GS
0 0.447 0.741 RC
1 LJ
N
310.5 379.5 M
309.621 377.379 L
307.5 376.5 L
305.379 377.379 L
304.5 379.5 L
305.379 381.621 L
307.5 382.5 L
309.621 381.621 L
cp
S
GR
GS
0 0.447 0.741 RC
1 LJ
N
319.5 379.5 M
318.621 377.379 L
316.5 376.5 L
314.379 377.379 L
313.5 379.5 L
314.379 381.621 L
316.5 382.5 L
318.621 381.621 L
cp
S
GR
GS
0 0.447 0.741 RC
1 LJ
N
328.5 380.5 M
327.621 378.379 L
325.5 377.5 L
323.379 378.379 L
322.5 380.5 L
323.379 382.621 L
325.5 383.5 L
327.621 382.621 L
cp
S
GR
GS
0 0.447 0.741 RC
1 LJ
N
336.5 380.5 M
335.621 378.379 L
333.5 377.5 L
331.379 378.379 L
330.5 380.5 L
331.379 382.621 L
333.5 383.5 L
335.621 382.621 L
cp
S
GR
GS
0 0.447 0.741 RC
1 LJ
N
345.5 380.5 M
344.621 378.379 L
342.5 377.5 L
340.379 378.379 L
339.5 380.5 L
340.379 382.621 L
342.5 383.5 L
344.621 382.621 L
cp
S
GR
GS
0 0.447 0.741 RC
1 LJ
N
354.5 380.5 M
353.621 378.379 L
351.5 377.5 L
349.379 378.379 L
348.5 380.5 L
349.379 382.621 L
351.5 383.5 L
353.621 382.621 L
cp
S
GR
GS
0 0.447 0.741 RC
1 LJ
N
363.5 380.5 M
362.621 378.379 L
360.5 377.5 L
358.379 378.379 L
357.5 380.5 L
358.379 382.621 L
360.5 383.5 L
362.621 382.621 L
cp
S
GR
GS
0 0.447 0.741 RC
1 LJ
N
372.5 381.5 M
371.621 379.379 L
369.5 378.5 L
367.379 379.379 L
366.5 381.5 L
367.379 383.621 L
369.5 384.5 L
371.621 383.621 L
cp
S
GR
GS
0 0.447 0.741 RC
1 LJ
N
381.5 382.5 M
380.621 380.379 L
378.5 379.5 L
376.379 380.379 L
375.5 382.5 L
376.379 384.621 L
378.5 385.5 L
380.621 384.621 L
cp
S
GR
GS
0 0.447 0.741 RC
1 LJ
N
390.5 382.5 M
389.621 380.379 L
387.5 379.5 L
385.379 380.379 L
384.5 382.5 L
385.379 384.621 L
387.5 385.5 L
389.621 384.621 L
cp
S
GR
GS
0 0.447 0.741 RC
1 LJ
N
399.5 382.5 M
398.621 380.379 L
396.5 379.5 L
394.379 380.379 L
393.5 382.5 L
394.379 384.621 L
396.5 385.5 L
398.621 384.621 L
cp
S
GR
GS
0 0.447 0.741 RC
1 LJ
N
408.5 383.5 M
407.621 381.379 L
405.5 380.5 L
403.379 381.379 L
402.5 383.5 L
403.379 385.621 L
405.5 386.5 L
407.621 385.621 L
cp
S
GR
GS
0 0.447 0.741 RC
1 LJ
N
417.5 383.5 M
416.621 381.379 L
414.5 380.5 L
412.379 381.379 L
411.5 383.5 L
412.379 385.621 L
414.5 386.5 L
416.621 385.621 L
cp
S
GR
GS
0 0.447 0.741 RC
1 LJ
N
426.5 383.5 M
425.621 381.379 L
423.5 380.5 L
421.379 381.379 L
420.5 383.5 L
421.379 385.621 L
423.5 386.5 L
425.621 385.621 L
cp
S
GR
GS
0 0.447 0.741 RC
1 LJ
N
435.5 383.5 M
434.621 381.379 L
432.5 380.5 L
430.379 381.379 L
429.5 383.5 L
430.379 385.621 L
432.5 386.5 L
434.621 385.621 L
cp
S
GR
GS
0 0.447 0.741 RC
1 LJ
N
444.5 383.5 M
443.621 381.379 L
441.5 380.5 L
439.379 381.379 L
438.5 383.5 L
439.379 385.621 L
441.5 386.5 L
443.621 385.621 L
cp
S
GR
GS
0 0.447 0.741 RC
1 LJ
N
453.5 384.5 M
452.621 382.379 L
450.5 381.5 L
448.379 382.379 L
447.5 384.5 L
448.379 386.621 L
450.5 387.5 L
452.621 386.621 L
cp
S
GR
GS
0.851 0.325 0.098 RC
1 LJ
N
83.93 313.526 M
92.86 316.911 L
101.79 319.557 L
110.72 322.434 L
119.65 358.643 L
128.58 357.101 L
137.51 363.923 L
146.44 363.717 L
155.37 368.148 L
164.3 368.568 L
173.23 368.17 L
182.16 370.031 L
191.09 370.516 L
200.02 370.271 L
208.95 370.7 L
217.88 371.152 L
226.81 371.502 L
235.74 371.363 L
244.67 371.395 L
253.6 371.411 L
262.53 371.432 L
271.46 371.548 L
280.39 371.573 L
289.32 371.52 L
298.25 371.535 L
307.18 371.588 L
316.11 371.61 L
325.04 371.634 L
333.97 371.624 L
342.9 371.646 L
351.83 371.643 L
360.76 371.647 L
369.69 371.654 L
378.62 371.665 L
387.55 371.676 L
396.48 371.686 L
405.41 371.698 L
414.34 371.72 L
423.27 371.716 L
432.2 371.723 L
441.13 371.729 L
450.06 371.74 L
S
GR
GS
0.851 0.325 0.098 RC
1 LJ
N
86.5 313.5 M
85.621 311.379 L
83.5 310.5 L
81.379 311.379 L
80.5 313.5 L
81.379 315.621 L
83.5 316.5 L
85.621 315.621 L
cp
S
GR
GS
0.851 0.325 0.098 RC
1 LJ
N
95.5 316.5 M
94.621 314.379 L
92.5 313.5 L
90.379 314.379 L
89.5 316.5 L
90.379 318.621 L
92.5 319.5 L
94.621 318.621 L
cp
S
GR
GS
0.851 0.325 0.098 RC
1 LJ
N
104.5 319.5 M
103.621 317.379 L
101.5 316.5 L
99.379 317.379 L
98.5 319.5 L
99.379 321.621 L
101.5 322.5 L
103.621 321.621 L
cp
S
GR
GS
0.851 0.325 0.098 RC
1 LJ
N
113.5 322.5 M
112.621 320.379 L
110.5 319.5 L
108.379 320.379 L
107.5 322.5 L
108.379 324.621 L
110.5 325.5 L
112.621 324.621 L
cp
S
GR
GS
0.851 0.325 0.098 RC
1 LJ
N
122.5 358.5 M
121.621 356.379 L
119.5 355.5 L
117.379 356.379 L
116.5 358.5 L
117.379 360.621 L
119.5 361.5 L
121.621 360.621 L
cp
S
GR
GS
0.851 0.325 0.098 RC
1 LJ
N
131.5 357.5 M
130.621 355.379 L
128.5 354.5 L
126.379 355.379 L
125.5 357.5 L
126.379 359.621 L
128.5 360.5 L
130.621 359.621 L
cp
S
GR
GS
0.851 0.325 0.098 RC
1 LJ
N
140.5 363.5 M
139.621 361.379 L
137.5 360.5 L
135.379 361.379 L
134.5 363.5 L
135.379 365.621 L
137.5 366.5 L
139.621 365.621 L
cp
S
GR
GS
0.851 0.325 0.098 RC
1 LJ
N
149.5 363.5 M
148.621 361.379 L
146.5 360.5 L
144.379 361.379 L
143.5 363.5 L
144.379 365.621 L
146.5 366.5 L
148.621 365.621 L
cp
S
GR
GS
0.851 0.325 0.098 RC
1 LJ
N
158.5 368.5 M
157.621 366.379 L
155.5 365.5 L
153.379 366.379 L
152.5 368.5 L
153.379 370.621 L
155.5 371.5 L
157.621 370.621 L
cp
S
GR
GS
0.851 0.325 0.098 RC
1 LJ
N
167.5 368.5 M
166.621 366.379 L
164.5 365.5 L
162.379 366.379 L
161.5 368.5 L
162.379 370.621 L
164.5 371.5 L
166.621 370.621 L
cp
S
GR
GS
0.851 0.325 0.098 RC
1 LJ
N
176.5 368.5 M
175.621 366.379 L
173.5 365.5 L
171.379 366.379 L
170.5 368.5 L
171.379 370.621 L
173.5 371.5 L
175.621 370.621 L
cp
S
GR
GS
0.851 0.325 0.098 RC
1 LJ
N
185.5 370.5 M
184.621 368.379 L
182.5 367.5 L
180.379 368.379 L
179.5 370.5 L
180.379 372.621 L
182.5 373.5 L
184.621 372.621 L
cp
S
GR
GS
0.851 0.325 0.098 RC
1 LJ
N
194.5 370.5 M
193.621 368.379 L
191.5 367.5 L
189.379 368.379 L
188.5 370.5 L
189.379 372.621 L
191.5 373.5 L
193.621 372.621 L
cp
S
GR
GS
0.851 0.325 0.098 RC
1 LJ
N
203.5 370.5 M
202.621 368.379 L
200.5 367.5 L
198.379 368.379 L
197.5 370.5 L
198.379 372.621 L
200.5 373.5 L
202.621 372.621 L
cp
S
GR
GS
0.851 0.325 0.098 RC
1 LJ
N
211.5 370.5 M
210.621 368.379 L
208.5 367.5 L
206.379 368.379 L
205.5 370.5 L
206.379 372.621 L
208.5 373.5 L
210.621 372.621 L
cp
S
GR
GS
0.851 0.325 0.098 RC
1 LJ
N
220.5 371.5 M
219.621 369.379 L
217.5 368.5 L
215.379 369.379 L
214.5 371.5 L
215.379 373.621 L
217.5 374.5 L
219.621 373.621 L
cp
S
GR
GS
0.851 0.325 0.098 RC
1 LJ
N
229.5 371.5 M
228.621 369.379 L
226.5 368.5 L
224.379 369.379 L
223.5 371.5 L
224.379 373.621 L
226.5 374.5 L
228.621 373.621 L
cp
S
GR
GS
0.851 0.325 0.098 RC
1 LJ
N
238.5 371.5 M
237.621 369.379 L
235.5 368.5 L
233.379 369.379 L
232.5 371.5 L
233.379 373.621 L
235.5 374.5 L
237.621 373.621 L
cp
S
GR
GS
0.851 0.325 0.098 RC
1 LJ
N
247.5 371.5 M
246.621 369.379 L
244.5 368.5 L
242.379 369.379 L
241.5 371.5 L
242.379 373.621 L
244.5 374.5 L
246.621 373.621 L
cp
S
GR
GS
0.851 0.325 0.098 RC
1 LJ
N
256.5 371.5 M
255.621 369.379 L
253.5 368.5 L
251.379 369.379 L
250.5 371.5 L
251.379 373.621 L
253.5 374.5 L
255.621 373.621 L
cp
S
GR
GS
0.851 0.325 0.098 RC
1 LJ
N
265.5 371.5 M
264.621 369.379 L
262.5 368.5 L
260.379 369.379 L
259.5 371.5 L
260.379 373.621 L
262.5 374.5 L
264.621 373.621 L
cp
S
GR
GS
0.851 0.325 0.098 RC
1 LJ
N
274.5 371.5 M
273.621 369.379 L
271.5 368.5 L
269.379 369.379 L
268.5 371.5 L
269.379 373.621 L
271.5 374.5 L
273.621 373.621 L
cp
S
GR
GS
0.851 0.325 0.098 RC
1 LJ
N
283.5 371.5 M
282.621 369.379 L
280.5 368.5 L
278.379 369.379 L
277.5 371.5 L
278.379 373.621 L
280.5 374.5 L
282.621 373.621 L
cp
S
GR
GS
0.851 0.325 0.098 RC
1 LJ
N
292.5 371.5 M
291.621 369.379 L
289.5 368.5 L
287.379 369.379 L
286.5 371.5 L
287.379 373.621 L
289.5 374.5 L
291.621 373.621 L
cp
S
GR
GS
0.851 0.325 0.098 RC
1 LJ
N
301.5 371.5 M
300.621 369.379 L
298.5 368.5 L
296.379 369.379 L
295.5 371.5 L
296.379 373.621 L
298.5 374.5 L
300.621 373.621 L
cp
S
GR
GS
0.851 0.325 0.098 RC
1 LJ
N
310.5 371.5 M
309.621 369.379 L
307.5 368.5 L
305.379 369.379 L
304.5 371.5 L
305.379 373.621 L
307.5 374.5 L
309.621 373.621 L
cp
S
GR
GS
0.851 0.325 0.098 RC
1 LJ
N
319.5 371.5 M
318.621 369.379 L
316.5 368.5 L
314.379 369.379 L
313.5 371.5 L
314.379 373.621 L
316.5 374.5 L
318.621 373.621 L
cp
S
GR
GS
0.851 0.325 0.098 RC
1 LJ
N
328.5 371.5 M
327.621 369.379 L
325.5 368.5 L
323.379 369.379 L
322.5 371.5 L
323.379 373.621 L
325.5 374.5 L
327.621 373.621 L
cp
S
GR
GS
0.851 0.325 0.098 RC
1 LJ
N
336.5 371.5 M
335.621 369.379 L
333.5 368.5 L
331.379 369.379 L
330.5 371.5 L
331.379 373.621 L
333.5 374.5 L
335.621 373.621 L
cp
S
GR
GS
0.851 0.325 0.098 RC
1 LJ
N
345.5 371.5 M
344.621 369.379 L
342.5 368.5 L
340.379 369.379 L
339.5 371.5 L
340.379 373.621 L
342.5 374.5 L
344.621 373.621 L
cp
S
GR
GS
0.851 0.325 0.098 RC
1 LJ
N
354.5 371.5 M
353.621 369.379 L
351.5 368.5 L
349.379 369.379 L
348.5 371.5 L
349.379 373.621 L
351.5 374.5 L
353.621 373.621 L
cp
S
GR
GS
0.851 0.325 0.098 RC
1 LJ
N
363.5 371.5 M
362.621 369.379 L
360.5 368.5 L
358.379 369.379 L
357.5 371.5 L
358.379 373.621 L
360.5 374.5 L
362.621 373.621 L
cp
S
GR
GS
0.851 0.325 0.098 RC
1 LJ
N
372.5 371.5 M
371.621 369.379 L
369.5 368.5 L
367.379 369.379 L
366.5 371.5 L
367.379 373.621 L
369.5 374.5 L
371.621 373.621 L
cp
S
GR
GS
0.851 0.325 0.098 RC
1 LJ
N
381.5 371.5 M
380.621 369.379 L
378.5 368.5 L
376.379 369.379 L
375.5 371.5 L
376.379 373.621 L
378.5 374.5 L
380.621 373.621 L
cp
S
GR
GS
0.851 0.325 0.098 RC
1 LJ
N
390.5 371.5 M
389.621 369.379 L
387.5 368.5 L
385.379 369.379 L
384.5 371.5 L
385.379 373.621 L
387.5 374.5 L
389.621 373.621 L
cp
S
GR
GS
0.851 0.325 0.098 RC
1 LJ
N
399.5 371.5 M
398.621 369.379 L
396.5 368.5 L
394.379 369.379 L
393.5 371.5 L
394.379 373.621 L
396.5 374.5 L
398.621 373.621 L
cp
S
GR
GS
0.851 0.325 0.098 RC
1 LJ
N
408.5 371.5 M
407.621 369.379 L
405.5 368.5 L
403.379 369.379 L
402.5 371.5 L
403.379 373.621 L
405.5 374.5 L
407.621 373.621 L
cp
S
GR
GS
0.851 0.325 0.098 RC
1 LJ
N
417.5 371.5 M
416.621 369.379 L
414.5 368.5 L
412.379 369.379 L
411.5 371.5 L
412.379 373.621 L
414.5 374.5 L
416.621 373.621 L
cp
S
GR
GS
0.851 0.325 0.098 RC
1 LJ
N
426.5 371.5 M
425.621 369.379 L
423.5 368.5 L
421.379 369.379 L
420.5 371.5 L
421.379 373.621 L
423.5 374.5 L
425.621 373.621 L
cp
S
GR
GS
0.851 0.325 0.098 RC
1 LJ
N
435.5 371.5 M
434.621 369.379 L
432.5 368.5 L
430.379 369.379 L
429.5 371.5 L
430.379 373.621 L
432.5 374.5 L
434.621 373.621 L
cp
S
GR
GS
0.851 0.325 0.098 RC
1 LJ
N
444.5 371.5 M
443.621 369.379 L
441.5 368.5 L
439.379 369.379 L
438.5 371.5 L
439.379 373.621 L
441.5 374.5 L
443.621 373.621 L
cp
S
GR
GS
0.851 0.325 0.098 RC
1 LJ
N
453.5 371.5 M
452.621 369.379 L
450.5 368.5 L
448.379 369.379 L
447.5 371.5 L
448.379 373.621 L
450.5 374.5 L
452.621 373.621 L
cp
S
GR
GS
0.929 0.694 0.125 RC
1 LJ
N
83.93 32.5 M
92.86 120.873 L
101.79 193.254 L
110.72 199.374 L
119.65 197.59 L
128.58 251.525 L
137.51 262.817 L
146.44 252.489 L
155.37 278.3 L
164.3 296.725 L
173.23 304.146 L
182.16 300.649 L
191.09 316.063 L
200.02 322.105 L
208.95 323.365 L
217.88 326.399 L
226.81 327.913 L
235.74 331.594 L
244.67 331.878 L
253.6 332.449 L
262.53 332.271 L
271.46 334.286 L
280.39 338.151 L
289.32 338.06 L
298.25 340.788 L
307.18 342.105 L
316.11 342.709 L
325.04 343.494 L
333.97 345.716 L
342.9 345.661 L
351.83 347.477 L
360.76 348.667 L
369.69 349.879 L
378.62 349.084 L
387.55 349.141 L
396.48 350.708 L
405.41 351.173 L
414.34 351.656 L
423.27 352.04 L
432.2 353.016 L
441.13 352.986 L
450.06 353.595 L
S
GR
GS
0.929 0.694 0.125 RC
1 LJ
N
86.5 32.5 M
85.621 30.379 L
83.5 29.5 L
81.379 30.379 L
80.5 32.5 L
81.379 34.621 L
83.5 35.5 L
85.621 34.621 L
cp
S
GR
GS
0.929 0.694 0.125 RC
1 LJ
N
95.5 120.5 M
94.621 118.379 L
92.5 117.5 L
90.379 118.379 L
89.5 120.5 L
90.379 122.621 L
92.5 123.5 L
94.621 122.621 L
cp
S
GR
GS
0.929 0.694 0.125 RC
1 LJ
N
104.5 193.5 M
103.621 191.379 L
101.5 190.5 L
99.379 191.379 L
98.5 193.5 L
99.379 195.621 L
101.5 196.5 L
103.621 195.621 L
cp
S
GR
GS
0.929 0.694 0.125 RC
1 LJ
N
113.5 199.5 M
112.621 197.379 L
110.5 196.5 L
108.379 197.379 L
107.5 199.5 L
108.379 201.621 L
110.5 202.5 L
112.621 201.621 L
cp
S
GR
GS
0.929 0.694 0.125 RC
1 LJ
N
122.5 197.5 M
121.621 195.379 L
119.5 194.5 L
117.379 195.379 L
116.5 197.5 L
117.379 199.621 L
119.5 200.5 L
121.621 199.621 L
cp
S
GR
GS
0.929 0.694 0.125 RC
1 LJ
N
131.5 251.5 M
130.621 249.379 L
128.5 248.5 L
126.379 249.379 L
125.5 251.5 L
126.379 253.621 L
128.5 254.5 L
130.621 253.621 L
cp
S
GR
GS
0.929 0.694 0.125 RC
1 LJ
N
140.5 262.5 M
139.621 260.379 L
137.5 259.5 L
135.379 260.379 L
134.5 262.5 L
135.379 264.621 L
137.5 265.5 L
139.621 264.621 L
cp
S
GR
GS
0.929 0.694 0.125 RC
1 LJ
N
149.5 252.5 M
148.621 250.379 L
146.5 249.5 L
144.379 250.379 L
143.5 252.5 L
144.379 254.621 L
146.5 255.5 L
148.621 254.621 L
cp
S
GR
GS
0.929 0.694 0.125 RC
1 LJ
N
158.5 278.5 M
157.621 276.379 L
155.5 275.5 L
153.379 276.379 L
152.5 278.5 L
153.379 280.621 L
155.5 281.5 L
157.621 280.621 L
cp
S
GR
GS
0.929 0.694 0.125 RC
1 LJ
N
167.5 296.5 M
166.621 294.379 L
164.5 293.5 L
162.379 294.379 L
161.5 296.5 L
162.379 298.621 L
164.5 299.5 L
166.621 298.621 L
cp
S
GR
GS
0.929 0.694 0.125 RC
1 LJ
N
176.5 304.5 M
175.621 302.379 L
173.5 301.5 L
171.379 302.379 L
170.5 304.5 L
171.379 306.621 L
173.5 307.5 L
175.621 306.621 L
cp
S
GR
GS
0.929 0.694 0.125 RC
1 LJ
N
185.5 300.5 M
184.621 298.379 L
182.5 297.5 L
180.379 298.379 L
179.5 300.5 L
180.379 302.621 L
182.5 303.5 L
184.621 302.621 L
cp
S
GR
GS
0.929 0.694 0.125 RC
1 LJ
N
194.5 316.5 M
193.621 314.379 L
191.5 313.5 L
189.379 314.379 L
188.5 316.5 L
189.379 318.621 L
191.5 319.5 L
193.621 318.621 L
cp
S
GR
GS
0.929 0.694 0.125 RC
1 LJ
N
203.5 322.5 M
202.621 320.379 L
200.5 319.5 L
198.379 320.379 L
197.5 322.5 L
198.379 324.621 L
200.5 325.5 L
202.621 324.621 L
cp
S
GR
GS
0.929 0.694 0.125 RC
1 LJ
N
211.5 323.5 M
210.621 321.379 L
208.5 320.5 L
206.379 321.379 L
205.5 323.5 L
206.379 325.621 L
208.5 326.5 L
210.621 325.621 L
cp
S
GR
GS
0.929 0.694 0.125 RC
1 LJ
N
220.5 326.5 M
219.621 324.379 L
217.5 323.5 L
215.379 324.379 L
214.5 326.5 L
215.379 328.621 L
217.5 329.5 L
219.621 328.621 L
cp
S
GR
GS
0.929 0.694 0.125 RC
1 LJ
N
229.5 327.5 M
228.621 325.379 L
226.5 324.5 L
224.379 325.379 L
223.5 327.5 L
224.379 329.621 L
226.5 330.5 L
228.621 329.621 L
cp
S
GR
GS
0.929 0.694 0.125 RC
1 LJ
N
238.5 331.5 M
237.621 329.379 L
235.5 328.5 L
233.379 329.379 L
232.5 331.5 L
233.379 333.621 L
235.5 334.5 L
237.621 333.621 L
cp
S
GR
GS
0.929 0.694 0.125 RC
1 LJ
N
247.5 331.5 M
246.621 329.379 L
244.5 328.5 L
242.379 329.379 L
241.5 331.5 L
242.379 333.621 L
244.5 334.5 L
246.621 333.621 L
cp
S
GR
GS
0.929 0.694 0.125 RC
1 LJ
N
256.5 332.5 M
255.621 330.379 L
253.5 329.5 L
251.379 330.379 L
250.5 332.5 L
251.379 334.621 L
253.5 335.5 L
255.621 334.621 L
cp
S
GR
GS
0.929 0.694 0.125 RC
1 LJ
N
265.5 332.5 M
264.621 330.379 L
262.5 329.5 L
260.379 330.379 L
259.5 332.5 L
260.379 334.621 L
262.5 335.5 L
264.621 334.621 L
cp
S
GR
GS
0.929 0.694 0.125 RC
1 LJ
N
274.5 334.5 M
273.621 332.379 L
271.5 331.5 L
269.379 332.379 L
268.5 334.5 L
269.379 336.621 L
271.5 337.5 L
273.621 336.621 L
cp
S
GR
GS
0.929 0.694 0.125 RC
1 LJ
N
283.5 338.5 M
282.621 336.379 L
280.5 335.5 L
278.379 336.379 L
277.5 338.5 L
278.379 340.621 L
280.5 341.5 L
282.621 340.621 L
cp
S
GR
GS
0.929 0.694 0.125 RC
1 LJ
N
292.5 338.5 M
291.621 336.379 L
289.5 335.5 L
287.379 336.379 L
286.5 338.5 L
287.379 340.621 L
289.5 341.5 L
291.621 340.621 L
cp
S
GR
GS
0.929 0.694 0.125 RC
1 LJ
N
301.5 340.5 M
300.621 338.379 L
298.5 337.5 L
296.379 338.379 L
295.5 340.5 L
296.379 342.621 L
298.5 343.5 L
300.621 342.621 L
cp
S
GR
GS
0.929 0.694 0.125 RC
1 LJ
N
310.5 342.5 M
309.621 340.379 L
307.5 339.5 L
305.379 340.379 L
304.5 342.5 L
305.379 344.621 L
307.5 345.5 L
309.621 344.621 L
cp
S
GR
GS
0.929 0.694 0.125 RC
1 LJ
N
319.5 342.5 M
318.621 340.379 L
316.5 339.5 L
314.379 340.379 L
313.5 342.5 L
314.379 344.621 L
316.5 345.5 L
318.621 344.621 L
cp
S
GR
GS
0.929 0.694 0.125 RC
1 LJ
N
328.5 343.5 M
327.621 341.379 L
325.5 340.5 L
323.379 341.379 L
322.5 343.5 L
323.379 345.621 L
325.5 346.5 L
327.621 345.621 L
cp
S
GR
GS
0.929 0.694 0.125 RC
1 LJ
N
336.5 345.5 M
335.621 343.379 L
333.5 342.5 L
331.379 343.379 L
330.5 345.5 L
331.379 347.621 L
333.5 348.5 L
335.621 347.621 L
cp
S
GR
GS
0.929 0.694 0.125 RC
1 LJ
N
345.5 345.5 M
344.621 343.379 L
342.5 342.5 L
340.379 343.379 L
339.5 345.5 L
340.379 347.621 L
342.5 348.5 L
344.621 347.621 L
cp
S
GR
GS
0.929 0.694 0.125 RC
1 LJ
N
354.5 347.5 M
353.621 345.379 L
351.5 344.5 L
349.379 345.379 L
348.5 347.5 L
349.379 349.621 L
351.5 350.5 L
353.621 349.621 L
cp
S
GR
GS
0.929 0.694 0.125 RC
1 LJ
N
363.5 348.5 M
362.621 346.379 L
360.5 345.5 L
358.379 346.379 L
357.5 348.5 L
358.379 350.621 L
360.5 351.5 L
362.621 350.621 L
cp
S
GR
GS
0.929 0.694 0.125 RC
1 LJ
N
372.5 349.5 M
371.621 347.379 L
369.5 346.5 L
367.379 347.379 L
366.5 349.5 L
367.379 351.621 L
369.5 352.5 L
371.621 351.621 L
cp
S
GR
GS
0.929 0.694 0.125 RC
1 LJ
N
381.5 349.5 M
380.621 347.379 L
378.5 346.5 L
376.379 347.379 L
375.5 349.5 L
376.379 351.621 L
378.5 352.5 L
380.621 351.621 L
cp
S
GR
GS
0.929 0.694 0.125 RC
1 LJ
N
390.5 349.5 M
389.621 347.379 L
387.5 346.5 L
385.379 347.379 L
384.5 349.5 L
385.379 351.621 L
387.5 352.5 L
389.621 351.621 L
cp
S
GR
GS
0.929 0.694 0.125 RC
1 LJ
N
399.5 350.5 M
398.621 348.379 L
396.5 347.5 L
394.379 348.379 L
393.5 350.5 L
394.379 352.621 L
396.5 353.5 L
398.621 352.621 L
cp
S
GR
GS
0.929 0.694 0.125 RC
1 LJ
N
408.5 351.5 M
407.621 349.379 L
405.5 348.5 L
403.379 349.379 L
402.5 351.5 L
403.379 353.621 L
405.5 354.5 L
407.621 353.621 L
cp
S
GR
GS
0.929 0.694 0.125 RC
1 LJ
N
417.5 351.5 M
416.621 349.379 L
414.5 348.5 L
412.379 349.379 L
411.5 351.5 L
412.379 353.621 L
414.5 354.5 L
416.621 353.621 L
cp
S
GR
GS
0.929 0.694 0.125 RC
1 LJ
N
426.5 352.5 M
425.621 350.379 L
423.5 349.5 L
421.379 350.379 L
420.5 352.5 L
421.379 354.621 L
423.5 355.5 L
425.621 354.621 L
cp
S
GR
GS
0.929 0.694 0.125 RC
1 LJ
N
435.5 353.5 M
434.621 351.379 L
432.5 350.5 L
430.379 351.379 L
429.5 353.5 L
430.379 355.621 L
432.5 356.5 L
434.621 355.621 L
cp
S
GR
GS
0.929 0.694 0.125 RC
1 LJ
N
444.5 352.5 M
443.621 350.379 L
441.5 349.5 L
439.379 350.379 L
438.5 352.5 L
439.379 354.621 L
441.5 355.5 L
443.621 354.621 L
cp
S
GR
GS
0.929 0.694 0.125 RC
1 LJ
N
453.5 353.5 M
452.621 351.379 L
450.5 350.5 L
448.379 351.379 L
447.5 353.5 L
448.379 355.621 L
450.5 356.5 L
452.621 355.621 L
cp
S
GR
GS
0.494 0.184 0.557 RC
1 LJ
N
83.93 224.547 M
92.86 307.421 L
101.79 318.47 L
110.72 293.235 L
119.65 360.687 L
128.58 359.5 L
137.51 367.743 L
146.44 367.43 L
155.37 373.336 L
164.3 373.36 L
173.23 374.448 L
182.16 374.688 L
191.09 375.7 L
200.02 375.882 L
208.95 375.694 L
217.88 376.227 L
226.81 376.304 L
235.74 376.514 L
244.67 376.446 L
253.6 376.635 L
262.53 376.649 L
271.46 376.695 L
280.39 376.786 L
289.32 376.841 L
298.25 376.918 L
307.18 377.103 L
316.11 377.253 L
325.04 377.358 L
333.97 377.539 L
342.9 377.751 L
351.83 377.864 L
360.76 378.322 L
369.69 378.394 L
378.62 378.464 L
387.55 378.749 L
396.48 378.307 L
405.41 379.606 L
414.34 379.544 L
423.27 379.783 L
432.2 379.702 L
441.13 379.724 L
450.06 379.741 L
S
GR
GS
0.494 0.184 0.557 RC
1 LJ
N
86.5 224.5 M
85.621 222.379 L
83.5 221.5 L
81.379 222.379 L
80.5 224.5 L
81.379 226.621 L
83.5 227.5 L
85.621 226.621 L
cp
S
GR
GS
0.494 0.184 0.557 RC
1 LJ
N
95.5 307.5 M
94.621 305.379 L
92.5 304.5 L
90.379 305.379 L
89.5 307.5 L
90.379 309.621 L
92.5 310.5 L
94.621 309.621 L
cp
S
GR
GS
0.494 0.184 0.557 RC
1 LJ
N
104.5 318.5 M
103.621 316.379 L
101.5 315.5 L
99.379 316.379 L
98.5 318.5 L
99.379 320.621 L
101.5 321.5 L
103.621 320.621 L
cp
S
GR
GS
0.494 0.184 0.557 RC
1 LJ
N
113.5 293.5 M
112.621 291.379 L
110.5 290.5 L
108.379 291.379 L
107.5 293.5 L
108.379 295.621 L
110.5 296.5 L
112.621 295.621 L
cp
S
GR
GS
0.494 0.184 0.557 RC
1 LJ
N
122.5 360.5 M
121.621 358.379 L
119.5 357.5 L
117.379 358.379 L
116.5 360.5 L
117.379 362.621 L
119.5 363.5 L
121.621 362.621 L
cp
S
GR
GS
0.494 0.184 0.557 RC
1 LJ
N
131.5 359.5 M
130.621 357.379 L
128.5 356.5 L
126.379 357.379 L
125.5 359.5 L
126.379 361.621 L
128.5 362.5 L
130.621 361.621 L
cp
S
GR
GS
0.494 0.184 0.557 RC
1 LJ
N
140.5 367.5 M
139.621 365.379 L
137.5 364.5 L
135.379 365.379 L
134.5 367.5 L
135.379 369.621 L
137.5 370.5 L
139.621 369.621 L
cp
S
GR
GS
0.494 0.184 0.557 RC
1 LJ
N
149.5 367.5 M
148.621 365.379 L
146.5 364.5 L
144.379 365.379 L
143.5 367.5 L
144.379 369.621 L
146.5 370.5 L
148.621 369.621 L
cp
S
GR
GS
0.494 0.184 0.557 RC
1 LJ
N
158.5 373.5 M
157.621 371.379 L
155.5 370.5 L
153.379 371.379 L
152.5 373.5 L
153.379 375.621 L
155.5 376.5 L
157.621 375.621 L
cp
S
GR
GS
0.494 0.184 0.557 RC
1 LJ
N
167.5 373.5 M
166.621 371.379 L
164.5 370.5 L
162.379 371.379 L
161.5 373.5 L
162.379 375.621 L
164.5 376.5 L
166.621 375.621 L
cp
S
GR
GS
0.494 0.184 0.557 RC
1 LJ
N
176.5 374.5 M
175.621 372.379 L
173.5 371.5 L
171.379 372.379 L
170.5 374.5 L
171.379 376.621 L
173.5 377.5 L
175.621 376.621 L
cp
S
GR
GS
0.494 0.184 0.557 RC
1 LJ
N
185.5 374.5 M
184.621 372.379 L
182.5 371.5 L
180.379 372.379 L
179.5 374.5 L
180.379 376.621 L
182.5 377.5 L
184.621 376.621 L
cp
S
GR
GS
0.494 0.184 0.557 RC
1 LJ
N
194.5 375.5 M
193.621 373.379 L
191.5 372.5 L
189.379 373.379 L
188.5 375.5 L
189.379 377.621 L
191.5 378.5 L
193.621 377.621 L
cp
S
GR
GS
0.494 0.184 0.557 RC
1 LJ
N
203.5 375.5 M
202.621 373.379 L
200.5 372.5 L
198.379 373.379 L
197.5 375.5 L
198.379 377.621 L
200.5 378.5 L
202.621 377.621 L
cp
S
GR
GS
0.494 0.184 0.557 RC
1 LJ
N
211.5 375.5 M
210.621 373.379 L
208.5 372.5 L
206.379 373.379 L
205.5 375.5 L
206.379 377.621 L
208.5 378.5 L
210.621 377.621 L
cp
S
GR
GS
0.494 0.184 0.557 RC
1 LJ
N
220.5 376.5 M
219.621 374.379 L
217.5 373.5 L
215.379 374.379 L
214.5 376.5 L
215.379 378.621 L
217.5 379.5 L
219.621 378.621 L
cp
S
GR
GS
0.494 0.184 0.557 RC
1 LJ
N
229.5 376.5 M
228.621 374.379 L
226.5 373.5 L
224.379 374.379 L
223.5 376.5 L
224.379 378.621 L
226.5 379.5 L
228.621 378.621 L
cp
S
GR
GS
0.494 0.184 0.557 RC
1 LJ
N
238.5 376.5 M
237.621 374.379 L
235.5 373.5 L
233.379 374.379 L
232.5 376.5 L
233.379 378.621 L
235.5 379.5 L
237.621 378.621 L
cp
S
GR
GS
0.494 0.184 0.557 RC
1 LJ
N
247.5 376.5 M
246.621 374.379 L
244.5 373.5 L
242.379 374.379 L
241.5 376.5 L
242.379 378.621 L
244.5 379.5 L
246.621 378.621 L
cp
S
GR
GS
0.494 0.184 0.557 RC
1 LJ
N
256.5 376.5 M
255.621 374.379 L
253.5 373.5 L
251.379 374.379 L
250.5 376.5 L
251.379 378.621 L
253.5 379.5 L
255.621 378.621 L
cp
S
GR
GS
0.494 0.184 0.557 RC
1 LJ
N
265.5 376.5 M
264.621 374.379 L
262.5 373.5 L
260.379 374.379 L
259.5 376.5 L
260.379 378.621 L
262.5 379.5 L
264.621 378.621 L
cp
S
GR
GS
0.494 0.184 0.557 RC
1 LJ
N
274.5 376.5 M
273.621 374.379 L
271.5 373.5 L
269.379 374.379 L
268.5 376.5 L
269.379 378.621 L
271.5 379.5 L
273.621 378.621 L
cp
S
GR
GS
0.494 0.184 0.557 RC
1 LJ
N
283.5 376.5 M
282.621 374.379 L
280.5 373.5 L
278.379 374.379 L
277.5 376.5 L
278.379 378.621 L
280.5 379.5 L
282.621 378.621 L
cp
S
GR
GS
0.494 0.184 0.557 RC
1 LJ
N
292.5 376.5 M
291.621 374.379 L
289.5 373.5 L
287.379 374.379 L
286.5 376.5 L
287.379 378.621 L
289.5 379.5 L
291.621 378.621 L
cp
S
GR
GS
0.494 0.184 0.557 RC
1 LJ
N
301.5 376.5 M
300.621 374.379 L
298.5 373.5 L
296.379 374.379 L
295.5 376.5 L
296.379 378.621 L
298.5 379.5 L
300.621 378.621 L
cp
S
GR
GS
0.494 0.184 0.557 RC
1 LJ
N
310.5 377.5 M
309.621 375.379 L
307.5 374.5 L
305.379 375.379 L
304.5 377.5 L
305.379 379.621 L
307.5 380.5 L
309.621 379.621 L
cp
S
GR
GS
0.494 0.184 0.557 RC
1 LJ
N
319.5 377.5 M
318.621 375.379 L
316.5 374.5 L
314.379 375.379 L
313.5 377.5 L
314.379 379.621 L
316.5 380.5 L
318.621 379.621 L
cp
S
GR
GS
0.494 0.184 0.557 RC
1 LJ
N
328.5 377.5 M
327.621 375.379 L
325.5 374.5 L
323.379 375.379 L
322.5 377.5 L
323.379 379.621 L
325.5 380.5 L
327.621 379.621 L
cp
S
GR
GS
0.494 0.184 0.557 RC
1 LJ
N
336.5 377.5 M
335.621 375.379 L
333.5 374.5 L
331.379 375.379 L
330.5 377.5 L
331.379 379.621 L
333.5 380.5 L
335.621 379.621 L
cp
S
GR
GS
0.494 0.184 0.557 RC
1 LJ
N
345.5 377.5 M
344.621 375.379 L
342.5 374.5 L
340.379 375.379 L
339.5 377.5 L
340.379 379.621 L
342.5 380.5 L
344.621 379.621 L
cp
S
GR
GS
0.494 0.184 0.557 RC
1 LJ
N
354.5 377.5 M
353.621 375.379 L
351.5 374.5 L
349.379 375.379 L
348.5 377.5 L
349.379 379.621 L
351.5 380.5 L
353.621 379.621 L
cp
S
GR
GS
0.494 0.184 0.557 RC
1 LJ
N
363.5 378.5 M
362.621 376.379 L
360.5 375.5 L
358.379 376.379 L
357.5 378.5 L
358.379 380.621 L
360.5 381.5 L
362.621 380.621 L
cp
S
GR
GS
0.494 0.184 0.557 RC
1 LJ
N
372.5 378.5 M
371.621 376.379 L
369.5 375.5 L
367.379 376.379 L
366.5 378.5 L
367.379 380.621 L
369.5 381.5 L
371.621 380.621 L
cp
S
GR
GS
0.494 0.184 0.557 RC
1 LJ
N
381.5 378.5 M
380.621 376.379 L
378.5 375.5 L
376.379 376.379 L
375.5 378.5 L
376.379 380.621 L
378.5 381.5 L
380.621 380.621 L
cp
S
GR
GS
0.494 0.184 0.557 RC
1 LJ
N
390.5 378.5 M
389.621 376.379 L
387.5 375.5 L
385.379 376.379 L
384.5 378.5 L
385.379 380.621 L
387.5 381.5 L
389.621 380.621 L
cp
S
GR
GS
0.494 0.184 0.557 RC
1 LJ
N
399.5 378.5 M
398.621 376.379 L
396.5 375.5 L
394.379 376.379 L
393.5 378.5 L
394.379 380.621 L
396.5 381.5 L
398.621 380.621 L
cp
S
GR
GS
0.494 0.184 0.557 RC
1 LJ
N
408.5 379.5 M
407.621 377.379 L
405.5 376.5 L
403.379 377.379 L
402.5 379.5 L
403.379 381.621 L
405.5 382.5 L
407.621 381.621 L
cp
S
GR
GS
0.494 0.184 0.557 RC
1 LJ
N
417.5 379.5 M
416.621 377.379 L
414.5 376.5 L
412.379 377.379 L
411.5 379.5 L
412.379 381.621 L
414.5 382.5 L
416.621 381.621 L
cp
S
GR
GS
0.494 0.184 0.557 RC
1 LJ
N
426.5 379.5 M
425.621 377.379 L
423.5 376.5 L
421.379 377.379 L
420.5 379.5 L
421.379 381.621 L
423.5 382.5 L
425.621 381.621 L
cp
S
GR
GS
0.494 0.184 0.557 RC
1 LJ
N
435.5 379.5 M
434.621 377.379 L
432.5 376.5 L
430.379 377.379 L
429.5 379.5 L
430.379 381.621 L
432.5 382.5 L
434.621 381.621 L
cp
S
GR
GS
0.494 0.184 0.557 RC
1 LJ
N
444.5 379.5 M
443.621 377.379 L
441.5 376.5 L
439.379 377.379 L
438.5 379.5 L
439.379 381.621 L
441.5 382.5 L
443.621 381.621 L
cp
S
GR
GS
0.494 0.184 0.557 RC
1 LJ
N
453.5 379.5 M
452.621 377.379 L
450.5 376.5 L
448.379 377.379 L
447.5 379.5 L
448.379 381.621 L
450.5 382.5 L
452.621 381.621 L
cp
S
GR
GS
[1 0 0 1 379 51.5] CT
/Helvetica 14 F
GS
[1 0 0 1 0 0] CT
0 3.5 moveto 
1 -1 scale
(No) t 
GR
GR
GS
0 0.447 0.741 RC
1 LJ
N
346 51.5 M
376 51.5 L
S
GR
GS
0 0.447 0.741 RC
1 LJ
N
364.5 51.5 M
363.621 49.379 L
361.5 48.5 L
359.379 49.379 L
358.5 51.5 L
359.379 53.621 L
361.5 54.5 L
363.621 53.621 L
cp
S
GR
GS
[1 0 0 1 379 66] CT
/Helvetica 14 F
GS
[1 0 0 1 0 0] CT
0 3.5 moveto 
1 -1 scale
(Random) t 
GR
GR
GS
0.851 0.325 0.098 RC
1 LJ
N
346 66 M
376 66 L
S
GR
GS
0.851 0.325 0.098 RC
1 LJ
N
364.5 65.5 M
363.621 63.379 L
361.5 62.5 L
359.379 63.379 L
358.5 65.5 L
359.379 67.621 L
361.5 68.5 L
363.621 67.621 L
cp
S
GR
GS
[1 0 0 1 379 80.5] CT
/Helvetica 14 F
GS
[1 0 0 1 0 0] CT
0 3.5 moveto 
1 -1 scale
(Random replacement) t 
GR
GR
GS
0.929 0.694 0.125 RC
1 LJ
N
346 80.5 M
376 80.5 L
S
GR
GS
0.929 0.694 0.125 RC
1 LJ
N
364.5 80.5 M
363.621 78.379 L
361.5 77.5 L
359.379 78.379 L
358.5 80.5 L
359.379 82.621 L
361.5 83.5 L
363.621 82.621 L
cp
S
GR
GS
[1 0 0 1 379 95] CT
/Helvetica 14 F
GS
[1 0 0 1 0 0] CT
0 3.5 moveto 
1 -1 scale
(Shuffling) t 
GR
GR
GS
0.494 0.184 0.557 RC
1 LJ
N
346 95 M
376 95 L
S
GR
GS
0.494 0.184 0.557 RC
1 LJ
N
364.5 95.5 M
363.621 93.379 L
361.5 92.5 L
359.379 93.379 L
358.5 95.5 L
359.379 97.621 L
361.5 98.5 L
363.621 97.621 L
cp
S
GR
%%Trailer
%%Pages: 1
%%EOF
