%!PS-Adobe-3.0 EPSF-3.0
%%Creator: (MATLAB, The Mathworks, Inc. Version 8.6.0.267246 \(R2015b\). Operating System: Mac OS X)
%%Title: /Users/gauthiermuguerza/Desktop/rsgd/report/images/trafficTrain.eps
%%CreationDate: 2018-06-05T21:39:56
%%Pages: (atend)
%%BoundingBox:     0     0   538   404
%%LanguageLevel: 3
%%EndComments
%%BeginProlog
%%BeginResource: procset (Apache XML Graphics Std ProcSet) 1.2 0
%%Version: 1.2 0
%%Copyright: (Copyright 2001-2003,2010 The Apache Software Foundation. License terms: http://www.apache.org/licenses/LICENSE-2.0)
/bd{bind def}bind def
/ld{load def}bd
/GR/grestore ld
/M/moveto ld
/LJ/setlinejoin ld
/C/curveto ld
/f/fill ld
/LW/setlinewidth ld
/GC/setgray ld
/t/show ld
/N/newpath ld
/CT/concat ld
/cp/closepath ld
/S/stroke ld
/L/lineto ld
/CC/setcmykcolor ld
/A/ashow ld
/GS/gsave ld
/RC/setrgbcolor ld
/RM/rmoveto ld
/ML/setmiterlimit ld
/re {4 2 roll M
1 index 0 rlineto
0 exch rlineto
neg 0 rlineto
cp } bd
/_ctm matrix def
/_tm matrix def
/BT { _ctm currentmatrix pop matrix _tm copy pop 0 0 moveto } bd
/ET { _ctm setmatrix } bd
/iTm { _ctm setmatrix _tm concat } bd
/Tm { _tm astore pop iTm 0 0 moveto } bd
/ux 0.0 def
/uy 0.0 def
/F {
  /Tp exch def
  /Tf exch def
  Tf findfont Tp scalefont setfont
  /cf Tf def  /cs Tp def
} bd
/ULS {currentpoint /uy exch def /ux exch def} bd
/ULE {
  /Tcx currentpoint pop def
  gsave
  newpath
  cf findfont cs scalefont dup
  /FontMatrix get 0 get /Ts exch def /FontInfo get dup
  /UnderlinePosition get Ts mul /To exch def
  /UnderlineThickness get Ts mul /Tt exch def
  ux uy To add moveto  Tcx uy To add lineto
  Tt setlinewidth stroke
  grestore
} bd
/OLE {
  /Tcx currentpoint pop def
  gsave
  newpath
  cf findfont cs scalefont dup
  /FontMatrix get 0 get /Ts exch def /FontInfo get dup
  /UnderlinePosition get Ts mul /To exch def
  /UnderlineThickness get Ts mul /Tt exch def
  ux uy To add cs add moveto Tcx uy To add cs add lineto
  Tt setlinewidth stroke
  grestore
} bd
/SOE {
  /Tcx currentpoint pop def
  gsave
  newpath
  cf findfont cs scalefont dup
  /FontMatrix get 0 get /Ts exch def /FontInfo get dup
  /UnderlinePosition get Ts mul /To exch def
  /UnderlineThickness get Ts mul /Tt exch def
  ux uy To add cs 10 mul 26 idiv add moveto Tcx uy To add cs 10 mul 26 idiv add lineto
  Tt setlinewidth stroke
  grestore
} bd
/QT {
/Y22 exch store
/X22 exch store
/Y21 exch store
/X21 exch store
currentpoint
/Y21 load 2 mul add 3 div exch
/X21 load 2 mul add 3 div exch
/X21 load 2 mul /X22 load add 3 div
/Y21 load 2 mul /Y22 load add 3 div
/X22 load /Y22 load curveto
} bd
/SSPD {
dup length /d exch dict def
{
/v exch def
/k exch def
currentpagedevice k known {
/cpdv currentpagedevice k get def
v cpdv ne {
/upd false def
/nullv v type /nulltype eq def
/nullcpdv cpdv type /nulltype eq def
nullv nullcpdv or
{
/upd true def
} {
/sametype v type cpdv type eq def
sametype {
v type /arraytype eq {
/vlen v length def
/cpdvlen cpdv length def
vlen cpdvlen eq {
0 1 vlen 1 sub {
/i exch def
/obj v i get def
/cpdobj cpdv i get def
obj cpdobj ne {
/upd true def
exit
} if
} for
} {
/upd true def
} ifelse
} {
v type /dicttype eq {
v {
/dv exch def
/dk exch def
/cpddv cpdv dk get def
dv cpddv ne {
/upd true def
exit
} if
} forall
} {
/upd true def
} ifelse
} ifelse
} if
} ifelse
upd true eq {
d k v put
} if
} if
} if
} forall
d length 0 gt {
d setpagedevice
} if
} bd
%%EndResource
%%BeginResource: procset (Apache XML Graphics EPS ProcSet) 1.0 0
%%Version: 1.0 0
%%Copyright: (Copyright 2002-2003 The Apache Software Foundation. License terms: http://www.apache.org/licenses/LICENSE-2.0)
/BeginEPSF { %def
/b4_Inc_state save def         % Save state for cleanup
/dict_count countdictstack def % Count objects on dict stack
/op_count count 1 sub def      % Count objects on operand stack
userdict begin                 % Push userdict on dict stack
/showpage { } def              % Redefine showpage, { } = null proc
0 setgray 0 setlinecap         % Prepare graphics state
1 setlinewidth 0 setlinejoin
10 setmiterlimit [ ] 0 setdash newpath
/languagelevel where           % If level not equal to 1 then
{pop languagelevel             % set strokeadjust and
1 ne                           % overprint to their defaults.
{false setstrokeadjust false setoverprint
} if
} if
} bd
/EndEPSF { %def
count op_count sub {pop} repeat            % Clean up stacks
countdictstack dict_count sub {end} repeat
b4_Inc_state restore
} bd
%%EndResource
%FOPBeginFontDict
%%IncludeResource: font Courier-Bold
%%IncludeResource: font Helvetica
%%IncludeResource: font Courier-BoldOblique
%%IncludeResource: font Courier-Oblique
%%IncludeResource: font Times-Roman
%%IncludeResource: font Helvetica-BoldOblique
%%IncludeResource: font Helvetica-Bold
%%IncludeResource: font Helvetica-Oblique
%%IncludeResource: font Times-BoldItalic
%%IncludeResource: font Courier
%%IncludeResource: font Times-Italic
%%IncludeResource: font Times-Bold
%%IncludeResource: font Symbol
%%IncludeResource: font ZapfDingbats
%FOPEndFontDict
%%BeginResource: encoding WinAnsiEncoding
/WinAnsiEncoding [
/.notdef /.notdef /.notdef /.notdef /.notdef
/.notdef /.notdef /.notdef /.notdef /.notdef
/.notdef /.notdef /.notdef /.notdef /.notdef
/.notdef /.notdef /.notdef /.notdef /.notdef
/.notdef /.notdef /.notdef /.notdef /.notdef
/.notdef /.notdef /.notdef /.notdef /.notdef
/.notdef /.notdef /space /exclam /quotedbl
/numbersign /dollar /percent /ampersand /quotesingle
/parenleft /parenright /asterisk /plus /comma
/hyphen /period /slash /zero /one
/two /three /four /five /six
/seven /eight /nine /colon /semicolon
/less /equal /greater /question /at
/A /B /C /D /E
/F /G /H /I /J
/K /L /M /N /O
/P /Q /R /S /T
/U /V /W /X /Y
/Z /bracketleft /backslash /bracketright /asciicircum
/underscore /quoteleft /a /b /c
/d /e /f /g /h
/i /j /k /l /m
/n /o /p /q /r
/s /t /u /v /w
/x /y /z /braceleft /bar
/braceright /asciitilde /bullet /Euro /bullet
/quotesinglbase /florin /quotedblbase /ellipsis /dagger
/daggerdbl /circumflex /perthousand /Scaron /guilsinglleft
/OE /bullet /Zcaron /bullet /bullet
/quoteleft /quoteright /quotedblleft /quotedblright /bullet
/endash /emdash /asciitilde /trademark /scaron
/guilsinglright /oe /bullet /zcaron /Ydieresis
/space /exclamdown /cent /sterling /currency
/yen /brokenbar /section /dieresis /copyright
/ordfeminine /guillemotleft /logicalnot /sfthyphen /registered
/macron /degree /plusminus /twosuperior /threesuperior
/acute /mu /paragraph /middot /cedilla
/onesuperior /ordmasculine /guillemotright /onequarter /onehalf
/threequarters /questiondown /Agrave /Aacute /Acircumflex
/Atilde /Adieresis /Aring /AE /Ccedilla
/Egrave /Eacute /Ecircumflex /Edieresis /Igrave
/Iacute /Icircumflex /Idieresis /Eth /Ntilde
/Ograve /Oacute /Ocircumflex /Otilde /Odieresis
/multiply /Oslash /Ugrave /Uacute /Ucircumflex
/Udieresis /Yacute /Thorn /germandbls /agrave
/aacute /acircumflex /atilde /adieresis /aring
/ae /ccedilla /egrave /eacute /ecircumflex
/edieresis /igrave /iacute /icircumflex /idieresis
/eth /ntilde /ograve /oacute /ocircumflex
/otilde /odieresis /divide /oslash /ugrave
/uacute /ucircumflex /udieresis /yacute /thorn
/ydieresis
] def
%%EndResource
%FOPBeginFontReencode
/Courier-Bold findfont
dup length dict begin
  {1 index /FID ne {def} {pop pop} ifelse} forall
  /Encoding WinAnsiEncoding def
  currentdict
end
/Courier-Bold exch definefont pop
/Helvetica findfont
dup length dict begin
  {1 index /FID ne {def} {pop pop} ifelse} forall
  /Encoding WinAnsiEncoding def
  currentdict
end
/Helvetica exch definefont pop
/Courier-BoldOblique findfont
dup length dict begin
  {1 index /FID ne {def} {pop pop} ifelse} forall
  /Encoding WinAnsiEncoding def
  currentdict
end
/Courier-BoldOblique exch definefont pop
/Courier-Oblique findfont
dup length dict begin
  {1 index /FID ne {def} {pop pop} ifelse} forall
  /Encoding WinAnsiEncoding def
  currentdict
end
/Courier-Oblique exch definefont pop
/Times-Roman findfont
dup length dict begin
  {1 index /FID ne {def} {pop pop} ifelse} forall
  /Encoding WinAnsiEncoding def
  currentdict
end
/Times-Roman exch definefont pop
/Helvetica-BoldOblique findfont
dup length dict begin
  {1 index /FID ne {def} {pop pop} ifelse} forall
  /Encoding WinAnsiEncoding def
  currentdict
end
/Helvetica-BoldOblique exch definefont pop
/Helvetica-Bold findfont
dup length dict begin
  {1 index /FID ne {def} {pop pop} ifelse} forall
  /Encoding WinAnsiEncoding def
  currentdict
end
/Helvetica-Bold exch definefont pop
/Helvetica-Oblique findfont
dup length dict begin
  {1 index /FID ne {def} {pop pop} ifelse} forall
  /Encoding WinAnsiEncoding def
  currentdict
end
/Helvetica-Oblique exch definefont pop
/Times-BoldItalic findfont
dup length dict begin
  {1 index /FID ne {def} {pop pop} ifelse} forall
  /Encoding WinAnsiEncoding def
  currentdict
end
/Times-BoldItalic exch definefont pop
/Courier findfont
dup length dict begin
  {1 index /FID ne {def} {pop pop} ifelse} forall
  /Encoding WinAnsiEncoding def
  currentdict
end
/Courier exch definefont pop
/Times-Italic findfont
dup length dict begin
  {1 index /FID ne {def} {pop pop} ifelse} forall
  /Encoding WinAnsiEncoding def
  currentdict
end
/Times-Italic exch definefont pop
/Times-Bold findfont
dup length dict begin
  {1 index /FID ne {def} {pop pop} ifelse} forall
  /Encoding WinAnsiEncoding def
  currentdict
end
/Times-Bold exch definefont pop
%FOPEndFontReencode
%%EndProlog
%%Page: 1 1
%%PageBoundingBox: 0 0 576 432
%%BeginPageSetup
[1 0 0 -1 0 432] CT
%%EndPageSetup
GS
1 GC
N
0 0 576 432 re
f
GR
GS
1 GC
N
0 0 576 432 re
f
GR
GS
1 GC
N
80 384 M
521.5 384 L
521.5 32.5 L
80 32.5 L
cp
f
GR
GS
0.149 GC
2 setlinecap
1 LJ
0.5 LW
N
80 384 M
521.5 384 L
S
GR
GS
0.149 GC
2 setlinecap
1 LJ
0.5 LW
N
80 384 M
80 379.585 L
S
GR
GS
0.149 GC
2 setlinecap
1 LJ
0.5 LW
N
168.3 384 M
168.3 379.585 L
S
GR
GS
0.149 GC
2 setlinecap
1 LJ
0.5 LW
N
256.6 384 M
256.6 379.585 L
S
GR
GS
0.149 GC
2 setlinecap
1 LJ
0.5 LW
N
344.9 384 M
344.9 379.585 L
S
GR
GS
0.149 GC
2 setlinecap
1 LJ
0.5 LW
N
433.2 384 M
433.2 379.585 L
S
GR
GS
0.149 GC
2 setlinecap
1 LJ
0.5 LW
N
521.5 384 M
521.5 379.585 L
S
GR
GS
[1 0 0 1 80 390] CT
0.149 GC
/Helvetica 20 F
GS
[1 0 0 1 0 0] CT
-6 16 moveto 
1 -1 scale
(0) t 
GR
GR
GS
[1 0 0 1 168.3 390] CT
0.149 GC
/Helvetica 20 F
GS
[1 0 0 1 0 0] CT
-11.5 16 moveto 
1 -1 scale
(20) t 
GR
GR
GS
[1 0 0 1 256.60001 390] CT
0.149 GC
/Helvetica 20 F
GS
[1 0 0 1 0 0] CT
-11.5 16 moveto 
1 -1 scale
(40) t 
GR
GR
GS
[1 0 0 1 344.90002 390] CT
0.149 GC
/Helvetica 20 F
GS
[1 0 0 1 0 0] CT
-11.5 16 moveto 
1 -1 scale
(60) t 
GR
GR
GS
[1 0 0 1 433.20001 390] CT
0.149 GC
/Helvetica 20 F
GS
[1 0 0 1 0 0] CT
-11.5 16 moveto 
1 -1 scale
(80) t 
GR
GR
GS
[1 0 0 1 521.5 390] CT
0.149 GC
/Helvetica 20 F
GS
[1 0 0 1 0 0] CT
-17 16 moveto 
1 -1 scale
(100) t 
GR
GR
GS
[1 0 0 1 300.75021 411.5] CT
0.149 GC
/Helvetica 20 F
GS
[1 0 0 1 0 0] CT
-37 16 moveto 
1 -1 scale
(Time \(s\)) t 
GR
GR
GS
0.149 GC
2 setlinecap
1 LJ
0.5 LW
N
80 384 M
80 32.5 L
S
GR
GS
0.149 GC
2 setlinecap
1 LJ
0.5 LW
N
80 357.631 M
84.415 357.631 L
S
GR
GS
0.149 GC
2 setlinecap
1 LJ
0.5 LW
N
80 306.534 M
84.415 306.534 L
S
GR
GS
0.149 GC
2 setlinecap
1 LJ
0.5 LW
N
80 259.225 M
84.415 259.225 L
S
GR
GS
0.149 GC
2 setlinecap
1 LJ
0.5 LW
N
80 215.182 M
84.415 215.182 L
S
GR
GS
0.149 GC
2 setlinecap
1 LJ
0.5 LW
N
80 173.982 M
84.415 173.982 L
S
GR
GS
0.149 GC
2 setlinecap
1 LJ
0.5 LW
N
80 135.281 M
84.415 135.281 L
S
GR
GS
0.149 GC
2 setlinecap
1 LJ
0.5 LW
N
80 98.793 M
84.415 98.793 L
S
GR
GS
0.149 GC
2 setlinecap
1 LJ
0.5 LW
N
80 64.277 M
84.415 64.277 L
S
GR
GS
0.149 GC
2 setlinecap
1 LJ
0.5 LW
N
80 379.273 M
82.207 379.273 L
S
GR
GS
0.149 GC
2 setlinecap
1 LJ
0.5 LW
N
80 368.36 M
82.207 368.36 L
S
GR
GS
0.149 GC
2 setlinecap
1 LJ
0.5 LW
N
80 347.079 M
82.207 347.079 L
S
GR
GS
0.149 GC
2 setlinecap
1 LJ
0.5 LW
N
80 336.699 M
82.207 336.699 L
S
GR
GS
0.149 GC
2 setlinecap
1 LJ
0.5 LW
N
80 326.485 M
82.207 326.485 L
S
GR
GS
0.149 GC
2 setlinecap
1 LJ
0.5 LW
N
80 316.431 M
82.207 316.431 L
S
GR
GS
0.149 GC
2 setlinecap
1 LJ
0.5 LW
N
80 296.788 M
82.207 296.788 L
S
GR
GS
0.149 GC
2 setlinecap
1 LJ
0.5 LW
N
80 287.188 M
82.207 287.188 L
S
GR
GS
0.149 GC
2 setlinecap
1 LJ
0.5 LW
N
80 277.73 M
82.207 277.73 L
S
GR
GS
0.149 GC
2 setlinecap
1 LJ
0.5 LW
N
80 268.411 M
82.207 268.411 L
S
GR
GS
0.149 GC
2 setlinecap
1 LJ
0.5 LW
N
80 250.17 M
82.207 250.17 L
S
GR
GS
0.149 GC
2 setlinecap
1 LJ
0.5 LW
N
80 241.242 M
82.207 241.242 L
S
GR
GS
0.149 GC
2 setlinecap
1 LJ
0.5 LW
N
80 232.436 M
82.207 232.436 L
S
GR
GS
0.149 GC
2 setlinecap
1 LJ
0.5 LW
N
80 223.751 M
82.207 223.751 L
S
GR
GS
0.149 GC
2 setlinecap
1 LJ
0.5 LW
N
80 206.727 M
82.207 206.727 L
S
GR
GS
0.149 GC
2 setlinecap
1 LJ
0.5 LW
N
80 198.382 M
82.207 198.382 L
S
GR
GS
0.149 GC
2 setlinecap
1 LJ
0.5 LW
N
80 190.145 M
82.207 190.145 L
S
GR
GS
0.149 GC
2 setlinecap
1 LJ
0.5 LW
N
80 182.012 M
82.207 182.012 L
S
GR
GS
0.149 GC
2 setlinecap
1 LJ
0.5 LW
N
80 166.052 M
82.207 166.052 L
S
GR
GS
0.149 GC
2 setlinecap
1 LJ
0.5 LW
N
80 158.219 M
82.207 158.219 L
S
GR
GS
0.149 GC
2 setlinecap
1 LJ
0.5 LW
N
80 150.481 M
82.207 150.481 L
S
GR
GS
0.149 GC
2 setlinecap
1 LJ
0.5 LW
N
80 142.836 M
82.207 142.836 L
S
GR
GS
0.149 GC
2 setlinecap
1 LJ
0.5 LW
N
80 127.815 M
82.207 127.815 L
S
GR
GS
0.149 GC
2 setlinecap
1 LJ
0.5 LW
N
80 120.434 M
82.207 120.434 L
S
GR
GS
0.149 GC
2 setlinecap
1 LJ
0.5 LW
N
80 113.139 M
82.207 113.139 L
S
GR
GS
0.149 GC
2 setlinecap
1 LJ
0.5 LW
N
80 105.925 M
82.207 105.925 L
S
GR
GS
0.149 GC
2 setlinecap
1 LJ
0.5 LW
N
80 91.739 M
82.207 91.739 L
S
GR
GS
0.149 GC
2 setlinecap
1 LJ
0.5 LW
N
80 84.762 M
82.207 84.762 L
S
GR
GS
0.149 GC
2 setlinecap
1 LJ
0.5 LW
N
80 77.86 M
82.207 77.86 L
S
GR
GS
0.149 GC
2 setlinecap
1 LJ
0.5 LW
N
80 71.033 M
82.207 71.033 L
S
GR
GS
0.149 GC
2 setlinecap
1 LJ
0.5 LW
N
80 57.593 M
82.207 57.593 L
S
GR
GS
0.149 GC
2 setlinecap
1 LJ
0.5 LW
N
80 50.977 M
82.207 50.977 L
S
GR
GS
0.149 GC
2 setlinecap
1 LJ
0.5 LW
N
80 44.43 M
82.207 44.43 L
S
GR
GS
0.149 GC
2 setlinecap
1 LJ
0.5 LW
N
80 37.949 M
82.207 37.949 L
S
GR
GS
[1 0 0 1 74 357.6312] CT
0.149 GC
/Helvetica 20 F
GS
[1 0 0 1 0 0] CT
-51 5.5 moveto 
1 -1 scale
(0.012) t 
GR
GR
GS
[1 0 0 1 74 306.53397] CT
0.149 GC
/Helvetica 20 F
GS
[1 0 0 1 0 0] CT
-51 5.5 moveto 
1 -1 scale
(0.013) t 
GR
GR
GS
[1 0 0 1 74 259.22531] CT
0.149 GC
/Helvetica 20 F
GS
[1 0 0 1 0 0] CT
-51 5.5 moveto 
1 -1 scale
(0.014) t 
GR
GR
GS
[1 0 0 1 74 215.18202] CT
0.149 GC
/Helvetica 20 F
GS
[1 0 0 1 0 0] CT
-51 5.5 moveto 
1 -1 scale
(0.015) t 
GR
GR
GS
[1 0 0 1 74 173.98225] CT
0.149 GC
/Helvetica 20 F
GS
[1 0 0 1 0 0] CT
-51 5.5 moveto 
1 -1 scale
(0.016) t 
GR
GR
GS
[1 0 0 1 74 135.28105] CT
0.149 GC
/Helvetica 20 F
GS
[1 0 0 1 0 0] CT
-51 5.5 moveto 
1 -1 scale
(0.017) t 
GR
GR
GS
[1 0 0 1 74 98.79256] CT
0.149 GC
/Helvetica 20 F
GS
[1 0 0 1 0 0] CT
-51 5.5 moveto 
1 -1 scale
(0.018) t 
GR
GR
GS
[1 0 0 1 74 64.27741] CT
0.149 GC
/Helvetica 20 F
GS
[1 0 0 1 0 0] CT
-51 5.5 moveto 
1 -1 scale
(0.019) t 
GR
GR
GS
[0 -1 1 0 20.5 208.24983] CT
0.149 GC
/Helvetica 20 F
GS
[1 0 0 1 0 0] CT
-54.5 -5 moveto 
1 -1 scale
(Train RMSE) t 
GR
GR
GS
0 0.447 0.741 RC
1 LJ
N
109.333 174.414 M
116.651 224.46 L
124.247 241.668 L
131.98 234.678 L
140.174 313.425 L
148.107 319.505 L
156.14 318.277 L
163.767 341.667 L
171.071 342.22 L
178.499 342.536 L
186.281 347.405 L
194.555 348.481 L
202.057 350.24 L
209.581 349.823 L
217.058 349.808 L
224.647 351.734 L
232.045 352.398 L
239.486 353.161 L
246.898 354.206 L
254.537 353.519 L
262.058 354.584 L
269.424 355.319 L
277.069 355.185 L
284.533 354.999 L
293.069 355.12 L
302.039 355.149 L
309.887 355.151 L
317.691 355.241 L
325.16 355.31 L
332.649 355.348 L
340.167 355.376 L
347.918 355.462 L
356.761 355.511 L
365.403 355.609 L
373.915 355.479 L
382.361 355.59 L
390.677 355.684 L
398.239 355.71 L
405.85 355.818 L
413.946 355.888 L
422.129 355.911 L
429.851 356.062 L
437.636 356.319 L
445.437 356.14 L
453.14 356.254 L
460.942 356.315 L
468.957 356.367 L
S
GR
GS
0 0.447 0.741 RC
1 LJ
N
112.5 174.5 M
111.621 172.379 L
109.5 171.5 L
107.379 172.379 L
106.5 174.5 L
107.379 176.621 L
109.5 177.5 L
111.621 176.621 L
cp
S
GR
GS
0 0.447 0.741 RC
1 LJ
N
119.5 224.5 M
118.621 222.379 L
116.5 221.5 L
114.379 222.379 L
113.5 224.5 L
114.379 226.621 L
116.5 227.5 L
118.621 226.621 L
cp
S
GR
GS
0 0.447 0.741 RC
1 LJ
N
127.5 241.5 M
126.621 239.379 L
124.5 238.5 L
122.379 239.379 L
121.5 241.5 L
122.379 243.621 L
124.5 244.5 L
126.621 243.621 L
cp
S
GR
GS
0 0.447 0.741 RC
1 LJ
N
134.5 234.5 M
133.621 232.379 L
131.5 231.5 L
129.379 232.379 L
128.5 234.5 L
129.379 236.621 L
131.5 237.5 L
133.621 236.621 L
cp
S
GR
GS
0 0.447 0.741 RC
1 LJ
N
143.5 313.5 M
142.621 311.379 L
140.5 310.5 L
138.379 311.379 L
137.5 313.5 L
138.379 315.621 L
140.5 316.5 L
142.621 315.621 L
cp
S
GR
GS
0 0.447 0.741 RC
1 LJ
N
151.5 319.5 M
150.621 317.379 L
148.5 316.5 L
146.379 317.379 L
145.5 319.5 L
146.379 321.621 L
148.5 322.5 L
150.621 321.621 L
cp
S
GR
GS
0 0.447 0.741 RC
1 LJ
N
159.5 318.5 M
158.621 316.379 L
156.5 315.5 L
154.379 316.379 L
153.5 318.5 L
154.379 320.621 L
156.5 321.5 L
158.621 320.621 L
cp
S
GR
GS
0 0.447 0.741 RC
1 LJ
N
166.5 341.5 M
165.621 339.379 L
163.5 338.5 L
161.379 339.379 L
160.5 341.5 L
161.379 343.621 L
163.5 344.5 L
165.621 343.621 L
cp
S
GR
GS
0 0.447 0.741 RC
1 LJ
N
174.5 342.5 M
173.621 340.379 L
171.5 339.5 L
169.379 340.379 L
168.5 342.5 L
169.379 344.621 L
171.5 345.5 L
173.621 344.621 L
cp
S
GR
GS
0 0.447 0.741 RC
1 LJ
N
181.5 342.5 M
180.621 340.379 L
178.5 339.5 L
176.379 340.379 L
175.5 342.5 L
176.379 344.621 L
178.5 345.5 L
180.621 344.621 L
cp
S
GR
GS
0 0.447 0.741 RC
1 LJ
N
189.5 347.5 M
188.621 345.379 L
186.5 344.5 L
184.379 345.379 L
183.5 347.5 L
184.379 349.621 L
186.5 350.5 L
188.621 349.621 L
cp
S
GR
GS
0 0.447 0.741 RC
1 LJ
N
197.5 348.5 M
196.621 346.379 L
194.5 345.5 L
192.379 346.379 L
191.5 348.5 L
192.379 350.621 L
194.5 351.5 L
196.621 350.621 L
cp
S
GR
GS
0 0.447 0.741 RC
1 LJ
N
205.5 350.5 M
204.621 348.379 L
202.5 347.5 L
200.379 348.379 L
199.5 350.5 L
200.379 352.621 L
202.5 353.5 L
204.621 352.621 L
cp
S
GR
GS
0 0.447 0.741 RC
1 LJ
N
212.5 349.5 M
211.621 347.379 L
209.5 346.5 L
207.379 347.379 L
206.5 349.5 L
207.379 351.621 L
209.5 352.5 L
211.621 351.621 L
cp
S
GR
GS
0 0.447 0.741 RC
1 LJ
N
220.5 349.5 M
219.621 347.379 L
217.5 346.5 L
215.379 347.379 L
214.5 349.5 L
215.379 351.621 L
217.5 352.5 L
219.621 351.621 L
cp
S
GR
GS
0 0.447 0.741 RC
1 LJ
N
227.5 351.5 M
226.621 349.379 L
224.5 348.5 L
222.379 349.379 L
221.5 351.5 L
222.379 353.621 L
224.5 354.5 L
226.621 353.621 L
cp
S
GR
GS
0 0.447 0.741 RC
1 LJ
N
235.5 352.5 M
234.621 350.379 L
232.5 349.5 L
230.379 350.379 L
229.5 352.5 L
230.379 354.621 L
232.5 355.5 L
234.621 354.621 L
cp
S
GR
GS
0 0.447 0.741 RC
1 LJ
N
242.5 353.5 M
241.621 351.379 L
239.5 350.5 L
237.379 351.379 L
236.5 353.5 L
237.379 355.621 L
239.5 356.5 L
241.621 355.621 L
cp
S
GR
GS
0 0.447 0.741 RC
1 LJ
N
249.5 354.5 M
248.621 352.379 L
246.5 351.5 L
244.379 352.379 L
243.5 354.5 L
244.379 356.621 L
246.5 357.5 L
248.621 356.621 L
cp
S
GR
GS
0 0.447 0.741 RC
1 LJ
N
257.5 353.5 M
256.621 351.379 L
254.5 350.5 L
252.379 351.379 L
251.5 353.5 L
252.379 355.621 L
254.5 356.5 L
256.621 355.621 L
cp
S
GR
GS
0 0.447 0.741 RC
1 LJ
N
265.5 354.5 M
264.621 352.379 L
262.5 351.5 L
260.379 352.379 L
259.5 354.5 L
260.379 356.621 L
262.5 357.5 L
264.621 356.621 L
cp
S
GR
GS
0 0.447 0.741 RC
1 LJ
N
272.5 355.5 M
271.621 353.379 L
269.5 352.5 L
267.379 353.379 L
266.5 355.5 L
267.379 357.621 L
269.5 358.5 L
271.621 357.621 L
cp
S
GR
GS
0 0.447 0.741 RC
1 LJ
N
280.5 355.5 M
279.621 353.379 L
277.5 352.5 L
275.379 353.379 L
274.5 355.5 L
275.379 357.621 L
277.5 358.5 L
279.621 357.621 L
cp
S
GR
GS
0 0.447 0.741 RC
1 LJ
N
287.5 354.5 M
286.621 352.379 L
284.5 351.5 L
282.379 352.379 L
281.5 354.5 L
282.379 356.621 L
284.5 357.5 L
286.621 356.621 L
cp
S
GR
GS
0 0.447 0.741 RC
1 LJ
N
296.5 355.5 M
295.621 353.379 L
293.5 352.5 L
291.379 353.379 L
290.5 355.5 L
291.379 357.621 L
293.5 358.5 L
295.621 357.621 L
cp
S
GR
GS
0 0.447 0.741 RC
1 LJ
N
305.5 355.5 M
304.621 353.379 L
302.5 352.5 L
300.379 353.379 L
299.5 355.5 L
300.379 357.621 L
302.5 358.5 L
304.621 357.621 L
cp
S
GR
GS
0 0.447 0.741 RC
1 LJ
N
312.5 355.5 M
311.621 353.379 L
309.5 352.5 L
307.379 353.379 L
306.5 355.5 L
307.379 357.621 L
309.5 358.5 L
311.621 357.621 L
cp
S
GR
GS
0 0.447 0.741 RC
1 LJ
N
320.5 355.5 M
319.621 353.379 L
317.5 352.5 L
315.379 353.379 L
314.5 355.5 L
315.379 357.621 L
317.5 358.5 L
319.621 357.621 L
cp
S
GR
GS
0 0.447 0.741 RC
1 LJ
N
328.5 355.5 M
327.621 353.379 L
325.5 352.5 L
323.379 353.379 L
322.5 355.5 L
323.379 357.621 L
325.5 358.5 L
327.621 357.621 L
cp
S
GR
GS
0 0.447 0.741 RC
1 LJ
N
335.5 355.5 M
334.621 353.379 L
332.5 352.5 L
330.379 353.379 L
329.5 355.5 L
330.379 357.621 L
332.5 358.5 L
334.621 357.621 L
cp
S
GR
GS
0 0.447 0.741 RC
1 LJ
N
343.5 355.5 M
342.621 353.379 L
340.5 352.5 L
338.379 353.379 L
337.5 355.5 L
338.379 357.621 L
340.5 358.5 L
342.621 357.621 L
cp
S
GR
GS
0 0.447 0.741 RC
1 LJ
N
350.5 355.5 M
349.621 353.379 L
347.5 352.5 L
345.379 353.379 L
344.5 355.5 L
345.379 357.621 L
347.5 358.5 L
349.621 357.621 L
cp
S
GR
GS
0 0.447 0.741 RC
1 LJ
N
359.5 355.5 M
358.621 353.379 L
356.5 352.5 L
354.379 353.379 L
353.5 355.5 L
354.379 357.621 L
356.5 358.5 L
358.621 357.621 L
cp
S
GR
GS
0 0.447 0.741 RC
1 LJ
N
368.5 355.5 M
367.621 353.379 L
365.5 352.5 L
363.379 353.379 L
362.5 355.5 L
363.379 357.621 L
365.5 358.5 L
367.621 357.621 L
cp
S
GR
GS
0 0.447 0.741 RC
1 LJ
N
376.5 355.5 M
375.621 353.379 L
373.5 352.5 L
371.379 353.379 L
370.5 355.5 L
371.379 357.621 L
373.5 358.5 L
375.621 357.621 L
cp
S
GR
GS
0 0.447 0.741 RC
1 LJ
N
385.5 355.5 M
384.621 353.379 L
382.5 352.5 L
380.379 353.379 L
379.5 355.5 L
380.379 357.621 L
382.5 358.5 L
384.621 357.621 L
cp
S
GR
GS
0 0.447 0.741 RC
1 LJ
N
393.5 355.5 M
392.621 353.379 L
390.5 352.5 L
388.379 353.379 L
387.5 355.5 L
388.379 357.621 L
390.5 358.5 L
392.621 357.621 L
cp
S
GR
GS
0 0.447 0.741 RC
1 LJ
N
401.5 355.5 M
400.621 353.379 L
398.5 352.5 L
396.379 353.379 L
395.5 355.5 L
396.379 357.621 L
398.5 358.5 L
400.621 357.621 L
cp
S
GR
GS
0 0.447 0.741 RC
1 LJ
N
408.5 355.5 M
407.621 353.379 L
405.5 352.5 L
403.379 353.379 L
402.5 355.5 L
403.379 357.621 L
405.5 358.5 L
407.621 357.621 L
cp
S
GR
GS
0 0.447 0.741 RC
1 LJ
N
416.5 355.5 M
415.621 353.379 L
413.5 352.5 L
411.379 353.379 L
410.5 355.5 L
411.379 357.621 L
413.5 358.5 L
415.621 357.621 L
cp
S
GR
GS
0 0.447 0.741 RC
1 LJ
N
425.5 355.5 M
424.621 353.379 L
422.5 352.5 L
420.379 353.379 L
419.5 355.5 L
420.379 357.621 L
422.5 358.5 L
424.621 357.621 L
cp
S
GR
GS
0 0.447 0.741 RC
1 LJ
N
432.5 356.5 M
431.621 354.379 L
429.5 353.5 L
427.379 354.379 L
426.5 356.5 L
427.379 358.621 L
429.5 359.5 L
431.621 358.621 L
cp
S
GR
GS
0 0.447 0.741 RC
1 LJ
N
440.5 356.5 M
439.621 354.379 L
437.5 353.5 L
435.379 354.379 L
434.5 356.5 L
435.379 358.621 L
437.5 359.5 L
439.621 358.621 L
cp
S
GR
GS
0 0.447 0.741 RC
1 LJ
N
448.5 356.5 M
447.621 354.379 L
445.5 353.5 L
443.379 354.379 L
442.5 356.5 L
443.379 358.621 L
445.5 359.5 L
447.621 358.621 L
cp
S
GR
GS
0 0.447 0.741 RC
1 LJ
N
456.5 356.5 M
455.621 354.379 L
453.5 353.5 L
451.379 354.379 L
450.5 356.5 L
451.379 358.621 L
453.5 359.5 L
455.621 358.621 L
cp
S
GR
GS
0 0.447 0.741 RC
1 LJ
N
463.5 356.5 M
462.621 354.379 L
460.5 353.5 L
458.379 354.379 L
457.5 356.5 L
458.379 358.621 L
460.5 359.5 L
462.621 358.621 L
cp
S
GR
GS
0 0.447 0.741 RC
1 LJ
N
471.5 356.5 M
470.621 354.379 L
468.5 353.5 L
466.379 354.379 L
465.5 356.5 L
466.379 358.621 L
468.5 359.5 L
470.621 358.621 L
cp
S
GR
GS
0.851 0.325 0.098 RC
1 LJ
N
109.333 122.902 M
116.651 169.503 L
124.247 196.13 L
131.98 192.725 L
140.174 292.399 L
148.107 295.449 L
156.14 311.901 L
163.767 313.875 L
171.071 313.356 L
178.499 333.703 L
186.281 331.526 L
194.555 339.13 L
202.057 336.706 L
209.581 345.069 L
217.058 344.96 L
224.647 345.744 L
232.045 345.037 L
239.486 347.697 L
246.898 348.658 L
254.537 348.665 L
262.058 349.257 L
269.424 348.246 L
277.069 350.342 L
284.533 350.246 L
293.069 350.679 L
302.039 350.697 L
309.887 350.903 L
317.691 350.994 L
325.16 351.163 L
332.649 351.29 L
340.167 351.446 L
347.918 351.711 L
356.761 351.732 L
365.403 351.836 L
373.915 352.061 L
382.361 352.038 L
390.677 352.192 L
398.239 352.261 L
405.85 352.398 L
413.946 352.462 L
422.129 352.6 L
429.851 352.652 L
437.636 352.856 L
445.437 352.855 L
453.14 353.059 L
460.942 353.078 L
468.957 353.215 L
S
GR
GS
0.851 0.325 0.098 RC
1 LJ
N
112.5 122.5 M
111.621 120.379 L
109.5 119.5 L
107.379 120.379 L
106.5 122.5 L
107.379 124.621 L
109.5 125.5 L
111.621 124.621 L
cp
S
GR
GS
0.851 0.325 0.098 RC
1 LJ
N
119.5 169.5 M
118.621 167.379 L
116.5 166.5 L
114.379 167.379 L
113.5 169.5 L
114.379 171.621 L
116.5 172.5 L
118.621 171.621 L
cp
S
GR
GS
0.851 0.325 0.098 RC
1 LJ
N
127.5 196.5 M
126.621 194.379 L
124.5 193.5 L
122.379 194.379 L
121.5 196.5 L
122.379 198.621 L
124.5 199.5 L
126.621 198.621 L
cp
S
GR
GS
0.851 0.325 0.098 RC
1 LJ
N
134.5 192.5 M
133.621 190.379 L
131.5 189.5 L
129.379 190.379 L
128.5 192.5 L
129.379 194.621 L
131.5 195.5 L
133.621 194.621 L
cp
S
GR
GS
0.851 0.325 0.098 RC
1 LJ
N
143.5 292.5 M
142.621 290.379 L
140.5 289.5 L
138.379 290.379 L
137.5 292.5 L
138.379 294.621 L
140.5 295.5 L
142.621 294.621 L
cp
S
GR
GS
0.851 0.325 0.098 RC
1 LJ
N
151.5 295.5 M
150.621 293.379 L
148.5 292.5 L
146.379 293.379 L
145.5 295.5 L
146.379 297.621 L
148.5 298.5 L
150.621 297.621 L
cp
S
GR
GS
0.851 0.325 0.098 RC
1 LJ
N
159.5 311.5 M
158.621 309.379 L
156.5 308.5 L
154.379 309.379 L
153.5 311.5 L
154.379 313.621 L
156.5 314.5 L
158.621 313.621 L
cp
S
GR
GS
0.851 0.325 0.098 RC
1 LJ
N
166.5 313.5 M
165.621 311.379 L
163.5 310.5 L
161.379 311.379 L
160.5 313.5 L
161.379 315.621 L
163.5 316.5 L
165.621 315.621 L
cp
S
GR
GS
0.851 0.325 0.098 RC
1 LJ
N
174.5 313.5 M
173.621 311.379 L
171.5 310.5 L
169.379 311.379 L
168.5 313.5 L
169.379 315.621 L
171.5 316.5 L
173.621 315.621 L
cp
S
GR
GS
0.851 0.325 0.098 RC
1 LJ
N
181.5 333.5 M
180.621 331.379 L
178.5 330.5 L
176.379 331.379 L
175.5 333.5 L
176.379 335.621 L
178.5 336.5 L
180.621 335.621 L
cp
S
GR
GS
0.851 0.325 0.098 RC
1 LJ
N
189.5 331.5 M
188.621 329.379 L
186.5 328.5 L
184.379 329.379 L
183.5 331.5 L
184.379 333.621 L
186.5 334.5 L
188.621 333.621 L
cp
S
GR
GS
0.851 0.325 0.098 RC
1 LJ
N
197.5 339.5 M
196.621 337.379 L
194.5 336.5 L
192.379 337.379 L
191.5 339.5 L
192.379 341.621 L
194.5 342.5 L
196.621 341.621 L
cp
S
GR
GS
0.851 0.325 0.098 RC
1 LJ
N
205.5 336.5 M
204.621 334.379 L
202.5 333.5 L
200.379 334.379 L
199.5 336.5 L
200.379 338.621 L
202.5 339.5 L
204.621 338.621 L
cp
S
GR
GS
0.851 0.325 0.098 RC
1 LJ
N
212.5 345.5 M
211.621 343.379 L
209.5 342.5 L
207.379 343.379 L
206.5 345.5 L
207.379 347.621 L
209.5 348.5 L
211.621 347.621 L
cp
S
GR
GS
0.851 0.325 0.098 RC
1 LJ
N
220.5 344.5 M
219.621 342.379 L
217.5 341.5 L
215.379 342.379 L
214.5 344.5 L
215.379 346.621 L
217.5 347.5 L
219.621 346.621 L
cp
S
GR
GS
0.851 0.325 0.098 RC
1 LJ
N
227.5 345.5 M
226.621 343.379 L
224.5 342.5 L
222.379 343.379 L
221.5 345.5 L
222.379 347.621 L
224.5 348.5 L
226.621 347.621 L
cp
S
GR
GS
0.851 0.325 0.098 RC
1 LJ
N
235.5 345.5 M
234.621 343.379 L
232.5 342.5 L
230.379 343.379 L
229.5 345.5 L
230.379 347.621 L
232.5 348.5 L
234.621 347.621 L
cp
S
GR
GS
0.851 0.325 0.098 RC
1 LJ
N
242.5 347.5 M
241.621 345.379 L
239.5 344.5 L
237.379 345.379 L
236.5 347.5 L
237.379 349.621 L
239.5 350.5 L
241.621 349.621 L
cp
S
GR
GS
0.851 0.325 0.098 RC
1 LJ
N
249.5 348.5 M
248.621 346.379 L
246.5 345.5 L
244.379 346.379 L
243.5 348.5 L
244.379 350.621 L
246.5 351.5 L
248.621 350.621 L
cp
S
GR
GS
0.851 0.325 0.098 RC
1 LJ
N
257.5 348.5 M
256.621 346.379 L
254.5 345.5 L
252.379 346.379 L
251.5 348.5 L
252.379 350.621 L
254.5 351.5 L
256.621 350.621 L
cp
S
GR
GS
0.851 0.325 0.098 RC
1 LJ
N
265.5 349.5 M
264.621 347.379 L
262.5 346.5 L
260.379 347.379 L
259.5 349.5 L
260.379 351.621 L
262.5 352.5 L
264.621 351.621 L
cp
S
GR
GS
0.851 0.325 0.098 RC
1 LJ
N
272.5 348.5 M
271.621 346.379 L
269.5 345.5 L
267.379 346.379 L
266.5 348.5 L
267.379 350.621 L
269.5 351.5 L
271.621 350.621 L
cp
S
GR
GS
0.851 0.325 0.098 RC
1 LJ
N
280.5 350.5 M
279.621 348.379 L
277.5 347.5 L
275.379 348.379 L
274.5 350.5 L
275.379 352.621 L
277.5 353.5 L
279.621 352.621 L
cp
S
GR
GS
0.851 0.325 0.098 RC
1 LJ
N
287.5 350.5 M
286.621 348.379 L
284.5 347.5 L
282.379 348.379 L
281.5 350.5 L
282.379 352.621 L
284.5 353.5 L
286.621 352.621 L
cp
S
GR
GS
0.851 0.325 0.098 RC
1 LJ
N
296.5 350.5 M
295.621 348.379 L
293.5 347.5 L
291.379 348.379 L
290.5 350.5 L
291.379 352.621 L
293.5 353.5 L
295.621 352.621 L
cp
S
GR
GS
0.851 0.325 0.098 RC
1 LJ
N
305.5 350.5 M
304.621 348.379 L
302.5 347.5 L
300.379 348.379 L
299.5 350.5 L
300.379 352.621 L
302.5 353.5 L
304.621 352.621 L
cp
S
GR
GS
0.851 0.325 0.098 RC
1 LJ
N
312.5 350.5 M
311.621 348.379 L
309.5 347.5 L
307.379 348.379 L
306.5 350.5 L
307.379 352.621 L
309.5 353.5 L
311.621 352.621 L
cp
S
GR
GS
0.851 0.325 0.098 RC
1 LJ
N
320.5 350.5 M
319.621 348.379 L
317.5 347.5 L
315.379 348.379 L
314.5 350.5 L
315.379 352.621 L
317.5 353.5 L
319.621 352.621 L
cp
S
GR
GS
0.851 0.325 0.098 RC
1 LJ
N
328.5 351.5 M
327.621 349.379 L
325.5 348.5 L
323.379 349.379 L
322.5 351.5 L
323.379 353.621 L
325.5 354.5 L
327.621 353.621 L
cp
S
GR
GS
0.851 0.325 0.098 RC
1 LJ
N
335.5 351.5 M
334.621 349.379 L
332.5 348.5 L
330.379 349.379 L
329.5 351.5 L
330.379 353.621 L
332.5 354.5 L
334.621 353.621 L
cp
S
GR
GS
0.851 0.325 0.098 RC
1 LJ
N
343.5 351.5 M
342.621 349.379 L
340.5 348.5 L
338.379 349.379 L
337.5 351.5 L
338.379 353.621 L
340.5 354.5 L
342.621 353.621 L
cp
S
GR
GS
0.851 0.325 0.098 RC
1 LJ
N
350.5 351.5 M
349.621 349.379 L
347.5 348.5 L
345.379 349.379 L
344.5 351.5 L
345.379 353.621 L
347.5 354.5 L
349.621 353.621 L
cp
S
GR
GS
0.851 0.325 0.098 RC
1 LJ
N
359.5 351.5 M
358.621 349.379 L
356.5 348.5 L
354.379 349.379 L
353.5 351.5 L
354.379 353.621 L
356.5 354.5 L
358.621 353.621 L
cp
S
GR
GS
0.851 0.325 0.098 RC
1 LJ
N
368.5 351.5 M
367.621 349.379 L
365.5 348.5 L
363.379 349.379 L
362.5 351.5 L
363.379 353.621 L
365.5 354.5 L
367.621 353.621 L
cp
S
GR
GS
0.851 0.325 0.098 RC
1 LJ
N
376.5 352.5 M
375.621 350.379 L
373.5 349.5 L
371.379 350.379 L
370.5 352.5 L
371.379 354.621 L
373.5 355.5 L
375.621 354.621 L
cp
S
GR
GS
0.851 0.325 0.098 RC
1 LJ
N
385.5 352.5 M
384.621 350.379 L
382.5 349.5 L
380.379 350.379 L
379.5 352.5 L
380.379 354.621 L
382.5 355.5 L
384.621 354.621 L
cp
S
GR
GS
0.851 0.325 0.098 RC
1 LJ
N
393.5 352.5 M
392.621 350.379 L
390.5 349.5 L
388.379 350.379 L
387.5 352.5 L
388.379 354.621 L
390.5 355.5 L
392.621 354.621 L
cp
S
GR
GS
0.851 0.325 0.098 RC
1 LJ
N
401.5 352.5 M
400.621 350.379 L
398.5 349.5 L
396.379 350.379 L
395.5 352.5 L
396.379 354.621 L
398.5 355.5 L
400.621 354.621 L
cp
S
GR
GS
0.851 0.325 0.098 RC
1 LJ
N
408.5 352.5 M
407.621 350.379 L
405.5 349.5 L
403.379 350.379 L
402.5 352.5 L
403.379 354.621 L
405.5 355.5 L
407.621 354.621 L
cp
S
GR
GS
0.851 0.325 0.098 RC
1 LJ
N
416.5 352.5 M
415.621 350.379 L
413.5 349.5 L
411.379 350.379 L
410.5 352.5 L
411.379 354.621 L
413.5 355.5 L
415.621 354.621 L
cp
S
GR
GS
0.851 0.325 0.098 RC
1 LJ
N
425.5 352.5 M
424.621 350.379 L
422.5 349.5 L
420.379 350.379 L
419.5 352.5 L
420.379 354.621 L
422.5 355.5 L
424.621 354.621 L
cp
S
GR
GS
0.851 0.325 0.098 RC
1 LJ
N
432.5 352.5 M
431.621 350.379 L
429.5 349.5 L
427.379 350.379 L
426.5 352.5 L
427.379 354.621 L
429.5 355.5 L
431.621 354.621 L
cp
S
GR
GS
0.851 0.325 0.098 RC
1 LJ
N
440.5 352.5 M
439.621 350.379 L
437.5 349.5 L
435.379 350.379 L
434.5 352.5 L
435.379 354.621 L
437.5 355.5 L
439.621 354.621 L
cp
S
GR
GS
0.851 0.325 0.098 RC
1 LJ
N
448.5 352.5 M
447.621 350.379 L
445.5 349.5 L
443.379 350.379 L
442.5 352.5 L
443.379 354.621 L
445.5 355.5 L
447.621 354.621 L
cp
S
GR
GS
0.851 0.325 0.098 RC
1 LJ
N
456.5 353.5 M
455.621 351.379 L
453.5 350.5 L
451.379 351.379 L
450.5 353.5 L
451.379 355.621 L
453.5 356.5 L
455.621 355.621 L
cp
S
GR
GS
0.851 0.325 0.098 RC
1 LJ
N
463.5 353.5 M
462.621 351.379 L
460.5 350.5 L
458.379 351.379 L
457.5 353.5 L
458.379 355.621 L
460.5 356.5 L
462.621 355.621 L
cp
S
GR
GS
0.851 0.325 0.098 RC
1 LJ
N
471.5 353.5 M
470.621 351.379 L
468.5 350.5 L
466.379 351.379 L
465.5 353.5 L
466.379 355.621 L
468.5 356.5 L
470.621 355.621 L
cp
S
GR
GS
0.929 0.694 0.125 RC
1 LJ
N
109.527 32.5 M
117.665 160.391 L
124.891 176.418 L
132.179 218.651 L
139.352 207.216 L
146.456 220.891 L
154.709 288.018 L
161.846 293.247 L
169.445 316.15 L
177.577 312.234 L
185.048 319.51 L
193.806 341.802 L
200.85 348.083 L
208.105 340.251 L
215.055 352.135 L
221.98 354.98 L
230.193 359.113 L
237.696 359.744 L
245.365 360.239 L
253.011 362.928 L
259.974 364.435 L
268.373 368.218 L
275.75 369.901 L
283.415 367.735 L
290.821 372.145 L
298.416 374.811 L
307.071 372.796 L
314.509 374.341 L
322.247 376.46 L
329.685 376.517 L
336.656 378.39 L
345.043 378.063 L
352.116 379.672 L
359.089 380.879 L
366.188 381.962 L
373.25 382.12 L
381.324 382.182 L
388.199 382.873 L
395.069 382.963 L
401.959 383.253 L
408.882 383.362 L
416.946 383.297 L
423.799 383.653 L
430.692 383.759 L
437.638 384 L
444.726 383.861 L
452.745 383.968 L
S
GR
GS
0.929 0.694 0.125 RC
1 LJ
N
112.5 32.5 M
111.621 30.379 L
109.5 29.5 L
107.379 30.379 L
106.5 32.5 L
107.379 34.621 L
109.5 35.5 L
111.621 34.621 L
cp
S
GR
GS
0.929 0.694 0.125 RC
1 LJ
N
120.5 160.5 M
119.621 158.379 L
117.5 157.5 L
115.379 158.379 L
114.5 160.5 L
115.379 162.621 L
117.5 163.5 L
119.621 162.621 L
cp
S
GR
GS
0.929 0.694 0.125 RC
1 LJ
N
127.5 176.5 M
126.621 174.379 L
124.5 173.5 L
122.379 174.379 L
121.5 176.5 L
122.379 178.621 L
124.5 179.5 L
126.621 178.621 L
cp
S
GR
GS
0.929 0.694 0.125 RC
1 LJ
N
135.5 218.5 M
134.621 216.379 L
132.5 215.5 L
130.379 216.379 L
129.5 218.5 L
130.379 220.621 L
132.5 221.5 L
134.621 220.621 L
cp
S
GR
GS
0.929 0.694 0.125 RC
1 LJ
N
142.5 207.5 M
141.621 205.379 L
139.5 204.5 L
137.379 205.379 L
136.5 207.5 L
137.379 209.621 L
139.5 210.5 L
141.621 209.621 L
cp
S
GR
GS
0.929 0.694 0.125 RC
1 LJ
N
149.5 220.5 M
148.621 218.379 L
146.5 217.5 L
144.379 218.379 L
143.5 220.5 L
144.379 222.621 L
146.5 223.5 L
148.621 222.621 L
cp
S
GR
GS
0.929 0.694 0.125 RC
1 LJ
N
157.5 288.5 M
156.621 286.379 L
154.5 285.5 L
152.379 286.379 L
151.5 288.5 L
152.379 290.621 L
154.5 291.5 L
156.621 290.621 L
cp
S
GR
GS
0.929 0.694 0.125 RC
1 LJ
N
164.5 293.5 M
163.621 291.379 L
161.5 290.5 L
159.379 291.379 L
158.5 293.5 L
159.379 295.621 L
161.5 296.5 L
163.621 295.621 L
cp
S
GR
GS
0.929 0.694 0.125 RC
1 LJ
N
172.5 316.5 M
171.621 314.379 L
169.5 313.5 L
167.379 314.379 L
166.5 316.5 L
167.379 318.621 L
169.5 319.5 L
171.621 318.621 L
cp
S
GR
GS
0.929 0.694 0.125 RC
1 LJ
N
180.5 312.5 M
179.621 310.379 L
177.5 309.5 L
175.379 310.379 L
174.5 312.5 L
175.379 314.621 L
177.5 315.5 L
179.621 314.621 L
cp
S
GR
GS
0.929 0.694 0.125 RC
1 LJ
N
188.5 319.5 M
187.621 317.379 L
185.5 316.5 L
183.379 317.379 L
182.5 319.5 L
183.379 321.621 L
185.5 322.5 L
187.621 321.621 L
cp
S
GR
GS
0.929 0.694 0.125 RC
1 LJ
N
196.5 341.5 M
195.621 339.379 L
193.5 338.5 L
191.379 339.379 L
190.5 341.5 L
191.379 343.621 L
193.5 344.5 L
195.621 343.621 L
cp
S
GR
GS
0.929 0.694 0.125 RC
1 LJ
N
203.5 348.5 M
202.621 346.379 L
200.5 345.5 L
198.379 346.379 L
197.5 348.5 L
198.379 350.621 L
200.5 351.5 L
202.621 350.621 L
cp
S
GR
GS
0.929 0.694 0.125 RC
1 LJ
N
211.5 340.5 M
210.621 338.379 L
208.5 337.5 L
206.379 338.379 L
205.5 340.5 L
206.379 342.621 L
208.5 343.5 L
210.621 342.621 L
cp
S
GR
GS
0.929 0.694 0.125 RC
1 LJ
N
218.5 352.5 M
217.621 350.379 L
215.5 349.5 L
213.379 350.379 L
212.5 352.5 L
213.379 354.621 L
215.5 355.5 L
217.621 354.621 L
cp
S
GR
GS
0.929 0.694 0.125 RC
1 LJ
N
224.5 354.5 M
223.621 352.379 L
221.5 351.5 L
219.379 352.379 L
218.5 354.5 L
219.379 356.621 L
221.5 357.5 L
223.621 356.621 L
cp
S
GR
GS
0.929 0.694 0.125 RC
1 LJ
N
233.5 359.5 M
232.621 357.379 L
230.5 356.5 L
228.379 357.379 L
227.5 359.5 L
228.379 361.621 L
230.5 362.5 L
232.621 361.621 L
cp
S
GR
GS
0.929 0.694 0.125 RC
1 LJ
N
240.5 359.5 M
239.621 357.379 L
237.5 356.5 L
235.379 357.379 L
234.5 359.5 L
235.379 361.621 L
237.5 362.5 L
239.621 361.621 L
cp
S
GR
GS
0.929 0.694 0.125 RC
1 LJ
N
248.5 360.5 M
247.621 358.379 L
245.5 357.5 L
243.379 358.379 L
242.5 360.5 L
243.379 362.621 L
245.5 363.5 L
247.621 362.621 L
cp
S
GR
GS
0.929 0.694 0.125 RC
1 LJ
N
256.5 362.5 M
255.621 360.379 L
253.5 359.5 L
251.379 360.379 L
250.5 362.5 L
251.379 364.621 L
253.5 365.5 L
255.621 364.621 L
cp
S
GR
GS
0.929 0.694 0.125 RC
1 LJ
N
262.5 364.5 M
261.621 362.379 L
259.5 361.5 L
257.379 362.379 L
256.5 364.5 L
257.379 366.621 L
259.5 367.5 L
261.621 366.621 L
cp
S
GR
GS
0.929 0.694 0.125 RC
1 LJ
N
271.5 368.5 M
270.621 366.379 L
268.5 365.5 L
266.379 366.379 L
265.5 368.5 L
266.379 370.621 L
268.5 371.5 L
270.621 370.621 L
cp
S
GR
GS
0.929 0.694 0.125 RC
1 LJ
N
278.5 369.5 M
277.621 367.379 L
275.5 366.5 L
273.379 367.379 L
272.5 369.5 L
273.379 371.621 L
275.5 372.5 L
277.621 371.621 L
cp
S
GR
GS
0.929 0.694 0.125 RC
1 LJ
N
286.5 367.5 M
285.621 365.379 L
283.5 364.5 L
281.379 365.379 L
280.5 367.5 L
281.379 369.621 L
283.5 370.5 L
285.621 369.621 L
cp
S
GR
GS
0.929 0.694 0.125 RC
1 LJ
N
293.5 372.5 M
292.621 370.379 L
290.5 369.5 L
288.379 370.379 L
287.5 372.5 L
288.379 374.621 L
290.5 375.5 L
292.621 374.621 L
cp
S
GR
GS
0.929 0.694 0.125 RC
1 LJ
N
301.5 374.5 M
300.621 372.379 L
298.5 371.5 L
296.379 372.379 L
295.5 374.5 L
296.379 376.621 L
298.5 377.5 L
300.621 376.621 L
cp
S
GR
GS
0.929 0.694 0.125 RC
1 LJ
N
310.5 372.5 M
309.621 370.379 L
307.5 369.5 L
305.379 370.379 L
304.5 372.5 L
305.379 374.621 L
307.5 375.5 L
309.621 374.621 L
cp
S
GR
GS
0.929 0.694 0.125 RC
1 LJ
N
317.5 374.5 M
316.621 372.379 L
314.5 371.5 L
312.379 372.379 L
311.5 374.5 L
312.379 376.621 L
314.5 377.5 L
316.621 376.621 L
cp
S
GR
GS
0.929 0.694 0.125 RC
1 LJ
N
325.5 376.5 M
324.621 374.379 L
322.5 373.5 L
320.379 374.379 L
319.5 376.5 L
320.379 378.621 L
322.5 379.5 L
324.621 378.621 L
cp
S
GR
GS
0.929 0.694 0.125 RC
1 LJ
N
332.5 376.5 M
331.621 374.379 L
329.5 373.5 L
327.379 374.379 L
326.5 376.5 L
327.379 378.621 L
329.5 379.5 L
331.621 378.621 L
cp
S
GR
GS
0.929 0.694 0.125 RC
1 LJ
N
339.5 378.5 M
338.621 376.379 L
336.5 375.5 L
334.379 376.379 L
333.5 378.5 L
334.379 380.621 L
336.5 381.5 L
338.621 380.621 L
cp
S
GR
GS
0.929 0.694 0.125 RC
1 LJ
N
348.5 378.5 M
347.621 376.379 L
345.5 375.5 L
343.379 376.379 L
342.5 378.5 L
343.379 380.621 L
345.5 381.5 L
347.621 380.621 L
cp
S
GR
GS
0.929 0.694 0.125 RC
1 LJ
N
355.5 379.5 M
354.621 377.379 L
352.5 376.5 L
350.379 377.379 L
349.5 379.5 L
350.379 381.621 L
352.5 382.5 L
354.621 381.621 L
cp
S
GR
GS
0.929 0.694 0.125 RC
1 LJ
N
362.5 380.5 M
361.621 378.379 L
359.5 377.5 L
357.379 378.379 L
356.5 380.5 L
357.379 382.621 L
359.5 383.5 L
361.621 382.621 L
cp
S
GR
GS
0.929 0.694 0.125 RC
1 LJ
N
369.5 381.5 M
368.621 379.379 L
366.5 378.5 L
364.379 379.379 L
363.5 381.5 L
364.379 383.621 L
366.5 384.5 L
368.621 383.621 L
cp
S
GR
GS
0.929 0.694 0.125 RC
1 LJ
N
376.5 382.5 M
375.621 380.379 L
373.5 379.5 L
371.379 380.379 L
370.5 382.5 L
371.379 384.621 L
373.5 385.5 L
375.621 384.621 L
cp
S
GR
GS
0.929 0.694 0.125 RC
1 LJ
N
384.5 382.5 M
383.621 380.379 L
381.5 379.5 L
379.379 380.379 L
378.5 382.5 L
379.379 384.621 L
381.5 385.5 L
383.621 384.621 L
cp
S
GR
GS
0.929 0.694 0.125 RC
1 LJ
N
391.5 382.5 M
390.621 380.379 L
388.5 379.5 L
386.379 380.379 L
385.5 382.5 L
386.379 384.621 L
388.5 385.5 L
390.621 384.621 L
cp
S
GR
GS
0.929 0.694 0.125 RC
1 LJ
N
398.5 382.5 M
397.621 380.379 L
395.5 379.5 L
393.379 380.379 L
392.5 382.5 L
393.379 384.621 L
395.5 385.5 L
397.621 384.621 L
cp
S
GR
GS
0.929 0.694 0.125 RC
1 LJ
N
404.5 383.5 M
403.621 381.379 L
401.5 380.5 L
399.379 381.379 L
398.5 383.5 L
399.379 385.621 L
401.5 386.5 L
403.621 385.621 L
cp
S
GR
GS
0.929 0.694 0.125 RC
1 LJ
N
411.5 383.5 M
410.621 381.379 L
408.5 380.5 L
406.379 381.379 L
405.5 383.5 L
406.379 385.621 L
408.5 386.5 L
410.621 385.621 L
cp
S
GR
GS
0.929 0.694 0.125 RC
1 LJ
N
419.5 383.5 M
418.621 381.379 L
416.5 380.5 L
414.379 381.379 L
413.5 383.5 L
414.379 385.621 L
416.5 386.5 L
418.621 385.621 L
cp
S
GR
GS
0.929 0.694 0.125 RC
1 LJ
N
426.5 383.5 M
425.621 381.379 L
423.5 380.5 L
421.379 381.379 L
420.5 383.5 L
421.379 385.621 L
423.5 386.5 L
425.621 385.621 L
cp
S
GR
GS
0.929 0.694 0.125 RC
1 LJ
N
433.5 383.5 M
432.621 381.379 L
430.5 380.5 L
428.379 381.379 L
427.5 383.5 L
428.379 385.621 L
430.5 386.5 L
432.621 385.621 L
cp
S
GR
GS
0.929 0.694 0.125 RC
1 LJ
N
440.5 383.5 M
439.621 381.379 L
437.5 380.5 L
435.379 381.379 L
434.5 383.5 L
435.379 385.621 L
437.5 386.5 L
439.621 385.621 L
cp
S
GR
GS
0.929 0.694 0.125 RC
1 LJ
N
447.5 383.5 M
446.621 381.379 L
444.5 380.5 L
442.379 381.379 L
441.5 383.5 L
442.379 385.621 L
444.5 386.5 L
446.621 385.621 L
cp
S
GR
GS
0.929 0.694 0.125 RC
1 LJ
N
455.5 383.5 M
454.621 381.379 L
452.5 380.5 L
450.379 381.379 L
449.5 383.5 L
450.379 385.621 L
452.5 386.5 L
454.621 385.621 L
cp
S
GR
GS
[1 0 0 1 360 53.75] CT
/Helvetica 18 F
GS
[1 0 0 1 0 0] CT
0 4.5 moveto 
1 -1 scale
(Random shuffling) t 
GR
GR
GS
0 0.447 0.741 RC
1 LJ
N
327 53.75 M
357 53.75 L
S
GR
GS
0 0.447 0.741 RC
1 LJ
N
344.5 53.5 M
343.621 51.379 L
341.5 50.5 L
339.379 51.379 L
338.5 53.5 L
339.379 55.621 L
341.5 56.5 L
343.621 55.621 L
cp
S
GR
GS
[1 0 0 1 360 72.75] CT
/Helvetica 18 F
GS
[1 0 0 1 0 0] CT
0 4.5 moveto 
1 -1 scale
(Smart shuffling) t 
GR
GR
GS
0.851 0.325 0.098 RC
1 LJ
N
327 72.75 M
357 72.75 L
S
GR
GS
0.851 0.325 0.098 RC
1 LJ
N
344.5 72.5 M
343.621 70.379 L
341.5 69.5 L
339.379 70.379 L
338.5 72.5 L
339.379 74.621 L
341.5 75.5 L
343.621 74.621 L
cp
S
GR
GS
[1 0 0 1 360 91.75] CT
/Helvetica 18 F
GS
[1 0 0 1 0 0] CT
0 4.5 moveto 
1 -1 scale
(Weighted shuffling) t 
GR
GR
GS
0.929 0.694 0.125 RC
1 LJ
N
327 91.75 M
357 91.75 L
S
GR
GS
0.929 0.694 0.125 RC
1 LJ
N
344.5 91.5 M
343.621 89.379 L
341.5 88.5 L
339.379 89.379 L
338.5 91.5 L
339.379 93.621 L
341.5 94.5 L
343.621 93.621 L
cp
S
GR
%%Trailer
%%Pages: 1
%%EOF
