%!PS-Adobe-3.0 EPSF-3.0
%%Creator: (MATLAB, The Mathworks, Inc. Version 8.6.0.267246 \(R2015b\). Operating System: Mac OS X)
%%Title: /Users/gauthiermuguerza/Desktop/rsgd/report/images/trafficTest.eps
%%CreationDate: 2018-06-05T21:39:57
%%Pages: (atend)
%%BoundingBox:     0     0   538   404
%%LanguageLevel: 3
%%EndComments
%%BeginProlog
%%BeginResource: procset (Apache XML Graphics Std ProcSet) 1.2 0
%%Version: 1.2 0
%%Copyright: (Copyright 2001-2003,2010 The Apache Software Foundation. License terms: http://www.apache.org/licenses/LICENSE-2.0)
/bd{bind def}bind def
/ld{load def}bd
/GR/grestore ld
/M/moveto ld
/LJ/setlinejoin ld
/C/curveto ld
/f/fill ld
/LW/setlinewidth ld
/GC/setgray ld
/t/show ld
/N/newpath ld
/CT/concat ld
/cp/closepath ld
/S/stroke ld
/L/lineto ld
/CC/setcmykcolor ld
/A/ashow ld
/GS/gsave ld
/RC/setrgbcolor ld
/RM/rmoveto ld
/ML/setmiterlimit ld
/re {4 2 roll M
1 index 0 rlineto
0 exch rlineto
neg 0 rlineto
cp } bd
/_ctm matrix def
/_tm matrix def
/BT { _ctm currentmatrix pop matrix _tm copy pop 0 0 moveto } bd
/ET { _ctm setmatrix } bd
/iTm { _ctm setmatrix _tm concat } bd
/Tm { _tm astore pop iTm 0 0 moveto } bd
/ux 0.0 def
/uy 0.0 def
/F {
  /Tp exch def
  /Tf exch def
  Tf findfont Tp scalefont setfont
  /cf Tf def  /cs Tp def
} bd
/ULS {currentpoint /uy exch def /ux exch def} bd
/ULE {
  /Tcx currentpoint pop def
  gsave
  newpath
  cf findfont cs scalefont dup
  /FontMatrix get 0 get /Ts exch def /FontInfo get dup
  /UnderlinePosition get Ts mul /To exch def
  /UnderlineThickness get Ts mul /Tt exch def
  ux uy To add moveto  Tcx uy To add lineto
  Tt setlinewidth stroke
  grestore
} bd
/OLE {
  /Tcx currentpoint pop def
  gsave
  newpath
  cf findfont cs scalefont dup
  /FontMatrix get 0 get /Ts exch def /FontInfo get dup
  /UnderlinePosition get Ts mul /To exch def
  /UnderlineThickness get Ts mul /Tt exch def
  ux uy To add cs add moveto Tcx uy To add cs add lineto
  Tt setlinewidth stroke
  grestore
} bd
/SOE {
  /Tcx currentpoint pop def
  gsave
  newpath
  cf findfont cs scalefont dup
  /FontMatrix get 0 get /Ts exch def /FontInfo get dup
  /UnderlinePosition get Ts mul /To exch def
  /UnderlineThickness get Ts mul /Tt exch def
  ux uy To add cs 10 mul 26 idiv add moveto Tcx uy To add cs 10 mul 26 idiv add lineto
  Tt setlinewidth stroke
  grestore
} bd
/QT {
/Y22 exch store
/X22 exch store
/Y21 exch store
/X21 exch store
currentpoint
/Y21 load 2 mul add 3 div exch
/X21 load 2 mul add 3 div exch
/X21 load 2 mul /X22 load add 3 div
/Y21 load 2 mul /Y22 load add 3 div
/X22 load /Y22 load curveto
} bd
/SSPD {
dup length /d exch dict def
{
/v exch def
/k exch def
currentpagedevice k known {
/cpdv currentpagedevice k get def
v cpdv ne {
/upd false def
/nullv v type /nulltype eq def
/nullcpdv cpdv type /nulltype eq def
nullv nullcpdv or
{
/upd true def
} {
/sametype v type cpdv type eq def
sametype {
v type /arraytype eq {
/vlen v length def
/cpdvlen cpdv length def
vlen cpdvlen eq {
0 1 vlen 1 sub {
/i exch def
/obj v i get def
/cpdobj cpdv i get def
obj cpdobj ne {
/upd true def
exit
} if
} for
} {
/upd true def
} ifelse
} {
v type /dicttype eq {
v {
/dv exch def
/dk exch def
/cpddv cpdv dk get def
dv cpddv ne {
/upd true def
exit
} if
} forall
} {
/upd true def
} ifelse
} ifelse
} if
} ifelse
upd true eq {
d k v put
} if
} if
} if
} forall
d length 0 gt {
d setpagedevice
} if
} bd
%%EndResource
%%BeginResource: procset (Apache XML Graphics EPS ProcSet) 1.0 0
%%Version: 1.0 0
%%Copyright: (Copyright 2002-2003 The Apache Software Foundation. License terms: http://www.apache.org/licenses/LICENSE-2.0)
/BeginEPSF { %def
/b4_Inc_state save def         % Save state for cleanup
/dict_count countdictstack def % Count objects on dict stack
/op_count count 1 sub def      % Count objects on operand stack
userdict begin                 % Push userdict on dict stack
/showpage { } def              % Redefine showpage, { } = null proc
0 setgray 0 setlinecap         % Prepare graphics state
1 setlinewidth 0 setlinejoin
10 setmiterlimit [ ] 0 setdash newpath
/languagelevel where           % If level not equal to 1 then
{pop languagelevel             % set strokeadjust and
1 ne                           % overprint to their defaults.
{false setstrokeadjust false setoverprint
} if
} if
} bd
/EndEPSF { %def
count op_count sub {pop} repeat            % Clean up stacks
countdictstack dict_count sub {end} repeat
b4_Inc_state restore
} bd
%%EndResource
%FOPBeginFontDict
%%IncludeResource: font Courier-Bold
%%IncludeResource: font Helvetica
%%IncludeResource: font Courier-BoldOblique
%%IncludeResource: font Courier-Oblique
%%IncludeResource: font Times-Roman
%%IncludeResource: font Helvetica-BoldOblique
%%IncludeResource: font Helvetica-Bold
%%IncludeResource: font Helvetica-Oblique
%%IncludeResource: font Times-BoldItalic
%%IncludeResource: font Courier
%%IncludeResource: font Times-Italic
%%IncludeResource: font Times-Bold
%%IncludeResource: font Symbol
%%IncludeResource: font ZapfDingbats
%FOPEndFontDict
%%BeginResource: encoding WinAnsiEncoding
/WinAnsiEncoding [
/.notdef /.notdef /.notdef /.notdef /.notdef
/.notdef /.notdef /.notdef /.notdef /.notdef
/.notdef /.notdef /.notdef /.notdef /.notdef
/.notdef /.notdef /.notdef /.notdef /.notdef
/.notdef /.notdef /.notdef /.notdef /.notdef
/.notdef /.notdef /.notdef /.notdef /.notdef
/.notdef /.notdef /space /exclam /quotedbl
/numbersign /dollar /percent /ampersand /quotesingle
/parenleft /parenright /asterisk /plus /comma
/hyphen /period /slash /zero /one
/two /three /four /five /six
/seven /eight /nine /colon /semicolon
/less /equal /greater /question /at
/A /B /C /D /E
/F /G /H /I /J
/K /L /M /N /O
/P /Q /R /S /T
/U /V /W /X /Y
/Z /bracketleft /backslash /bracketright /asciicircum
/underscore /quoteleft /a /b /c
/d /e /f /g /h
/i /j /k /l /m
/n /o /p /q /r
/s /t /u /v /w
/x /y /z /braceleft /bar
/braceright /asciitilde /bullet /Euro /bullet
/quotesinglbase /florin /quotedblbase /ellipsis /dagger
/daggerdbl /circumflex /perthousand /Scaron /guilsinglleft
/OE /bullet /Zcaron /bullet /bullet
/quoteleft /quoteright /quotedblleft /quotedblright /bullet
/endash /emdash /asciitilde /trademark /scaron
/guilsinglright /oe /bullet /zcaron /Ydieresis
/space /exclamdown /cent /sterling /currency
/yen /brokenbar /section /dieresis /copyright
/ordfeminine /guillemotleft /logicalnot /sfthyphen /registered
/macron /degree /plusminus /twosuperior /threesuperior
/acute /mu /paragraph /middot /cedilla
/onesuperior /ordmasculine /guillemotright /onequarter /onehalf
/threequarters /questiondown /Agrave /Aacute /Acircumflex
/Atilde /Adieresis /Aring /AE /Ccedilla
/Egrave /Eacute /Ecircumflex /Edieresis /Igrave
/Iacute /Icircumflex /Idieresis /Eth /Ntilde
/Ograve /Oacute /Ocircumflex /Otilde /Odieresis
/multiply /Oslash /Ugrave /Uacute /Ucircumflex
/Udieresis /Yacute /Thorn /germandbls /agrave
/aacute /acircumflex /atilde /adieresis /aring
/ae /ccedilla /egrave /eacute /ecircumflex
/edieresis /igrave /iacute /icircumflex /idieresis
/eth /ntilde /ograve /oacute /ocircumflex
/otilde /odieresis /divide /oslash /ugrave
/uacute /ucircumflex /udieresis /yacute /thorn
/ydieresis
] def
%%EndResource
%FOPBeginFontReencode
/Courier-Bold findfont
dup length dict begin
  {1 index /FID ne {def} {pop pop} ifelse} forall
  /Encoding WinAnsiEncoding def
  currentdict
end
/Courier-Bold exch definefont pop
/Helvetica findfont
dup length dict begin
  {1 index /FID ne {def} {pop pop} ifelse} forall
  /Encoding WinAnsiEncoding def
  currentdict
end
/Helvetica exch definefont pop
/Courier-BoldOblique findfont
dup length dict begin
  {1 index /FID ne {def} {pop pop} ifelse} forall
  /Encoding WinAnsiEncoding def
  currentdict
end
/Courier-BoldOblique exch definefont pop
/Courier-Oblique findfont
dup length dict begin
  {1 index /FID ne {def} {pop pop} ifelse} forall
  /Encoding WinAnsiEncoding def
  currentdict
end
/Courier-Oblique exch definefont pop
/Times-Roman findfont
dup length dict begin
  {1 index /FID ne {def} {pop pop} ifelse} forall
  /Encoding WinAnsiEncoding def
  currentdict
end
/Times-Roman exch definefont pop
/Helvetica-BoldOblique findfont
dup length dict begin
  {1 index /FID ne {def} {pop pop} ifelse} forall
  /Encoding WinAnsiEncoding def
  currentdict
end
/Helvetica-BoldOblique exch definefont pop
/Helvetica-Bold findfont
dup length dict begin
  {1 index /FID ne {def} {pop pop} ifelse} forall
  /Encoding WinAnsiEncoding def
  currentdict
end
/Helvetica-Bold exch definefont pop
/Helvetica-Oblique findfont
dup length dict begin
  {1 index /FID ne {def} {pop pop} ifelse} forall
  /Encoding WinAnsiEncoding def
  currentdict
end
/Helvetica-Oblique exch definefont pop
/Times-BoldItalic findfont
dup length dict begin
  {1 index /FID ne {def} {pop pop} ifelse} forall
  /Encoding WinAnsiEncoding def
  currentdict
end
/Times-BoldItalic exch definefont pop
/Courier findfont
dup length dict begin
  {1 index /FID ne {def} {pop pop} ifelse} forall
  /Encoding WinAnsiEncoding def
  currentdict
end
/Courier exch definefont pop
/Times-Italic findfont
dup length dict begin
  {1 index /FID ne {def} {pop pop} ifelse} forall
  /Encoding WinAnsiEncoding def
  currentdict
end
/Times-Italic exch definefont pop
/Times-Bold findfont
dup length dict begin
  {1 index /FID ne {def} {pop pop} ifelse} forall
  /Encoding WinAnsiEncoding def
  currentdict
end
/Times-Bold exch definefont pop
%FOPEndFontReencode
%%EndProlog
%%Page: 1 1
%%PageBoundingBox: 0 0 576 432
%%BeginPageSetup
[1 0 0 -1 0 432] CT
%%EndPageSetup
GS
1 GC
N
0 0 576 432 re
f
GR
GS
1 GC
N
0 0 576 432 re
f
GR
GS
1 GC
N
80 384 M
521.5 384 L
521.5 32.5 L
80 32.5 L
cp
f
GR
GS
0.149 GC
2 setlinecap
1 LJ
0.5 LW
N
80 384 M
521.5 384 L
S
GR
GS
0.149 GC
2 setlinecap
1 LJ
0.5 LW
N
80 384 M
80 379.585 L
S
GR
GS
0.149 GC
2 setlinecap
1 LJ
0.5 LW
N
168.3 384 M
168.3 379.585 L
S
GR
GS
0.149 GC
2 setlinecap
1 LJ
0.5 LW
N
256.6 384 M
256.6 379.585 L
S
GR
GS
0.149 GC
2 setlinecap
1 LJ
0.5 LW
N
344.9 384 M
344.9 379.585 L
S
GR
GS
0.149 GC
2 setlinecap
1 LJ
0.5 LW
N
433.2 384 M
433.2 379.585 L
S
GR
GS
0.149 GC
2 setlinecap
1 LJ
0.5 LW
N
521.5 384 M
521.5 379.585 L
S
GR
GS
[1 0 0 1 80 390] CT
0.149 GC
/Helvetica 20 F
GS
[1 0 0 1 0 0] CT
-6 16 moveto 
1 -1 scale
(0) t 
GR
GR
GS
[1 0 0 1 168.3 390] CT
0.149 GC
/Helvetica 20 F
GS
[1 0 0 1 0 0] CT
-11.5 16 moveto 
1 -1 scale
(20) t 
GR
GR
GS
[1 0 0 1 256.60001 390] CT
0.149 GC
/Helvetica 20 F
GS
[1 0 0 1 0 0] CT
-11.5 16 moveto 
1 -1 scale
(40) t 
GR
GR
GS
[1 0 0 1 344.90002 390] CT
0.149 GC
/Helvetica 20 F
GS
[1 0 0 1 0 0] CT
-11.5 16 moveto 
1 -1 scale
(60) t 
GR
GR
GS
[1 0 0 1 433.20001 390] CT
0.149 GC
/Helvetica 20 F
GS
[1 0 0 1 0 0] CT
-11.5 16 moveto 
1 -1 scale
(80) t 
GR
GR
GS
[1 0 0 1 521.5 390] CT
0.149 GC
/Helvetica 20 F
GS
[1 0 0 1 0 0] CT
-17 16 moveto 
1 -1 scale
(100) t 
GR
GR
GS
[1 0 0 1 300.75021 411.5] CT
0.149 GC
/Helvetica 20 F
GS
[1 0 0 1 0 0] CT
-37 16 moveto 
1 -1 scale
(Time \(s\)) t 
GR
GR
GS
0.149 GC
2 setlinecap
1 LJ
0.5 LW
N
80 384 M
80 32.5 L
S
GR
GS
0.149 GC
2 setlinecap
1 LJ
0.5 LW
N
80 362.347 M
84.415 362.347 L
S
GR
GS
0.149 GC
2 setlinecap
1 LJ
0.5 LW
N
80 294.691 M
84.415 294.691 L
S
GR
GS
0.149 GC
2 setlinecap
1 LJ
0.5 LW
N
80 230.183 M
84.415 230.183 L
S
GR
GS
0.149 GC
2 setlinecap
1 LJ
0.5 LW
N
80 168.542 M
84.415 168.542 L
S
GR
GS
0.149 GC
2 setlinecap
1 LJ
0.5 LW
N
80 109.526 M
84.415 109.526 L
S
GR
GS
0.149 GC
2 setlinecap
1 LJ
0.5 LW
N
80 52.919 M
84.415 52.919 L
S
GR
GS
0.149 GC
2 setlinecap
1 LJ
0.5 LW
N
80 383.305 M
82.207 383.305 L
S
GR
GS
0.149 GC
2 setlinecap
1 LJ
0.5 LW
N
80 376.284 M
82.207 376.284 L
S
GR
GS
0.149 GC
2 setlinecap
1 LJ
0.5 LW
N
80 369.298 M
82.207 369.298 L
S
GR
GS
0.149 GC
2 setlinecap
1 LJ
0.5 LW
N
80 355.431 M
82.207 355.431 L
S
GR
GS
0.149 GC
2 setlinecap
1 LJ
0.5 LW
N
80 348.549 M
82.207 348.549 L
S
GR
GS
0.149 GC
2 setlinecap
1 LJ
0.5 LW
N
80 341.702 M
82.207 341.702 L
S
GR
GS
0.149 GC
2 setlinecap
1 LJ
0.5 LW
N
80 334.887 M
82.207 334.887 L
S
GR
GS
0.149 GC
2 setlinecap
1 LJ
0.5 LW
N
80 328.107 M
82.207 328.107 L
S
GR
GS
0.149 GC
2 setlinecap
1 LJ
0.5 LW
N
80 321.359 M
82.207 321.359 L
S
GR
GS
0.149 GC
2 setlinecap
1 LJ
0.5 LW
N
80 314.644 M
82.207 314.644 L
S
GR
GS
0.149 GC
2 setlinecap
1 LJ
0.5 LW
N
80 307.961 M
82.207 307.961 L
S
GR
GS
0.149 GC
2 setlinecap
1 LJ
0.5 LW
N
80 301.31 M
82.207 301.31 L
S
GR
GS
0.149 GC
2 setlinecap
1 LJ
0.5 LW
N
80 288.103 M
82.207 288.103 L
S
GR
GS
0.149 GC
2 setlinecap
1 LJ
0.5 LW
N
80 281.547 M
82.207 281.547 L
S
GR
GS
0.149 GC
2 setlinecap
1 LJ
0.5 LW
N
80 275.021 M
82.207 275.021 L
S
GR
GS
0.149 GC
2 setlinecap
1 LJ
0.5 LW
N
80 268.526 M
82.207 268.526 L
S
GR
GS
0.149 GC
2 setlinecap
1 LJ
0.5 LW
N
80 262.062 M
82.207 262.062 L
S
GR
GS
0.149 GC
2 setlinecap
1 LJ
0.5 LW
N
80 255.627 M
82.207 255.627 L
S
GR
GS
0.149 GC
2 setlinecap
1 LJ
0.5 LW
N
80 249.222 M
82.207 249.222 L
S
GR
GS
0.149 GC
2 setlinecap
1 LJ
0.5 LW
N
80 242.846 M
82.207 242.846 L
S
GR
GS
0.149 GC
2 setlinecap
1 LJ
0.5 LW
N
80 236.5 M
82.207 236.5 L
S
GR
GS
0.149 GC
2 setlinecap
1 LJ
0.5 LW
N
80 223.894 M
82.207 223.894 L
S
GR
GS
0.149 GC
2 setlinecap
1 LJ
0.5 LW
N
80 217.633 M
82.207 217.633 L
S
GR
GS
0.149 GC
2 setlinecap
1 LJ
0.5 LW
N
80 211.401 M
82.207 211.401 L
S
GR
GS
0.149 GC
2 setlinecap
1 LJ
0.5 LW
N
80 205.197 M
82.207 205.197 L
S
GR
GS
0.149 GC
2 setlinecap
1 LJ
0.5 LW
N
80 199.02 M
82.207 199.02 L
S
GR
GS
0.149 GC
2 setlinecap
1 LJ
0.5 LW
N
80 192.871 M
82.207 192.871 L
S
GR
GS
0.149 GC
2 setlinecap
1 LJ
0.5 LW
N
80 186.748 M
82.207 186.748 L
S
GR
GS
0.149 GC
2 setlinecap
1 LJ
0.5 LW
N
80 180.653 M
82.207 180.653 L
S
GR
GS
0.149 GC
2 setlinecap
1 LJ
0.5 LW
N
80 174.585 M
82.207 174.585 L
S
GR
GS
0.149 GC
2 setlinecap
1 LJ
0.5 LW
N
80 162.526 M
82.207 162.526 L
S
GR
GS
0.149 GC
2 setlinecap
1 LJ
0.5 LW
N
80 156.536 M
82.207 156.536 L
S
GR
GS
0.149 GC
2 setlinecap
1 LJ
0.5 LW
N
80 150.572 M
82.207 150.572 L
S
GR
GS
0.149 GC
2 setlinecap
1 LJ
0.5 LW
N
80 144.634 M
82.207 144.634 L
S
GR
GS
0.149 GC
2 setlinecap
1 LJ
0.5 LW
N
80 138.72 M
82.207 138.72 L
S
GR
GS
0.149 GC
2 setlinecap
1 LJ
0.5 LW
N
80 132.832 M
82.207 132.832 L
S
GR
GS
0.149 GC
2 setlinecap
1 LJ
0.5 LW
N
80 126.969 M
82.207 126.969 L
S
GR
GS
0.149 GC
2 setlinecap
1 LJ
0.5 LW
N
80 121.13 M
82.207 121.13 L
S
GR
GS
0.149 GC
2 setlinecap
1 LJ
0.5 LW
N
80 115.316 M
82.207 115.316 L
S
GR
GS
0.149 GC
2 setlinecap
1 LJ
0.5 LW
N
80 103.76 M
82.207 103.76 L
S
GR
GS
0.149 GC
2 setlinecap
1 LJ
0.5 LW
N
80 98.018 M
82.207 98.018 L
S
GR
GS
0.149 GC
2 setlinecap
1 LJ
0.5 LW
N
80 92.3 M
82.207 92.3 L
S
GR
GS
0.149 GC
2 setlinecap
1 LJ
0.5 LW
N
80 86.605 M
82.207 86.605 L
S
GR
GS
0.149 GC
2 setlinecap
1 LJ
0.5 LW
N
80 80.934 M
82.207 80.934 L
S
GR
GS
0.149 GC
2 setlinecap
1 LJ
0.5 LW
N
80 75.285 M
82.207 75.285 L
S
GR
GS
0.149 GC
2 setlinecap
1 LJ
0.5 LW
N
80 69.66 M
82.207 69.66 L
S
GR
GS
0.149 GC
2 setlinecap
1 LJ
0.5 LW
N
80 64.057 M
82.207 64.057 L
S
GR
GS
0.149 GC
2 setlinecap
1 LJ
0.5 LW
N
80 58.477 M
82.207 58.477 L
S
GR
GS
0.149 GC
2 setlinecap
1 LJ
0.5 LW
N
80 47.383 M
82.207 47.383 L
S
GR
GS
0.149 GC
2 setlinecap
1 LJ
0.5 LW
N
80 41.87 M
82.207 41.87 L
S
GR
GS
0.149 GC
2 setlinecap
1 LJ
0.5 LW
N
80 36.378 M
82.207 36.378 L
S
GR
GS
[1 0 0 1 74 362.34726] CT
0.149 GC
/Helvetica 20 F
GS
[1 0 0 1 0 0] CT
-39 5.5 moveto 
1 -1 scale
(0.02) t 
GR
GR
GS
[1 0 0 1 74 294.69098] CT
0.149 GC
/Helvetica 20 F
GS
[1 0 0 1 0 0] CT
-51 5.5 moveto 
1 -1 scale
(0.021) t 
GR
GR
GS
[1 0 0 1 74 230.18266] CT
0.149 GC
/Helvetica 20 F
GS
[1 0 0 1 0 0] CT
-51 5.5 moveto 
1 -1 scale
(0.022) t 
GR
GR
GS
[1 0 0 1 74 168.54237] CT
0.149 GC
/Helvetica 20 F
GS
[1 0 0 1 0 0] CT
-51 5.5 moveto 
1 -1 scale
(0.023) t 
GR
GR
GS
[1 0 0 1 74 109.52586] CT
0.149 GC
/Helvetica 20 F
GS
[1 0 0 1 0 0] CT
-51 5.5 moveto 
1 -1 scale
(0.024) t 
GR
GR
GS
[1 0 0 1 74 52.91888] CT
0.149 GC
/Helvetica 20 F
GS
[1 0 0 1 0 0] CT
-51 5.5 moveto 
1 -1 scale
(0.025) t 
GR
GR
GS
[0 -1 1 0 20.5 208.24983] CT
0.149 GC
/Helvetica 20 F
GS
[1 0 0 1 0 0] CT
-51.5 -5 moveto 
1 -1 scale
(Test RMSE) t 
GR
GR
GS
0 0.447 0.741 RC
1 LJ
N
109.333 307.781 M
116.651 326.068 L
124.247 344.551 L
131.98 310.191 L
140.174 378.777 L
148.107 367.833 L
156.14 361.183 L
163.767 363.891 L
171.071 353.072 L
178.499 347.683 L
186.281 346.719 L
194.555 342.465 L
202.057 340.245 L
209.581 335.383 L
217.058 329.614 L
224.647 329.956 L
232.045 328.339 L
239.486 326.241 L
246.898 326.163 L
254.537 322.715 L
262.058 321.374 L
269.424 320.463 L
277.069 318.955 L
284.533 318.149 L
293.069 316.98 L
302.039 315.964 L
309.887 315.352 L
317.691 314.895 L
325.16 314.431 L
332.649 313.977 L
340.167 313.833 L
347.918 313.497 L
356.761 313.279 L
365.403 313.109 L
373.915 312.801 L
382.361 312.71 L
390.677 312.603 L
398.239 312.394 L
405.85 312.196 L
413.946 311.986 L
422.129 311.835 L
429.851 311.701 L
437.636 311.458 L
445.437 311.119 L
453.14 310.964 L
460.942 310.719 L
468.957 310.481 L
S
GR
GS
0 0.447 0.741 RC
1 LJ
N
112.5 307.5 M
111.621 305.379 L
109.5 304.5 L
107.379 305.379 L
106.5 307.5 L
107.379 309.621 L
109.5 310.5 L
111.621 309.621 L
cp
S
GR
GS
0 0.447 0.741 RC
1 LJ
N
119.5 326.5 M
118.621 324.379 L
116.5 323.5 L
114.379 324.379 L
113.5 326.5 L
114.379 328.621 L
116.5 329.5 L
118.621 328.621 L
cp
S
GR
GS
0 0.447 0.741 RC
1 LJ
N
127.5 344.5 M
126.621 342.379 L
124.5 341.5 L
122.379 342.379 L
121.5 344.5 L
122.379 346.621 L
124.5 347.5 L
126.621 346.621 L
cp
S
GR
GS
0 0.447 0.741 RC
1 LJ
N
134.5 310.5 M
133.621 308.379 L
131.5 307.5 L
129.379 308.379 L
128.5 310.5 L
129.379 312.621 L
131.5 313.5 L
133.621 312.621 L
cp
S
GR
GS
0 0.447 0.741 RC
1 LJ
N
143.5 378.5 M
142.621 376.379 L
140.5 375.5 L
138.379 376.379 L
137.5 378.5 L
138.379 380.621 L
140.5 381.5 L
142.621 380.621 L
cp
S
GR
GS
0 0.447 0.741 RC
1 LJ
N
151.5 367.5 M
150.621 365.379 L
148.5 364.5 L
146.379 365.379 L
145.5 367.5 L
146.379 369.621 L
148.5 370.5 L
150.621 369.621 L
cp
S
GR
GS
0 0.447 0.741 RC
1 LJ
N
159.5 361.5 M
158.621 359.379 L
156.5 358.5 L
154.379 359.379 L
153.5 361.5 L
154.379 363.621 L
156.5 364.5 L
158.621 363.621 L
cp
S
GR
GS
0 0.447 0.741 RC
1 LJ
N
166.5 363.5 M
165.621 361.379 L
163.5 360.5 L
161.379 361.379 L
160.5 363.5 L
161.379 365.621 L
163.5 366.5 L
165.621 365.621 L
cp
S
GR
GS
0 0.447 0.741 RC
1 LJ
N
174.5 353.5 M
173.621 351.379 L
171.5 350.5 L
169.379 351.379 L
168.5 353.5 L
169.379 355.621 L
171.5 356.5 L
173.621 355.621 L
cp
S
GR
GS
0 0.447 0.741 RC
1 LJ
N
181.5 347.5 M
180.621 345.379 L
178.5 344.5 L
176.379 345.379 L
175.5 347.5 L
176.379 349.621 L
178.5 350.5 L
180.621 349.621 L
cp
S
GR
GS
0 0.447 0.741 RC
1 LJ
N
189.5 346.5 M
188.621 344.379 L
186.5 343.5 L
184.379 344.379 L
183.5 346.5 L
184.379 348.621 L
186.5 349.5 L
188.621 348.621 L
cp
S
GR
GS
0 0.447 0.741 RC
1 LJ
N
197.5 342.5 M
196.621 340.379 L
194.5 339.5 L
192.379 340.379 L
191.5 342.5 L
192.379 344.621 L
194.5 345.5 L
196.621 344.621 L
cp
S
GR
GS
0 0.447 0.741 RC
1 LJ
N
205.5 340.5 M
204.621 338.379 L
202.5 337.5 L
200.379 338.379 L
199.5 340.5 L
200.379 342.621 L
202.5 343.5 L
204.621 342.621 L
cp
S
GR
GS
0 0.447 0.741 RC
1 LJ
N
212.5 335.5 M
211.621 333.379 L
209.5 332.5 L
207.379 333.379 L
206.5 335.5 L
207.379 337.621 L
209.5 338.5 L
211.621 337.621 L
cp
S
GR
GS
0 0.447 0.741 RC
1 LJ
N
220.5 329.5 M
219.621 327.379 L
217.5 326.5 L
215.379 327.379 L
214.5 329.5 L
215.379 331.621 L
217.5 332.5 L
219.621 331.621 L
cp
S
GR
GS
0 0.447 0.741 RC
1 LJ
N
227.5 329.5 M
226.621 327.379 L
224.5 326.5 L
222.379 327.379 L
221.5 329.5 L
222.379 331.621 L
224.5 332.5 L
226.621 331.621 L
cp
S
GR
GS
0 0.447 0.741 RC
1 LJ
N
235.5 328.5 M
234.621 326.379 L
232.5 325.5 L
230.379 326.379 L
229.5 328.5 L
230.379 330.621 L
232.5 331.5 L
234.621 330.621 L
cp
S
GR
GS
0 0.447 0.741 RC
1 LJ
N
242.5 326.5 M
241.621 324.379 L
239.5 323.5 L
237.379 324.379 L
236.5 326.5 L
237.379 328.621 L
239.5 329.5 L
241.621 328.621 L
cp
S
GR
GS
0 0.447 0.741 RC
1 LJ
N
249.5 326.5 M
248.621 324.379 L
246.5 323.5 L
244.379 324.379 L
243.5 326.5 L
244.379 328.621 L
246.5 329.5 L
248.621 328.621 L
cp
S
GR
GS
0 0.447 0.741 RC
1 LJ
N
257.5 322.5 M
256.621 320.379 L
254.5 319.5 L
252.379 320.379 L
251.5 322.5 L
252.379 324.621 L
254.5 325.5 L
256.621 324.621 L
cp
S
GR
GS
0 0.447 0.741 RC
1 LJ
N
265.5 321.5 M
264.621 319.379 L
262.5 318.5 L
260.379 319.379 L
259.5 321.5 L
260.379 323.621 L
262.5 324.5 L
264.621 323.621 L
cp
S
GR
GS
0 0.447 0.741 RC
1 LJ
N
272.5 320.5 M
271.621 318.379 L
269.5 317.5 L
267.379 318.379 L
266.5 320.5 L
267.379 322.621 L
269.5 323.5 L
271.621 322.621 L
cp
S
GR
GS
0 0.447 0.741 RC
1 LJ
N
280.5 318.5 M
279.621 316.379 L
277.5 315.5 L
275.379 316.379 L
274.5 318.5 L
275.379 320.621 L
277.5 321.5 L
279.621 320.621 L
cp
S
GR
GS
0 0.447 0.741 RC
1 LJ
N
287.5 318.5 M
286.621 316.379 L
284.5 315.5 L
282.379 316.379 L
281.5 318.5 L
282.379 320.621 L
284.5 321.5 L
286.621 320.621 L
cp
S
GR
GS
0 0.447 0.741 RC
1 LJ
N
296.5 316.5 M
295.621 314.379 L
293.5 313.5 L
291.379 314.379 L
290.5 316.5 L
291.379 318.621 L
293.5 319.5 L
295.621 318.621 L
cp
S
GR
GS
0 0.447 0.741 RC
1 LJ
N
305.5 315.5 M
304.621 313.379 L
302.5 312.5 L
300.379 313.379 L
299.5 315.5 L
300.379 317.621 L
302.5 318.5 L
304.621 317.621 L
cp
S
GR
GS
0 0.447 0.741 RC
1 LJ
N
312.5 315.5 M
311.621 313.379 L
309.5 312.5 L
307.379 313.379 L
306.5 315.5 L
307.379 317.621 L
309.5 318.5 L
311.621 317.621 L
cp
S
GR
GS
0 0.447 0.741 RC
1 LJ
N
320.5 314.5 M
319.621 312.379 L
317.5 311.5 L
315.379 312.379 L
314.5 314.5 L
315.379 316.621 L
317.5 317.5 L
319.621 316.621 L
cp
S
GR
GS
0 0.447 0.741 RC
1 LJ
N
328.5 314.5 M
327.621 312.379 L
325.5 311.5 L
323.379 312.379 L
322.5 314.5 L
323.379 316.621 L
325.5 317.5 L
327.621 316.621 L
cp
S
GR
GS
0 0.447 0.741 RC
1 LJ
N
335.5 313.5 M
334.621 311.379 L
332.5 310.5 L
330.379 311.379 L
329.5 313.5 L
330.379 315.621 L
332.5 316.5 L
334.621 315.621 L
cp
S
GR
GS
0 0.447 0.741 RC
1 LJ
N
343.5 313.5 M
342.621 311.379 L
340.5 310.5 L
338.379 311.379 L
337.5 313.5 L
338.379 315.621 L
340.5 316.5 L
342.621 315.621 L
cp
S
GR
GS
0 0.447 0.741 RC
1 LJ
N
350.5 313.5 M
349.621 311.379 L
347.5 310.5 L
345.379 311.379 L
344.5 313.5 L
345.379 315.621 L
347.5 316.5 L
349.621 315.621 L
cp
S
GR
GS
0 0.447 0.741 RC
1 LJ
N
359.5 313.5 M
358.621 311.379 L
356.5 310.5 L
354.379 311.379 L
353.5 313.5 L
354.379 315.621 L
356.5 316.5 L
358.621 315.621 L
cp
S
GR
GS
0 0.447 0.741 RC
1 LJ
N
368.5 313.5 M
367.621 311.379 L
365.5 310.5 L
363.379 311.379 L
362.5 313.5 L
363.379 315.621 L
365.5 316.5 L
367.621 315.621 L
cp
S
GR
GS
0 0.447 0.741 RC
1 LJ
N
376.5 312.5 M
375.621 310.379 L
373.5 309.5 L
371.379 310.379 L
370.5 312.5 L
371.379 314.621 L
373.5 315.5 L
375.621 314.621 L
cp
S
GR
GS
0 0.447 0.741 RC
1 LJ
N
385.5 312.5 M
384.621 310.379 L
382.5 309.5 L
380.379 310.379 L
379.5 312.5 L
380.379 314.621 L
382.5 315.5 L
384.621 314.621 L
cp
S
GR
GS
0 0.447 0.741 RC
1 LJ
N
393.5 312.5 M
392.621 310.379 L
390.5 309.5 L
388.379 310.379 L
387.5 312.5 L
388.379 314.621 L
390.5 315.5 L
392.621 314.621 L
cp
S
GR
GS
0 0.447 0.741 RC
1 LJ
N
401.5 312.5 M
400.621 310.379 L
398.5 309.5 L
396.379 310.379 L
395.5 312.5 L
396.379 314.621 L
398.5 315.5 L
400.621 314.621 L
cp
S
GR
GS
0 0.447 0.741 RC
1 LJ
N
408.5 312.5 M
407.621 310.379 L
405.5 309.5 L
403.379 310.379 L
402.5 312.5 L
403.379 314.621 L
405.5 315.5 L
407.621 314.621 L
cp
S
GR
GS
0 0.447 0.741 RC
1 LJ
N
416.5 311.5 M
415.621 309.379 L
413.5 308.5 L
411.379 309.379 L
410.5 311.5 L
411.379 313.621 L
413.5 314.5 L
415.621 313.621 L
cp
S
GR
GS
0 0.447 0.741 RC
1 LJ
N
425.5 311.5 M
424.621 309.379 L
422.5 308.5 L
420.379 309.379 L
419.5 311.5 L
420.379 313.621 L
422.5 314.5 L
424.621 313.621 L
cp
S
GR
GS
0 0.447 0.741 RC
1 LJ
N
432.5 311.5 M
431.621 309.379 L
429.5 308.5 L
427.379 309.379 L
426.5 311.5 L
427.379 313.621 L
429.5 314.5 L
431.621 313.621 L
cp
S
GR
GS
0 0.447 0.741 RC
1 LJ
N
440.5 311.5 M
439.621 309.379 L
437.5 308.5 L
435.379 309.379 L
434.5 311.5 L
435.379 313.621 L
437.5 314.5 L
439.621 313.621 L
cp
S
GR
GS
0 0.447 0.741 RC
1 LJ
N
448.5 311.5 M
447.621 309.379 L
445.5 308.5 L
443.379 309.379 L
442.5 311.5 L
443.379 313.621 L
445.5 314.5 L
447.621 313.621 L
cp
S
GR
GS
0 0.447 0.741 RC
1 LJ
N
456.5 310.5 M
455.621 308.379 L
453.5 307.5 L
451.379 308.379 L
450.5 310.5 L
451.379 312.621 L
453.5 313.5 L
455.621 312.621 L
cp
S
GR
GS
0 0.447 0.741 RC
1 LJ
N
463.5 310.5 M
462.621 308.379 L
460.5 307.5 L
458.379 308.379 L
457.5 310.5 L
458.379 312.621 L
460.5 313.5 L
462.621 312.621 L
cp
S
GR
GS
0 0.447 0.741 RC
1 LJ
N
471.5 310.5 M
470.621 308.379 L
468.5 307.5 L
466.379 308.379 L
465.5 310.5 L
466.379 312.621 L
468.5 313.5 L
470.621 312.621 L
cp
S
GR
GS
0.851 0.325 0.098 RC
1 LJ
N
109.333 287.27 M
116.651 320.649 L
124.247 333.888 L
131.98 321.289 L
140.174 384 L
148.107 367.979 L
156.14 362.859 L
163.767 371.58 L
171.071 351.813 L
178.499 359.198 L
186.281 348.317 L
194.555 355.925 L
202.057 341.288 L
209.581 346.855 L
217.058 340.062 L
224.647 342.832 L
232.045 337.503 L
239.486 337.353 L
246.898 335.127 L
254.537 333.259 L
262.058 332.442 L
269.424 330.223 L
277.069 330.554 L
284.533 328.958 L
293.069 328.464 L
302.039 327.541 L
309.887 326.959 L
317.691 326.152 L
325.16 325.52 L
332.649 324.548 L
340.167 324.012 L
347.918 323.152 L
356.761 322.373 L
365.403 321.732 L
373.915 321.245 L
382.361 320.292 L
390.677 319.748 L
398.239 319.317 L
405.85 318.89 L
413.946 318.468 L
422.129 317.951 L
429.851 317.488 L
437.636 317.062 L
445.437 316.627 L
453.14 316.037 L
460.942 315.394 L
468.957 315.054 L
S
GR
GS
0.851 0.325 0.098 RC
1 LJ
N
112.5 287.5 M
111.621 285.379 L
109.5 284.5 L
107.379 285.379 L
106.5 287.5 L
107.379 289.621 L
109.5 290.5 L
111.621 289.621 L
cp
S
GR
GS
0.851 0.325 0.098 RC
1 LJ
N
119.5 320.5 M
118.621 318.379 L
116.5 317.5 L
114.379 318.379 L
113.5 320.5 L
114.379 322.621 L
116.5 323.5 L
118.621 322.621 L
cp
S
GR
GS
0.851 0.325 0.098 RC
1 LJ
N
127.5 333.5 M
126.621 331.379 L
124.5 330.5 L
122.379 331.379 L
121.5 333.5 L
122.379 335.621 L
124.5 336.5 L
126.621 335.621 L
cp
S
GR
GS
0.851 0.325 0.098 RC
1 LJ
N
134.5 321.5 M
133.621 319.379 L
131.5 318.5 L
129.379 319.379 L
128.5 321.5 L
129.379 323.621 L
131.5 324.5 L
133.621 323.621 L
cp
S
GR
GS
0.851 0.325 0.098 RC
1 LJ
N
143.5 383.5 M
142.621 381.379 L
140.5 380.5 L
138.379 381.379 L
137.5 383.5 L
138.379 385.621 L
140.5 386.5 L
142.621 385.621 L
cp
S
GR
GS
0.851 0.325 0.098 RC
1 LJ
N
151.5 367.5 M
150.621 365.379 L
148.5 364.5 L
146.379 365.379 L
145.5 367.5 L
146.379 369.621 L
148.5 370.5 L
150.621 369.621 L
cp
S
GR
GS
0.851 0.325 0.098 RC
1 LJ
N
159.5 362.5 M
158.621 360.379 L
156.5 359.5 L
154.379 360.379 L
153.5 362.5 L
154.379 364.621 L
156.5 365.5 L
158.621 364.621 L
cp
S
GR
GS
0.851 0.325 0.098 RC
1 LJ
N
166.5 371.5 M
165.621 369.379 L
163.5 368.5 L
161.379 369.379 L
160.5 371.5 L
161.379 373.621 L
163.5 374.5 L
165.621 373.621 L
cp
S
GR
GS
0.851 0.325 0.098 RC
1 LJ
N
174.5 351.5 M
173.621 349.379 L
171.5 348.5 L
169.379 349.379 L
168.5 351.5 L
169.379 353.621 L
171.5 354.5 L
173.621 353.621 L
cp
S
GR
GS
0.851 0.325 0.098 RC
1 LJ
N
181.5 359.5 M
180.621 357.379 L
178.5 356.5 L
176.379 357.379 L
175.5 359.5 L
176.379 361.621 L
178.5 362.5 L
180.621 361.621 L
cp
S
GR
GS
0.851 0.325 0.098 RC
1 LJ
N
189.5 348.5 M
188.621 346.379 L
186.5 345.5 L
184.379 346.379 L
183.5 348.5 L
184.379 350.621 L
186.5 351.5 L
188.621 350.621 L
cp
S
GR
GS
0.851 0.325 0.098 RC
1 LJ
N
197.5 355.5 M
196.621 353.379 L
194.5 352.5 L
192.379 353.379 L
191.5 355.5 L
192.379 357.621 L
194.5 358.5 L
196.621 357.621 L
cp
S
GR
GS
0.851 0.325 0.098 RC
1 LJ
N
205.5 341.5 M
204.621 339.379 L
202.5 338.5 L
200.379 339.379 L
199.5 341.5 L
200.379 343.621 L
202.5 344.5 L
204.621 343.621 L
cp
S
GR
GS
0.851 0.325 0.098 RC
1 LJ
N
212.5 346.5 M
211.621 344.379 L
209.5 343.5 L
207.379 344.379 L
206.5 346.5 L
207.379 348.621 L
209.5 349.5 L
211.621 348.621 L
cp
S
GR
GS
0.851 0.325 0.098 RC
1 LJ
N
220.5 340.5 M
219.621 338.379 L
217.5 337.5 L
215.379 338.379 L
214.5 340.5 L
215.379 342.621 L
217.5 343.5 L
219.621 342.621 L
cp
S
GR
GS
0.851 0.325 0.098 RC
1 LJ
N
227.5 342.5 M
226.621 340.379 L
224.5 339.5 L
222.379 340.379 L
221.5 342.5 L
222.379 344.621 L
224.5 345.5 L
226.621 344.621 L
cp
S
GR
GS
0.851 0.325 0.098 RC
1 LJ
N
235.5 337.5 M
234.621 335.379 L
232.5 334.5 L
230.379 335.379 L
229.5 337.5 L
230.379 339.621 L
232.5 340.5 L
234.621 339.621 L
cp
S
GR
GS
0.851 0.325 0.098 RC
1 LJ
N
242.5 337.5 M
241.621 335.379 L
239.5 334.5 L
237.379 335.379 L
236.5 337.5 L
237.379 339.621 L
239.5 340.5 L
241.621 339.621 L
cp
S
GR
GS
0.851 0.325 0.098 RC
1 LJ
N
249.5 335.5 M
248.621 333.379 L
246.5 332.5 L
244.379 333.379 L
243.5 335.5 L
244.379 337.621 L
246.5 338.5 L
248.621 337.621 L
cp
S
GR
GS
0.851 0.325 0.098 RC
1 LJ
N
257.5 333.5 M
256.621 331.379 L
254.5 330.5 L
252.379 331.379 L
251.5 333.5 L
252.379 335.621 L
254.5 336.5 L
256.621 335.621 L
cp
S
GR
GS
0.851 0.325 0.098 RC
1 LJ
N
265.5 332.5 M
264.621 330.379 L
262.5 329.5 L
260.379 330.379 L
259.5 332.5 L
260.379 334.621 L
262.5 335.5 L
264.621 334.621 L
cp
S
GR
GS
0.851 0.325 0.098 RC
1 LJ
N
272.5 330.5 M
271.621 328.379 L
269.5 327.5 L
267.379 328.379 L
266.5 330.5 L
267.379 332.621 L
269.5 333.5 L
271.621 332.621 L
cp
S
GR
GS
0.851 0.325 0.098 RC
1 LJ
N
280.5 330.5 M
279.621 328.379 L
277.5 327.5 L
275.379 328.379 L
274.5 330.5 L
275.379 332.621 L
277.5 333.5 L
279.621 332.621 L
cp
S
GR
GS
0.851 0.325 0.098 RC
1 LJ
N
287.5 328.5 M
286.621 326.379 L
284.5 325.5 L
282.379 326.379 L
281.5 328.5 L
282.379 330.621 L
284.5 331.5 L
286.621 330.621 L
cp
S
GR
GS
0.851 0.325 0.098 RC
1 LJ
N
296.5 328.5 M
295.621 326.379 L
293.5 325.5 L
291.379 326.379 L
290.5 328.5 L
291.379 330.621 L
293.5 331.5 L
295.621 330.621 L
cp
S
GR
GS
0.851 0.325 0.098 RC
1 LJ
N
305.5 327.5 M
304.621 325.379 L
302.5 324.5 L
300.379 325.379 L
299.5 327.5 L
300.379 329.621 L
302.5 330.5 L
304.621 329.621 L
cp
S
GR
GS
0.851 0.325 0.098 RC
1 LJ
N
312.5 326.5 M
311.621 324.379 L
309.5 323.5 L
307.379 324.379 L
306.5 326.5 L
307.379 328.621 L
309.5 329.5 L
311.621 328.621 L
cp
S
GR
GS
0.851 0.325 0.098 RC
1 LJ
N
320.5 326.5 M
319.621 324.379 L
317.5 323.5 L
315.379 324.379 L
314.5 326.5 L
315.379 328.621 L
317.5 329.5 L
319.621 328.621 L
cp
S
GR
GS
0.851 0.325 0.098 RC
1 LJ
N
328.5 325.5 M
327.621 323.379 L
325.5 322.5 L
323.379 323.379 L
322.5 325.5 L
323.379 327.621 L
325.5 328.5 L
327.621 327.621 L
cp
S
GR
GS
0.851 0.325 0.098 RC
1 LJ
N
335.5 324.5 M
334.621 322.379 L
332.5 321.5 L
330.379 322.379 L
329.5 324.5 L
330.379 326.621 L
332.5 327.5 L
334.621 326.621 L
cp
S
GR
GS
0.851 0.325 0.098 RC
1 LJ
N
343.5 324.5 M
342.621 322.379 L
340.5 321.5 L
338.379 322.379 L
337.5 324.5 L
338.379 326.621 L
340.5 327.5 L
342.621 326.621 L
cp
S
GR
GS
0.851 0.325 0.098 RC
1 LJ
N
350.5 323.5 M
349.621 321.379 L
347.5 320.5 L
345.379 321.379 L
344.5 323.5 L
345.379 325.621 L
347.5 326.5 L
349.621 325.621 L
cp
S
GR
GS
0.851 0.325 0.098 RC
1 LJ
N
359.5 322.5 M
358.621 320.379 L
356.5 319.5 L
354.379 320.379 L
353.5 322.5 L
354.379 324.621 L
356.5 325.5 L
358.621 324.621 L
cp
S
GR
GS
0.851 0.325 0.098 RC
1 LJ
N
368.5 321.5 M
367.621 319.379 L
365.5 318.5 L
363.379 319.379 L
362.5 321.5 L
363.379 323.621 L
365.5 324.5 L
367.621 323.621 L
cp
S
GR
GS
0.851 0.325 0.098 RC
1 LJ
N
376.5 321.5 M
375.621 319.379 L
373.5 318.5 L
371.379 319.379 L
370.5 321.5 L
371.379 323.621 L
373.5 324.5 L
375.621 323.621 L
cp
S
GR
GS
0.851 0.325 0.098 RC
1 LJ
N
385.5 320.5 M
384.621 318.379 L
382.5 317.5 L
380.379 318.379 L
379.5 320.5 L
380.379 322.621 L
382.5 323.5 L
384.621 322.621 L
cp
S
GR
GS
0.851 0.325 0.098 RC
1 LJ
N
393.5 319.5 M
392.621 317.379 L
390.5 316.5 L
388.379 317.379 L
387.5 319.5 L
388.379 321.621 L
390.5 322.5 L
392.621 321.621 L
cp
S
GR
GS
0.851 0.325 0.098 RC
1 LJ
N
401.5 319.5 M
400.621 317.379 L
398.5 316.5 L
396.379 317.379 L
395.5 319.5 L
396.379 321.621 L
398.5 322.5 L
400.621 321.621 L
cp
S
GR
GS
0.851 0.325 0.098 RC
1 LJ
N
408.5 318.5 M
407.621 316.379 L
405.5 315.5 L
403.379 316.379 L
402.5 318.5 L
403.379 320.621 L
405.5 321.5 L
407.621 320.621 L
cp
S
GR
GS
0.851 0.325 0.098 RC
1 LJ
N
416.5 318.5 M
415.621 316.379 L
413.5 315.5 L
411.379 316.379 L
410.5 318.5 L
411.379 320.621 L
413.5 321.5 L
415.621 320.621 L
cp
S
GR
GS
0.851 0.325 0.098 RC
1 LJ
N
425.5 317.5 M
424.621 315.379 L
422.5 314.5 L
420.379 315.379 L
419.5 317.5 L
420.379 319.621 L
422.5 320.5 L
424.621 319.621 L
cp
S
GR
GS
0.851 0.325 0.098 RC
1 LJ
N
432.5 317.5 M
431.621 315.379 L
429.5 314.5 L
427.379 315.379 L
426.5 317.5 L
427.379 319.621 L
429.5 320.5 L
431.621 319.621 L
cp
S
GR
GS
0.851 0.325 0.098 RC
1 LJ
N
440.5 317.5 M
439.621 315.379 L
437.5 314.5 L
435.379 315.379 L
434.5 317.5 L
435.379 319.621 L
437.5 320.5 L
439.621 319.621 L
cp
S
GR
GS
0.851 0.325 0.098 RC
1 LJ
N
448.5 316.5 M
447.621 314.379 L
445.5 313.5 L
443.379 314.379 L
442.5 316.5 L
443.379 318.621 L
445.5 319.5 L
447.621 318.621 L
cp
S
GR
GS
0.851 0.325 0.098 RC
1 LJ
N
456.5 316.5 M
455.621 314.379 L
453.5 313.5 L
451.379 314.379 L
450.5 316.5 L
451.379 318.621 L
453.5 319.5 L
455.621 318.621 L
cp
S
GR
GS
0.851 0.325 0.098 RC
1 LJ
N
463.5 315.5 M
462.621 313.379 L
460.5 312.5 L
458.379 313.379 L
457.5 315.5 L
458.379 317.621 L
460.5 318.5 L
462.621 317.621 L
cp
S
GR
GS
0.851 0.325 0.098 RC
1 LJ
N
471.5 315.5 M
470.621 313.379 L
468.5 312.5 L
466.379 313.379 L
465.5 315.5 L
466.379 317.621 L
468.5 318.5 L
470.621 317.621 L
cp
S
GR
GS
0.929 0.694 0.125 RC
1 LJ
N
109.527 32.5 M
117.665 184.523 L
124.891 151.609 L
132.179 172.115 L
139.352 114.567 L
146.456 119.991 L
154.709 221.772 L
161.846 197.358 L
169.445 208.458 L
177.577 182.804 L
185.048 179.006 L
193.806 183.533 L
200.85 171.591 L
208.105 150.102 L
215.055 150.213 L
221.98 148.319 L
230.193 162.84 L
237.696 155.195 L
245.365 154.348 L
253.011 143.278 L
259.974 141.611 L
268.373 137.364 L
275.75 132.819 L
283.415 133.257 L
290.821 132.214 L
298.416 131.497 L
307.071 126.577 L
314.509 125.228 L
322.247 123.455 L
329.685 120.643 L
336.656 120.75 L
345.043 117.539 L
352.116 115.983 L
359.089 119.232 L
366.188 114.97 L
373.25 114.814 L
381.324 112.177 L
388.199 110.344 L
395.069 110.427 L
401.959 108.894 L
408.882 108.264 L
416.946 106.378 L
423.799 106.991 L
430.692 106.069 L
437.638 106.055 L
444.726 105.403 L
452.745 105.199 L
S
GR
GS
0.929 0.694 0.125 RC
1 LJ
N
112.5 32.5 M
111.621 30.379 L
109.5 29.5 L
107.379 30.379 L
106.5 32.5 L
107.379 34.621 L
109.5 35.5 L
111.621 34.621 L
cp
S
GR
GS
0.929 0.694 0.125 RC
1 LJ
N
120.5 184.5 M
119.621 182.379 L
117.5 181.5 L
115.379 182.379 L
114.5 184.5 L
115.379 186.621 L
117.5 187.5 L
119.621 186.621 L
cp
S
GR
GS
0.929 0.694 0.125 RC
1 LJ
N
127.5 151.5 M
126.621 149.379 L
124.5 148.5 L
122.379 149.379 L
121.5 151.5 L
122.379 153.621 L
124.5 154.5 L
126.621 153.621 L
cp
S
GR
GS
0.929 0.694 0.125 RC
1 LJ
N
135.5 172.5 M
134.621 170.379 L
132.5 169.5 L
130.379 170.379 L
129.5 172.5 L
130.379 174.621 L
132.5 175.5 L
134.621 174.621 L
cp
S
GR
GS
0.929 0.694 0.125 RC
1 LJ
N
142.5 114.5 M
141.621 112.379 L
139.5 111.5 L
137.379 112.379 L
136.5 114.5 L
137.379 116.621 L
139.5 117.5 L
141.621 116.621 L
cp
S
GR
GS
0.929 0.694 0.125 RC
1 LJ
N
149.5 119.5 M
148.621 117.379 L
146.5 116.5 L
144.379 117.379 L
143.5 119.5 L
144.379 121.621 L
146.5 122.5 L
148.621 121.621 L
cp
S
GR
GS
0.929 0.694 0.125 RC
1 LJ
N
157.5 221.5 M
156.621 219.379 L
154.5 218.5 L
152.379 219.379 L
151.5 221.5 L
152.379 223.621 L
154.5 224.5 L
156.621 223.621 L
cp
S
GR
GS
0.929 0.694 0.125 RC
1 LJ
N
164.5 197.5 M
163.621 195.379 L
161.5 194.5 L
159.379 195.379 L
158.5 197.5 L
159.379 199.621 L
161.5 200.5 L
163.621 199.621 L
cp
S
GR
GS
0.929 0.694 0.125 RC
1 LJ
N
172.5 208.5 M
171.621 206.379 L
169.5 205.5 L
167.379 206.379 L
166.5 208.5 L
167.379 210.621 L
169.5 211.5 L
171.621 210.621 L
cp
S
GR
GS
0.929 0.694 0.125 RC
1 LJ
N
180.5 182.5 M
179.621 180.379 L
177.5 179.5 L
175.379 180.379 L
174.5 182.5 L
175.379 184.621 L
177.5 185.5 L
179.621 184.621 L
cp
S
GR
GS
0.929 0.694 0.125 RC
1 LJ
N
188.5 179.5 M
187.621 177.379 L
185.5 176.5 L
183.379 177.379 L
182.5 179.5 L
183.379 181.621 L
185.5 182.5 L
187.621 181.621 L
cp
S
GR
GS
0.929 0.694 0.125 RC
1 LJ
N
196.5 183.5 M
195.621 181.379 L
193.5 180.5 L
191.379 181.379 L
190.5 183.5 L
191.379 185.621 L
193.5 186.5 L
195.621 185.621 L
cp
S
GR
GS
0.929 0.694 0.125 RC
1 LJ
N
203.5 171.5 M
202.621 169.379 L
200.5 168.5 L
198.379 169.379 L
197.5 171.5 L
198.379 173.621 L
200.5 174.5 L
202.621 173.621 L
cp
S
GR
GS
0.929 0.694 0.125 RC
1 LJ
N
211.5 150.5 M
210.621 148.379 L
208.5 147.5 L
206.379 148.379 L
205.5 150.5 L
206.379 152.621 L
208.5 153.5 L
210.621 152.621 L
cp
S
GR
GS
0.929 0.694 0.125 RC
1 LJ
N
218.5 150.5 M
217.621 148.379 L
215.5 147.5 L
213.379 148.379 L
212.5 150.5 L
213.379 152.621 L
215.5 153.5 L
217.621 152.621 L
cp
S
GR
GS
0.929 0.694 0.125 RC
1 LJ
N
224.5 148.5 M
223.621 146.379 L
221.5 145.5 L
219.379 146.379 L
218.5 148.5 L
219.379 150.621 L
221.5 151.5 L
223.621 150.621 L
cp
S
GR
GS
0.929 0.694 0.125 RC
1 LJ
N
233.5 162.5 M
232.621 160.379 L
230.5 159.5 L
228.379 160.379 L
227.5 162.5 L
228.379 164.621 L
230.5 165.5 L
232.621 164.621 L
cp
S
GR
GS
0.929 0.694 0.125 RC
1 LJ
N
240.5 155.5 M
239.621 153.379 L
237.5 152.5 L
235.379 153.379 L
234.5 155.5 L
235.379 157.621 L
237.5 158.5 L
239.621 157.621 L
cp
S
GR
GS
0.929 0.694 0.125 RC
1 LJ
N
248.5 154.5 M
247.621 152.379 L
245.5 151.5 L
243.379 152.379 L
242.5 154.5 L
243.379 156.621 L
245.5 157.5 L
247.621 156.621 L
cp
S
GR
GS
0.929 0.694 0.125 RC
1 LJ
N
256.5 143.5 M
255.621 141.379 L
253.5 140.5 L
251.379 141.379 L
250.5 143.5 L
251.379 145.621 L
253.5 146.5 L
255.621 145.621 L
cp
S
GR
GS
0.929 0.694 0.125 RC
1 LJ
N
262.5 141.5 M
261.621 139.379 L
259.5 138.5 L
257.379 139.379 L
256.5 141.5 L
257.379 143.621 L
259.5 144.5 L
261.621 143.621 L
cp
S
GR
GS
0.929 0.694 0.125 RC
1 LJ
N
271.5 137.5 M
270.621 135.379 L
268.5 134.5 L
266.379 135.379 L
265.5 137.5 L
266.379 139.621 L
268.5 140.5 L
270.621 139.621 L
cp
S
GR
GS
0.929 0.694 0.125 RC
1 LJ
N
278.5 132.5 M
277.621 130.379 L
275.5 129.5 L
273.379 130.379 L
272.5 132.5 L
273.379 134.621 L
275.5 135.5 L
277.621 134.621 L
cp
S
GR
GS
0.929 0.694 0.125 RC
1 LJ
N
286.5 133.5 M
285.621 131.379 L
283.5 130.5 L
281.379 131.379 L
280.5 133.5 L
281.379 135.621 L
283.5 136.5 L
285.621 135.621 L
cp
S
GR
GS
0.929 0.694 0.125 RC
1 LJ
N
293.5 132.5 M
292.621 130.379 L
290.5 129.5 L
288.379 130.379 L
287.5 132.5 L
288.379 134.621 L
290.5 135.5 L
292.621 134.621 L
cp
S
GR
GS
0.929 0.694 0.125 RC
1 LJ
N
301.5 131.5 M
300.621 129.379 L
298.5 128.5 L
296.379 129.379 L
295.5 131.5 L
296.379 133.621 L
298.5 134.5 L
300.621 133.621 L
cp
S
GR
GS
0.929 0.694 0.125 RC
1 LJ
N
310.5 126.5 M
309.621 124.379 L
307.5 123.5 L
305.379 124.379 L
304.5 126.5 L
305.379 128.621 L
307.5 129.5 L
309.621 128.621 L
cp
S
GR
GS
0.929 0.694 0.125 RC
1 LJ
N
317.5 125.5 M
316.621 123.379 L
314.5 122.5 L
312.379 123.379 L
311.5 125.5 L
312.379 127.621 L
314.5 128.5 L
316.621 127.621 L
cp
S
GR
GS
0.929 0.694 0.125 RC
1 LJ
N
325.5 123.5 M
324.621 121.379 L
322.5 120.5 L
320.379 121.379 L
319.5 123.5 L
320.379 125.621 L
322.5 126.5 L
324.621 125.621 L
cp
S
GR
GS
0.929 0.694 0.125 RC
1 LJ
N
332.5 120.5 M
331.621 118.379 L
329.5 117.5 L
327.379 118.379 L
326.5 120.5 L
327.379 122.621 L
329.5 123.5 L
331.621 122.621 L
cp
S
GR
GS
0.929 0.694 0.125 RC
1 LJ
N
339.5 120.5 M
338.621 118.379 L
336.5 117.5 L
334.379 118.379 L
333.5 120.5 L
334.379 122.621 L
336.5 123.5 L
338.621 122.621 L
cp
S
GR
GS
0.929 0.694 0.125 RC
1 LJ
N
348.5 117.5 M
347.621 115.379 L
345.5 114.5 L
343.379 115.379 L
342.5 117.5 L
343.379 119.621 L
345.5 120.5 L
347.621 119.621 L
cp
S
GR
GS
0.929 0.694 0.125 RC
1 LJ
N
355.5 115.5 M
354.621 113.379 L
352.5 112.5 L
350.379 113.379 L
349.5 115.5 L
350.379 117.621 L
352.5 118.5 L
354.621 117.621 L
cp
S
GR
GS
0.929 0.694 0.125 RC
1 LJ
N
362.5 119.5 M
361.621 117.379 L
359.5 116.5 L
357.379 117.379 L
356.5 119.5 L
357.379 121.621 L
359.5 122.5 L
361.621 121.621 L
cp
S
GR
GS
0.929 0.694 0.125 RC
1 LJ
N
369.5 114.5 M
368.621 112.379 L
366.5 111.5 L
364.379 112.379 L
363.5 114.5 L
364.379 116.621 L
366.5 117.5 L
368.621 116.621 L
cp
S
GR
GS
0.929 0.694 0.125 RC
1 LJ
N
376.5 114.5 M
375.621 112.379 L
373.5 111.5 L
371.379 112.379 L
370.5 114.5 L
371.379 116.621 L
373.5 117.5 L
375.621 116.621 L
cp
S
GR
GS
0.929 0.694 0.125 RC
1 LJ
N
384.5 112.5 M
383.621 110.379 L
381.5 109.5 L
379.379 110.379 L
378.5 112.5 L
379.379 114.621 L
381.5 115.5 L
383.621 114.621 L
cp
S
GR
GS
0.929 0.694 0.125 RC
1 LJ
N
391.5 110.5 M
390.621 108.379 L
388.5 107.5 L
386.379 108.379 L
385.5 110.5 L
386.379 112.621 L
388.5 113.5 L
390.621 112.621 L
cp
S
GR
GS
0.929 0.694 0.125 RC
1 LJ
N
398.5 110.5 M
397.621 108.379 L
395.5 107.5 L
393.379 108.379 L
392.5 110.5 L
393.379 112.621 L
395.5 113.5 L
397.621 112.621 L
cp
S
GR
GS
0.929 0.694 0.125 RC
1 LJ
N
404.5 108.5 M
403.621 106.379 L
401.5 105.5 L
399.379 106.379 L
398.5 108.5 L
399.379 110.621 L
401.5 111.5 L
403.621 110.621 L
cp
S
GR
GS
0.929 0.694 0.125 RC
1 LJ
N
411.5 108.5 M
410.621 106.379 L
408.5 105.5 L
406.379 106.379 L
405.5 108.5 L
406.379 110.621 L
408.5 111.5 L
410.621 110.621 L
cp
S
GR
GS
0.929 0.694 0.125 RC
1 LJ
N
419.5 106.5 M
418.621 104.379 L
416.5 103.5 L
414.379 104.379 L
413.5 106.5 L
414.379 108.621 L
416.5 109.5 L
418.621 108.621 L
cp
S
GR
GS
0.929 0.694 0.125 RC
1 LJ
N
426.5 106.5 M
425.621 104.379 L
423.5 103.5 L
421.379 104.379 L
420.5 106.5 L
421.379 108.621 L
423.5 109.5 L
425.621 108.621 L
cp
S
GR
GS
0.929 0.694 0.125 RC
1 LJ
N
433.5 106.5 M
432.621 104.379 L
430.5 103.5 L
428.379 104.379 L
427.5 106.5 L
428.379 108.621 L
430.5 109.5 L
432.621 108.621 L
cp
S
GR
GS
0.929 0.694 0.125 RC
1 LJ
N
440.5 106.5 M
439.621 104.379 L
437.5 103.5 L
435.379 104.379 L
434.5 106.5 L
435.379 108.621 L
437.5 109.5 L
439.621 108.621 L
cp
S
GR
GS
0.929 0.694 0.125 RC
1 LJ
N
447.5 105.5 M
446.621 103.379 L
444.5 102.5 L
442.379 103.379 L
441.5 105.5 L
442.379 107.621 L
444.5 108.5 L
446.621 107.621 L
cp
S
GR
GS
0.929 0.694 0.125 RC
1 LJ
N
455.5 105.5 M
454.621 103.379 L
452.5 102.5 L
450.379 103.379 L
449.5 105.5 L
450.379 107.621 L
452.5 108.5 L
454.621 107.621 L
cp
S
GR
GS
[1 0 0 1 360 53.75] CT
/Helvetica 18 F
GS
[1 0 0 1 0 0] CT
0 4.5 moveto 
1 -1 scale
(Random shuffling) t 
GR
GR
GS
0 0.447 0.741 RC
1 LJ
N
327 53.75 M
357 53.75 L
S
GR
GS
0 0.447 0.741 RC
1 LJ
N
344.5 53.5 M
343.621 51.379 L
341.5 50.5 L
339.379 51.379 L
338.5 53.5 L
339.379 55.621 L
341.5 56.5 L
343.621 55.621 L
cp
S
GR
GS
[1 0 0 1 360 72.75] CT
/Helvetica 18 F
GS
[1 0 0 1 0 0] CT
0 4.5 moveto 
1 -1 scale
(Smart shuffling) t 
GR
GR
GS
0.851 0.325 0.098 RC
1 LJ
N
327 72.75 M
357 72.75 L
S
GR
GS
0.851 0.325 0.098 RC
1 LJ
N
344.5 72.5 M
343.621 70.379 L
341.5 69.5 L
339.379 70.379 L
338.5 72.5 L
339.379 74.621 L
341.5 75.5 L
343.621 74.621 L
cp
S
GR
GS
[1 0 0 1 360 91.75] CT
/Helvetica 18 F
GS
[1 0 0 1 0 0] CT
0 4.5 moveto 
1 -1 scale
(Weighted shuffling) t 
GR
GR
GS
0.929 0.694 0.125 RC
1 LJ
N
327 91.75 M
357 91.75 L
S
GR
GS
0.929 0.694 0.125 RC
1 LJ
N
344.5 91.5 M
343.621 89.379 L
341.5 88.5 L
339.379 89.379 L
338.5 91.5 L
339.379 93.621 L
341.5 94.5 L
343.621 93.621 L
cp
S
GR
%%Trailer
%%Pages: 1
%%EOF
