%!PS-Adobe-3.0 EPSF-3.0
%%Creator: (MATLAB, The Mathworks, Inc. Version 8.6.0.267246 \(R2015b\). Operating System: Mac OS X)
%%Title: /Users/gauthiermuguerza/Desktop/rsgd/report/images/untitled.eps
%%CreationDate: 2018-06-05T10:44:13
%%Pages: (atend)
%%BoundingBox: 0 0 784 669
%%LanguageLevel: 2
%%EndComments
%%BeginProlog
%%BeginResource: procset (Apache XML Graphics Std ProcSet) 1.2 0
%%Version: 1.2 0
%%Copyright: (Copyright 2001-2003,2010 The Apache Software Foundation. License terms: http://www.apache.org/licenses/LICENSE-2.0)
/bd{bind def}bind def
/ld{load def}bd
/GR/grestore ld
/M/moveto ld
/LJ/setlinejoin ld
/C/curveto ld
/f/fill ld
/LW/setlinewidth ld
/GC/setgray ld
/t/show ld
/N/newpath ld
/CT/concat ld
/cp/closepath ld
/S/stroke ld
/L/lineto ld
/CC/setcmykcolor ld
/A/ashow ld
/GS/gsave ld
/RC/setrgbcolor ld
/RM/rmoveto ld
/ML/setmiterlimit ld
/re {4 2 roll M
1 index 0 rlineto
0 exch rlineto
neg 0 rlineto
cp } bd
/_ctm matrix def
/_tm matrix def
/BT { _ctm currentmatrix pop matrix _tm copy pop 0 0 moveto } bd
/ET { _ctm setmatrix } bd
/iTm { _ctm setmatrix _tm concat } bd
/Tm { _tm astore pop iTm 0 0 moveto } bd
/ux 0.0 def
/uy 0.0 def
/F {
  /Tp exch def
  /Tf exch def
  Tf findfont Tp scalefont setfont
  /cf Tf def  /cs Tp def
} bd
/ULS {currentpoint /uy exch def /ux exch def} bd
/ULE {
  /Tcx currentpoint pop def
  gsave
  newpath
  cf findfont cs scalefont dup
  /FontMatrix get 0 get /Ts exch def /FontInfo get dup
  /UnderlinePosition get Ts mul /To exch def
  /UnderlineThickness get Ts mul /Tt exch def
  ux uy To add moveto  Tcx uy To add lineto
  Tt setlinewidth stroke
  grestore
} bd
/OLE {
  /Tcx currentpoint pop def
  gsave
  newpath
  cf findfont cs scalefont dup
  /FontMatrix get 0 get /Ts exch def /FontInfo get dup
  /UnderlinePosition get Ts mul /To exch def
  /UnderlineThickness get Ts mul /Tt exch def
  ux uy To add cs add moveto Tcx uy To add cs add lineto
  Tt setlinewidth stroke
  grestore
} bd
/SOE {
  /Tcx currentpoint pop def
  gsave
  newpath
  cf findfont cs scalefont dup
  /FontMatrix get 0 get /Ts exch def /FontInfo get dup
  /UnderlinePosition get Ts mul /To exch def
  /UnderlineThickness get Ts mul /Tt exch def
  ux uy To add cs 10 mul 26 idiv add moveto Tcx uy To add cs 10 mul 26 idiv add lineto
  Tt setlinewidth stroke
  grestore
} bd
/QT {
/Y22 exch store
/X22 exch store
/Y21 exch store
/X21 exch store
currentpoint
/Y21 load 2 mul add 3 div exch
/X21 load 2 mul add 3 div exch
/X21 load 2 mul /X22 load add 3 div
/Y21 load 2 mul /Y22 load add 3 div
/X22 load /Y22 load curveto
} bd
/SSPD {
dup length /d exch dict def
{
/v exch def
/k exch def
currentpagedevice k known {
/cpdv currentpagedevice k get def
v cpdv ne {
/upd false def
/nullv v type /nulltype eq def
/nullcpdv cpdv type /nulltype eq def
nullv nullcpdv or
{
/upd true def
} {
/sametype v type cpdv type eq def
sametype {
v type /arraytype eq {
/vlen v length def
/cpdvlen cpdv length def
vlen cpdvlen eq {
0 1 vlen 1 sub {
/i exch def
/obj v i get def
/cpdobj cpdv i get def
obj cpdobj ne {
/upd true def
exit
} if
} for
} {
/upd true def
} ifelse
} {
v type /dicttype eq {
v {
/dv exch def
/dk exch def
/cpddv cpdv dk get def
dv cpddv ne {
/upd true def
exit
} if
} forall
} {
/upd true def
} ifelse
} ifelse
} if
} ifelse
upd true eq {
d k v put
} if
} if
} if
} forall
d length 0 gt {
d setpagedevice
} if
} bd
%%EndResource
%%BeginResource: procset (Apache XML Graphics EPS ProcSet) 1.0 0
%%Version: 1.0 0
%%Copyright: (Copyright 2002-2003 The Apache Software Foundation. License terms: http://www.apache.org/licenses/LICENSE-2.0)
/BeginEPSF { %def
/b4_Inc_state save def         % Save state for cleanup
/dict_count countdictstack def % Count objects on dict stack
/op_count count 1 sub def      % Count objects on operand stack
userdict begin                 % Push userdict on dict stack
/showpage { } def              % Redefine showpage, { } = null proc
0 setgray 0 setlinecap         % Prepare graphics state
1 setlinewidth 0 setlinejoin
10 setmiterlimit [ ] 0 setdash newpath
/languagelevel where           % If level not equal to 1 then
{pop languagelevel             % set strokeadjust and
1 ne                           % overprint to their defaults.
{false setstrokeadjust false setoverprint
} if
} if
} bd
/EndEPSF { %def
count op_count sub {pop} repeat            % Clean up stacks
countdictstack dict_count sub {end} repeat
b4_Inc_state restore
} bd
%%EndResource
%FOPBeginFontDict
%%IncludeResource: font Courier-Bold
%%IncludeResource: font Helvetica
%%IncludeResource: font Courier-BoldOblique
%%IncludeResource: font Courier-Oblique
%%IncludeResource: font Times-Roman
%%IncludeResource: font Helvetica-BoldOblique
%%IncludeResource: font Helvetica-Bold
%%IncludeResource: font Helvetica-Oblique
%%IncludeResource: font Times-BoldItalic
%%IncludeResource: font Courier
%%IncludeResource: font Times-Italic
%%IncludeResource: font Times-Bold
%%IncludeResource: font Symbol
%%IncludeResource: font ZapfDingbats
%FOPEndFontDict
%%BeginResource: encoding WinAnsiEncoding
/WinAnsiEncoding [
/.notdef /.notdef /.notdef /.notdef /.notdef
/.notdef /.notdef /.notdef /.notdef /.notdef
/.notdef /.notdef /.notdef /.notdef /.notdef
/.notdef /.notdef /.notdef /.notdef /.notdef
/.notdef /.notdef /.notdef /.notdef /.notdef
/.notdef /.notdef /.notdef /.notdef /.notdef
/.notdef /.notdef /space /exclam /quotedbl
/numbersign /dollar /percent /ampersand /quotesingle
/parenleft /parenright /asterisk /plus /comma
/hyphen /period /slash /zero /one
/two /three /four /five /six
/seven /eight /nine /colon /semicolon
/less /equal /greater /question /at
/A /B /C /D /E
/F /G /H /I /J
/K /L /M /N /O
/P /Q /R /S /T
/U /V /W /X /Y
/Z /bracketleft /backslash /bracketright /asciicircum
/underscore /quoteleft /a /b /c
/d /e /f /g /h
/i /j /k /l /m
/n /o /p /q /r
/s /t /u /v /w
/x /y /z /braceleft /bar
/braceright /asciitilde /bullet /Euro /bullet
/quotesinglbase /florin /quotedblbase /ellipsis /dagger
/daggerdbl /circumflex /perthousand /Scaron /guilsinglleft
/OE /bullet /Zcaron /bullet /bullet
/quoteleft /quoteright /quotedblleft /quotedblright /bullet
/endash /emdash /asciitilde /trademark /scaron
/guilsinglright /oe /bullet /zcaron /Ydieresis
/space /exclamdown /cent /sterling /currency
/yen /brokenbar /section /dieresis /copyright
/ordfeminine /guillemotleft /logicalnot /sfthyphen /registered
/macron /degree /plusminus /twosuperior /threesuperior
/acute /mu /paragraph /middot /cedilla
/onesuperior /ordmasculine /guillemotright /onequarter /onehalf
/threequarters /questiondown /Agrave /Aacute /Acircumflex
/Atilde /Adieresis /Aring /AE /Ccedilla
/Egrave /Eacute /Ecircumflex /Edieresis /Igrave
/Iacute /Icircumflex /Idieresis /Eth /Ntilde
/Ograve /Oacute /Ocircumflex /Otilde /Odieresis
/multiply /Oslash /Ugrave /Uacute /Ucircumflex
/Udieresis /Yacute /Thorn /germandbls /agrave
/aacute /acircumflex /atilde /adieresis /aring
/ae /ccedilla /egrave /eacute /ecircumflex
/edieresis /igrave /iacute /icircumflex /idieresis
/eth /ntilde /ograve /oacute /ocircumflex
/otilde /odieresis /divide /oslash /ugrave
/uacute /ucircumflex /udieresis /yacute /thorn
/ydieresis
] def
%%EndResource
%FOPBeginFontReencode
/Courier-Bold findfont
dup length dict begin
  {1 index /FID ne {def} {pop pop} ifelse} forall
  /Encoding WinAnsiEncoding def
  currentdict
end
/Courier-Bold exch definefont pop
/Helvetica findfont
dup length dict begin
  {1 index /FID ne {def} {pop pop} ifelse} forall
  /Encoding WinAnsiEncoding def
  currentdict
end
/Helvetica exch definefont pop
/Courier-BoldOblique findfont
dup length dict begin
  {1 index /FID ne {def} {pop pop} ifelse} forall
  /Encoding WinAnsiEncoding def
  currentdict
end
/Courier-BoldOblique exch definefont pop
/Courier-Oblique findfont
dup length dict begin
  {1 index /FID ne {def} {pop pop} ifelse} forall
  /Encoding WinAnsiEncoding def
  currentdict
end
/Courier-Oblique exch definefont pop
/Times-Roman findfont
dup length dict begin
  {1 index /FID ne {def} {pop pop} ifelse} forall
  /Encoding WinAnsiEncoding def
  currentdict
end
/Times-Roman exch definefont pop
/Helvetica-BoldOblique findfont
dup length dict begin
  {1 index /FID ne {def} {pop pop} ifelse} forall
  /Encoding WinAnsiEncoding def
  currentdict
end
/Helvetica-BoldOblique exch definefont pop
/Helvetica-Bold findfont
dup length dict begin
  {1 index /FID ne {def} {pop pop} ifelse} forall
  /Encoding WinAnsiEncoding def
  currentdict
end
/Helvetica-Bold exch definefont pop
/Helvetica-Oblique findfont
dup length dict begin
  {1 index /FID ne {def} {pop pop} ifelse} forall
  /Encoding WinAnsiEncoding def
  currentdict
end
/Helvetica-Oblique exch definefont pop
/Times-BoldItalic findfont
dup length dict begin
  {1 index /FID ne {def} {pop pop} ifelse} forall
  /Encoding WinAnsiEncoding def
  currentdict
end
/Times-BoldItalic exch definefont pop
/Courier findfont
dup length dict begin
  {1 index /FID ne {def} {pop pop} ifelse} forall
  /Encoding WinAnsiEncoding def
  currentdict
end
/Courier exch definefont pop
/Times-Italic findfont
dup length dict begin
  {1 index /FID ne {def} {pop pop} ifelse} forall
  /Encoding WinAnsiEncoding def
  currentdict
end
/Times-Italic exch definefont pop
/Times-Bold findfont
dup length dict begin
  {1 index /FID ne {def} {pop pop} ifelse} forall
  /Encoding WinAnsiEncoding def
  currentdict
end
/Times-Bold exch definefont pop
%FOPEndFontReencode
%%EndProlog
%%Page: 1 1
%%PageBoundingBox: 0 0 784 669
%%BeginPageSetup
[1 0 0 -1 0 669] CT
%%EndPageSetup
GS
1 GC
N
0 0 784 669 re
f
GR
GS
1 GC
N
0 0 784 669 re
f
GR
GS
1 GC
N
102 595.5 M
709.5 595.5 L
709.5 50 L
102 50 L
cp
f
GR
GS
0.149 GC
2 setlinecap
1 LJ
0.5 LW
N
102 595.5 M
709.5 595.5 L
S
GR
GS
0.149 GC
2 setlinecap
1 LJ
0.5 LW
N
102 595.5 M
102 589.425 L
S
GR
GS
0.149 GC
2 setlinecap
1 LJ
0.5 LW
N
223.5 595.5 M
223.5 589.425 L
S
GR
GS
0.149 GC
2 setlinecap
1 LJ
0.5 LW
N
345 595.5 M
345 589.425 L
S
GR
GS
0.149 GC
2 setlinecap
1 LJ
0.5 LW
N
466.5 595.5 M
466.5 589.425 L
S
GR
GS
0.149 GC
2 setlinecap
1 LJ
0.5 LW
N
588 595.5 M
588 589.425 L
S
GR
GS
0.149 GC
2 setlinecap
1 LJ
0.5 LW
N
709.5 595.5 M
709.5 589.425 L
S
GR
GS
[1 0 0 1 102 601.5] CT
0.149 GC
/Helvetica 20 F
GS
[1 0 0 1 0 0] CT
-6 16 moveto 
1 -1 scale
(0) t 
GR
GR
GS
[1 0 0 1 223.5 601.5] CT
0.149 GC
/Helvetica 20 F
GS
[1 0 0 1 0 0] CT
-11.5 16 moveto 
1 -1 scale
(20) t 
GR
GR
GS
[1 0 0 1 345 601.5] CT
0.149 GC
/Helvetica 20 F
GS
[1 0 0 1 0 0] CT
-11.5 16 moveto 
1 -1 scale
(40) t 
GR
GR
GS
[1 0 0 1 466.5 601.5] CT
0.149 GC
/Helvetica 20 F
GS
[1 0 0 1 0 0] CT
-11.5 16 moveto 
1 -1 scale
(60) t 
GR
GR
GS
[1 0 0 1 588 601.5] CT
0.149 GC
/Helvetica 20 F
GS
[1 0 0 1 0 0] CT
-11.5 16 moveto 
1 -1 scale
(80) t 
GR
GR
GS
[1 0 0 1 709.5 601.5] CT
0.149 GC
/Helvetica 20 F
GS
[1 0 0 1 0 0] CT
-17 16 moveto 
1 -1 scale
(100) t 
GR
GR
GS
[1 0 0 1 405.75027 623] CT
0.149 GC
/Helvetica 22 F
GS
[1 0 0 1 0 0] CT
-45.5 17 moveto 
1 -1 scale
(Iterations) t 
GR
GR
GS
0.149 GC
2 setlinecap
1 LJ
0.5 LW
N
102 595.5 M
102 50 L
S
GR
GS
0.149 GC
2 setlinecap
1 LJ
0.5 LW
N
102 437.469 M
108.075 437.469 L
S
GR
GS
0.149 GC
2 setlinecap
1 LJ
0.5 LW
N
102 333.513 M
108.075 333.513 L
S
GR
GS
0.149 GC
2 setlinecap
1 LJ
0.5 LW
N
102 259.755 M
108.075 259.755 L
S
GR
GS
0.149 GC
2 setlinecap
1 LJ
0.5 LW
N
102 202.544 M
108.075 202.544 L
S
GR
GS
0.149 GC
2 setlinecap
1 LJ
0.5 LW
N
102 155.799 M
108.075 155.799 L
S
GR
GS
0.149 GC
2 setlinecap
1 LJ
0.5 LW
N
102 116.277 M
108.075 116.277 L
S
GR
GS
0.149 GC
2 setlinecap
1 LJ
0.5 LW
N
102 82.041 M
108.075 82.041 L
S
GR
GS
0.149 GC
2 setlinecap
1 LJ
0.5 LW
N
102 51.843 M
108.075 51.843 L
S
GR
GS
0.149 GC
2 setlinecap
1 LJ
0.5 LW
N
102 590.746 M
105.037 590.746 L
S
GR
GS
0.149 GC
2 setlinecap
1 LJ
0.5 LW
N
102 568.438 M
105.037 568.438 L
S
GR
GS
0.149 GC
2 setlinecap
1 LJ
0.5 LW
N
102 547.916 M
105.037 547.916 L
S
GR
GS
0.149 GC
2 setlinecap
1 LJ
0.5 LW
N
102 528.915 M
105.037 528.915 L
S
GR
GS
0.149 GC
2 setlinecap
1 LJ
0.5 LW
N
102 511.227 M
105.037 511.227 L
S
GR
GS
0.149 GC
2 setlinecap
1 LJ
0.5 LW
N
102 494.68 M
105.037 494.68 L
S
GR
GS
0.149 GC
2 setlinecap
1 LJ
0.5 LW
N
102 479.136 M
105.037 479.136 L
S
GR
GS
0.149 GC
2 setlinecap
1 LJ
0.5 LW
N
102 464.482 M
105.037 464.482 L
S
GR
GS
0.149 GC
2 setlinecap
1 LJ
0.5 LW
N
102 450.62 M
105.037 450.62 L
S
GR
GS
0.149 GC
2 setlinecap
1 LJ
0.5 LW
N
102 424.96 M
105.037 424.96 L
S
GR
GS
0.149 GC
2 setlinecap
1 LJ
0.5 LW
N
102 413.032 M
105.037 413.032 L
S
GR
GS
0.149 GC
2 setlinecap
1 LJ
0.5 LW
N
102 401.636 M
105.037 401.636 L
S
GR
GS
0.149 GC
2 setlinecap
1 LJ
0.5 LW
N
102 390.724 M
105.037 390.724 L
S
GR
GS
0.149 GC
2 setlinecap
1 LJ
0.5 LW
N
102 380.258 M
105.037 380.258 L
S
GR
GS
0.149 GC
2 setlinecap
1 LJ
0.5 LW
N
102 370.202 M
105.037 370.202 L
S
GR
GS
0.149 GC
2 setlinecap
1 LJ
0.5 LW
N
102 360.526 M
105.037 360.526 L
S
GR
GS
0.149 GC
2 setlinecap
1 LJ
0.5 LW
N
102 351.202 M
105.037 351.202 L
S
GR
GS
0.149 GC
2 setlinecap
1 LJ
0.5 LW
N
102 342.205 M
105.037 342.205 L
S
GR
GS
0.149 GC
2 setlinecap
1 LJ
0.5 LW
N
102 325.106 M
105.037 325.106 L
S
GR
GS
0.149 GC
2 setlinecap
1 LJ
0.5 LW
N
102 316.966 M
105.037 316.966 L
S
GR
GS
0.149 GC
2 setlinecap
1 LJ
0.5 LW
N
102 309.077 M
105.037 309.077 L
S
GR
GS
0.149 GC
2 setlinecap
1 LJ
0.5 LW
N
102 301.423 M
105.037 301.423 L
S
GR
GS
0.149 GC
2 setlinecap
1 LJ
0.5 LW
N
102 293.991 M
105.037 293.991 L
S
GR
GS
0.149 GC
2 setlinecap
1 LJ
0.5 LW
N
102 286.768 M
105.037 286.768 L
S
GR
GS
0.149 GC
2 setlinecap
1 LJ
0.5 LW
N
102 279.743 M
105.037 279.743 L
S
GR
GS
0.149 GC
2 setlinecap
1 LJ
0.5 LW
N
102 272.906 M
105.037 272.906 L
S
GR
GS
0.149 GC
2 setlinecap
1 LJ
0.5 LW
N
102 266.246 M
105.037 266.246 L
S
GR
GS
0.149 GC
2 setlinecap
1 LJ
0.5 LW
N
102 253.424 M
105.037 253.424 L
S
GR
GS
0.149 GC
2 setlinecap
1 LJ
0.5 LW
N
102 247.246 M
105.037 247.246 L
S
GR
GS
0.149 GC
2 setlinecap
1 LJ
0.5 LW
N
102 241.213 M
105.037 241.213 L
S
GR
GS
0.149 GC
2 setlinecap
1 LJ
0.5 LW
N
102 235.319 M
105.037 235.319 L
S
GR
GS
0.149 GC
2 setlinecap
1 LJ
0.5 LW
N
102 229.557 M
105.037 229.557 L
S
GR
GS
0.149 GC
2 setlinecap
1 LJ
0.5 LW
N
102 223.922 M
105.037 223.922 L
S
GR
GS
0.149 GC
2 setlinecap
1 LJ
0.5 LW
N
102 218.408 M
105.037 218.408 L
S
GR
GS
0.149 GC
2 setlinecap
1 LJ
0.5 LW
N
102 213.01 M
105.037 213.01 L
S
GR
GS
0.149 GC
2 setlinecap
1 LJ
0.5 LW
N
102 207.724 M
105.037 207.724 L
S
GR
GS
0.149 GC
2 setlinecap
1 LJ
0.5 LW
N
102 197.467 M
105.037 197.467 L
S
GR
GS
0.149 GC
2 setlinecap
1 LJ
0.5 LW
N
102 192.488 M
105.037 192.488 L
S
GR
GS
0.149 GC
2 setlinecap
1 LJ
0.5 LW
N
102 187.605 M
105.037 187.605 L
S
GR
GS
0.149 GC
2 setlinecap
1 LJ
0.5 LW
N
102 182.812 M
105.037 182.812 L
S
GR
GS
0.149 GC
2 setlinecap
1 LJ
0.5 LW
N
102 178.108 M
105.037 178.108 L
S
GR
GS
0.149 GC
2 setlinecap
1 LJ
0.5 LW
N
102 173.488 M
105.037 173.488 L
S
GR
GS
0.149 GC
2 setlinecap
1 LJ
0.5 LW
N
102 168.95 M
105.037 168.95 L
S
GR
GS
0.149 GC
2 setlinecap
1 LJ
0.5 LW
N
102 164.491 M
105.037 164.491 L
S
GR
GS
0.149 GC
2 setlinecap
1 LJ
0.5 LW
N
102 160.108 M
105.037 160.108 L
S
GR
GS
0.149 GC
2 setlinecap
1 LJ
0.5 LW
N
102 151.561 M
105.037 151.561 L
S
GR
GS
0.149 GC
2 setlinecap
1 LJ
0.5 LW
N
102 147.392 M
105.037 147.392 L
S
GR
GS
0.149 GC
2 setlinecap
1 LJ
0.5 LW
N
102 143.29 M
105.037 143.29 L
S
GR
GS
0.149 GC
2 setlinecap
1 LJ
0.5 LW
N
102 139.252 M
105.037 139.252 L
S
GR
GS
0.149 GC
2 setlinecap
1 LJ
0.5 LW
N
102 135.277 M
105.037 135.277 L
S
GR
GS
0.149 GC
2 setlinecap
1 LJ
0.5 LW
N
102 131.363 M
105.037 131.363 L
S
GR
GS
0.149 GC
2 setlinecap
1 LJ
0.5 LW
N
102 127.507 M
105.037 127.507 L
S
GR
GS
0.149 GC
2 setlinecap
1 LJ
0.5 LW
N
102 123.709 M
105.037 123.709 L
S
GR
GS
0.149 GC
2 setlinecap
1 LJ
0.5 LW
N
102 119.966 M
105.037 119.966 L
S
GR
GS
0.149 GC
2 setlinecap
1 LJ
0.5 LW
N
102 112.64 M
105.037 112.64 L
S
GR
GS
0.149 GC
2 setlinecap
1 LJ
0.5 LW
N
102 109.054 M
105.037 109.054 L
S
GR
GS
0.149 GC
2 setlinecap
1 LJ
0.5 LW
N
102 105.518 M
105.037 105.518 L
S
GR
GS
0.149 GC
2 setlinecap
1 LJ
0.5 LW
N
102 102.03 M
105.037 102.03 L
S
GR
GS
0.149 GC
2 setlinecap
1 LJ
0.5 LW
N
102 98.588 M
105.037 98.588 L
S
GR
GS
0.149 GC
2 setlinecap
1 LJ
0.5 LW
N
102 95.192 M
105.037 95.192 L
S
GR
GS
0.149 GC
2 setlinecap
1 LJ
0.5 LW
N
102 91.841 M
105.037 91.841 L
S
GR
GS
0.149 GC
2 setlinecap
1 LJ
0.5 LW
N
102 88.532 M
105.037 88.532 L
S
GR
GS
0.149 GC
2 setlinecap
1 LJ
0.5 LW
N
102 85.266 M
105.037 85.266 L
S
GR
GS
0.149 GC
2 setlinecap
1 LJ
0.5 LW
N
102 78.856 M
105.037 78.856 L
S
GR
GS
0.149 GC
2 setlinecap
1 LJ
0.5 LW
N
102 75.71 M
105.037 75.71 L
S
GR
GS
0.149 GC
2 setlinecap
1 LJ
0.5 LW
N
102 72.603 M
105.037 72.603 L
S
GR
GS
0.149 GC
2 setlinecap
1 LJ
0.5 LW
N
102 69.532 M
105.037 69.532 L
S
GR
GS
0.149 GC
2 setlinecap
1 LJ
0.5 LW
N
102 66.498 M
105.037 66.498 L
S
GR
GS
0.149 GC
2 setlinecap
1 LJ
0.5 LW
N
102 63.499 M
105.037 63.499 L
S
GR
GS
0.149 GC
2 setlinecap
1 LJ
0.5 LW
N
102 60.535 M
105.037 60.535 L
S
GR
GS
0.149 GC
2 setlinecap
1 LJ
0.5 LW
N
102 57.605 M
105.037 57.605 L
S
GR
GS
0.149 GC
2 setlinecap
1 LJ
0.5 LW
N
102 54.708 M
105.037 54.708 L
S
GR
GS
[1 0 0 1 96 437.46866] CT
0.149 GC
/Helvetica 20 F
GS
[1 0 0 1 0 0] CT
-12 5.5 moveto 
1 -1 scale
(1) t 
GR
GR
GS
[1 0 0 1 96 333.51282] CT
0.149 GC
/Helvetica 20 F
GS
[1 0 0 1 0 0] CT
-28 5.5 moveto 
1 -1 scale
(1.5) t 
GR
GR
GS
[1 0 0 1 96 259.75494] CT
0.149 GC
/Helvetica 20 F
GS
[1 0 0 1 0 0] CT
-12 5.5 moveto 
1 -1 scale
(2) t 
GR
GR
GS
[1 0 0 1 96 202.54393] CT
0.149 GC
/Helvetica 20 F
GS
[1 0 0 1 0 0] CT
-28 5.5 moveto 
1 -1 scale
(2.5) t 
GR
GR
GS
[1 0 0 1 96 155.7991] CT
0.149 GC
/Helvetica 20 F
GS
[1 0 0 1 0 0] CT
-12 5.5 moveto 
1 -1 scale
(3) t 
GR
GR
GS
[1 0 0 1 96 116.27692] CT
0.149 GC
/Helvetica 20 F
GS
[1 0 0 1 0 0] CT
-28 5.5 moveto 
1 -1 scale
(3.5) t 
GR
GR
GS
[1 0 0 1 96 82.04125] CT
0.149 GC
/Helvetica 20 F
GS
[1 0 0 1 0 0] CT
-12 5.5 moveto 
1 -1 scale
(4) t 
GR
GR
GS
[1 0 0 1 96 51.84324] CT
0.149 GC
/Helvetica 20 F
GS
[1 0 0 1 0 0] CT
-28 5.5 moveto 
1 -1 scale
(4.5) t 
GR
GR
GS
[0 -1 1 0 65 322.74973] CT
0.149 GC
/Helvetica 22 F
GS
[1 0 0 1 0 0] CT
-60 -6 moveto 
1 -1 scale
(Train RMSE) t 
GR
GR
GS
0 0.447 0.741 RC
1 LJ
N
108.075 50 M
114.15 237.015 L
120.225 333.466 L
126.3 390.65 L
132.375 428.487 L
138.45 454.555 L
144.525 469.285 L
150.6 479.997 L
156.675 479.477 L
162.75 504.278 L
168.825 515.087 L
174.9 528.8 L
180.975 529.206 L
187.05 541.016 L
193.125 545.558 L
199.2 548.383 L
205.275 549.883 L
211.35 556.04 L
217.425 556.744 L
223.5 557.984 L
229.575 558.917 L
235.65 561.202 L
241.725 561.368 L
247.8 563.062 L
253.875 563.872 L
259.95 564.083 L
266.025 565.107 L
272.1 565.386 L
278.175 565.478 L
284.25 567.355 L
290.325 569.443 L
296.4 569.64 L
302.475 569.568 L
308.55 570.908 L
314.625 571.085 L
320.7 571.54 L
326.775 572.581 L
332.85 572.875 L
338.925 573.046 L
345 573.3 L
351.075 573.644 L
357.15 573.692 L
363.225 574.388 L
369.3 574.557 L
375.375 574.897 L
381.45 575.618 L
387.525 575.964 L
393.6 575.958 L
399.675 577.039 L
405.75 577.187 L
S
GR
GS
0 0.447 0.741 RC
1 LJ
N
399.675 577.039 M
405.75 577.187 L
411.825 577.64 L
417.9 577.998 L
423.975 578.327 L
430.05 578.523 L
436.125 579.018 L
442.2 579.166 L
448.275 579.341 L
454.35 579.518 L
460.425 579.593 L
466.5 579.825 L
472.575 580.223 L
478.65 580.297 L
484.725 580.798 L
490.8 581.007 L
496.875 581.155 L
502.95 581.175 L
509.025 581.613 L
515.1 581.687 L
521.175 582.015 L
527.25 582.083 L
533.325 582.629 L
539.4 582.937 L
545.475 583.038 L
551.55 583.196 L
557.625 583.406 L
563.7 583.557 L
569.775 583.702 L
575.85 583.858 L
581.925 583.908 L
588 584.263 L
594.075 584.402 L
600.15 584.541 L
606.225 584.922 L
612.3 585.27 L
618.375 585.507 L
624.45 585.637 L
630.525 585.67 L
636.6 586.204 L
642.675 586.389 L
648.75 586.455 L
654.825 586.708 L
S
GR
GS
0 0.447 0.741 RC
1 LJ
N
111.5 49.5 M
110.621 47.379 L
108.5 46.5 L
106.379 47.379 L
105.5 49.5 L
106.379 51.621 L
108.5 52.5 L
110.621 51.621 L
cp
S
GR
GS
0 0.447 0.741 RC
1 LJ
N
117.5 237.5 M
116.621 235.379 L
114.5 234.5 L
112.379 235.379 L
111.5 237.5 L
112.379 239.621 L
114.5 240.5 L
116.621 239.621 L
cp
S
GR
GS
0 0.447 0.741 RC
1 LJ
N
123.5 333.5 M
122.621 331.379 L
120.5 330.5 L
118.379 331.379 L
117.5 333.5 L
118.379 335.621 L
120.5 336.5 L
122.621 335.621 L
cp
S
GR
GS
0 0.447 0.741 RC
1 LJ
N
129.5 390.5 M
128.621 388.379 L
126.5 387.5 L
124.379 388.379 L
123.5 390.5 L
124.379 392.621 L
126.5 393.5 L
128.621 392.621 L
cp
S
GR
GS
0 0.447 0.741 RC
1 LJ
N
135.5 428.5 M
134.621 426.379 L
132.5 425.5 L
130.379 426.379 L
129.5 428.5 L
130.379 430.621 L
132.5 431.5 L
134.621 430.621 L
cp
S
GR
GS
0 0.447 0.741 RC
1 LJ
N
141.5 454.5 M
140.621 452.379 L
138.5 451.5 L
136.379 452.379 L
135.5 454.5 L
136.379 456.621 L
138.5 457.5 L
140.621 456.621 L
cp
S
GR
GS
0 0.447 0.741 RC
1 LJ
N
147.5 469.5 M
146.621 467.379 L
144.5 466.5 L
142.379 467.379 L
141.5 469.5 L
142.379 471.621 L
144.5 472.5 L
146.621 471.621 L
cp
S
GR
GS
0 0.447 0.741 RC
1 LJ
N
153.5 479.5 M
152.621 477.379 L
150.5 476.5 L
148.379 477.379 L
147.5 479.5 L
148.379 481.621 L
150.5 482.5 L
152.621 481.621 L
cp
S
GR
GS
0 0.447 0.741 RC
1 LJ
N
159.5 479.5 M
158.621 477.379 L
156.5 476.5 L
154.379 477.379 L
153.5 479.5 L
154.379 481.621 L
156.5 482.5 L
158.621 481.621 L
cp
S
GR
GS
0 0.447 0.741 RC
1 LJ
N
165.5 504.5 M
164.621 502.379 L
162.5 501.5 L
160.379 502.379 L
159.5 504.5 L
160.379 506.621 L
162.5 507.5 L
164.621 506.621 L
cp
S
GR
GS
0 0.447 0.741 RC
1 LJ
N
171.5 515.5 M
170.621 513.379 L
168.5 512.5 L
166.379 513.379 L
165.5 515.5 L
166.379 517.621 L
168.5 518.5 L
170.621 517.621 L
cp
S
GR
GS
0 0.447 0.741 RC
1 LJ
N
177.5 528.5 M
176.621 526.379 L
174.5 525.5 L
172.379 526.379 L
171.5 528.5 L
172.379 530.621 L
174.5 531.5 L
176.621 530.621 L
cp
S
GR
GS
0 0.447 0.741 RC
1 LJ
N
183.5 529.5 M
182.621 527.379 L
180.5 526.5 L
178.379 527.379 L
177.5 529.5 L
178.379 531.621 L
180.5 532.5 L
182.621 531.621 L
cp
S
GR
GS
0 0.447 0.741 RC
1 LJ
N
190.5 541.5 M
189.621 539.379 L
187.5 538.5 L
185.379 539.379 L
184.5 541.5 L
185.379 543.621 L
187.5 544.5 L
189.621 543.621 L
cp
S
GR
GS
0 0.447 0.741 RC
1 LJ
N
196.5 545.5 M
195.621 543.379 L
193.5 542.5 L
191.379 543.379 L
190.5 545.5 L
191.379 547.621 L
193.5 548.5 L
195.621 547.621 L
cp
S
GR
GS
0 0.447 0.741 RC
1 LJ
N
202.5 548.5 M
201.621 546.379 L
199.5 545.5 L
197.379 546.379 L
196.5 548.5 L
197.379 550.621 L
199.5 551.5 L
201.621 550.621 L
cp
S
GR
GS
0 0.447 0.741 RC
1 LJ
N
208.5 549.5 M
207.621 547.379 L
205.5 546.5 L
203.379 547.379 L
202.5 549.5 L
203.379 551.621 L
205.5 552.5 L
207.621 551.621 L
cp
S
GR
GS
0 0.447 0.741 RC
1 LJ
N
214.5 556.5 M
213.621 554.379 L
211.5 553.5 L
209.379 554.379 L
208.5 556.5 L
209.379 558.621 L
211.5 559.5 L
213.621 558.621 L
cp
S
GR
GS
0 0.447 0.741 RC
1 LJ
N
220.5 556.5 M
219.621 554.379 L
217.5 553.5 L
215.379 554.379 L
214.5 556.5 L
215.379 558.621 L
217.5 559.5 L
219.621 558.621 L
cp
S
GR
GS
0 0.447 0.741 RC
1 LJ
N
226.5 557.5 M
225.621 555.379 L
223.5 554.5 L
221.379 555.379 L
220.5 557.5 L
221.379 559.621 L
223.5 560.5 L
225.621 559.621 L
cp
S
GR
GS
0 0.447 0.741 RC
1 LJ
N
232.5 558.5 M
231.621 556.379 L
229.5 555.5 L
227.379 556.379 L
226.5 558.5 L
227.379 560.621 L
229.5 561.5 L
231.621 560.621 L
cp
S
GR
GS
0 0.447 0.741 RC
1 LJ
N
238.5 561.5 M
237.621 559.379 L
235.5 558.5 L
233.379 559.379 L
232.5 561.5 L
233.379 563.621 L
235.5 564.5 L
237.621 563.621 L
cp
S
GR
GS
0 0.447 0.741 RC
1 LJ
N
244.5 561.5 M
243.621 559.379 L
241.5 558.5 L
239.379 559.379 L
238.5 561.5 L
239.379 563.621 L
241.5 564.5 L
243.621 563.621 L
cp
S
GR
GS
0 0.447 0.741 RC
1 LJ
N
250.5 563.5 M
249.621 561.379 L
247.5 560.5 L
245.379 561.379 L
244.5 563.5 L
245.379 565.621 L
247.5 566.5 L
249.621 565.621 L
cp
S
GR
GS
0 0.447 0.741 RC
1 LJ
N
256.5 563.5 M
255.621 561.379 L
253.5 560.5 L
251.379 561.379 L
250.5 563.5 L
251.379 565.621 L
253.5 566.5 L
255.621 565.621 L
cp
S
GR
GS
0 0.447 0.741 RC
1 LJ
N
262.5 564.5 M
261.621 562.379 L
259.5 561.5 L
257.379 562.379 L
256.5 564.5 L
257.379 566.621 L
259.5 567.5 L
261.621 566.621 L
cp
S
GR
GS
0 0.447 0.741 RC
1 LJ
N
269.5 565.5 M
268.621 563.379 L
266.5 562.5 L
264.379 563.379 L
263.5 565.5 L
264.379 567.621 L
266.5 568.5 L
268.621 567.621 L
cp
S
GR
GS
0 0.447 0.741 RC
1 LJ
N
275.5 565.5 M
274.621 563.379 L
272.5 562.5 L
270.379 563.379 L
269.5 565.5 L
270.379 567.621 L
272.5 568.5 L
274.621 567.621 L
cp
S
GR
GS
0 0.447 0.741 RC
1 LJ
N
281.5 565.5 M
280.621 563.379 L
278.5 562.5 L
276.379 563.379 L
275.5 565.5 L
276.379 567.621 L
278.5 568.5 L
280.621 567.621 L
cp
S
GR
GS
0 0.447 0.741 RC
1 LJ
N
287.5 567.5 M
286.621 565.379 L
284.5 564.5 L
282.379 565.379 L
281.5 567.5 L
282.379 569.621 L
284.5 570.5 L
286.621 569.621 L
cp
S
GR
GS
0 0.447 0.741 RC
1 LJ
N
293.5 569.5 M
292.621 567.379 L
290.5 566.5 L
288.379 567.379 L
287.5 569.5 L
288.379 571.621 L
290.5 572.5 L
292.621 571.621 L
cp
S
GR
GS
0 0.447 0.741 RC
1 LJ
N
299.5 569.5 M
298.621 567.379 L
296.5 566.5 L
294.379 567.379 L
293.5 569.5 L
294.379 571.621 L
296.5 572.5 L
298.621 571.621 L
cp
S
GR
GS
0 0.447 0.741 RC
1 LJ
N
305.5 569.5 M
304.621 567.379 L
302.5 566.5 L
300.379 567.379 L
299.5 569.5 L
300.379 571.621 L
302.5 572.5 L
304.621 571.621 L
cp
S
GR
GS
0 0.447 0.741 RC
1 LJ
N
311.5 570.5 M
310.621 568.379 L
308.5 567.5 L
306.379 568.379 L
305.5 570.5 L
306.379 572.621 L
308.5 573.5 L
310.621 572.621 L
cp
S
GR
GS
0 0.447 0.741 RC
1 LJ
N
317.5 571.5 M
316.621 569.379 L
314.5 568.5 L
312.379 569.379 L
311.5 571.5 L
312.379 573.621 L
314.5 574.5 L
316.621 573.621 L
cp
S
GR
GS
0 0.447 0.741 RC
1 LJ
N
323.5 571.5 M
322.621 569.379 L
320.5 568.5 L
318.379 569.379 L
317.5 571.5 L
318.379 573.621 L
320.5 574.5 L
322.621 573.621 L
cp
S
GR
GS
0 0.447 0.741 RC
1 LJ
N
329.5 572.5 M
328.621 570.379 L
326.5 569.5 L
324.379 570.379 L
323.5 572.5 L
324.379 574.621 L
326.5 575.5 L
328.621 574.621 L
cp
S
GR
GS
0 0.447 0.741 RC
1 LJ
N
335.5 572.5 M
334.621 570.379 L
332.5 569.5 L
330.379 570.379 L
329.5 572.5 L
330.379 574.621 L
332.5 575.5 L
334.621 574.621 L
cp
S
GR
GS
0 0.447 0.741 RC
1 LJ
N
341.5 573.5 M
340.621 571.379 L
338.5 570.5 L
336.379 571.379 L
335.5 573.5 L
336.379 575.621 L
338.5 576.5 L
340.621 575.621 L
cp
S
GR
GS
0 0.447 0.741 RC
1 LJ
N
348.5 573.5 M
347.621 571.379 L
345.5 570.5 L
343.379 571.379 L
342.5 573.5 L
343.379 575.621 L
345.5 576.5 L
347.621 575.621 L
cp
S
GR
GS
0 0.447 0.741 RC
1 LJ
N
354.5 573.5 M
353.621 571.379 L
351.5 570.5 L
349.379 571.379 L
348.5 573.5 L
349.379 575.621 L
351.5 576.5 L
353.621 575.621 L
cp
S
GR
GS
0 0.447 0.741 RC
1 LJ
N
360.5 573.5 M
359.621 571.379 L
357.5 570.5 L
355.379 571.379 L
354.5 573.5 L
355.379 575.621 L
357.5 576.5 L
359.621 575.621 L
cp
S
GR
GS
0 0.447 0.741 RC
1 LJ
N
366.5 574.5 M
365.621 572.379 L
363.5 571.5 L
361.379 572.379 L
360.5 574.5 L
361.379 576.621 L
363.5 577.5 L
365.621 576.621 L
cp
S
GR
GS
0 0.447 0.741 RC
1 LJ
N
372.5 574.5 M
371.621 572.379 L
369.5 571.5 L
367.379 572.379 L
366.5 574.5 L
367.379 576.621 L
369.5 577.5 L
371.621 576.621 L
cp
S
GR
GS
0 0.447 0.741 RC
1 LJ
N
378.5 574.5 M
377.621 572.379 L
375.5 571.5 L
373.379 572.379 L
372.5 574.5 L
373.379 576.621 L
375.5 577.5 L
377.621 576.621 L
cp
S
GR
GS
0 0.447 0.741 RC
1 LJ
N
384.5 575.5 M
383.621 573.379 L
381.5 572.5 L
379.379 573.379 L
378.5 575.5 L
379.379 577.621 L
381.5 578.5 L
383.621 577.621 L
cp
S
GR
GS
0 0.447 0.741 RC
1 LJ
N
390.5 575.5 M
389.621 573.379 L
387.5 572.5 L
385.379 573.379 L
384.5 575.5 L
385.379 577.621 L
387.5 578.5 L
389.621 577.621 L
cp
S
GR
GS
0 0.447 0.741 RC
1 LJ
N
396.5 575.5 M
395.621 573.379 L
393.5 572.5 L
391.379 573.379 L
390.5 575.5 L
391.379 577.621 L
393.5 578.5 L
395.621 577.621 L
cp
S
GR
GS
0 0.447 0.741 RC
1 LJ
N
402.5 577.5 M
401.621 575.379 L
399.5 574.5 L
397.379 575.379 L
396.5 577.5 L
397.379 579.621 L
399.5 580.5 L
401.621 579.621 L
cp
S
GR
GS
0 0.447 0.741 RC
1 LJ
N
408.5 577.5 M
407.621 575.379 L
405.5 574.5 L
403.379 575.379 L
402.5 577.5 L
403.379 579.621 L
405.5 580.5 L
407.621 579.621 L
cp
S
GR
GS
0 0.447 0.741 RC
1 LJ
N
414.5 577.5 M
413.621 575.379 L
411.5 574.5 L
409.379 575.379 L
408.5 577.5 L
409.379 579.621 L
411.5 580.5 L
413.621 579.621 L
cp
S
GR
GS
0 0.447 0.741 RC
1 LJ
N
420.5 577.5 M
419.621 575.379 L
417.5 574.5 L
415.379 575.379 L
414.5 577.5 L
415.379 579.621 L
417.5 580.5 L
419.621 579.621 L
cp
S
GR
GS
0 0.447 0.741 RC
1 LJ
N
426.5 578.5 M
425.621 576.379 L
423.5 575.5 L
421.379 576.379 L
420.5 578.5 L
421.379 580.621 L
423.5 581.5 L
425.621 580.621 L
cp
S
GR
GS
0 0.447 0.741 RC
1 LJ
N
433.5 578.5 M
432.621 576.379 L
430.5 575.5 L
428.379 576.379 L
427.5 578.5 L
428.379 580.621 L
430.5 581.5 L
432.621 580.621 L
cp
S
GR
GS
0 0.447 0.741 RC
1 LJ
N
439.5 579.5 M
438.621 577.379 L
436.5 576.5 L
434.379 577.379 L
433.5 579.5 L
434.379 581.621 L
436.5 582.5 L
438.621 581.621 L
cp
S
GR
GS
0 0.447 0.741 RC
1 LJ
N
445.5 579.5 M
444.621 577.379 L
442.5 576.5 L
440.379 577.379 L
439.5 579.5 L
440.379 581.621 L
442.5 582.5 L
444.621 581.621 L
cp
S
GR
GS
0 0.447 0.741 RC
1 LJ
N
451.5 579.5 M
450.621 577.379 L
448.5 576.5 L
446.379 577.379 L
445.5 579.5 L
446.379 581.621 L
448.5 582.5 L
450.621 581.621 L
cp
S
GR
GS
0 0.447 0.741 RC
1 LJ
N
457.5 579.5 M
456.621 577.379 L
454.5 576.5 L
452.379 577.379 L
451.5 579.5 L
452.379 581.621 L
454.5 582.5 L
456.621 581.621 L
cp
S
GR
GS
0 0.447 0.741 RC
1 LJ
N
463.5 579.5 M
462.621 577.379 L
460.5 576.5 L
458.379 577.379 L
457.5 579.5 L
458.379 581.621 L
460.5 582.5 L
462.621 581.621 L
cp
S
GR
GS
0 0.447 0.741 RC
1 LJ
N
469.5 579.5 M
468.621 577.379 L
466.5 576.5 L
464.379 577.379 L
463.5 579.5 L
464.379 581.621 L
466.5 582.5 L
468.621 581.621 L
cp
S
GR
GS
0 0.447 0.741 RC
1 LJ
N
475.5 580.5 M
474.621 578.379 L
472.5 577.5 L
470.379 578.379 L
469.5 580.5 L
470.379 582.621 L
472.5 583.5 L
474.621 582.621 L
cp
S
GR
GS
0 0.447 0.741 RC
1 LJ
N
481.5 580.5 M
480.621 578.379 L
478.5 577.5 L
476.379 578.379 L
475.5 580.5 L
476.379 582.621 L
478.5 583.5 L
480.621 582.621 L
cp
S
GR
GS
0 0.447 0.741 RC
1 LJ
N
487.5 580.5 M
486.621 578.379 L
484.5 577.5 L
482.379 578.379 L
481.5 580.5 L
482.379 582.621 L
484.5 583.5 L
486.621 582.621 L
cp
S
GR
GS
0 0.447 0.741 RC
1 LJ
N
493.5 581.5 M
492.621 579.379 L
490.5 578.5 L
488.379 579.379 L
487.5 581.5 L
488.379 583.621 L
490.5 584.5 L
492.621 583.621 L
cp
S
GR
GS
0 0.447 0.741 RC
1 LJ
N
499.5 581.5 M
498.621 579.379 L
496.5 578.5 L
494.379 579.379 L
493.5 581.5 L
494.379 583.621 L
496.5 584.5 L
498.621 583.621 L
cp
S
GR
GS
0 0.447 0.741 RC
1 LJ
N
505.5 581.5 M
504.621 579.379 L
502.5 578.5 L
500.379 579.379 L
499.5 581.5 L
500.379 583.621 L
502.5 584.5 L
504.621 583.621 L
cp
S
GR
GS
0 0.447 0.741 RC
1 LJ
N
512.5 581.5 M
511.621 579.379 L
509.5 578.5 L
507.379 579.379 L
506.5 581.5 L
507.379 583.621 L
509.5 584.5 L
511.621 583.621 L
cp
S
GR
GS
0 0.447 0.741 RC
1 LJ
N
518.5 581.5 M
517.621 579.379 L
515.5 578.5 L
513.379 579.379 L
512.5 581.5 L
513.379 583.621 L
515.5 584.5 L
517.621 583.621 L
cp
S
GR
GS
0 0.447 0.741 RC
1 LJ
N
524.5 582.5 M
523.621 580.379 L
521.5 579.5 L
519.379 580.379 L
518.5 582.5 L
519.379 584.621 L
521.5 585.5 L
523.621 584.621 L
cp
S
GR
GS
0 0.447 0.741 RC
1 LJ
N
530.5 582.5 M
529.621 580.379 L
527.5 579.5 L
525.379 580.379 L
524.5 582.5 L
525.379 584.621 L
527.5 585.5 L
529.621 584.621 L
cp
S
GR
GS
0 0.447 0.741 RC
1 LJ
N
536.5 582.5 M
535.621 580.379 L
533.5 579.5 L
531.379 580.379 L
530.5 582.5 L
531.379 584.621 L
533.5 585.5 L
535.621 584.621 L
cp
S
GR
GS
0 0.447 0.741 RC
1 LJ
N
542.5 582.5 M
541.621 580.379 L
539.5 579.5 L
537.379 580.379 L
536.5 582.5 L
537.379 584.621 L
539.5 585.5 L
541.621 584.621 L
cp
S
GR
GS
0 0.447 0.741 RC
1 LJ
N
548.5 583.5 M
547.621 581.379 L
545.5 580.5 L
543.379 581.379 L
542.5 583.5 L
543.379 585.621 L
545.5 586.5 L
547.621 585.621 L
cp
S
GR
GS
0 0.447 0.741 RC
1 LJ
N
554.5 583.5 M
553.621 581.379 L
551.5 580.5 L
549.379 581.379 L
548.5 583.5 L
549.379 585.621 L
551.5 586.5 L
553.621 585.621 L
cp
S
GR
GS
0 0.447 0.741 RC
1 LJ
N
560.5 583.5 M
559.621 581.379 L
557.5 580.5 L
555.379 581.379 L
554.5 583.5 L
555.379 585.621 L
557.5 586.5 L
559.621 585.621 L
cp
S
GR
GS
0 0.447 0.741 RC
1 LJ
N
566.5 583.5 M
565.621 581.379 L
563.5 580.5 L
561.379 581.379 L
560.5 583.5 L
561.379 585.621 L
563.5 586.5 L
565.621 585.621 L
cp
S
GR
GS
0 0.447 0.741 RC
1 LJ
N
572.5 583.5 M
571.621 581.379 L
569.5 580.5 L
567.379 581.379 L
566.5 583.5 L
567.379 585.621 L
569.5 586.5 L
571.621 585.621 L
cp
S
GR
GS
0 0.447 0.741 RC
1 LJ
N
578.5 583.5 M
577.621 581.379 L
575.5 580.5 L
573.379 581.379 L
572.5 583.5 L
573.379 585.621 L
575.5 586.5 L
577.621 585.621 L
cp
S
GR
GS
0 0.447 0.741 RC
1 LJ
N
584.5 583.5 M
583.621 581.379 L
581.5 580.5 L
579.379 581.379 L
578.5 583.5 L
579.379 585.621 L
581.5 586.5 L
583.621 585.621 L
cp
S
GR
GS
0 0.447 0.741 RC
1 LJ
N
591.5 584.5 M
590.621 582.379 L
588.5 581.5 L
586.379 582.379 L
585.5 584.5 L
586.379 586.621 L
588.5 587.5 L
590.621 586.621 L
cp
S
GR
GS
0 0.447 0.741 RC
1 LJ
N
597.5 584.5 M
596.621 582.379 L
594.5 581.5 L
592.379 582.379 L
591.5 584.5 L
592.379 586.621 L
594.5 587.5 L
596.621 586.621 L
cp
S
GR
GS
0 0.447 0.741 RC
1 LJ
N
603.5 584.5 M
602.621 582.379 L
600.5 581.5 L
598.379 582.379 L
597.5 584.5 L
598.379 586.621 L
600.5 587.5 L
602.621 586.621 L
cp
S
GR
GS
0 0.447 0.741 RC
1 LJ
N
609.5 584.5 M
608.621 582.379 L
606.5 581.5 L
604.379 582.379 L
603.5 584.5 L
604.379 586.621 L
606.5 587.5 L
608.621 586.621 L
cp
S
GR
GS
0 0.447 0.741 RC
1 LJ
N
615.5 585.5 M
614.621 583.379 L
612.5 582.5 L
610.379 583.379 L
609.5 585.5 L
610.379 587.621 L
612.5 588.5 L
614.621 587.621 L
cp
S
GR
GS
0 0.447 0.741 RC
1 LJ
N
621.5 585.5 M
620.621 583.379 L
618.5 582.5 L
616.379 583.379 L
615.5 585.5 L
616.379 587.621 L
618.5 588.5 L
620.621 587.621 L
cp
S
GR
GS
0 0.447 0.741 RC
1 LJ
N
627.5 585.5 M
626.621 583.379 L
624.5 582.5 L
622.379 583.379 L
621.5 585.5 L
622.379 587.621 L
624.5 588.5 L
626.621 587.621 L
cp
S
GR
GS
0 0.447 0.741 RC
1 LJ
N
633.5 585.5 M
632.621 583.379 L
630.5 582.5 L
628.379 583.379 L
627.5 585.5 L
628.379 587.621 L
630.5 588.5 L
632.621 587.621 L
cp
S
GR
GS
0 0.447 0.741 RC
1 LJ
N
639.5 586.5 M
638.621 584.379 L
636.5 583.5 L
634.379 584.379 L
633.5 586.5 L
634.379 588.621 L
636.5 589.5 L
638.621 588.621 L
cp
S
GR
GS
0 0.447 0.741 RC
1 LJ
N
645.5 586.5 M
644.621 584.379 L
642.5 583.5 L
640.379 584.379 L
639.5 586.5 L
640.379 588.621 L
642.5 589.5 L
644.621 588.621 L
cp
S
GR
GS
0 0.447 0.741 RC
1 LJ
N
651.5 586.5 M
650.621 584.379 L
648.5 583.5 L
646.379 584.379 L
645.5 586.5 L
646.379 588.621 L
648.5 589.5 L
650.621 588.621 L
cp
S
GR
GS
0 0.447 0.741 RC
1 LJ
N
657.5 586.5 M
656.621 584.379 L
654.5 583.5 L
652.379 584.379 L
651.5 586.5 L
652.379 588.621 L
654.5 589.5 L
656.621 588.621 L
cp
S
GR
GS
0.851 0.325 0.098 RC
1 LJ
N
108.075 50 M
114.15 197.246 L
120.225 274.789 L
126.3 316.883 L
132.375 345.031 L
138.45 398.987 L
144.525 429.537 L
150.6 446.149 L
156.675 454.759 L
162.75 456.555 L
168.825 471.381 L
174.9 470.597 L
180.975 486.621 L
187.05 508.86 L
193.125 513.287 L
199.2 531.051 L
205.275 532.012 L
211.35 537.529 L
217.425 543.427 L
223.5 549.51 L
229.575 559.155 L
235.65 560.154 L
241.725 561.937 L
247.8 564.065 L
253.875 568.901 L
259.95 573.032 L
266.025 572.612 L
272.1 575.837 L
278.175 576.509 L
284.25 578.418 L
290.325 580.697 L
296.4 581.283 L
302.475 580.729 L
308.55 583.002 L
314.625 583.797 L
320.7 584.862 L
326.775 585.202 L
332.85 585.184 L
338.925 586.024 L
345 587.088 L
351.075 588.117 L
357.15 587.993 L
363.225 588.764 L
369.3 589.066 L
375.375 589.185 L
381.45 590.179 L
387.525 590.298 L
393.6 590.592 L
399.675 590.788 L
405.75 590.915 L
S
GR
GS
0.851 0.325 0.098 RC
1 LJ
N
399.675 590.788 M
405.75 590.915 L
411.825 591.438 L
417.9 591.601 L
423.975 591.807 L
430.05 591.96 L
436.125 592.071 L
442.2 592.482 L
448.275 592.648 L
454.35 592.706 L
460.425 592.763 L
466.5 592.982 L
472.575 593.322 L
478.65 593.403 L
484.725 593.538 L
490.8 593.643 L
496.875 593.664 L
502.95 593.831 L
509.025 593.941 L
515.1 594.001 L
521.175 594.076 L
527.25 594.134 L
533.325 594.277 L
539.4 594.4 L
545.475 594.39 L
551.55 594.537 L
557.625 594.603 L
563.7 594.739 L
569.775 594.813 L
575.85 594.865 L
581.925 594.903 L
588 594.92 L
594.075 595.027 L
600.15 595.086 L
606.225 595.142 L
612.3 595.146 L
618.375 595.222 L
624.45 595.273 L
630.525 595.312 L
636.6 595.342 L
642.675 595.333 L
648.75 595.417 L
654.825 595.5 L
S
GR
GS
0.851 0.325 0.098 RC
1 LJ
N
111.5 49.5 M
110.621 47.379 L
108.5 46.5 L
106.379 47.379 L
105.5 49.5 L
106.379 51.621 L
108.5 52.5 L
110.621 51.621 L
cp
S
GR
GS
0.851 0.325 0.098 RC
1 LJ
N
117.5 197.5 M
116.621 195.379 L
114.5 194.5 L
112.379 195.379 L
111.5 197.5 L
112.379 199.621 L
114.5 200.5 L
116.621 199.621 L
cp
S
GR
GS
0.851 0.325 0.098 RC
1 LJ
N
123.5 274.5 M
122.621 272.379 L
120.5 271.5 L
118.379 272.379 L
117.5 274.5 L
118.379 276.621 L
120.5 277.5 L
122.621 276.621 L
cp
S
GR
GS
0.851 0.325 0.098 RC
1 LJ
N
129.5 316.5 M
128.621 314.379 L
126.5 313.5 L
124.379 314.379 L
123.5 316.5 L
124.379 318.621 L
126.5 319.5 L
128.621 318.621 L
cp
S
GR
GS
0.851 0.325 0.098 RC
1 LJ
N
135.5 345.5 M
134.621 343.379 L
132.5 342.5 L
130.379 343.379 L
129.5 345.5 L
130.379 347.621 L
132.5 348.5 L
134.621 347.621 L
cp
S
GR
GS
0.851 0.325 0.098 RC
1 LJ
N
141.5 398.5 M
140.621 396.379 L
138.5 395.5 L
136.379 396.379 L
135.5 398.5 L
136.379 400.621 L
138.5 401.5 L
140.621 400.621 L
cp
S
GR
GS
0.851 0.325 0.098 RC
1 LJ
N
147.5 429.5 M
146.621 427.379 L
144.5 426.5 L
142.379 427.379 L
141.5 429.5 L
142.379 431.621 L
144.5 432.5 L
146.621 431.621 L
cp
S
GR
GS
0.851 0.325 0.098 RC
1 LJ
N
153.5 446.5 M
152.621 444.379 L
150.5 443.5 L
148.379 444.379 L
147.5 446.5 L
148.379 448.621 L
150.5 449.5 L
152.621 448.621 L
cp
S
GR
GS
0.851 0.325 0.098 RC
1 LJ
N
159.5 454.5 M
158.621 452.379 L
156.5 451.5 L
154.379 452.379 L
153.5 454.5 L
154.379 456.621 L
156.5 457.5 L
158.621 456.621 L
cp
S
GR
GS
0.851 0.325 0.098 RC
1 LJ
N
165.5 456.5 M
164.621 454.379 L
162.5 453.5 L
160.379 454.379 L
159.5 456.5 L
160.379 458.621 L
162.5 459.5 L
164.621 458.621 L
cp
S
GR
GS
0.851 0.325 0.098 RC
1 LJ
N
171.5 471.5 M
170.621 469.379 L
168.5 468.5 L
166.379 469.379 L
165.5 471.5 L
166.379 473.621 L
168.5 474.5 L
170.621 473.621 L
cp
S
GR
GS
0.851 0.325 0.098 RC
1 LJ
N
177.5 470.5 M
176.621 468.379 L
174.5 467.5 L
172.379 468.379 L
171.5 470.5 L
172.379 472.621 L
174.5 473.5 L
176.621 472.621 L
cp
S
GR
GS
0.851 0.325 0.098 RC
1 LJ
N
183.5 486.5 M
182.621 484.379 L
180.5 483.5 L
178.379 484.379 L
177.5 486.5 L
178.379 488.621 L
180.5 489.5 L
182.621 488.621 L
cp
S
GR
GS
0.851 0.325 0.098 RC
1 LJ
N
190.5 508.5 M
189.621 506.379 L
187.5 505.5 L
185.379 506.379 L
184.5 508.5 L
185.379 510.621 L
187.5 511.5 L
189.621 510.621 L
cp
S
GR
GS
0.851 0.325 0.098 RC
1 LJ
N
196.5 513.5 M
195.621 511.379 L
193.5 510.5 L
191.379 511.379 L
190.5 513.5 L
191.379 515.621 L
193.5 516.5 L
195.621 515.621 L
cp
S
GR
GS
0.851 0.325 0.098 RC
1 LJ
N
202.5 531.5 M
201.621 529.379 L
199.5 528.5 L
197.379 529.379 L
196.5 531.5 L
197.379 533.621 L
199.5 534.5 L
201.621 533.621 L
cp
S
GR
GS
0.851 0.325 0.098 RC
1 LJ
N
208.5 532.5 M
207.621 530.379 L
205.5 529.5 L
203.379 530.379 L
202.5 532.5 L
203.379 534.621 L
205.5 535.5 L
207.621 534.621 L
cp
S
GR
GS
0.851 0.325 0.098 RC
1 LJ
N
214.5 537.5 M
213.621 535.379 L
211.5 534.5 L
209.379 535.379 L
208.5 537.5 L
209.379 539.621 L
211.5 540.5 L
213.621 539.621 L
cp
S
GR
GS
0.851 0.325 0.098 RC
1 LJ
N
220.5 543.5 M
219.621 541.379 L
217.5 540.5 L
215.379 541.379 L
214.5 543.5 L
215.379 545.621 L
217.5 546.5 L
219.621 545.621 L
cp
S
GR
GS
0.851 0.325 0.098 RC
1 LJ
N
226.5 549.5 M
225.621 547.379 L
223.5 546.5 L
221.379 547.379 L
220.5 549.5 L
221.379 551.621 L
223.5 552.5 L
225.621 551.621 L
cp
S
GR
GS
0.851 0.325 0.098 RC
1 LJ
N
232.5 559.5 M
231.621 557.379 L
229.5 556.5 L
227.379 557.379 L
226.5 559.5 L
227.379 561.621 L
229.5 562.5 L
231.621 561.621 L
cp
S
GR
GS
0.851 0.325 0.098 RC
1 LJ
N
238.5 560.5 M
237.621 558.379 L
235.5 557.5 L
233.379 558.379 L
232.5 560.5 L
233.379 562.621 L
235.5 563.5 L
237.621 562.621 L
cp
S
GR
GS
0.851 0.325 0.098 RC
1 LJ
N
244.5 561.5 M
243.621 559.379 L
241.5 558.5 L
239.379 559.379 L
238.5 561.5 L
239.379 563.621 L
241.5 564.5 L
243.621 563.621 L
cp
S
GR
GS
0.851 0.325 0.098 RC
1 LJ
N
250.5 564.5 M
249.621 562.379 L
247.5 561.5 L
245.379 562.379 L
244.5 564.5 L
245.379 566.621 L
247.5 567.5 L
249.621 566.621 L
cp
S
GR
GS
0.851 0.325 0.098 RC
1 LJ
N
256.5 568.5 M
255.621 566.379 L
253.5 565.5 L
251.379 566.379 L
250.5 568.5 L
251.379 570.621 L
253.5 571.5 L
255.621 570.621 L
cp
S
GR
GS
0.851 0.325 0.098 RC
1 LJ
N
262.5 573.5 M
261.621 571.379 L
259.5 570.5 L
257.379 571.379 L
256.5 573.5 L
257.379 575.621 L
259.5 576.5 L
261.621 575.621 L
cp
S
GR
GS
0.851 0.325 0.098 RC
1 LJ
N
269.5 572.5 M
268.621 570.379 L
266.5 569.5 L
264.379 570.379 L
263.5 572.5 L
264.379 574.621 L
266.5 575.5 L
268.621 574.621 L
cp
S
GR
GS
0.851 0.325 0.098 RC
1 LJ
N
275.5 575.5 M
274.621 573.379 L
272.5 572.5 L
270.379 573.379 L
269.5 575.5 L
270.379 577.621 L
272.5 578.5 L
274.621 577.621 L
cp
S
GR
GS
0.851 0.325 0.098 RC
1 LJ
N
281.5 576.5 M
280.621 574.379 L
278.5 573.5 L
276.379 574.379 L
275.5 576.5 L
276.379 578.621 L
278.5 579.5 L
280.621 578.621 L
cp
S
GR
GS
0.851 0.325 0.098 RC
1 LJ
N
287.5 578.5 M
286.621 576.379 L
284.5 575.5 L
282.379 576.379 L
281.5 578.5 L
282.379 580.621 L
284.5 581.5 L
286.621 580.621 L
cp
S
GR
GS
0.851 0.325 0.098 RC
1 LJ
N
293.5 580.5 M
292.621 578.379 L
290.5 577.5 L
288.379 578.379 L
287.5 580.5 L
288.379 582.621 L
290.5 583.5 L
292.621 582.621 L
cp
S
GR
GS
0.851 0.325 0.098 RC
1 LJ
N
299.5 581.5 M
298.621 579.379 L
296.5 578.5 L
294.379 579.379 L
293.5 581.5 L
294.379 583.621 L
296.5 584.5 L
298.621 583.621 L
cp
S
GR
GS
0.851 0.325 0.098 RC
1 LJ
N
305.5 580.5 M
304.621 578.379 L
302.5 577.5 L
300.379 578.379 L
299.5 580.5 L
300.379 582.621 L
302.5 583.5 L
304.621 582.621 L
cp
S
GR
GS
0.851 0.325 0.098 RC
1 LJ
N
311.5 583.5 M
310.621 581.379 L
308.5 580.5 L
306.379 581.379 L
305.5 583.5 L
306.379 585.621 L
308.5 586.5 L
310.621 585.621 L
cp
S
GR
GS
0.851 0.325 0.098 RC
1 LJ
N
317.5 583.5 M
316.621 581.379 L
314.5 580.5 L
312.379 581.379 L
311.5 583.5 L
312.379 585.621 L
314.5 586.5 L
316.621 585.621 L
cp
S
GR
GS
0.851 0.325 0.098 RC
1 LJ
N
323.5 584.5 M
322.621 582.379 L
320.5 581.5 L
318.379 582.379 L
317.5 584.5 L
318.379 586.621 L
320.5 587.5 L
322.621 586.621 L
cp
S
GR
GS
0.851 0.325 0.098 RC
1 LJ
N
329.5 585.5 M
328.621 583.379 L
326.5 582.5 L
324.379 583.379 L
323.5 585.5 L
324.379 587.621 L
326.5 588.5 L
328.621 587.621 L
cp
S
GR
GS
0.851 0.325 0.098 RC
1 LJ
N
335.5 585.5 M
334.621 583.379 L
332.5 582.5 L
330.379 583.379 L
329.5 585.5 L
330.379 587.621 L
332.5 588.5 L
334.621 587.621 L
cp
S
GR
GS
0.851 0.325 0.098 RC
1 LJ
N
341.5 586.5 M
340.621 584.379 L
338.5 583.5 L
336.379 584.379 L
335.5 586.5 L
336.379 588.621 L
338.5 589.5 L
340.621 588.621 L
cp
S
GR
GS
0.851 0.325 0.098 RC
1 LJ
N
348.5 587.5 M
347.621 585.379 L
345.5 584.5 L
343.379 585.379 L
342.5 587.5 L
343.379 589.621 L
345.5 590.5 L
347.621 589.621 L
cp
S
GR
GS
0.851 0.325 0.098 RC
1 LJ
N
354.5 588.5 M
353.621 586.379 L
351.5 585.5 L
349.379 586.379 L
348.5 588.5 L
349.379 590.621 L
351.5 591.5 L
353.621 590.621 L
cp
S
GR
GS
0.851 0.325 0.098 RC
1 LJ
N
360.5 587.5 M
359.621 585.379 L
357.5 584.5 L
355.379 585.379 L
354.5 587.5 L
355.379 589.621 L
357.5 590.5 L
359.621 589.621 L
cp
S
GR
GS
0.851 0.325 0.098 RC
1 LJ
N
366.5 588.5 M
365.621 586.379 L
363.5 585.5 L
361.379 586.379 L
360.5 588.5 L
361.379 590.621 L
363.5 591.5 L
365.621 590.621 L
cp
S
GR
GS
0.851 0.325 0.098 RC
1 LJ
N
372.5 589.5 M
371.621 587.379 L
369.5 586.5 L
367.379 587.379 L
366.5 589.5 L
367.379 591.621 L
369.5 592.5 L
371.621 591.621 L
cp
S
GR
GS
0.851 0.325 0.098 RC
1 LJ
N
378.5 589.5 M
377.621 587.379 L
375.5 586.5 L
373.379 587.379 L
372.5 589.5 L
373.379 591.621 L
375.5 592.5 L
377.621 591.621 L
cp
S
GR
GS
0.851 0.325 0.098 RC
1 LJ
N
384.5 590.5 M
383.621 588.379 L
381.5 587.5 L
379.379 588.379 L
378.5 590.5 L
379.379 592.621 L
381.5 593.5 L
383.621 592.621 L
cp
S
GR
GS
0.851 0.325 0.098 RC
1 LJ
N
390.5 590.5 M
389.621 588.379 L
387.5 587.5 L
385.379 588.379 L
384.5 590.5 L
385.379 592.621 L
387.5 593.5 L
389.621 592.621 L
cp
S
GR
GS
0.851 0.325 0.098 RC
1 LJ
N
396.5 590.5 M
395.621 588.379 L
393.5 587.5 L
391.379 588.379 L
390.5 590.5 L
391.379 592.621 L
393.5 593.5 L
395.621 592.621 L
cp
S
GR
GS
0.851 0.325 0.098 RC
1 LJ
N
402.5 590.5 M
401.621 588.379 L
399.5 587.5 L
397.379 588.379 L
396.5 590.5 L
397.379 592.621 L
399.5 593.5 L
401.621 592.621 L
cp
S
GR
GS
0.851 0.325 0.098 RC
1 LJ
N
408.5 590.5 M
407.621 588.379 L
405.5 587.5 L
403.379 588.379 L
402.5 590.5 L
403.379 592.621 L
405.5 593.5 L
407.621 592.621 L
cp
S
GR
GS
0.851 0.325 0.098 RC
1 LJ
N
414.5 591.5 M
413.621 589.379 L
411.5 588.5 L
409.379 589.379 L
408.5 591.5 L
409.379 593.621 L
411.5 594.5 L
413.621 593.621 L
cp
S
GR
GS
0.851 0.325 0.098 RC
1 LJ
N
420.5 591.5 M
419.621 589.379 L
417.5 588.5 L
415.379 589.379 L
414.5 591.5 L
415.379 593.621 L
417.5 594.5 L
419.621 593.621 L
cp
S
GR
GS
0.851 0.325 0.098 RC
1 LJ
N
426.5 591.5 M
425.621 589.379 L
423.5 588.5 L
421.379 589.379 L
420.5 591.5 L
421.379 593.621 L
423.5 594.5 L
425.621 593.621 L
cp
S
GR
GS
0.851 0.325 0.098 RC
1 LJ
N
433.5 591.5 M
432.621 589.379 L
430.5 588.5 L
428.379 589.379 L
427.5 591.5 L
428.379 593.621 L
430.5 594.5 L
432.621 593.621 L
cp
S
GR
GS
0.851 0.325 0.098 RC
1 LJ
N
439.5 592.5 M
438.621 590.379 L
436.5 589.5 L
434.379 590.379 L
433.5 592.5 L
434.379 594.621 L
436.5 595.5 L
438.621 594.621 L
cp
S
GR
GS
0.851 0.325 0.098 RC
1 LJ
N
445.5 592.5 M
444.621 590.379 L
442.5 589.5 L
440.379 590.379 L
439.5 592.5 L
440.379 594.621 L
442.5 595.5 L
444.621 594.621 L
cp
S
GR
GS
0.851 0.325 0.098 RC
1 LJ
N
451.5 592.5 M
450.621 590.379 L
448.5 589.5 L
446.379 590.379 L
445.5 592.5 L
446.379 594.621 L
448.5 595.5 L
450.621 594.621 L
cp
S
GR
GS
0.851 0.325 0.098 RC
1 LJ
N
457.5 592.5 M
456.621 590.379 L
454.5 589.5 L
452.379 590.379 L
451.5 592.5 L
452.379 594.621 L
454.5 595.5 L
456.621 594.621 L
cp
S
GR
GS
0.851 0.325 0.098 RC
1 LJ
N
463.5 592.5 M
462.621 590.379 L
460.5 589.5 L
458.379 590.379 L
457.5 592.5 L
458.379 594.621 L
460.5 595.5 L
462.621 594.621 L
cp
S
GR
GS
0.851 0.325 0.098 RC
1 LJ
N
469.5 592.5 M
468.621 590.379 L
466.5 589.5 L
464.379 590.379 L
463.5 592.5 L
464.379 594.621 L
466.5 595.5 L
468.621 594.621 L
cp
S
GR
GS
0.851 0.325 0.098 RC
1 LJ
N
475.5 593.5 M
474.621 591.379 L
472.5 590.5 L
470.379 591.379 L
469.5 593.5 L
470.379 595.621 L
472.5 596.5 L
474.621 595.621 L
cp
S
GR
GS
0.851 0.325 0.098 RC
1 LJ
N
481.5 593.5 M
480.621 591.379 L
478.5 590.5 L
476.379 591.379 L
475.5 593.5 L
476.379 595.621 L
478.5 596.5 L
480.621 595.621 L
cp
S
GR
GS
0.851 0.325 0.098 RC
1 LJ
N
487.5 593.5 M
486.621 591.379 L
484.5 590.5 L
482.379 591.379 L
481.5 593.5 L
482.379 595.621 L
484.5 596.5 L
486.621 595.621 L
cp
S
GR
GS
0.851 0.325 0.098 RC
1 LJ
N
493.5 593.5 M
492.621 591.379 L
490.5 590.5 L
488.379 591.379 L
487.5 593.5 L
488.379 595.621 L
490.5 596.5 L
492.621 595.621 L
cp
S
GR
GS
0.851 0.325 0.098 RC
1 LJ
N
499.5 593.5 M
498.621 591.379 L
496.5 590.5 L
494.379 591.379 L
493.5 593.5 L
494.379 595.621 L
496.5 596.5 L
498.621 595.621 L
cp
S
GR
GS
0.851 0.325 0.098 RC
1 LJ
N
505.5 593.5 M
504.621 591.379 L
502.5 590.5 L
500.379 591.379 L
499.5 593.5 L
500.379 595.621 L
502.5 596.5 L
504.621 595.621 L
cp
S
GR
GS
0.851 0.325 0.098 RC
1 LJ
N
512.5 593.5 M
511.621 591.379 L
509.5 590.5 L
507.379 591.379 L
506.5 593.5 L
507.379 595.621 L
509.5 596.5 L
511.621 595.621 L
cp
S
GR
GS
0.851 0.325 0.098 RC
1 LJ
N
518.5 594.5 M
517.621 592.379 L
515.5 591.5 L
513.379 592.379 L
512.5 594.5 L
513.379 596.621 L
515.5 597.5 L
517.621 596.621 L
cp
S
GR
GS
0.851 0.325 0.098 RC
1 LJ
N
524.5 594.5 M
523.621 592.379 L
521.5 591.5 L
519.379 592.379 L
518.5 594.5 L
519.379 596.621 L
521.5 597.5 L
523.621 596.621 L
cp
S
GR
GS
0.851 0.325 0.098 RC
1 LJ
N
530.5 594.5 M
529.621 592.379 L
527.5 591.5 L
525.379 592.379 L
524.5 594.5 L
525.379 596.621 L
527.5 597.5 L
529.621 596.621 L
cp
S
GR
GS
0.851 0.325 0.098 RC
1 LJ
N
536.5 594.5 M
535.621 592.379 L
533.5 591.5 L
531.379 592.379 L
530.5 594.5 L
531.379 596.621 L
533.5 597.5 L
535.621 596.621 L
cp
S
GR
GS
0.851 0.325 0.098 RC
1 LJ
N
542.5 594.5 M
541.621 592.379 L
539.5 591.5 L
537.379 592.379 L
536.5 594.5 L
537.379 596.621 L
539.5 597.5 L
541.621 596.621 L
cp
S
GR
GS
0.851 0.325 0.098 RC
1 LJ
N
548.5 594.5 M
547.621 592.379 L
545.5 591.5 L
543.379 592.379 L
542.5 594.5 L
543.379 596.621 L
545.5 597.5 L
547.621 596.621 L
cp
S
GR
GS
0.851 0.325 0.098 RC
1 LJ
N
554.5 594.5 M
553.621 592.379 L
551.5 591.5 L
549.379 592.379 L
548.5 594.5 L
549.379 596.621 L
551.5 597.5 L
553.621 596.621 L
cp
S
GR
GS
0.851 0.325 0.098 RC
1 LJ
N
560.5 594.5 M
559.621 592.379 L
557.5 591.5 L
555.379 592.379 L
554.5 594.5 L
555.379 596.621 L
557.5 597.5 L
559.621 596.621 L
cp
S
GR
GS
0.851 0.325 0.098 RC
1 LJ
N
566.5 594.5 M
565.621 592.379 L
563.5 591.5 L
561.379 592.379 L
560.5 594.5 L
561.379 596.621 L
563.5 597.5 L
565.621 596.621 L
cp
S
GR
GS
0.851 0.325 0.098 RC
1 LJ
N
572.5 594.5 M
571.621 592.379 L
569.5 591.5 L
567.379 592.379 L
566.5 594.5 L
567.379 596.621 L
569.5 597.5 L
571.621 596.621 L
cp
S
GR
GS
0.851 0.325 0.098 RC
1 LJ
N
578.5 594.5 M
577.621 592.379 L
575.5 591.5 L
573.379 592.379 L
572.5 594.5 L
573.379 596.621 L
575.5 597.5 L
577.621 596.621 L
cp
S
GR
GS
0.851 0.325 0.098 RC
1 LJ
N
584.5 594.5 M
583.621 592.379 L
581.5 591.5 L
579.379 592.379 L
578.5 594.5 L
579.379 596.621 L
581.5 597.5 L
583.621 596.621 L
cp
S
GR
GS
0.851 0.325 0.098 RC
1 LJ
N
591.5 594.5 M
590.621 592.379 L
588.5 591.5 L
586.379 592.379 L
585.5 594.5 L
586.379 596.621 L
588.5 597.5 L
590.621 596.621 L
cp
S
GR
GS
0.851 0.325 0.098 RC
1 LJ
N
597.5 595.5 M
596.621 593.379 L
594.5 592.5 L
592.379 593.379 L
591.5 595.5 L
592.379 597.621 L
594.5 598.5 L
596.621 597.621 L
cp
S
GR
GS
0.851 0.325 0.098 RC
1 LJ
N
603.5 595.5 M
602.621 593.379 L
600.5 592.5 L
598.379 593.379 L
597.5 595.5 L
598.379 597.621 L
600.5 598.5 L
602.621 597.621 L
cp
S
GR
GS
0.851 0.325 0.098 RC
1 LJ
N
609.5 595.5 M
608.621 593.379 L
606.5 592.5 L
604.379 593.379 L
603.5 595.5 L
604.379 597.621 L
606.5 598.5 L
608.621 597.621 L
cp
S
GR
GS
0.851 0.325 0.098 RC
1 LJ
N
615.5 595.5 M
614.621 593.379 L
612.5 592.5 L
610.379 593.379 L
609.5 595.5 L
610.379 597.621 L
612.5 598.5 L
614.621 597.621 L
cp
S
GR
GS
0.851 0.325 0.098 RC
1 LJ
N
621.5 595.5 M
620.621 593.379 L
618.5 592.5 L
616.379 593.379 L
615.5 595.5 L
616.379 597.621 L
618.5 598.5 L
620.621 597.621 L
cp
S
GR
GS
0.851 0.325 0.098 RC
1 LJ
N
627.5 595.5 M
626.621 593.379 L
624.5 592.5 L
622.379 593.379 L
621.5 595.5 L
622.379 597.621 L
624.5 598.5 L
626.621 597.621 L
cp
S
GR
GS
0.851 0.325 0.098 RC
1 LJ
N
633.5 595.5 M
632.621 593.379 L
630.5 592.5 L
628.379 593.379 L
627.5 595.5 L
628.379 597.621 L
630.5 598.5 L
632.621 597.621 L
cp
S
GR
GS
0.851 0.325 0.098 RC
1 LJ
N
639.5 595.5 M
638.621 593.379 L
636.5 592.5 L
634.379 593.379 L
633.5 595.5 L
634.379 597.621 L
636.5 598.5 L
638.621 597.621 L
cp
S
GR
GS
0.851 0.325 0.098 RC
1 LJ
N
645.5 595.5 M
644.621 593.379 L
642.5 592.5 L
640.379 593.379 L
639.5 595.5 L
640.379 597.621 L
642.5 598.5 L
644.621 597.621 L
cp
S
GR
GS
0.851 0.325 0.098 RC
1 LJ
N
651.5 595.5 M
650.621 593.379 L
648.5 592.5 L
646.379 593.379 L
645.5 595.5 L
646.379 597.621 L
648.5 598.5 L
650.621 597.621 L
cp
S
GR
GS
0.851 0.325 0.098 RC
1 LJ
N
657.5 595.5 M
656.621 593.379 L
654.5 592.5 L
652.379 593.379 L
651.5 595.5 L
652.379 597.621 L
654.5 598.5 L
656.621 597.621 L
cp
S
GR
GS
0.929 0.694 0.125 RC
1 LJ
N
108.075 50 M
114.15 182.013 L
120.225 278.245 L
126.3 283.407 L
132.375 366.295 L
138.45 330.34 L
144.525 404.267 L
150.6 375.93 L
156.675 423.851 L
162.75 420.252 L
168.825 430.158 L
174.9 445.162 L
180.975 447.061 L
187.05 460.215 L
193.125 463.375 L
199.2 469.342 L
205.275 472.496 L
211.35 481.077 L
217.425 484.221 L
223.5 489.411 L
229.575 493.085 L
235.65 500.59 L
241.725 504.24 L
247.8 509.057 L
253.875 512.708 L
259.95 516.547 L
266.025 520 L
272.1 523.707 L
278.175 526.927 L
284.25 530.711 L
290.325 532.874 L
296.4 534.634 L
302.475 536.418 L
308.55 537.226 L
314.625 537.804 L
320.7 541.24 L
326.775 545.977 L
332.85 547.562 L
338.925 546.915 L
345 554.331 L
351.075 555.906 L
357.15 558.431 L
363.225 560.073 L
369.3 560.053 L
375.375 562.435 L
381.45 562.689 L
387.525 563.422 L
393.6 563.622 L
399.675 564.251 L
405.75 564.756 L
S
GR
GS
0.929 0.694 0.125 RC
1 LJ
N
399.675 564.251 M
405.75 564.756 L
411.825 565.535 L
417.9 565.854 L
423.975 566.308 L
430.05 566.525 L
436.125 566.673 L
442.2 567.158 L
448.275 567.293 L
454.35 567.666 L
460.425 567.863 L
466.5 568.084 L
472.575 568.083 L
478.65 569.082 L
484.725 569.52 L
490.8 569.779 L
496.875 569.889 L
502.95 570.446 L
509.025 570.535 L
515.1 570.946 L
521.175 571.268 L
527.25 571.413 L
533.325 571.586 L
539.4 571.7 L
545.475 571.971 L
551.55 572.044 L
557.625 572.688 L
563.7 572.662 L
569.775 573.376 L
575.85 573.505 L
581.925 573.629 L
588 574.039 L
594.075 574.209 L
600.15 574.417 L
606.225 574.57 L
612.3 574.659 L
618.375 574.949 L
624.45 575.012 L
630.525 575.381 L
636.6 575.649 L
642.675 575.813 L
648.75 575.948 L
654.825 576.142 L
S
GR
GS
0.929 0.694 0.125 RC
1 LJ
N
111.5 49.5 M
110.621 47.379 L
108.5 46.5 L
106.379 47.379 L
105.5 49.5 L
106.379 51.621 L
108.5 52.5 L
110.621 51.621 L
cp
S
GR
GS
0.929 0.694 0.125 RC
1 LJ
N
117.5 182.5 M
116.621 180.379 L
114.5 179.5 L
112.379 180.379 L
111.5 182.5 L
112.379 184.621 L
114.5 185.5 L
116.621 184.621 L
cp
S
GR
GS
0.929 0.694 0.125 RC
1 LJ
N
123.5 278.5 M
122.621 276.379 L
120.5 275.5 L
118.379 276.379 L
117.5 278.5 L
118.379 280.621 L
120.5 281.5 L
122.621 280.621 L
cp
S
GR
GS
0.929 0.694 0.125 RC
1 LJ
N
129.5 283.5 M
128.621 281.379 L
126.5 280.5 L
124.379 281.379 L
123.5 283.5 L
124.379 285.621 L
126.5 286.5 L
128.621 285.621 L
cp
S
GR
GS
0.929 0.694 0.125 RC
1 LJ
N
135.5 366.5 M
134.621 364.379 L
132.5 363.5 L
130.379 364.379 L
129.5 366.5 L
130.379 368.621 L
132.5 369.5 L
134.621 368.621 L
cp
S
GR
GS
0.929 0.694 0.125 RC
1 LJ
N
141.5 330.5 M
140.621 328.379 L
138.5 327.5 L
136.379 328.379 L
135.5 330.5 L
136.379 332.621 L
138.5 333.5 L
140.621 332.621 L
cp
S
GR
GS
0.929 0.694 0.125 RC
1 LJ
N
147.5 404.5 M
146.621 402.379 L
144.5 401.5 L
142.379 402.379 L
141.5 404.5 L
142.379 406.621 L
144.5 407.5 L
146.621 406.621 L
cp
S
GR
GS
0.929 0.694 0.125 RC
1 LJ
N
153.5 375.5 M
152.621 373.379 L
150.5 372.5 L
148.379 373.379 L
147.5 375.5 L
148.379 377.621 L
150.5 378.5 L
152.621 377.621 L
cp
S
GR
GS
0.929 0.694 0.125 RC
1 LJ
N
159.5 423.5 M
158.621 421.379 L
156.5 420.5 L
154.379 421.379 L
153.5 423.5 L
154.379 425.621 L
156.5 426.5 L
158.621 425.621 L
cp
S
GR
GS
0.929 0.694 0.125 RC
1 LJ
N
165.5 420.5 M
164.621 418.379 L
162.5 417.5 L
160.379 418.379 L
159.5 420.5 L
160.379 422.621 L
162.5 423.5 L
164.621 422.621 L
cp
S
GR
GS
0.929 0.694 0.125 RC
1 LJ
N
171.5 430.5 M
170.621 428.379 L
168.5 427.5 L
166.379 428.379 L
165.5 430.5 L
166.379 432.621 L
168.5 433.5 L
170.621 432.621 L
cp
S
GR
GS
0.929 0.694 0.125 RC
1 LJ
N
177.5 445.5 M
176.621 443.379 L
174.5 442.5 L
172.379 443.379 L
171.5 445.5 L
172.379 447.621 L
174.5 448.5 L
176.621 447.621 L
cp
S
GR
GS
0.929 0.694 0.125 RC
1 LJ
N
183.5 447.5 M
182.621 445.379 L
180.5 444.5 L
178.379 445.379 L
177.5 447.5 L
178.379 449.621 L
180.5 450.5 L
182.621 449.621 L
cp
S
GR
GS
0.929 0.694 0.125 RC
1 LJ
N
190.5 460.5 M
189.621 458.379 L
187.5 457.5 L
185.379 458.379 L
184.5 460.5 L
185.379 462.621 L
187.5 463.5 L
189.621 462.621 L
cp
S
GR
GS
0.929 0.694 0.125 RC
1 LJ
N
196.5 463.5 M
195.621 461.379 L
193.5 460.5 L
191.379 461.379 L
190.5 463.5 L
191.379 465.621 L
193.5 466.5 L
195.621 465.621 L
cp
S
GR
GS
0.929 0.694 0.125 RC
1 LJ
N
202.5 469.5 M
201.621 467.379 L
199.5 466.5 L
197.379 467.379 L
196.5 469.5 L
197.379 471.621 L
199.5 472.5 L
201.621 471.621 L
cp
S
GR
GS
0.929 0.694 0.125 RC
1 LJ
N
208.5 472.5 M
207.621 470.379 L
205.5 469.5 L
203.379 470.379 L
202.5 472.5 L
203.379 474.621 L
205.5 475.5 L
207.621 474.621 L
cp
S
GR
GS
0.929 0.694 0.125 RC
1 LJ
N
214.5 481.5 M
213.621 479.379 L
211.5 478.5 L
209.379 479.379 L
208.5 481.5 L
209.379 483.621 L
211.5 484.5 L
213.621 483.621 L
cp
S
GR
GS
0.929 0.694 0.125 RC
1 LJ
N
220.5 484.5 M
219.621 482.379 L
217.5 481.5 L
215.379 482.379 L
214.5 484.5 L
215.379 486.621 L
217.5 487.5 L
219.621 486.621 L
cp
S
GR
GS
0.929 0.694 0.125 RC
1 LJ
N
226.5 489.5 M
225.621 487.379 L
223.5 486.5 L
221.379 487.379 L
220.5 489.5 L
221.379 491.621 L
223.5 492.5 L
225.621 491.621 L
cp
S
GR
GS
0.929 0.694 0.125 RC
1 LJ
N
232.5 493.5 M
231.621 491.379 L
229.5 490.5 L
227.379 491.379 L
226.5 493.5 L
227.379 495.621 L
229.5 496.5 L
231.621 495.621 L
cp
S
GR
GS
0.929 0.694 0.125 RC
1 LJ
N
238.5 500.5 M
237.621 498.379 L
235.5 497.5 L
233.379 498.379 L
232.5 500.5 L
233.379 502.621 L
235.5 503.5 L
237.621 502.621 L
cp
S
GR
GS
0.929 0.694 0.125 RC
1 LJ
N
244.5 504.5 M
243.621 502.379 L
241.5 501.5 L
239.379 502.379 L
238.5 504.5 L
239.379 506.621 L
241.5 507.5 L
243.621 506.621 L
cp
S
GR
GS
0.929 0.694 0.125 RC
1 LJ
N
250.5 509.5 M
249.621 507.379 L
247.5 506.5 L
245.379 507.379 L
244.5 509.5 L
245.379 511.621 L
247.5 512.5 L
249.621 511.621 L
cp
S
GR
GS
0.929 0.694 0.125 RC
1 LJ
N
256.5 512.5 M
255.621 510.379 L
253.5 509.5 L
251.379 510.379 L
250.5 512.5 L
251.379 514.621 L
253.5 515.5 L
255.621 514.621 L
cp
S
GR
GS
0.929 0.694 0.125 RC
1 LJ
N
262.5 516.5 M
261.621 514.379 L
259.5 513.5 L
257.379 514.379 L
256.5 516.5 L
257.379 518.621 L
259.5 519.5 L
261.621 518.621 L
cp
S
GR
GS
0.929 0.694 0.125 RC
1 LJ
N
269.5 520.5 M
268.621 518.379 L
266.5 517.5 L
264.379 518.379 L
263.5 520.5 L
264.379 522.621 L
266.5 523.5 L
268.621 522.621 L
cp
S
GR
GS
0.929 0.694 0.125 RC
1 LJ
N
275.5 523.5 M
274.621 521.379 L
272.5 520.5 L
270.379 521.379 L
269.5 523.5 L
270.379 525.621 L
272.5 526.5 L
274.621 525.621 L
cp
S
GR
GS
0.929 0.694 0.125 RC
1 LJ
N
281.5 526.5 M
280.621 524.379 L
278.5 523.5 L
276.379 524.379 L
275.5 526.5 L
276.379 528.621 L
278.5 529.5 L
280.621 528.621 L
cp
S
GR
GS
0.929 0.694 0.125 RC
1 LJ
N
287.5 530.5 M
286.621 528.379 L
284.5 527.5 L
282.379 528.379 L
281.5 530.5 L
282.379 532.621 L
284.5 533.5 L
286.621 532.621 L
cp
S
GR
GS
0.929 0.694 0.125 RC
1 LJ
N
293.5 532.5 M
292.621 530.379 L
290.5 529.5 L
288.379 530.379 L
287.5 532.5 L
288.379 534.621 L
290.5 535.5 L
292.621 534.621 L
cp
S
GR
GS
0.929 0.694 0.125 RC
1 LJ
N
299.5 534.5 M
298.621 532.379 L
296.5 531.5 L
294.379 532.379 L
293.5 534.5 L
294.379 536.621 L
296.5 537.5 L
298.621 536.621 L
cp
S
GR
GS
0.929 0.694 0.125 RC
1 LJ
N
305.5 536.5 M
304.621 534.379 L
302.5 533.5 L
300.379 534.379 L
299.5 536.5 L
300.379 538.621 L
302.5 539.5 L
304.621 538.621 L
cp
S
GR
GS
0.929 0.694 0.125 RC
1 LJ
N
311.5 537.5 M
310.621 535.379 L
308.5 534.5 L
306.379 535.379 L
305.5 537.5 L
306.379 539.621 L
308.5 540.5 L
310.621 539.621 L
cp
S
GR
GS
0.929 0.694 0.125 RC
1 LJ
N
317.5 537.5 M
316.621 535.379 L
314.5 534.5 L
312.379 535.379 L
311.5 537.5 L
312.379 539.621 L
314.5 540.5 L
316.621 539.621 L
cp
S
GR
GS
0.929 0.694 0.125 RC
1 LJ
N
323.5 541.5 M
322.621 539.379 L
320.5 538.5 L
318.379 539.379 L
317.5 541.5 L
318.379 543.621 L
320.5 544.5 L
322.621 543.621 L
cp
S
GR
GS
0.929 0.694 0.125 RC
1 LJ
N
329.5 545.5 M
328.621 543.379 L
326.5 542.5 L
324.379 543.379 L
323.5 545.5 L
324.379 547.621 L
326.5 548.5 L
328.621 547.621 L
cp
S
GR
GS
0.929 0.694 0.125 RC
1 LJ
N
335.5 547.5 M
334.621 545.379 L
332.5 544.5 L
330.379 545.379 L
329.5 547.5 L
330.379 549.621 L
332.5 550.5 L
334.621 549.621 L
cp
S
GR
GS
0.929 0.694 0.125 RC
1 LJ
N
341.5 546.5 M
340.621 544.379 L
338.5 543.5 L
336.379 544.379 L
335.5 546.5 L
336.379 548.621 L
338.5 549.5 L
340.621 548.621 L
cp
S
GR
GS
0.929 0.694 0.125 RC
1 LJ
N
348.5 554.5 M
347.621 552.379 L
345.5 551.5 L
343.379 552.379 L
342.5 554.5 L
343.379 556.621 L
345.5 557.5 L
347.621 556.621 L
cp
S
GR
GS
0.929 0.694 0.125 RC
1 LJ
N
354.5 555.5 M
353.621 553.379 L
351.5 552.5 L
349.379 553.379 L
348.5 555.5 L
349.379 557.621 L
351.5 558.5 L
353.621 557.621 L
cp
S
GR
GS
0.929 0.694 0.125 RC
1 LJ
N
360.5 558.5 M
359.621 556.379 L
357.5 555.5 L
355.379 556.379 L
354.5 558.5 L
355.379 560.621 L
357.5 561.5 L
359.621 560.621 L
cp
S
GR
GS
0.929 0.694 0.125 RC
1 LJ
N
366.5 560.5 M
365.621 558.379 L
363.5 557.5 L
361.379 558.379 L
360.5 560.5 L
361.379 562.621 L
363.5 563.5 L
365.621 562.621 L
cp
S
GR
GS
0.929 0.694 0.125 RC
1 LJ
N
372.5 560.5 M
371.621 558.379 L
369.5 557.5 L
367.379 558.379 L
366.5 560.5 L
367.379 562.621 L
369.5 563.5 L
371.621 562.621 L
cp
S
GR
GS
0.929 0.694 0.125 RC
1 LJ
N
378.5 562.5 M
377.621 560.379 L
375.5 559.5 L
373.379 560.379 L
372.5 562.5 L
373.379 564.621 L
375.5 565.5 L
377.621 564.621 L
cp
S
GR
GS
0.929 0.694 0.125 RC
1 LJ
N
384.5 562.5 M
383.621 560.379 L
381.5 559.5 L
379.379 560.379 L
378.5 562.5 L
379.379 564.621 L
381.5 565.5 L
383.621 564.621 L
cp
S
GR
GS
0.929 0.694 0.125 RC
1 LJ
N
390.5 563.5 M
389.621 561.379 L
387.5 560.5 L
385.379 561.379 L
384.5 563.5 L
385.379 565.621 L
387.5 566.5 L
389.621 565.621 L
cp
S
GR
GS
0.929 0.694 0.125 RC
1 LJ
N
396.5 563.5 M
395.621 561.379 L
393.5 560.5 L
391.379 561.379 L
390.5 563.5 L
391.379 565.621 L
393.5 566.5 L
395.621 565.621 L
cp
S
GR
GS
0.929 0.694 0.125 RC
1 LJ
N
402.5 564.5 M
401.621 562.379 L
399.5 561.5 L
397.379 562.379 L
396.5 564.5 L
397.379 566.621 L
399.5 567.5 L
401.621 566.621 L
cp
S
GR
GS
0.929 0.694 0.125 RC
1 LJ
N
408.5 564.5 M
407.621 562.379 L
405.5 561.5 L
403.379 562.379 L
402.5 564.5 L
403.379 566.621 L
405.5 567.5 L
407.621 566.621 L
cp
S
GR
GS
0.929 0.694 0.125 RC
1 LJ
N
414.5 565.5 M
413.621 563.379 L
411.5 562.5 L
409.379 563.379 L
408.5 565.5 L
409.379 567.621 L
411.5 568.5 L
413.621 567.621 L
cp
S
GR
GS
0.929 0.694 0.125 RC
1 LJ
N
420.5 565.5 M
419.621 563.379 L
417.5 562.5 L
415.379 563.379 L
414.5 565.5 L
415.379 567.621 L
417.5 568.5 L
419.621 567.621 L
cp
S
GR
GS
0.929 0.694 0.125 RC
1 LJ
N
426.5 566.5 M
425.621 564.379 L
423.5 563.5 L
421.379 564.379 L
420.5 566.5 L
421.379 568.621 L
423.5 569.5 L
425.621 568.621 L
cp
S
GR
GS
0.929 0.694 0.125 RC
1 LJ
N
433.5 566.5 M
432.621 564.379 L
430.5 563.5 L
428.379 564.379 L
427.5 566.5 L
428.379 568.621 L
430.5 569.5 L
432.621 568.621 L
cp
S
GR
GS
0.929 0.694 0.125 RC
1 LJ
N
439.5 566.5 M
438.621 564.379 L
436.5 563.5 L
434.379 564.379 L
433.5 566.5 L
434.379 568.621 L
436.5 569.5 L
438.621 568.621 L
cp
S
GR
GS
0.929 0.694 0.125 RC
1 LJ
N
445.5 567.5 M
444.621 565.379 L
442.5 564.5 L
440.379 565.379 L
439.5 567.5 L
440.379 569.621 L
442.5 570.5 L
444.621 569.621 L
cp
S
GR
GS
0.929 0.694 0.125 RC
1 LJ
N
451.5 567.5 M
450.621 565.379 L
448.5 564.5 L
446.379 565.379 L
445.5 567.5 L
446.379 569.621 L
448.5 570.5 L
450.621 569.621 L
cp
S
GR
GS
0.929 0.694 0.125 RC
1 LJ
N
457.5 567.5 M
456.621 565.379 L
454.5 564.5 L
452.379 565.379 L
451.5 567.5 L
452.379 569.621 L
454.5 570.5 L
456.621 569.621 L
cp
S
GR
GS
0.929 0.694 0.125 RC
1 LJ
N
463.5 567.5 M
462.621 565.379 L
460.5 564.5 L
458.379 565.379 L
457.5 567.5 L
458.379 569.621 L
460.5 570.5 L
462.621 569.621 L
cp
S
GR
GS
0.929 0.694 0.125 RC
1 LJ
N
469.5 568.5 M
468.621 566.379 L
466.5 565.5 L
464.379 566.379 L
463.5 568.5 L
464.379 570.621 L
466.5 571.5 L
468.621 570.621 L
cp
S
GR
GS
0.929 0.694 0.125 RC
1 LJ
N
475.5 568.5 M
474.621 566.379 L
472.5 565.5 L
470.379 566.379 L
469.5 568.5 L
470.379 570.621 L
472.5 571.5 L
474.621 570.621 L
cp
S
GR
GS
0.929 0.694 0.125 RC
1 LJ
N
481.5 569.5 M
480.621 567.379 L
478.5 566.5 L
476.379 567.379 L
475.5 569.5 L
476.379 571.621 L
478.5 572.5 L
480.621 571.621 L
cp
S
GR
GS
0.929 0.694 0.125 RC
1 LJ
N
487.5 569.5 M
486.621 567.379 L
484.5 566.5 L
482.379 567.379 L
481.5 569.5 L
482.379 571.621 L
484.5 572.5 L
486.621 571.621 L
cp
S
GR
GS
0.929 0.694 0.125 RC
1 LJ
N
493.5 569.5 M
492.621 567.379 L
490.5 566.5 L
488.379 567.379 L
487.5 569.5 L
488.379 571.621 L
490.5 572.5 L
492.621 571.621 L
cp
S
GR
GS
0.929 0.694 0.125 RC
1 LJ
N
499.5 569.5 M
498.621 567.379 L
496.5 566.5 L
494.379 567.379 L
493.5 569.5 L
494.379 571.621 L
496.5 572.5 L
498.621 571.621 L
cp
S
GR
GS
0.929 0.694 0.125 RC
1 LJ
N
505.5 570.5 M
504.621 568.379 L
502.5 567.5 L
500.379 568.379 L
499.5 570.5 L
500.379 572.621 L
502.5 573.5 L
504.621 572.621 L
cp
S
GR
GS
0.929 0.694 0.125 RC
1 LJ
N
512.5 570.5 M
511.621 568.379 L
509.5 567.5 L
507.379 568.379 L
506.5 570.5 L
507.379 572.621 L
509.5 573.5 L
511.621 572.621 L
cp
S
GR
GS
0.929 0.694 0.125 RC
1 LJ
N
518.5 570.5 M
517.621 568.379 L
515.5 567.5 L
513.379 568.379 L
512.5 570.5 L
513.379 572.621 L
515.5 573.5 L
517.621 572.621 L
cp
S
GR
GS
0.929 0.694 0.125 RC
1 LJ
N
524.5 571.5 M
523.621 569.379 L
521.5 568.5 L
519.379 569.379 L
518.5 571.5 L
519.379 573.621 L
521.5 574.5 L
523.621 573.621 L
cp
S
GR
GS
0.929 0.694 0.125 RC
1 LJ
N
530.5 571.5 M
529.621 569.379 L
527.5 568.5 L
525.379 569.379 L
524.5 571.5 L
525.379 573.621 L
527.5 574.5 L
529.621 573.621 L
cp
S
GR
GS
0.929 0.694 0.125 RC
1 LJ
N
536.5 571.5 M
535.621 569.379 L
533.5 568.5 L
531.379 569.379 L
530.5 571.5 L
531.379 573.621 L
533.5 574.5 L
535.621 573.621 L
cp
S
GR
GS
0.929 0.694 0.125 RC
1 LJ
N
542.5 571.5 M
541.621 569.379 L
539.5 568.5 L
537.379 569.379 L
536.5 571.5 L
537.379 573.621 L
539.5 574.5 L
541.621 573.621 L
cp
S
GR
GS
0.929 0.694 0.125 RC
1 LJ
N
548.5 571.5 M
547.621 569.379 L
545.5 568.5 L
543.379 569.379 L
542.5 571.5 L
543.379 573.621 L
545.5 574.5 L
547.621 573.621 L
cp
S
GR
GS
0.929 0.694 0.125 RC
1 LJ
N
554.5 572.5 M
553.621 570.379 L
551.5 569.5 L
549.379 570.379 L
548.5 572.5 L
549.379 574.621 L
551.5 575.5 L
553.621 574.621 L
cp
S
GR
GS
0.929 0.694 0.125 RC
1 LJ
N
560.5 572.5 M
559.621 570.379 L
557.5 569.5 L
555.379 570.379 L
554.5 572.5 L
555.379 574.621 L
557.5 575.5 L
559.621 574.621 L
cp
S
GR
GS
0.929 0.694 0.125 RC
1 LJ
N
566.5 572.5 M
565.621 570.379 L
563.5 569.5 L
561.379 570.379 L
560.5 572.5 L
561.379 574.621 L
563.5 575.5 L
565.621 574.621 L
cp
S
GR
GS
0.929 0.694 0.125 RC
1 LJ
N
572.5 573.5 M
571.621 571.379 L
569.5 570.5 L
567.379 571.379 L
566.5 573.5 L
567.379 575.621 L
569.5 576.5 L
571.621 575.621 L
cp
S
GR
GS
0.929 0.694 0.125 RC
1 LJ
N
578.5 573.5 M
577.621 571.379 L
575.5 570.5 L
573.379 571.379 L
572.5 573.5 L
573.379 575.621 L
575.5 576.5 L
577.621 575.621 L
cp
S
GR
GS
0.929 0.694 0.125 RC
1 LJ
N
584.5 573.5 M
583.621 571.379 L
581.5 570.5 L
579.379 571.379 L
578.5 573.5 L
579.379 575.621 L
581.5 576.5 L
583.621 575.621 L
cp
S
GR
GS
0.929 0.694 0.125 RC
1 LJ
N
591.5 574.5 M
590.621 572.379 L
588.5 571.5 L
586.379 572.379 L
585.5 574.5 L
586.379 576.621 L
588.5 577.5 L
590.621 576.621 L
cp
S
GR
GS
0.929 0.694 0.125 RC
1 LJ
N
597.5 574.5 M
596.621 572.379 L
594.5 571.5 L
592.379 572.379 L
591.5 574.5 L
592.379 576.621 L
594.5 577.5 L
596.621 576.621 L
cp
S
GR
GS
0.929 0.694 0.125 RC
1 LJ
N
603.5 574.5 M
602.621 572.379 L
600.5 571.5 L
598.379 572.379 L
597.5 574.5 L
598.379 576.621 L
600.5 577.5 L
602.621 576.621 L
cp
S
GR
GS
0.929 0.694 0.125 RC
1 LJ
N
609.5 574.5 M
608.621 572.379 L
606.5 571.5 L
604.379 572.379 L
603.5 574.5 L
604.379 576.621 L
606.5 577.5 L
608.621 576.621 L
cp
S
GR
GS
0.929 0.694 0.125 RC
1 LJ
N
615.5 574.5 M
614.621 572.379 L
612.5 571.5 L
610.379 572.379 L
609.5 574.5 L
610.379 576.621 L
612.5 577.5 L
614.621 576.621 L
cp
S
GR
GS
0.929 0.694 0.125 RC
1 LJ
N
621.5 574.5 M
620.621 572.379 L
618.5 571.5 L
616.379 572.379 L
615.5 574.5 L
616.379 576.621 L
618.5 577.5 L
620.621 576.621 L
cp
S
GR
GS
0.929 0.694 0.125 RC
1 LJ
N
627.5 575.5 M
626.621 573.379 L
624.5 572.5 L
622.379 573.379 L
621.5 575.5 L
622.379 577.621 L
624.5 578.5 L
626.621 577.621 L
cp
S
GR
GS
0.929 0.694 0.125 RC
1 LJ
N
633.5 575.5 M
632.621 573.379 L
630.5 572.5 L
628.379 573.379 L
627.5 575.5 L
628.379 577.621 L
630.5 578.5 L
632.621 577.621 L
cp
S
GR
GS
0.929 0.694 0.125 RC
1 LJ
N
639.5 575.5 M
638.621 573.379 L
636.5 572.5 L
634.379 573.379 L
633.5 575.5 L
634.379 577.621 L
636.5 578.5 L
638.621 577.621 L
cp
S
GR
GS
0.929 0.694 0.125 RC
1 LJ
N
645.5 575.5 M
644.621 573.379 L
642.5 572.5 L
640.379 573.379 L
639.5 575.5 L
640.379 577.621 L
642.5 578.5 L
644.621 577.621 L
cp
S
GR
GS
0.929 0.694 0.125 RC
1 LJ
N
651.5 575.5 M
650.621 573.379 L
648.5 572.5 L
646.379 573.379 L
645.5 575.5 L
646.379 577.621 L
648.5 578.5 L
650.621 577.621 L
cp
S
GR
GS
0.929 0.694 0.125 RC
1 LJ
N
657.5 576.5 M
656.621 574.379 L
654.5 573.5 L
652.379 574.379 L
651.5 576.5 L
652.379 578.621 L
654.5 579.5 L
656.621 578.621 L
cp
S
GR
GS
[1 0 0 1 548 71.25] CT
/Helvetica 18 F
GS
[1 0 0 1 0 0] CT
0 4.5 moveto 
1 -1 scale
(Random shuffling) t 
GR
GR
GS
0 0.447 0.741 RC
1 LJ
N
515 71.25 M
545 71.25 L
S
GR
GS
0 0.447 0.741 RC
1 LJ
N
532.5 71.5 M
531.621 69.379 L
529.5 68.5 L
527.379 69.379 L
526.5 71.5 L
527.379 73.621 L
529.5 74.5 L
531.621 73.621 L
cp
S
GR
GS
[1 0 0 1 548 90.25] CT
/Helvetica 18 F
GS
[1 0 0 1 0 0] CT
0 4.5 moveto 
1 -1 scale
(Weighted shuffling) t 
GR
GR
GS
0.851 0.325 0.098 RC
1 LJ
N
515 90.25 M
545 90.25 L
S
GR
GS
0.851 0.325 0.098 RC
1 LJ
N
532.5 90.5 M
531.621 88.379 L
529.5 87.5 L
527.379 88.379 L
526.5 90.5 L
527.379 92.621 L
529.5 93.5 L
531.621 92.621 L
cp
S
GR
GS
[1 0 0 1 548 109.25] CT
/Helvetica 18 F
GS
[1 0 0 1 0 0] CT
0 4.5 moveto 
1 -1 scale
(Smart shuffling) t 
GR
GR
GS
0.929 0.694 0.125 RC
1 LJ
N
515 109.25 M
545 109.25 L
S
GR
GS
0.929 0.694 0.125 RC
1 LJ
N
532.5 109.5 M
531.621 107.379 L
529.5 106.5 L
527.379 107.379 L
526.5 109.5 L
527.379 111.621 L
529.5 112.5 L
531.621 111.621 L
cp
S
GR
%%Trailer
%%Pages: 1
%%EOF
